%!PS-Adobe-2.0 EPSF-2.0
%%BoundingBox:  0 0 567 274
%%Title: /home/petr/Analysis_iwona/SFAnalysis/eps/CaloTree.eps: Results
%%Creator: ROOT Version 6.16/00
%%CreationDate: Thu May  9 11:26:30 2019
%%DocumentNeededResources: ProcSet (FontSetInit)
%%EndComments
%%BeginProlog
80 dict begin
/s {stroke} def /l {lineto} def /m {moveto} def /t {translate} def
/r {rotate} def /rl {roll}  def /R {repeat} def
/d {rlineto} def /rm {rmoveto} def /gr {grestore} def /f {eofill} def
/c {setrgbcolor} def /black {0 setgray} def /sd {setdash} def
/cl {closepath} def /sf {scalefont setfont} def /lw {setlinewidth} def
/box {m dup 0 exch d exch 0 d 0 exch neg d cl} def
/NC{systemdict begin initclip end}def/C{NC box clip newpath}def
/bl {box s} def /bf {gsave box gsave f grestore 1 lw [] 0 sd s grestore} def /Y { 0 exch d} def /X { 0 d} def 
/K {{pop pop 0 moveto} exch kshow} bind def
/ita {/ang 15 def gsave [1 0 ang dup sin exch cos div 1 0 0] concat} def 
/mp {newpath /y exch def /x exch def} def
/side {[w .77 mul w .23 mul] .385 w mul sd w 0 l currentpoint t -144 r} def
/mr {mp x y w2 0 360 arc} def /m24 {mr s} def /m20 {mr f} def
/mb {mp x y w2 add m w2 neg 0 d 0 w neg d w 0 d 0 w d cl} def
/mt {mp x y w2 add m w2 neg w neg d w 0 d cl} def
/w4 {w 4 div} def
/w6 {w 6 div} def
/w8 {w 8 div} def
/m21 {mb f} def /m25 {mb s} def /m22 {mt f} def /m26{mt s} def
/m23 {mp x y w2 sub m w2 w d w neg 0 d cl f} def
/m27 {mp x y w2 add m w3 neg w2 neg d w3 w2 neg d w3 w2 d cl s} def
/m28 {mp x w2 sub y w2 sub w3 add m w3 0 d  0 w3 neg d w3 0 d 0 w3 d w3 0 d  0 w3 d w3 neg 0 d 0 w3 d w3 neg 0 d 0 w3 neg d w3 neg 0 d cl s } def
/m29 {mp gsave x w2 sub y w2 add w3 sub m currentpoint t 4 {side} repeat cl fill gr} def
/m30 {mp gsave x w2 sub y w2 add w3 sub m currentpoint t 4 {side} repeat cl s gr} def
/m31 {mp x y w2 sub m 0 w d x w2 sub y m w 0 d x w2 sub y w2 add m w w neg d x w2 sub y w2 sub m w w d s} def
/m32 {mp x y w2 sub m w2 w d w neg 0 d cl s} def
/m33 {mp x y w2 add m w3 neg w2 neg d w3 w2 neg d w3 w2 d cl f} def
/m34 {mp x w2 sub y w2 sub w3 add m w3 0 d  0 w3 neg d w3 0 d 0 w3 d w3 0 d  0 w3 d w3 neg 0 d 0 w3 d w3 neg 0 d 0 w3 neg d w3 neg 0 d cl f } def
/m35 {mp x y w2 add m w2 neg w2 neg d w2 w2 neg d w2 w2 d w2 neg w2 d x y w2 sub m 0 w d x w2 sub y m w 0 d s} def
/m36 {mb x w2 sub y w2 add m w w neg d x w2 sub y w2 sub m w w d s} def
/m37 {mp x y m w4 neg w2 d w4 neg w2 neg d w2 0 d  w4 neg w2 neg d w2 0 d w4 neg w2 d w2 0 d w4 neg w2 d w4 neg w2 neg d cl s} def
/m38 {mp x w4 sub y w2 add m w4 neg w4 neg d 0 w2 neg d w4 w4 neg d w2 0 d w4 w4 d 0 w2 d w4 neg w4 d w2 neg 0 d x y w2 sub m 0 w d x w2 sub y m w 0 d cl s} def
/m39 {mp x y m w4 neg w2 d w4 neg w2 neg d w2 0 d  w4 neg w2 neg d w2 0 d w4 neg w2 d w2 0 d w4 neg w2 d w4 neg w2 neg d cl f} def
/m40 {mp x y m w4 w2 d w4 w4 neg d w2 neg w4 neg d w2 w4 neg d w4 neg w4 neg d w4 neg w2 d w4 neg w2 neg d w4 neg w4 d w2 w4 d w2 neg w4 d w4 w4 d w4 w2 neg d cl s} def
/m41 {mp x y m w4 w2 d w4 w4 neg d w2 neg w4 neg d w2 w4 neg d w4 neg w4 neg d w4 neg w2 d w4 neg w2 neg d w4 neg w4 d w2 w4 d w2 neg w4 d w4 w4 d w4 w2 neg d cl f} def
/m42 {mp x y w2 add m w8 neg w2 -3 4 div mul d w2 -3 4 div mul w8 neg d w2 3 4 div mul w8 neg d w8 w2 -3 4 div mul d w8 w2 3 4 div mul d w2 3 4 div mul w8 d w2 -3 4 div mul w8 d w8 neg w2 3 4 div mul d cl s} def
/m43 {mp x y w2 add m w8 neg w2 -3 4 div mul d w2 -3 4 div mul w8 neg d w2 3 4 div mul w8 neg d w8 w2 -3 4 div mul d w8 w2 3 4 div mul d w2 3 4 div mul w8 d w2 -3 4 div mul w8 d w8 neg w2 3 4 div mul d cl f} def
/m44 {mp x y m w6 neg w2 d w2 2 3 div mul 0 d w6 neg w2 neg d w2 w6 d 0 w2 -2 3 div mul d w2 neg w6 d w6 w2 neg d w2 -2 3 div mul 0 d w6 w2 d w2 neg w6 neg d 0 w2 2 3 div mul d w2 w6 neg d cl s} def
/m45 {mp x y m w6 neg w2 d w2 2 3 div mul 0 d w6 neg w2 neg d w2 w6 d 0 w2 -2 3 div mul d w2 neg w6 d w6 w2 neg d w2 -2 3 div mul 0 d w6 w2 d w2 neg w6 neg d 0 w2 2 3 div mul d w2 w6 neg d cl f} def
/m46 {mp x y w4 add m w4 neg w4 d w4 neg w4 neg d  w4 w4 neg d w4 neg w4 neg d w4 w4 neg d w4 w4 d w4 w4 neg d w4 w4 d w4 neg w4 d w4 w4 d w4 neg w4 d w4 neg w4 neg d cl s} def
/m47 {mp x y w4 add m w4 neg w4 d w4 neg w4 neg d w4 w4 neg d w4 neg w4 neg d  w4 w4 neg d w4 w4 d w4 w4 neg d w4 w4 d w4 neg w4 d w4 w4 d w4 neg w4 d w4 neg w4 neg d cl f} def
/m48 {mp x y w4 add m w4 neg w4 d w4 neg w4 neg d w4 w4 neg d  w4 neg w4 neg d w4 w4 neg d w4 w4 d w4 w4 neg d w4 w4 d w4 neg w4 d w4 w4 d w4 neg w4 d w4 neg w4 neg d  w4 w4 neg d w4 neg w4 neg d w4 neg w4 d w4 w4 d cl f} def
/m49 {mp x w2 sub w3 add y w2 sub w3 add m  0 w3 neg d w3 0 d 0 w3 d w3 0 d 0 w3 d w3 neg 0 d 0 w3 d w3 neg 0 d 0 w3 neg d w3 neg 0 d 0 w3 neg d w3 0 d 0 w3 d w3 0 d 0 w3 neg d w3 neg 0 d cl f } def
/m2 {mp x y w2 sub m 0 w d x w2 sub y m w 0 d s} def
/m5 {mp x w2 sub y w2 sub m w w d x w2 sub y w2 add m w w neg d s} def
%%IncludeResource: ProcSet (FontSetInit)
%%IncludeResource: font Times-Roman
%%IncludeResource: font Times-Italic
%%IncludeResource: font Times-Bold
%%IncludeResource: font Times-BoldItalic
%%IncludeResource: font Helvetica
%%IncludeResource: font Helvetica-Oblique
%%IncludeResource: font Helvetica-Bold
%%IncludeResource: font Helvetica-BoldOblique
%%IncludeResource: font Courier
%%IncludeResource: font Courier-Oblique
%%IncludeResource: font Courier-Bold
%%IncludeResource: font Courier-BoldOblique
%%IncludeResource: font Symbol
%%IncludeResource: font ZapfDingbats
/reEncode {exch findfont dup length dict begin {1 index /FID eq  {pop pop} {def} ifelse } forall /Encoding exch def currentdict end dup /FontName get exch definefont pop } def [/Times-Bold /Times-Italic /Times-BoldItalic /Helvetica /Helvetica-Oblique
 /Helvetica-Bold /Helvetica-BoldOblique /Courier /Courier-Oblique /Courier-Bold /Courier-BoldOblique /Times-Roman /AvantGarde-Book /AvantGarde-BookOblique /AvantGarde-Demi /AvantGarde-DemiOblique /Bookman-Demi /Bookman-DemiItalic /Bookman-Light
 /Bookman-LightItalic /Helvetica-Narrow /Helvetica-Narrow-Bold /Helvetica-Narrow-BoldOblique /Helvetica-Narrow-Oblique /NewCenturySchlbk-Roman /NewCenturySchlbk-Bold /NewCenturySchlbk-BoldItalic /NewCenturySchlbk-Italic /Palatino-Bold
 /Palatino-BoldItalic /Palatino-Italic /Palatino-Roman ] {ISOLatin1Encoding reEncode } forall
%%EndProlog
%%BeginSetup
%%EndSetup
newpath  gsave  .25 .25 scale  gsave  0 0 t black[  ] 0 sd 3 lw 1 1 1 c 2268 1094 0 0 bf black 1 1 1 c 1088 1072 23 11 bf black 1 1 1 c 828 858 153 118 bf black 828 858 153 118 bl 1 1 1 c 828 858 153 118 bf black 828 858 153 118 bl 1 0 0 c 1 1 1 c 1
 0 0 c 174 360 m 8 Y s 174 380 m 5 Y s 167 374 m 1 X s 180 374 m 1 X s 171 360 m 6 X s 171 385 m 6 X s 167 371 m 6 Y s 181 371 m 6 Y s /w 12 def /w2 {w 2 div} def /w3 {w 3 div} def 174 374 m20 188 370 m 8 Y s 188 389 m 5 Y s 181 383 m 1 X s 193 383 m
 2 X s 185 370 m 6 X s 185 394 m 6 X s 181 380 m 6 Y s 195 380 m 6 Y s 188 383 m20 202 379 m 7 Y s 202 397 m 4 Y s 195 391 m 1 X s 207 391 m 1 X s 199 379 m 5 X s 199 401 m 5 X s 195 388 m 6 Y s 208 388 m 6 Y s 202 391 m20 215 377 m 7 Y s 215 395 m 5
 Y s 208 389 m 2 X s 221 389 m 1 X s 213 377 m 5 X s 213 400 m 5 X s 208 387 m 5 Y s 222 387 m 5 Y s 215 389 m20 229 387 m 6 Y s 229 404 m 4 Y s 222 399 m 1 X s 235 399 m 1 X s 226 387 m 6 X s 226 408 m 6 X s 222 396 m 5 Y s 236 396 m 5 Y s 229 399
 m20 243 393 m 5 Y s 243 409 m 4 Y s 236 403 m 1 X s 249 403 m 1 X s 240 393 m 6 X s 240 413 m 6 X s 236 401 m 5 Y s 250 401 m 5 Y s 243 403 m20 257 409 m 4 Y s 257 424 m 3 Y s 250 419 m 1 X s 262 419 m 2 X s 254 409 m 6 X s 254 427 m 6 X s 250 416 m
 6 Y s 264 416 m 6 Y s 257 419 m20 270 391 m 5 Y s 270 408 m 3 Y s 264 402 m 1 X s 276 402 m 1 X s 268 391 m 5 X s 268 411 m 5 X s 264 399 m 6 Y s 277 399 m 6 Y s 270 402 m20 284 396 m 5 Y s 284 412 m 4 Y s 277 406 m 2 X s 290 406 m 1 X s 281 396 m 6
 X s 281 416 m 6 X s 277 404 m 5 Y s 291 404 m 5 Y s 284 406 m20 298 417 m 3 Y s 298 431 m 3 Y s 291 426 m 1 X s 304 426 m 1 X s 295 417 m 6 X s 295 434 m 6 X s 291 423 m 6 Y s 305 423 m 6 Y s 298 426 m20 312 420 m 3 Y s 312 435 m 2 Y s 305 429 m 1 X
 s 318 429 m 1 X s 309 420 m 6 X s 309 437 m 6 X s 305 426 m 6 Y s 319 426 m 6 Y s 312 429 m20 326 426 m 2 Y s 326 440 m 1 Y s 319 434 m 1 X s 331 434 m 2 X s 323 426 m 5 X s 323 441 m 5 X s 319 431 m 6 Y s 333 431 m 6 Y s 326 434 m20 339 422 m 3 Y s
 339 437 m 2 Y s 333 431 m 1 X s 345 431 m 1 X s 337 422 m 5 X s 337 439 m 5 X s 333 428 m 6 Y s 346 428 m 6 Y s 339 431 m20 353 437 m 2 Y s 353 450 m 1 Y s 346 445 m 2 X s 359 445 m 1 X s 350 437 m 6 X s 350 451 m 6 X s 346 442 m 5 Y s 360 442 m 5 Y
 s 353 445 m20 367 445 m 2 Y s 367 458 m 1 Y s 360 452 m 1 X s 373 452 m 1 X s 364 445 m 6 X s 364 459 m 6 X s 360 449 m 6 Y s 374 449 m 6 Y s 367 452 m20 381 451 m 1 Y s 381 464 m s 374 458 m 1 X s 386 458 m 2 X s 378 451 m 6 X s 378 464 m 6 X s 374
 455 m 6 Y s 388 455 m 6 Y s 381 458 m20 395 464 m s 388 470 m 1 X s 400 470 m 1 X s 392 464 m 5 X s 388 467 m 6 Y s 401 467 m 6 Y s 395 470 m20 401 489 m 2 X s 414 489 m 1 X s 401 487 m 5 Y s 415 487 m 5 Y s 408 489 m20 415 491 m 1 X s 428 491 m 1 X
 s 415 488 m 6 Y s 429 488 m 6 Y s 422 491 m20 429 498 m 1 X s 442 498 m 1 X s 429 495 m 6 Y s 443 495 m 6 Y s 436 498 m20 443 520 m 1 X s 455 520 m 2 X s 443 517 m 6 Y s 457 517 m 6 Y s 450 520 m20 457 532 m 1 X s 469 532 m 1 X s 457 529 m 6 Y s 470
 529 m 6 Y s 464 532 m20 470 543 m 2 X s 483 543 m 1 X s 470 540 m 6 Y s 484 540 m 6 Y s 477 543 m20 484 557 m 1 X s 497 557 m 1 X s 484 554 m 6 Y s 498 554 m 6 Y s 491 557 m20 498 583 m 1 X s 511 583 m 1 X s 498 581 m 5 Y s 512 581 m 5 Y s 505 583
 m20 512 612 m 1 X s 524 612 m 2 X s 512 609 m 6 Y s 526 609 m 6 Y s 519 612 m20 526 633 m 1 X s 538 633 m 1 X s 526 630 m 5 Y s 539 630 m 5 Y s 532 633 m20 539 656 m 2 X s 552 656 m 1 X s 539 653 m 6 Y s 553 653 m 6 Y s 546 656 m20 553 676 m 1 X s
 566 676 m 1 X s 553 673 m 6 Y s 567 673 m 6 Y s 560 676 m20 567 686 m 1 X s 579 686 m 2 X s 567 683 m 6 Y s 581 683 m 6 Y s 574 686 m20 581 683 m 1 X s 593 683 m 2 X s 581 680 m 6 Y s 595 680 m 6 Y s 588 683 m20 595 670 m 1 X s 607 670 m 1 X s 595
 667 m 6 Y s 608 667 m 6 Y s 601 670 m20 608 651 m 2 X s 621 651 m 1 X s 608 648 m 5 Y s 622 648 m 5 Y s 615 651 m20 622 620 m 1 X s 635 620 m 1 X s 622 617 m 6 Y s 636 617 m 6 Y s 629 620 m20 636 590 m 1 X s 648 590 m 2 X s 636 587 m 6 Y s 650 587 m
 6 Y s 643 590 m20 650 559 m 1 X s 662 559 m 1 X s 650 556 m 6 Y s 663 556 m 6 Y s 657 559 m20 663 534 m 2 X s 676 534 m 1 X s 663 531 m 6 Y s 677 531 m 6 Y s 670 534 m20 677 523 m 1 X s 690 523 m 1 X s 677 520 m 6 Y s 691 520 m 6 Y s 684 523 m20 691
 500 m 1 X s 704 500 m 1 X s 691 498 m 5 Y s 705 498 m 5 Y s 698 500 m20 705 485 m 1 X s 717 485 m 2 X s 705 482 m 6 Y s 719 482 m 6 Y s 712 485 m20 725 456 m 1 Y s 725 469 m s 719 463 m 1 X s 731 463 m 1 X s 723 456 m 5 X s 723 469 m 5 X s 719 460 m
 6 Y s 732 460 m 6 Y s 725 463 m20 739 431 m 2 Y s 739 444 m 2 Y s 732 439 m 2 X s 745 439 m 1 X s 736 431 m 6 X s 736 446 m 6 X s 732 436 m 5 Y s 746 436 m 5 Y s 739 439 m20 753 444 m 1 Y s 753 457 m s 746 451 m 1 X s 759 451 m 1 X s 750 444 m 6 X s
 750 457 m 6 X s 746 448 m 6 Y s 760 448 m 6 Y s 753 451 m20 767 419 m 3 Y s 767 434 m 2 Y s 760 428 m 1 X s 773 428 m 1 X s 764 419 m 6 X s 764 436 m 6 X s 760 425 m 6 Y s 774 425 m 6 Y s 767 428 m20 781 417 m 3 Y s 781 431 m 3 Y s 774 426 m 1 X s
 786 426 m 2 X s 778 417 m 5 X s 778 434 m 5 X s 774 423 m 6 Y s 788 423 m 6 Y s 781 426 m20 794 421 m 3 Y s 794 436 m 2 Y s 788 430 m 1 X s 800 430 m 1 X s 792 421 m 5 X s 792 438 m 5 X s 788 427 m 6 Y s 801 427 m 6 Y s 794 430 m20 808 375 m 7 Y s
 808 393 m 5 Y s 801 387 m 2 X s 814 387 m 1 X s 805 375 m 6 X s 805 398 m 6 X s 801 385 m 5 Y s 815 385 m 5 Y s 808 387 m20 822 402 m 5 Y s 822 418 m 3 Y s 815 412 m 1 X s 828 412 m 1 X s 819 402 m 6 X s 819 421 m 6 X s 815 409 m 6 Y s 829 409 m 6 Y
 s 822 412 m20 836 383 m 6 Y s 836 401 m 4 Y s 829 395 m 1 X s 841 395 m 2 X s 833 383 m 6 X s 833 405 m 6 X s 829 392 m 6 Y s 843 392 m 6 Y s 836 395 m20 850 379 m 7 Y s 850 397 m 4 Y s 843 391 m 1 X s 855 391 m 1 X s 847 379 m 5 X s 847 401 m 5 X s
 843 388 m 6 Y s 856 388 m 6 Y s 850 391 m20 863 383 m 6 Y s 863 401 m 4 Y s 856 395 m 2 X s 869 395 m 1 X s 861 383 m 5 X s 861 405 m 5 X s 856 392 m 6 Y s 870 392 m 6 Y s 863 395 m20 877 370 m 8 Y s 877 389 m 5 Y s 870 383 m 1 X s 883 383 m 1 X s
 874 370 m 6 X s 874 394 m 6 X s 870 380 m 6 Y s 884 380 m 6 Y s 877 383 m20 891 373 m 7 Y s 891 391 m 5 Y s 884 385 m 1 X s 897 385 m 1 X s 888 373 m 6 X s 888 396 m 6 X s 884 382 m 6 Y s 898 382 m 6 Y s 891 385 m20 905 332 m 12 Y s 905 355 m 8 Y s
 898 350 m 1 X s 910 350 m 2 X s 902 332 m 6 X s 902 363 m 6 X s 898 347 m 5 Y s 912 347 m 5 Y s 905 350 m20 919 340 m 11 Y s 919 362 m 8 Y s 912 357 m 1 X s 924 357 m 1 X s 916 340 m 5 X s 916 370 m 5 X s 912 354 m 5 Y s 925 354 m 5 Y s 919 357 m20
 932 363 m 8 Y s 932 382 m 6 Y s 925 376 m 2 X s 938 376 m 1 X s 929 363 m 6 X s 929 388 m 6 X s 925 373 m 6 Y s 939 373 m 6 Y s 932 376 m20 946 344 m 10 Y s 946 365 m 8 Y s 939 360 m 1 X s 952 360 m 1 X s 943 344 m 6 X s 943 373 m 6 X s 939 357 m 6
 Y s 953 357 m 6 Y s 946 360 m20 960 323 m 13 Y s 960 347 m 9 Y s 953 342 m 1 X s 966 342 m 1 X s 957 323 m 6 X s 957 356 m 6 X s 953 339 m 6 Y s 967 339 m 6 Y s 960 342 m20 974 344 m 10 Y s 974 365 m 8 Y s 967 360 m 1 X s 979 360 m 2 X s 971 344 m 6
 X s 971 373 m 6 X s 967 357 m 6 Y s 981 357 m 6 Y s 974 360 m20 black 153 118 m 828 X s 153 143 m -25 Y s 181 130 m -12 Y s 208 130 m -12 Y s 236 130 m -12 Y s 264 130 m -12 Y s 291 143 m -25 Y s 319 130 m -12 Y s 346 130 m -12 Y s 374 130 m -12 Y s
 401 130 m -12 Y s 429 143 m -25 Y s 457 130 m -12 Y s 484 130 m -12 Y s 512 130 m -12 Y s 539 130 m -12 Y s 567 143 m -25 Y s 595 130 m -12 Y s 622 130 m -12 Y s 650 130 m -12 Y s 677 130 m -12 Y s 705 143 m -25 Y s 732 130 m -12 Y s 760 130 m -12 Y
 s 788 130 m -12 Y s 815 130 m -12 Y s 843 143 m -25 Y s 870 130 m -12 Y s 898 130 m -12 Y s 925 130 m -12 Y s 953 130 m -12 Y s 981 143 m -25 Y s
 gsave  1088 1072 23 11 C 133.395 83.7267 t 0 r /Helvetica findfont 35.5047 sf 0 0 m (60) show NC gr 
 gsave  1088 1072 23 11 C 271.047 83.7267 t 0 r /Helvetica findfont 35.5047 sf 0 0 m (70) show NC gr 
 gsave  1088 1072 23 11 C 408.7 83.7267 t 0 r /Helvetica findfont 35.5047 sf 0 0 m (80) show NC gr 
 gsave  1088 1072 23 11 C 546.352 83.7267 t 0 r /Helvetica findfont 35.5047 sf 0 0 m (90) show NC gr 
 gsave  1088 1072 23 11 C 674.071 83.7267 t 0 r /Helvetica findfont 35.5047 sf 0 0 m (100) show NC gr 
 gsave  1088 1072 23 11 C 811.723 83.7267 t 0 r /Helvetica findfont 35.5047 sf 0 0 m (110) show NC gr 
 gsave  1088 1072 23 11 C 949.376 83.7267 t 0 r /Helvetica findfont 35.5047 sf 0 0 m (120) show NC gr 
 gsave  1088 1072 23 11 C 852.877 32.6392 t 0 r /Helvetica findfont 45.446 sf 0 0 m ( [GeV]) show NC gr 
 gsave  1088 1072 23 11 C 835.848 24.1246 t 0 r /Symbol findfont 29.8239 sf 0 0 m (m) show NC gr 
 gsave  1088 1072 23 11 C 818.819 24.1246 t 0 r /Symbol findfont 29.8239 sf 0 0 m (m) show NC gr 
 gsave  1088 1072 23 11 C 783.341 32.6392 t 0 r /Helvetica findfont 45.446 sf 0 0 m (M) show NC gr  153 118 m 858 Y s 166 118 m -13 X s 166 144 m -13 X s 166 162 m -13 X s 166 176 m -13 X s 166 187 m -13 X s 166 197 m -13 X s 166 205 m -13 X s 166
 213 m -13 X s 179 219 m -26 X s
 gsave  1088 1072 23 11 C 131.976 207.188 t 0 r /Helvetica findfont 32.6643 sf 0 0 m (1) show NC gr  166 263 m -13 X s 166 289 m -13 X s 166 307 m -13 X s 166 321 m -13 X s 166 332 m -13 X s 166 342 m -13 X s 166 350 m -13 X s 166 358 m -13 X s 179
 364 m -26 X s
 gsave  1088 1072 23 11 C 109.27 351.936 t 0 r /Helvetica findfont 32.6643 sf 0 0 m (10) show NC gr  166 408 m -13 X s 166 433 m -13 X s 166 451 m -13 X s 166 466 m -13 X s 166 477 m -13 X s 166 487 m -13 X s 166 495 m -13 X s 166 502 m -13 X s 179
 509 m -26 X s
 gsave  1088 1072 23 11 C 131.976 508.037 t 0 r /Helvetica findfont 22.723 sf 0 0 m (2) show NC gr 
 gsave  1088 1072 23 11 C 96.4986 493.846 t 0 r /Helvetica findfont 32.6643 sf 0 0 m (10) show NC gr  166 553 m -13 X s 166 578 m -13 X s 166 596 m -13 X s 166 610 m -13 X s 166 622 m -13 X s 166 632 m -13 X s 166 640 m -13 X s 166 647 m -13 X s 179
 654 m -26 X s
 gsave  1088 1072 23 11 C 131.976 654.204 t 0 r /Helvetica findfont 22.723 sf 0 0 m (3) show NC gr 
 gsave  1088 1072 23 11 C 96.4986 638.594 t 0 r /Helvetica findfont 32.6643 sf 0 0 m (10) show NC gr  166 698 m -13 X s 166 723 m -13 X s 166 741 m -13 X s 166 755 m -13 X s 166 767 m -13 X s 166 776 m -13 X s 166 785 m -13 X s 166 792 m -13 X s 179
 799 m -26 X s
 gsave  1088 1072 23 11 C 131.976 797.532 t 0 r /Helvetica findfont 22.723 sf 0 0 m (4) show NC gr 
 gsave  1088 1072 23 11 C 96.4986 783.341 t 0 r /Helvetica findfont 32.6643 sf 0 0 m (10) show NC gr  166 842 m -13 X s 166 868 m -13 X s 166 886 m -13 X s 166 900 m -13 X s 166 912 m -13 X s 166 921 m -13 X s 166 930 m -13 X s 166 937 m -13 X s 179
 944 m -26 X s
 gsave  1088 1072 23 11 C 131.976 943.699 t 0 r /Helvetica findfont 22.723 sf 0 0 m (5) show NC gr 
 gsave  1088 1072 23 11 C 96.4986 928.089 t 0 r /Helvetica findfont 32.6643 sf 0 0 m (10) show NC gr 
 gsave  1088 1072 23 11 C 69.5357 557.705 t 90 r /Helvetica findfont 45.446 sf 0 0 m (Entries / NormFactor) show NC gr  1 0 0 c 1 1 1 c 1 0 0 c 284 118 m 139 Y s 284 269 m 38 Y s 277 263 m 2 X s 290 263 m 1 X s 281 118 m 6 X s 281 307 m 6 X s 277 260
 m 6 Y s 291 260 m 6 Y s 284 263 m24 black 1 1 1 c black 174 332 m 20 Y s 174 363 m 13 Y s 167 358 m 1 X s 180 358 m 1 X s 171 332 m 6 X s 171 376 m 6 X s 167 355 m 5 Y s 181 355 m 5 Y s 174 358 m20 188 384 m 12 Y s 188 407 m 8 Y s 181 401 m 1 X s
 193 401 m 2 X s 185 384 m 6 X s 185 415 m 6 X s 181 398 m 6 Y s 195 398 m 6 Y s 188 401 m20 202 360 m 15 Y s 202 386 m 10 Y s 195 381 m 1 X s 207 381 m 1 X s 199 360 m 5 X s 199 396 m 5 X s 195 378 m 6 Y s 208 378 m 6 Y s 202 381 m20 215 371 m 13 Y
 s 215 395 m 9 Y s 208 390 m 2 X s 221 390 m 1 X s 213 371 m 5 X s 213 404 m 5 X s 208 387 m 6 Y s 222 387 m 6 Y s 215 390 m20 229 384 m 12 Y s 229 407 m 8 Y s 222 401 m 1 X s 235 401 m 1 X s 226 384 m 6 X s 226 415 m 6 X s 222 398 m 6 Y s 236 398 m
 6 Y s 229 401 m20 243 380 m 12 Y s 243 403 m 8 Y s 236 398 m 1 X s 249 398 m 1 X s 240 380 m 6 X s 240 411 m 6 X s 236 395 m 5 Y s 250 395 m 5 Y s 243 398 m20 257 411 m 8 Y s 257 430 m 6 Y s 250 424 m 1 X s 262 424 m 2 X s 254 411 m 6 X s 254 436 m
 6 X s 250 422 m 5 Y s 264 422 m 5 Y s 257 424 m20 270 416 m 7 Y s 270 435 m 5 Y s 264 429 m 1 X s 276 429 m 1 X s 268 416 m 5 X s 268 440 m 5 X s 264 426 m 6 Y s 277 426 m 6 Y s 270 429 m20 284 413 m 8 Y s 284 432 m 6 Y s 277 427 m 2 X s 290 427 m 1
 X s 281 413 m 6 X s 281 438 m 6 X s 277 424 m 6 Y s 291 424 m 6 Y s 284 427 m20 298 380 m 12 Y s 298 403 m 8 Y s 291 398 m 1 X s 304 398 m 1 X s 295 380 m 6 X s 295 411 m 6 X s 291 395 m 5 Y s 305 395 m 5 Y s 298 398 m20 312 431 m 6 Y s 312 449 m 4
 Y s 305 443 m 1 X s 318 443 m 1 X s 309 431 m 6 X s 309 453 m 6 X s 305 440 m 6 Y s 319 440 m 6 Y s 312 443 m20 326 427 m 7 Y s 326 445 m 4 Y s 319 439 m 1 X s 331 439 m 2 X s 323 427 m 5 X s 323 449 m 5 X s 319 437 m 5 Y s 333 437 m 5 Y s 326 439
 m20 339 442 m 5 Y s 339 459 m 3 Y s 333 453 m 1 X s 345 453 m 1 X s 337 442 m 5 X s 337 462 m 5 X s 333 450 m 6 Y s 346 450 m 6 Y s 339 453 m20 353 437 m 6 Y s 353 454 m 4 Y s 346 448 m 2 X s 359 448 m 1 X s 350 437 m 6 X s 350 458 m 6 X s 346 445 m
 6 Y s 360 445 m 6 Y s 353 448 m20 367 416 m 7 Y s 367 435 m 5 Y s 360 429 m 1 X s 373 429 m 1 X s 364 416 m 6 X s 364 440 m 6 X s 360 426 m 6 Y s 374 426 m 6 Y s 367 429 m20 381 442 m 5 Y s 381 459 m 3 Y s 374 453 m 1 X s 386 453 m 2 X s 378 442 m 6
 X s 378 462 m 6 X s 374 450 m 6 Y s 388 450 m 6 Y s 381 453 m20 395 482 m 2 Y s 395 496 m 1 Y s 388 490 m 1 X s 400 490 m 1 X s 392 482 m 5 X s 392 497 m 5 X s 388 487 m 6 Y s 401 487 m 6 Y s 395 490 m20 408 478 m 2 Y s 408 491 m 2 Y s 401 486 m 2 X
 s 414 486 m 1 X s 406 478 m 5 X s 406 493 m 5 X s 401 483 m 6 Y s 415 483 m 6 Y s 408 486 m20 422 481 m 3 Y s 422 495 m 1 Y s 415 489 m 1 X s 428 489 m 1 X s 419 481 m 6 X s 419 496 m 6 X s 415 486 m 6 Y s 429 486 m 6 Y s 422 489 m20 436 492 m 1 Y s
 436 505 m s 429 499 m 1 X s 442 499 m 1 X s 433 492 m 6 X s 433 505 m 6 X s 429 496 m 6 Y s 443 496 m 6 Y s 436 499 m20 450 508 m 1 Y s 450 520 m s 443 515 m 1 X s 455 515 m 2 X s 447 508 m 6 X s 447 520 m 6 X s 443 512 m 5 Y s 457 512 m 5 Y s 450
 515 m20 464 518 m s 457 524 m 1 X s 469 524 m 1 X s 461 518 m 5 X s 457 521 m 5 Y s 470 521 m 5 Y s 464 524 m20 470 557 m 2 X s 483 557 m 1 X s 470 554 m 6 Y s 484 554 m 6 Y s 477 557 m20 484 560 m 1 X s 497 560 m 1 X s 484 557 m 5 Y s 498 557 m 5 Y
 s 491 560 m20 498 591 m 1 X s 511 591 m 1 X s 498 588 m 6 Y s 512 588 m 6 Y s 505 591 m20 512 605 m 1 X s 524 605 m 2 X s 512 602 m 5 Y s 526 602 m 5 Y s 519 605 m20 526 637 m 1 X s 538 637 m 1 X s 526 634 m 6 Y s 539 634 m 6 Y s 532 637 m20 539 653
 m 2 X s 552 653 m 1 X s 539 650 m 6 Y s 553 650 m 6 Y s 546 653 m20 553 675 m 1 X s 566 675 m 1 X s 553 672 m 6 Y s 567 672 m 6 Y s 560 675 m20 567 684 m 1 X s 579 684 m 2 X s 567 681 m 6 Y s 581 681 m 6 Y s 574 684 m20 581 686 m 1 X s 593 686 m 2 X
 s 581 684 m 5 Y s 595 684 m 5 Y s 588 686 m20 595 669 m 1 X s 607 669 m 1 X s 595 666 m 6 Y s 608 666 m 6 Y s 601 669 m20 608 645 m 2 X s 621 645 m 1 X s 608 642 m 6 Y s 622 642 m 6 Y s 615 645 m20 622 619 m 1 X s 635 619 m 1 X s 622 616 m 6 Y s 636
 616 m 6 Y s 629 619 m20 636 588 m 1 X s 648 588 m 2 X s 636 585 m 6 Y s 650 585 m 6 Y s 643 588 m20 650 560 m 1 X s 662 560 m 1 X s 650 557 m 5 Y s 663 557 m 5 Y s 657 560 m20 663 544 m 2 X s 676 544 m 1 X s 663 541 m 6 Y s 677 541 m 6 Y s 670 544
 m20 684 515 m s 677 521 m 1 X s 690 521 m 1 X s 681 515 m 6 X s 677 518 m 6 Y s 691 518 m 6 Y s 684 521 m20 698 495 m 2 Y s 698 508 m 1 Y s 691 502 m 1 X s 704 502 m 1 X s 695 495 m 6 X s 695 509 m 6 X s 691 500 m 5 Y s 705 500 m 5 Y s 698 502 m20
 712 476 m 2 Y s 712 490 m 1 Y s 705 484 m 1 X s 717 484 m 2 X s 709 476 m 6 X s 709 491 m 6 X s 705 481 m 6 Y s 719 481 m 6 Y s 712 484 m20 725 466 m 3 Y s 725 481 m 2 Y s 719 475 m 1 X s 731 475 m 1 X s 723 466 m 5 X s 723 483 m 5 X s 719 472 m 6 Y
 s 732 472 m 6 Y s 725 475 m20 739 452 m 4 Y s 739 467 m 3 Y s 732 462 m 2 X s 745 462 m 1 X s 736 452 m 6 X s 736 470 m 6 X s 732 459 m 5 Y s 746 459 m 5 Y s 739 462 m20 753 447 m 5 Y s 753 463 m 3 Y s 746 457 m 1 X s 759 457 m 1 X s 750 447 m 6 X s
 750 466 m 6 X s 746 455 m 5 Y s 760 455 m 5 Y s 753 457 m20 767 433 m 6 Y s 767 451 m 4 Y s 760 445 m 1 X s 773 445 m 1 X s 764 433 m 6 X s 764 455 m 6 X s 760 442 m 6 Y s 774 442 m 6 Y s 767 445 m20 781 423 m 7 Y s 781 441 m 5 Y s 774 435 m 1 X s
 786 435 m 2 X s 778 423 m 5 X s 778 446 m 5 X s 774 433 m 5 Y s 788 433 m 5 Y s 781 435 m20 794 402 m 9 Y s 794 422 m 7 Y s 788 417 m 1 X s 800 417 m 1 X s 792 402 m 5 X s 792 429 m 5 X s 788 414 m 5 Y s 801 414 m 5 Y s 794 417 m20 808 340 m 19 Y s
 808 370 m 12 Y s 801 364 m 2 X s 814 364 m 1 X s 805 340 m 6 X s 805 382 m 6 X s 801 361 m 6 Y s 815 361 m 6 Y s 808 364 m20 822 399 m 9 Y s 822 420 m 6 Y s 815 414 m 1 X s 828 414 m 1 X s 819 399 m 6 X s 819 426 m 6 X s 815 411 m 6 Y s 829 411 m 6
 Y s 822 414 m20 836 332 m 20 Y s 836 363 m 13 Y s 829 358 m 1 X s 841 358 m 2 X s 833 332 m 6 X s 833 376 m 6 X s 829 355 m 5 Y s 843 355 m 5 Y s 836 358 m20 850 395 m 10 Y s 850 417 m 6 Y s 843 411 m 1 X s 855 411 m 1 X s 847 395 m 5 X s 847 423 m
 5 X s 843 408 m 6 Y s 856 408 m 6 Y s 850 411 m20 863 366 m 14 Y s 863 391 m 9 Y s 856 385 m 2 X s 869 385 m 1 X s 861 366 m 5 X s 861 400 m 5 X s 856 383 m 5 Y s 870 383 m 5 Y s 863 385 m20 877 340 m 19 Y s 877 370 m 12 Y s 870 364 m 1 X s 883 364
 m 1 X s 874 340 m 6 X s 874 382 m 6 X s 870 361 m 6 Y s 884 361 m 6 Y s 877 364 m20 891 366 m 14 Y s 891 391 m 9 Y s 884 385 m 1 X s 897 385 m 1 X s 888 366 m 6 X s 888 400 m 6 X s 884 383 m 5 Y s 898 383 m 5 Y s 891 385 m20 905 380 m 12 Y s 905 403
 m 8 Y s 898 398 m 1 X s 910 398 m 2 X s 902 380 m 6 X s 902 411 m 6 X s 898 395 m 5 Y s 912 395 m 5 Y s 905 398 m20 919 371 m 13 Y s 919 395 m 9 Y s 912 390 m 1 X s 924 390 m 1 X s 916 371 m 5 X s 916 404 m 5 X s 912 387 m 6 Y s 925 387 m 6 Y s 919
 390 m20 932 332 m 20 Y s 932 363 m 13 Y s 925 358 m 2 X s 938 358 m 1 X s 929 332 m 6 X s 929 376 m 6 X s 925 355 m 5 Y s 939 355 m 5 Y s 932 358 m20 946 354 m 16 Y s 946 381 m 11 Y s 939 376 m 1 X s 952 376 m 1 X s 943 354 m 6 X s 943 392 m 6 X s
 939 373 m 6 Y s 953 373 m 6 Y s 946 376 m20 960 340 m 19 Y s 960 370 m 12 Y s 953 364 m 1 X s 966 364 m 1 X s 957 340 m 6 X s 957 382 m 6 X s 953 361 m 6 Y s 967 361 m 6 Y s 960 364 m20 974 312 m 24 Y s 974 348 m 14 Y s 967 342 m 1 X s 979 342 m 2 X
 s 971 312 m 6 X s 971 362 m 6 X s 967 339 m 6 Y s 981 339 m 6 Y s 974 342 m20 1 1 1 c black 422 118 m 96 Y s 422 225 m 38 Y s 415 219 m 1 X s 428 219 m 1 X s 419 118 m 6 X s 419 263 m 6 X s 415 217 m 5 Y s 429 217 m 5 Y s 422 219 m24 560 118 m 96 Y
 s 560 225 m 38 Y s 553 219 m 1 X s 566 219 m 1 X s 557 118 m 6 X s 557 263 m 6 X s 553 217 m 5 Y s 567 217 m 5 Y s 560 219 m24 0 0 1 c[ 12 12] 0 sd 6 lw 443 118 m 525 Y s 719 118 m 525 Y s black[  ] 0 sd 3 lw 1 1 1 c 272 268 186 654 bf black
 gsave  1088 1072 23 11 C 252.599 874.164 t 0 r /Helvetica findfont 39.7652 sf 0 0 m (OC data: 11731) show NC gr  220 889 m20
 gsave  1088 1072 23 11 C 252.599 807.466 t 0 r /Helvetica findfont 39.7652 sf 0 0 m (SC data: 1) show NC gr  220 822 m24
 gsave  1088 1072 23 11 C 252.599 740.768 t 0 r /Helvetica findfont 39.7652 sf 0 0 m (OC MC: 25313) show NC gr  1 0 0 c 220 755 m20 black
 gsave  1088 1072 23 11 C 252.599 674.071 t 0 r /Helvetica findfont 39.7652 sf 0 0 m (SC MC: 0) show NC gr  1 0 0 c 220 688 m24 black
 gsave  1088 1072 23 11 C 566.22 901.126 t 0 r /Helvetica-Bold findfont 59.6478 sf 0 0 m (pp collisions) show NC gr  1 1 1 c 1088 1072 1157 11 bf black 1 1 1 c 827 858 1287 118 bf black 827 858 1287 118 bl 1 1 1 c 827 858 1287 118 bf black 827 858
 1287 118 bl 1 0 0 c 1 1 1 c 1 0 0 c 1308 299 m 5 Y s 1308 315 m 3 Y s 1301 309 m 1 X s 1314 309 m 1 X s 1305 299 m 6 X s 1305 318 m 6 X s 1301 306 m 6 Y s 1315 306 m 6 Y s 1308 309 m20 1322 307 m 3 Y s 1322 322 m 2 Y s 1315 316 m 1 X s 1327 316 m 2
 X s 1319 307 m 5 X s 1319 324 m 5 X s 1315 313 m 6 Y s 1329 313 m 6 Y s 1322 316 m20 1335 313 m 4 Y s 1335 328 m 2 Y s 1329 322 m 1 X s 1341 322 m 1 X s 1333 313 m 5 X s 1333 330 m 5 X s 1329 319 m 6 Y s 1342 319 m 6 Y s 1335 322 m20 1349 312 m 3 Y
 s 1349 326 m 2 Y s 1342 321 m 2 X s 1355 321 m 1 X s 1346 312 m 6 X s 1346 328 m 6 X s 1342 318 m 6 Y s 1356 318 m 6 Y s 1349 321 m20 1363 319 m 3 Y s 1363 333 m 2 Y s 1356 328 m 1 X s 1369 328 m 1 X s 1360 319 m 6 X s 1360 335 m 6 X s 1356 325 m 5
 Y s 1370 325 m 5 Y s 1363 328 m20 1377 323 m 3 Y s 1377 337 m 1 Y s 1370 331 m 1 X s 1382 331 m 2 X s 1374 323 m 6 X s 1374 338 m 6 X s 1370 328 m 6 Y s 1384 328 m 6 Y s 1377 331 m20 1391 334 m 1 Y s 1391 347 m s 1384 341 m 1 X s 1396 341 m 1 X s
 1388 334 m 5 X s 1388 347 m 5 X s 1384 338 m 6 Y s 1397 338 m 6 Y s 1391 341 m20 1404 321 m 2 Y s 1404 335 m 1 Y s 1397 329 m 2 X s 1410 329 m 1 X s 1402 321 m 5 X s 1402 336 m 5 X s 1397 326 m 6 Y s 1411 326 m 6 Y s 1404 329 m20 1418 324 m 3 Y s
 1418 338 m 1 Y s 1411 332 m 1 X s 1424 332 m 1 X s 1415 324 m 6 X s 1415 339 m 6 X s 1411 330 m 5 Y s 1425 330 m 5 Y s 1418 332 m20 1432 340 m 1 Y s 1432 353 m s 1425 347 m 1 X s 1438 347 m 1 X s 1429 340 m 6 X s 1429 353 m 6 X s 1425 344 m 6 Y s
 1439 344 m 6 Y s 1432 347 m20 1446 342 m 1 Y s 1446 354 m 1 Y s 1439 349 m 1 X s 1451 349 m 2 X s 1443 342 m 6 X s 1443 355 m 6 X s 1439 346 m 6 Y s 1453 346 m 6 Y s 1446 349 m20 1460 348 m s 1453 354 m 1 X s 1465 354 m 1 X s 1457 348 m 5 X s 1453
 351 m 6 Y s 1466 351 m 6 Y s 1460 354 m20 1473 346 m s 1466 352 m 2 X s 1479 352 m 1 X s 1470 346 m 6 X s 1466 349 m 6 Y s 1480 349 m 6 Y s 1473 352 m20 1487 356 m s 1480 362 m 1 X s 1493 362 m 1 X s 1484 356 m 6 X s 1480 359 m 6 Y s 1494 359 m 6 Y
 s 1487 362 m20 1494 366 m 1 X s 1507 366 m 1 X s 1494 363 m 6 Y s 1508 363 m 6 Y s 1501 366 m20 1508 371 m 1 X s 1520 371 m 2 X s 1508 369 m 5 Y s 1522 369 m 5 Y s 1515 371 m20 1522 381 m 1 X s 1534 381 m 1 X s 1522 378 m 6 Y s 1535 378 m 6 Y s 1528
 381 m20 1535 395 m 2 X s 1548 395 m 1 X s 1535 392 m 6 Y s 1549 392 m 6 Y s 1542 395 m20 1549 396 m 1 X s 1562 396 m 1 X s 1549 393 m 6 Y s 1563 393 m 6 Y s 1556 396 m20 1563 401 m 1 X s 1575 401 m 2 X s 1563 399 m 5 Y s 1577 399 m 5 Y s 1570 401
 m20 1577 417 m 1 X s 1589 417 m 1 X s 1577 415 m 5 Y s 1590 415 m 5 Y s 1584 417 m20 1590 427 m 2 X s 1603 427 m 1 X s 1590 424 m 6 Y s 1604 424 m 6 Y s 1597 427 m20 1604 435 m 1 X s 1617 435 m 1 X s 1604 432 m 6 Y s 1618 432 m 6 Y s 1611 435 m20
 1618 445 m 1 X s 1631 445 m 1 X s 1618 442 m 6 Y s 1632 442 m 6 Y s 1625 445 m20 1632 465 m 1 X s 1644 465 m 2 X s 1632 463 m 5 Y s 1646 463 m 5 Y s 1639 465 m20 1646 486 m 1 X s 1658 486 m 1 X s 1646 484 m 5 Y s 1659 484 m 5 Y s 1653 486 m20 1659
 502 m 2 X s 1672 502 m 1 X s 1659 499 m 6 Y s 1673 499 m 6 Y s 1666 502 m20 1673 520 m 1 X s 1686 520 m 1 X s 1673 517 m 6 Y s 1687 517 m 6 Y s 1680 520 m20 1687 535 m 1 X s 1700 535 m 1 X s 1687 532 m 6 Y s 1701 532 m 6 Y s 1694 535 m20 1701 543 m
 1 X s 1713 543 m 2 X s 1701 540 m 5 Y s 1715 540 m 5 Y s 1708 543 m20 1715 540 m 1 X s 1727 540 m 1 X s 1715 537 m 6 Y s 1728 537 m 6 Y s 1721 540 m20 1728 530 m 2 X s 1741 530 m 1 X s 1728 527 m 6 Y s 1742 527 m 6 Y s 1735 530 m20 1742 516 m 1 X s
 1755 516 m 1 X s 1742 513 m 6 Y s 1756 513 m 6 Y s 1749 516 m20 1756 493 m 1 X s 1769 493 m 1 X s 1756 490 m 6 Y s 1770 490 m 6 Y s 1763 493 m20 1770 470 m 1 X s 1782 470 m 2 X s 1770 468 m 5 Y s 1784 468 m 5 Y s 1777 470 m20 1784 447 m 1 X s 1796
 447 m 1 X s 1784 444 m 6 Y s 1797 444 m 6 Y s 1790 447 m20 1797 429 m 2 X s 1810 429 m 1 X s 1797 426 m 6 Y s 1811 426 m 6 Y s 1804 429 m20 1811 420 m 1 X s 1824 420 m 1 X s 1811 417 m 6 Y s 1825 417 m 6 Y s 1818 420 m20 1825 403 m 1 X s 1837 403 m
 2 X s 1825 400 m 6 Y s 1839 400 m 6 Y s 1832 403 m20 1839 392 m 1 X s 1851 392 m 1 X s 1839 389 m 6 Y s 1852 389 m 6 Y s 1846 392 m20 1852 376 m 2 X s 1865 376 m 1 X s 1852 373 m 6 Y s 1866 373 m 6 Y s 1859 376 m20 1873 351 m s 1866 357 m 1 X s 1879
 357 m 1 X s 1870 351 m 6 X s 1866 354 m 6 Y s 1880 354 m 6 Y s 1873 357 m20 1880 366 m 1 X s 1893 366 m 1 X s 1880 363 m 5 Y s 1894 363 m 5 Y s 1887 366 m20 1901 342 m 1 Y s 1901 354 m 1 Y s 1894 349 m 1 X s 1906 349 m 2 X s 1898 342 m 6 X s 1898
 355 m 6 X s 1894 346 m 6 Y s 1908 346 m 6 Y s 1901 349 m20 1914 341 m 1 Y s 1914 354 m s 1908 348 m 1 X s 1920 348 m 1 X s 1912 341 m 5 X s 1912 354 m 5 X s 1908 345 m 6 Y s 1921 345 m 6 Y s 1914 348 m20 1928 345 m s 1921 351 m 2 X s 1934 351 m 1 X
 s 1925 345 m 6 X s 1921 348 m 6 Y s 1935 348 m 6 Y s 1928 351 m20 1942 310 m 4 Y s 1942 325 m 2 Y s 1935 319 m 1 X s 1948 319 m 1 X s 1939 310 m 6 X s 1939 327 m 6 X s 1935 316 m 6 Y s 1949 316 m 6 Y s 1942 319 m20 1956 330 m 2 Y s 1956 344 m s 1949
 338 m 1 X s 1962 338 m 1 X s 1953 330 m 6 X s 1953 344 m 6 X s 1949 335 m 6 Y s 1963 335 m 6 Y s 1956 338 m20 1970 315 m 3 Y s 1970 329 m 2 Y s 1963 324 m 1 X s 1975 324 m 2 X s 1967 315 m 5 X s 1967 331 m 5 X s 1963 321 m 5 Y s 1977 321 m 5 Y s
 1970 324 m20 1983 313 m 4 Y s 1983 328 m 2 Y s 1977 322 m 1 X s 1989 322 m 1 X s 1981 313 m 5 X s 1981 330 m 5 X s 1977 319 m 6 Y s 1990 319 m 6 Y s 1983 322 m20 1997 316 m 3 Y s 1997 331 m 1 Y s 1990 325 m 2 X s 2003 325 m 1 X s 1994 316 m 6 X s
 1994 332 m 6 X s 1990 322 m 6 Y s 2004 322 m 6 Y s 1997 325 m20 2011 307 m 3 Y s 2011 322 m 2 Y s 2004 316 m 1 X s 2017 316 m 1 X s 2008 307 m 6 X s 2008 324 m 6 X s 2004 313 m 6 Y s 2018 313 m 6 Y s 2011 316 m20 2025 307 m 3 Y s 2025 322 m 2 Y s
 2018 316 m 1 X s 2030 316 m 2 X s 2022 307 m 6 X s 2022 324 m 6 X s 2018 313 m 6 Y s 2032 313 m 6 Y s 2025 316 m20 2039 275 m 8 Y s 2039 294 m 5 Y s 2032 288 m 1 X s 2044 288 m 1 X s 2036 275 m 5 X s 2036 299 m 5 X s 2032 285 m 6 Y s 2045 285 m 6 Y
 s 2039 288 m20 2052 284 m 7 Y s 2052 302 m 4 Y s 2045 296 m 2 X s 2058 296 m 1 X s 2050 284 m 5 X s 2050 306 m 5 X s 2045 293 m 6 Y s 2059 293 m 6 Y s 2052 296 m20 2066 301 m 4 Y s 2066 317 m 2 Y s 2059 311 m 1 X s 2072 311 m 1 X s 2063 301 m 6 X s
 2063 319 m 6 X s 2059 308 m 6 Y s 2073 308 m 6 Y s 2066 311 m20 2080 287 m 6 Y s 2080 304 m 4 Y s 2073 299 m 1 X s 2086 299 m 1 X s 2077 287 m 6 X s 2077 308 m 6 X s 2073 296 m 6 Y s 2087 296 m 6 Y s 2080 299 m20 2094 271 m 8 Y s 2094 291 m 5 Y s
 2087 285 m 1 X s 2099 285 m 2 X s 2091 271 m 6 X s 2091 296 m 6 X s 2087 282 m 6 Y s 2101 282 m 6 Y s 2094 285 m20 2108 287 m 6 Y s 2108 304 m 4 Y s 2101 299 m 1 X s 2113 299 m 1 X s 2105 287 m 5 X s 2105 308 m 5 X s 2101 296 m 6 Y s 2114 296 m 6 Y
 s 2108 299 m20 black 1287 118 m 827 X s 1287 143 m -25 Y s 1315 130 m -12 Y s 1342 130 m -12 Y s 1370 130 m -12 Y s 1397 130 m -12 Y s 1425 143 m -25 Y s 1453 130 m -12 Y s 1480 130 m -12 Y s 1508 130 m -12 Y s 1535 130 m -12 Y s 1563 143 m -25 Y s
 1590 130 m -12 Y s 1618 130 m -12 Y s 1646 130 m -12 Y s 1673 130 m -12 Y s 1701 143 m -25 Y s 1728 130 m -12 Y s 1756 130 m -12 Y s 1784 130 m -12 Y s 1811 130 m -12 Y s 1839 143 m -25 Y s 1866 130 m -12 Y s 1894 130 m -12 Y s 1921 130 m -12 Y s
 1949 130 m -12 Y s 1977 143 m -25 Y s 2004 130 m -12 Y s 2032 130 m -12 Y s 2059 130 m -12 Y s 2087 130 m -12 Y s 2114 143 m -25 Y s
 gsave  1088 1072 1157 11 C 1267.25 83.7267 t 0 r /Helvetica findfont 35.5047 sf 0 0 m (60) show NC gr 
 gsave  1088 1072 1157 11 C 1404.91 83.7267 t 0 r /Helvetica findfont 35.5047 sf 0 0 m (70) show NC gr 
 gsave  1088 1072 1157 11 C 1542.56 83.7267 t 0 r /Helvetica findfont 35.5047 sf 0 0 m (80) show NC gr 
 gsave  1088 1072 1157 11 C 1680.21 83.7267 t 0 r /Helvetica findfont 35.5047 sf 0 0 m (90) show NC gr 
 gsave  1088 1072 1157 11 C 1807.93 83.7267 t 0 r /Helvetica findfont 35.5047 sf 0 0 m (100) show NC gr 
 gsave  1088 1072 1157 11 C 1945.58 83.7267 t 0 r /Helvetica findfont 35.5047 sf 0 0 m (110) show NC gr 
 gsave  1088 1072 1157 11 C 2083.23 83.7267 t 0 r /Helvetica findfont 35.5047 sf 0 0 m (120) show NC gr 
 gsave  1088 1072 1157 11 C 1986.74 32.6392 t 0 r /Helvetica findfont 45.446 sf 0 0 m ( [GeV]) show NC gr 
 gsave  1088 1072 1157 11 C 1969.71 24.1246 t 0 r /Symbol findfont 29.8239 sf 0 0 m (m) show NC gr 
 gsave  1088 1072 1157 11 C 1952.68 24.1246 t 0 r /Symbol findfont 29.8239 sf 0 0 m (m) show NC gr 
 gsave  1088 1072 1157 11 C 1917.2 32.6392 t 0 r /Helvetica findfont 45.446 sf 0 0 m (M) show NC gr  1287 118 m 858 Y s 1300 118 m -13 X s 1300 137 m -13 X s 1300 151 m -13 X s 1300 161 m -13 X s 1300 170 m -13 X s 1300 177 m -13 X s 1300 183 m -13 X
 s 1300 189 m -13 X s 1313 194 m -26 X s
 gsave  1088 1072 1157 11 C 1265.83 181.644 t 0 r /Helvetica findfont 32.6643 sf 0 0 m (1) show NC gr  1300 226 m -13 X s 1300 246 m -13 X s 1300 259 m -13 X s 1300 270 m -13 X s 1300 278 m -13 X s 1300 285 m -13 X s 1300 292 m -13 X s 1300 297 m -13
 X s 1313 302 m -26 X s
 gsave  1088 1072 1157 11 C 1243.13 289.496 t 0 r /Helvetica findfont 32.6643 sf 0 0 m (10) show NC gr  1300 335 m -13 X s 1300 354 m -13 X s 1300 367 m -13 X s 1300 378 m -13 X s 1300 386 m -13 X s 1300 394 m -13 X s 1300 400 m -13 X s 1300 405 m
 -13 X s 1313 410 m -26 X s
 gsave  1088 1072 1157 11 C 1265.83 410.119 t 0 r /Helvetica findfont 22.723 sf 0 0 m (2) show NC gr 
 gsave  1088 1072 1157 11 C 1230.36 395.928 t 0 r /Helvetica findfont 32.6643 sf 0 0 m (10) show NC gr  1300 443 m -13 X s 1300 462 m -13 X s 1300 476 m -13 X s 1300 486 m -13 X s 1300 495 m -13 X s 1300 502 m -13 X s 1300 508 m -13 X s 1300 514 m
 -13 X s 1313 519 m -26 X s
 gsave  1088 1072 1157 11 C 1265.83 519.389 t 0 r /Helvetica findfont 22.723 sf 0 0 m (3) show NC gr 
 gsave  1088 1072 1157 11 C 1230.36 503.779 t 0 r /Helvetica findfont 32.6643 sf 0 0 m (10) show NC gr  1300 551 m -13 X s 1300 570 m -13 X s 1300 584 m -13 X s 1300 594 m -13 X s 1300 603 m -13 X s 1300 610 m -13 X s 1300 616 m -13 X s 1300 622 m
 -13 X s 1313 627 m -26 X s
 gsave  1088 1072 1157 11 C 1265.83 625.822 t 0 r /Helvetica findfont 22.723 sf 0 0 m (4) show NC gr 
 gsave  1088 1072 1157 11 C 1230.36 611.631 t 0 r /Helvetica findfont 32.6643 sf 0 0 m (10) show NC gr  1300 660 m -13 X s 1300 679 m -13 X s 1300 692 m -13 X s 1300 703 m -13 X s 1300 711 m -13 X s 1300 718 m -13 X s 1300 725 m -13 X s 1300 730 m
 -13 X s 1313 735 m -26 X s
 gsave  1088 1072 1157 11 C 1265.83 736.511 t 0 r /Helvetica findfont 22.723 sf 0 0 m (5) show NC gr 
 gsave  1088 1072 1157 11 C 1230.36 720.901 t 0 r /Helvetica findfont 32.6643 sf 0 0 m (10) show NC gr  1300 768 m -13 X s 1300 787 m -13 X s 1300 800 m -13 X s 1300 811 m -13 X s 1300 820 m -13 X s 1300 827 m -13 X s 1300 833 m -13 X s 1300 839 m
 -13 X s 1313 844 m -26 X s
 gsave  1088 1072 1157 11 C 1265.83 844.363 t 0 r /Helvetica findfont 22.723 sf 0 0 m (6) show NC gr 
 gsave  1088 1072 1157 11 C 1230.36 828.752 t 0 r /Helvetica findfont 32.6643 sf 0 0 m (10) show NC gr  1300 876 m -13 X s 1300 895 m -13 X s 1300 909 m -13 X s 1300 919 m -13 X s 1300 928 m -13 X s 1300 935 m -13 X s 1300 941 m -13 X s 1300 947 m
 -13 X s 1313 952 m -26 X s
 gsave  1088 1072 1157 11 C 1265.83 950.795 t 0 r /Helvetica findfont 22.723 sf 0 0 m (7) show NC gr 
 gsave  1088 1072 1157 11 C 1230.36 936.604 t 0 r /Helvetica findfont 32.6643 sf 0 0 m (10) show NC gr 
 gsave  1088 1072 1157 11 C 1203.39 557.705 t 90 r /Helvetica findfont 45.446 sf 0 0 m (Entries / NormFactor) show NC gr  1 0 0 c 1 1 1 c 1 0 0 c 1418 118 m 70 Y s 1418 200 m 26 Y s 1411 194 m 1 X s 1424 194 m 1 X s 1415 118 m 6 X s 1415 226 m 6 X s
 1411 191 m 6 Y s 1425 191 m 6 Y s 1418 194 m24 black 1 1 1 c black 1308 278 m 14 Y s 1308 303 m 8 Y s 1301 297 m 1 X s 1314 297 m 1 X s 1305 278 m 6 X s 1305 311 m 6 X s 1301 294 m 6 Y s 1315 294 m 6 Y s 1308 297 m20 1322 317 m 7 Y s 1322 335 m 5 Y
 s 1315 330 m 1 X s 1327 330 m 2 X s 1319 317 m 5 X s 1319 340 m 5 X s 1315 327 m 6 Y s 1329 327 m 6 Y s 1322 330 m20 1335 299 m 10 Y s 1335 320 m 6 Y s 1329 314 m 1 X s 1341 314 m 1 X s 1333 299 m 5 X s 1333 326 m 5 X s 1329 312 m 5 Y s 1342 312 m 5
 Y s 1335 314 m20 1349 303 m 9 Y s 1349 324 m 5 Y s 1342 318 m 2 X s 1355 318 m 1 X s 1346 303 m 6 X s 1346 329 m 6 X s 1342 315 m 6 Y s 1356 315 m 6 Y s 1349 318 m20 1363 314 m 7 Y s 1363 333 m 4 Y s 1356 327 m 1 X s 1369 327 m 1 X s 1360 314 m 6 X
 s 1360 337 m 6 X s 1356 324 m 6 Y s 1370 324 m 6 Y s 1363 327 m20 1377 314 m 7 Y s 1377 333 m 4 Y s 1370 327 m 1 X s 1382 327 m 2 X s 1374 314 m 6 X s 1374 337 m 6 X s 1370 324 m 6 Y s 1384 324 m 6 Y s 1377 327 m20 1391 333 m 5 Y s 1391 349 m 3 Y s
 1384 343 m 1 X s 1396 343 m 1 X s 1388 333 m 5 X s 1388 352 m 5 X s 1384 340 m 6 Y s 1397 340 m 6 Y s 1391 343 m20 1404 337 m 4 Y s 1404 353 m 2 Y s 1397 347 m 2 X s 1410 347 m 1 X s 1402 337 m 5 X s 1402 355 m 5 X s 1397 344 m 6 Y s 1411 344 m 6 Y
 s 1404 347 m20 1418 337 m 4 Y s 1418 353 m 2 Y s 1411 347 m 1 X s 1424 347 m 1 X s 1415 337 m 6 X s 1415 355 m 6 X s 1411 344 m 6 Y s 1425 344 m 6 Y s 1418 347 m20 1432 314 m 7 Y s 1432 333 m 4 Y s 1425 327 m 1 X s 1438 327 m 1 X s 1429 314 m 6 X s
 1429 337 m 6 X s 1425 324 m 6 Y s 1439 324 m 6 Y s 1432 327 m20 1446 352 m 3 Y s 1446 367 m 1 Y s 1439 361 m 1 X s 1451 361 m 2 X s 1443 352 m 6 X s 1443 368 m 6 X s 1439 358 m 6 Y s 1453 358 m 6 Y s 1446 361 m20 1460 349 m 4 Y s 1460 364 m 2 Y s
 1453 358 m 1 X s 1465 358 m 1 X s 1457 349 m 5 X s 1457 366 m 5 X s 1453 355 m 6 Y s 1466 355 m 6 Y s 1460 358 m20 1473 359 m 3 Y s 1473 373 m 1 Y s 1466 367 m 2 X s 1479 367 m 1 X s 1470 359 m 6 X s 1470 374 m 6 X s 1466 364 m 6 Y s 1480 364 m 6 Y
 s 1473 367 m20 1487 357 m 2 Y s 1487 371 m 1 Y s 1480 365 m 1 X s 1493 365 m 1 X s 1484 357 m 6 X s 1484 372 m 6 X s 1480 362 m 6 Y s 1494 362 m 6 Y s 1487 365 m20 1501 341 m 4 Y s 1501 356 m 3 Y s 1494 351 m 1 X s 1507 351 m 1 X s 1498 341 m 6 X s
 1498 359 m 6 X s 1494 348 m 5 Y s 1508 348 m 5 Y s 1501 351 m20 1515 360 m 3 Y s 1515 374 m 1 Y s 1508 368 m 1 X s 1520 368 m 2 X s 1512 360 m 5 X s 1512 375 m 5 X s 1508 366 m 5 Y s 1522 366 m 5 Y s 1515 368 m20 1528 389 m s 1522 395 m 1 X s 1534
 395 m 1 X s 1526 389 m 5 X s 1522 392 m 6 Y s 1535 392 m 6 Y s 1528 395 m20 1542 385 m 1 Y s 1535 392 m 2 X s 1548 392 m 1 X s 1539 385 m 6 X s 1535 389 m 5 Y s 1549 389 m 5 Y s 1542 392 m20 1556 389 m s 1549 395 m 1 X s 1562 395 m 1 X s 1553 389 m
 6 X s 1549 392 m 6 Y s 1563 392 m 6 Y s 1556 395 m20 1563 402 m 1 X s 1575 402 m 2 X s 1563 399 m 6 Y s 1577 399 m 6 Y s 1570 402 m20 1577 414 m 1 X s 1589 414 m 1 X s 1577 411 m 5 Y s 1590 411 m 5 Y s 1584 414 m20 1590 421 m 2 X s 1603 421 m 1 X s
 1590 418 m 5 Y s 1604 418 m 5 Y s 1597 421 m20 1604 445 m 1 X s 1617 445 m 1 X s 1604 442 m 6 Y s 1618 442 m 6 Y s 1611 445 m20 1618 447 m 1 X s 1631 447 m 1 X s 1618 444 m 6 Y s 1632 444 m 6 Y s 1625 447 m20 1632 472 m 1 X s 1644 472 m 2 X s 1632
 469 m 5 Y s 1646 469 m 5 Y s 1639 472 m20 1646 481 m 1 X s 1658 481 m 1 X s 1646 478 m 6 Y s 1659 478 m 6 Y s 1653 481 m20 1659 505 m 2 X s 1672 505 m 1 X s 1659 503 m 5 Y s 1673 503 m 5 Y s 1666 505 m20 1673 517 m 1 X s 1686 517 m 1 X s 1673 515 m
 5 Y s 1687 515 m 5 Y s 1680 517 m20 1687 534 m 1 X s 1700 534 m 1 X s 1687 531 m 6 Y s 1701 531 m 6 Y s 1694 534 m20 1701 541 m 1 X s 1713 541 m 2 X s 1701 538 m 6 Y s 1715 538 m 6 Y s 1708 541 m20 1715 543 m 1 X s 1727 543 m 1 X s 1715 540 m 6 Y s
 1728 540 m 6 Y s 1721 543 m20 1728 530 m 2 X s 1741 530 m 1 X s 1728 527 m 6 Y s 1742 527 m 6 Y s 1735 530 m20 1742 512 m 1 X s 1755 512 m 1 X s 1742 509 m 6 Y s 1756 509 m 6 Y s 1749 512 m20 1756 492 m 1 X s 1769 492 m 1 X s 1756 490 m 5 Y s 1770
 490 m 5 Y s 1763 492 m20 1770 468 m 1 X s 1782 468 m 2 X s 1770 466 m 5 Y s 1784 466 m 5 Y s 1777 468 m20 1784 447 m 1 X s 1796 447 m 1 X s 1784 444 m 6 Y s 1797 444 m 6 Y s 1790 447 m20 1797 436 m 2 X s 1810 436 m 1 X s 1797 433 m 6 Y s 1811 433 m
 6 Y s 1804 436 m20 1811 419 m 1 X s 1824 419 m 1 X s 1811 416 m 5 Y s 1825 416 m 5 Y s 1818 419 m20 1825 403 m 1 X s 1837 403 m 2 X s 1825 400 m 6 Y s 1839 400 m 6 Y s 1832 403 m20 1846 385 m 1 Y s 1839 392 m 1 X s 1851 392 m 1 X s 1843 385 m 5 X s
 1839 389 m 5 Y s 1852 389 m 5 Y s 1846 392 m20 1859 378 m 1 Y s 1859 390 m 1 Y s 1852 385 m 2 X s 1865 385 m 1 X s 1857 378 m 5 X s 1857 391 m 5 X s 1852 382 m 6 Y s 1866 382 m 6 Y s 1859 385 m20 1873 366 m 2 Y s 1873 380 m s 1866 374 m 1 X s 1879
 374 m 1 X s 1870 366 m 6 X s 1870 380 m 6 X s 1866 371 m 6 Y s 1880 371 m 6 Y s 1873 374 m20 1887 363 m 2 Y s 1887 376 m 1 Y s 1880 371 m 1 X s 1893 371 m 1 X s 1884 363 m 6 X s 1884 377 m 6 X s 1880 368 m 6 Y s 1894 368 m 6 Y s 1887 371 m20 1901
 352 m 3 Y s 1901 367 m 1 Y s 1894 361 m 1 X s 1906 361 m 2 X s 1898 352 m 6 X s 1898 368 m 6 X s 1894 358 m 6 Y s 1908 358 m 6 Y s 1901 361 m20 1914 344 m 4 Y s 1914 359 m 3 Y s 1908 354 m 1 X s 1920 354 m 1 X s 1912 344 m 5 X s 1912 362 m 5 X s
 1908 351 m 6 Y s 1921 351 m 6 Y s 1914 354 m20 1928 330 m 6 Y s 1928 347 m 3 Y s 1921 341 m 2 X s 1934 341 m 1 X s 1925 330 m 6 X s 1925 350 m 6 X s 1921 338 m 6 Y s 1935 338 m 6 Y s 1928 341 m20 1942 284 m 12 Y s 1942 308 m 7 Y s 1935 302 m 1 X s
 1948 302 m 1 X s 1939 284 m 6 X s 1939 315 m 6 X s 1935 299 m 6 Y s 1949 299 m 6 Y s 1942 302 m20 1956 328 m 6 Y s 1956 345 m 3 Y s 1949 339 m 1 X s 1962 339 m 1 X s 1953 328 m 6 X s 1953 348 m 6 X s 1949 336 m 6 Y s 1963 336 m 6 Y s 1956 339 m20
 1970 278 m 14 Y s 1970 303 m 8 Y s 1963 297 m 1 X s 1975 297 m 2 X s 1967 278 m 5 X s 1967 311 m 5 X s 1963 294 m 6 Y s 1977 294 m 6 Y s 1970 297 m20 1983 325 m 6 Y s 1983 343 m 3 Y s 1977 337 m 1 X s 1989 337 m 1 X s 1981 325 m 5 X s 1981 346 m 5 X
 s 1977 334 m 6 Y s 1990 334 m 6 Y s 1983 337 m20 1997 303 m 9 Y s 1997 324 m 5 Y s 1990 318 m 2 X s 2003 318 m 1 X s 1994 303 m 6 X s 1994 329 m 6 X s 1990 315 m 6 Y s 2004 315 m 6 Y s 1997 318 m20 2011 278 m 14 Y s 2011 303 m 8 Y s 2004 297 m 1 X s
 2017 297 m 1 X s 2008 278 m 6 X s 2008 311 m 6 X s 2004 294 m 6 Y s 2018 294 m 6 Y s 2011 297 m20 2025 299 m 10 Y s 2025 320 m 6 Y s 2018 314 m 1 X s 2030 314 m 2 X s 2022 299 m 6 X s 2022 326 m 6 X s 2018 312 m 5 Y s 2032 312 m 5 Y s 2025 314 m20
 2039 314 m 7 Y s 2039 333 m 4 Y s 2032 327 m 1 X s 2044 327 m 1 X s 2036 314 m 5 X s 2036 337 m 5 X s 2032 324 m 6 Y s 2045 324 m 6 Y s 2039 327 m20 2052 303 m 9 Y s 2052 324 m 5 Y s 2045 318 m 2 X s 2058 318 m 1 X s 2050 303 m 5 X s 2050 329 m 5 X
 s 2045 315 m 6 Y s 2059 315 m 6 Y s 2052 318 m20 2066 271 m 15 Y s 2066 297 m 9 Y s 2059 292 m 1 X s 2072 292 m 1 X s 2063 271 m 6 X s 2063 306 m 6 X s 2059 289 m 5 Y s 2073 289 m 5 Y s 2066 292 m20 2080 295 m 10 Y s 2080 316 m 7 Y s 2073 311 m 1 X
 s 2086 311 m 1 X s 2077 295 m 6 X s 2077 323 m 6 X s 2073 308 m 6 Y s 2087 308 m 6 Y s 2080 311 m20 2094 284 m 12 Y s 2094 308 m 7 Y s 2087 302 m 1 X s 2099 302 m 2 X s 2091 284 m 6 X s 2091 315 m 6 X s 2087 299 m 6 Y s 2101 299 m 6 Y s 2094 302 m20
 2108 253 m 19 Y s 2108 284 m 10 Y s 2101 278 m 1 X s 2113 278 m 1 X s 2105 253 m 5 X s 2105 294 m 5 X s 2101 275 m 6 Y s 2114 275 m 6 Y s 2108 278 m20 1 1 1 c black 1694 118 m 70 Y s 1694 200 m 26 Y s 1687 194 m 1 X s 1700 194 m 1 X s 1691 118 m 6 X
 s 1691 226 m 6 X s 1687 191 m 6 Y s 1701 191 m 6 Y s 1694 194 m24 0 0 1 c[ 12 12] 0 sd 6 lw 1577 118 m 392 Y s 1852 118 m 392 Y s black[  ] 0 sd 3 lw 1 1 1 c 272 268 1320 654 bf black
 gsave  1088 1072 1157 11 C 1386.46 874.164 t 0 r /Helvetica findfont 39.7652 sf 0 0 m (OC data: 11635) show NC gr  1354 889 m20
 gsave  1088 1072 1157 11 C 1386.46 807.466 t 0 r /Helvetica findfont 39.7652 sf 0 0 m (SC data: 1) show NC gr  1354 822 m24
 gsave  1088 1072 1157 11 C 1386.46 740.768 t 0 r /Helvetica findfont 39.7652 sf 0 0 m (OC MC: 25150) show NC gr  1 0 0 c 1354 755 m20 black
 gsave  1088 1072 1157 11 C 1386.46 674.071 t 0 r /Helvetica findfont 39.7652 sf 0 0 m (SC MC: 0) show NC gr  1 0 0 c 1354 688 m24 black
 gsave  1088 1072 1157 11 C 1700.08 901.126 t 0 r /Helvetica-Bold findfont 59.6478 sf 0 0 m (pp collisions) show NC gr 
 gr  gr showpage
end
%%EOF
