%!PS-Adobe-2.0 EPSF-2.0
%%BoundingBox:  0 0 567 354
%%Title: /home/petr/Analysis_iwona/SFAnalysis/eps/Isolation_iso_eta_plus_minus.eps: Resultse
%%Creator: ROOT Version 6.16/00
%%CreationDate: Thu May  9 11:26:46 2019
%%DocumentNeededResources: ProcSet (FontSetInit)
%%EndComments
%%BeginProlog
80 dict begin
/s {stroke} def /l {lineto} def /m {moveto} def /t {translate} def
/r {rotate} def /rl {roll}  def /R {repeat} def
/d {rlineto} def /rm {rmoveto} def /gr {grestore} def /f {eofill} def
/c {setrgbcolor} def /black {0 setgray} def /sd {setdash} def
/cl {closepath} def /sf {scalefont setfont} def /lw {setlinewidth} def
/box {m dup 0 exch d exch 0 d 0 exch neg d cl} def
/NC{systemdict begin initclip end}def/C{NC box clip newpath}def
/bl {box s} def /bf {gsave box gsave f grestore 1 lw [] 0 sd s grestore} def /Y { 0 exch d} def /X { 0 d} def 
/K {{pop pop 0 moveto} exch kshow} bind def
/ita {/ang 15 def gsave [1 0 ang dup sin exch cos div 1 0 0] concat} def 
/mp {newpath /y exch def /x exch def} def
/side {[w .77 mul w .23 mul] .385 w mul sd w 0 l currentpoint t -144 r} def
/mr {mp x y w2 0 360 arc} def /m24 {mr s} def /m20 {mr f} def
/mb {mp x y w2 add m w2 neg 0 d 0 w neg d w 0 d 0 w d cl} def
/mt {mp x y w2 add m w2 neg w neg d w 0 d cl} def
/w4 {w 4 div} def
/w6 {w 6 div} def
/w8 {w 8 div} def
/m21 {mb f} def /m25 {mb s} def /m22 {mt f} def /m26{mt s} def
/m23 {mp x y w2 sub m w2 w d w neg 0 d cl f} def
/m27 {mp x y w2 add m w3 neg w2 neg d w3 w2 neg d w3 w2 d cl s} def
/m28 {mp x w2 sub y w2 sub w3 add m w3 0 d  0 w3 neg d w3 0 d 0 w3 d w3 0 d  0 w3 d w3 neg 0 d 0 w3 d w3 neg 0 d 0 w3 neg d w3 neg 0 d cl s } def
/m29 {mp gsave x w2 sub y w2 add w3 sub m currentpoint t 4 {side} repeat cl fill gr} def
/m30 {mp gsave x w2 sub y w2 add w3 sub m currentpoint t 4 {side} repeat cl s gr} def
/m31 {mp x y w2 sub m 0 w d x w2 sub y m w 0 d x w2 sub y w2 add m w w neg d x w2 sub y w2 sub m w w d s} def
/m32 {mp x y w2 sub m w2 w d w neg 0 d cl s} def
/m33 {mp x y w2 add m w3 neg w2 neg d w3 w2 neg d w3 w2 d cl f} def
/m34 {mp x w2 sub y w2 sub w3 add m w3 0 d  0 w3 neg d w3 0 d 0 w3 d w3 0 d  0 w3 d w3 neg 0 d 0 w3 d w3 neg 0 d 0 w3 neg d w3 neg 0 d cl f } def
/m35 {mp x y w2 add m w2 neg w2 neg d w2 w2 neg d w2 w2 d w2 neg w2 d x y w2 sub m 0 w d x w2 sub y m w 0 d s} def
/m36 {mb x w2 sub y w2 add m w w neg d x w2 sub y w2 sub m w w d s} def
/m37 {mp x y m w4 neg w2 d w4 neg w2 neg d w2 0 d  w4 neg w2 neg d w2 0 d w4 neg w2 d w2 0 d w4 neg w2 d w4 neg w2 neg d cl s} def
/m38 {mp x w4 sub y w2 add m w4 neg w4 neg d 0 w2 neg d w4 w4 neg d w2 0 d w4 w4 d 0 w2 d w4 neg w4 d w2 neg 0 d x y w2 sub m 0 w d x w2 sub y m w 0 d cl s} def
/m39 {mp x y m w4 neg w2 d w4 neg w2 neg d w2 0 d  w4 neg w2 neg d w2 0 d w4 neg w2 d w2 0 d w4 neg w2 d w4 neg w2 neg d cl f} def
/m40 {mp x y m w4 w2 d w4 w4 neg d w2 neg w4 neg d w2 w4 neg d w4 neg w4 neg d w4 neg w2 d w4 neg w2 neg d w4 neg w4 d w2 w4 d w2 neg w4 d w4 w4 d w4 w2 neg d cl s} def
/m41 {mp x y m w4 w2 d w4 w4 neg d w2 neg w4 neg d w2 w4 neg d w4 neg w4 neg d w4 neg w2 d w4 neg w2 neg d w4 neg w4 d w2 w4 d w2 neg w4 d w4 w4 d w4 w2 neg d cl f} def
/m42 {mp x y w2 add m w8 neg w2 -3 4 div mul d w2 -3 4 div mul w8 neg d w2 3 4 div mul w8 neg d w8 w2 -3 4 div mul d w8 w2 3 4 div mul d w2 3 4 div mul w8 d w2 -3 4 div mul w8 d w8 neg w2 3 4 div mul d cl s} def
/m43 {mp x y w2 add m w8 neg w2 -3 4 div mul d w2 -3 4 div mul w8 neg d w2 3 4 div mul w8 neg d w8 w2 -3 4 div mul d w8 w2 3 4 div mul d w2 3 4 div mul w8 d w2 -3 4 div mul w8 d w8 neg w2 3 4 div mul d cl f} def
/m44 {mp x y m w6 neg w2 d w2 2 3 div mul 0 d w6 neg w2 neg d w2 w6 d 0 w2 -2 3 div mul d w2 neg w6 d w6 w2 neg d w2 -2 3 div mul 0 d w6 w2 d w2 neg w6 neg d 0 w2 2 3 div mul d w2 w6 neg d cl s} def
/m45 {mp x y m w6 neg w2 d w2 2 3 div mul 0 d w6 neg w2 neg d w2 w6 d 0 w2 -2 3 div mul d w2 neg w6 d w6 w2 neg d w2 -2 3 div mul 0 d w6 w2 d w2 neg w6 neg d 0 w2 2 3 div mul d w2 w6 neg d cl f} def
/m46 {mp x y w4 add m w4 neg w4 d w4 neg w4 neg d  w4 w4 neg d w4 neg w4 neg d w4 w4 neg d w4 w4 d w4 w4 neg d w4 w4 d w4 neg w4 d w4 w4 d w4 neg w4 d w4 neg w4 neg d cl s} def
/m47 {mp x y w4 add m w4 neg w4 d w4 neg w4 neg d w4 w4 neg d w4 neg w4 neg d  w4 w4 neg d w4 w4 d w4 w4 neg d w4 w4 d w4 neg w4 d w4 w4 d w4 neg w4 d w4 neg w4 neg d cl f} def
/m48 {mp x y w4 add m w4 neg w4 d w4 neg w4 neg d w4 w4 neg d  w4 neg w4 neg d w4 w4 neg d w4 w4 d w4 w4 neg d w4 w4 d w4 neg w4 d w4 w4 d w4 neg w4 d w4 neg w4 neg d  w4 w4 neg d w4 neg w4 neg d w4 neg w4 d w4 w4 d cl f} def
/m49 {mp x w2 sub w3 add y w2 sub w3 add m  0 w3 neg d w3 0 d 0 w3 d w3 0 d 0 w3 d w3 neg 0 d 0 w3 d w3 neg 0 d 0 w3 neg d w3 neg 0 d 0 w3 neg d w3 0 d 0 w3 d w3 0 d 0 w3 neg d w3 neg 0 d cl f } def
/m2 {mp x y w2 sub m 0 w d x w2 sub y m w 0 d s} def
/m5 {mp x w2 sub y w2 sub m w w d x w2 sub y w2 add m w w neg d s} def
%%IncludeResource: ProcSet (FontSetInit)
%%IncludeResource: font Times-Roman
%%IncludeResource: font Times-Italic
%%IncludeResource: font Times-Bold
%%IncludeResource: font Times-BoldItalic
%%IncludeResource: font Helvetica
%%IncludeResource: font Helvetica-Oblique
%%IncludeResource: font Helvetica-Bold
%%IncludeResource: font Helvetica-BoldOblique
%%IncludeResource: font Courier
%%IncludeResource: font Courier-Oblique
%%IncludeResource: font Courier-Bold
%%IncludeResource: font Courier-BoldOblique
%%IncludeResource: font Symbol
%%IncludeResource: font ZapfDingbats
/reEncode {exch findfont dup length dict begin {1 index /FID eq  {pop pop} {def} ifelse } forall /Encoding exch def currentdict end dup /FontName get exch definefont pop } def [/Times-Bold /Times-Italic /Times-BoldItalic /Helvetica /Helvetica-Oblique
 /Helvetica-Bold /Helvetica-BoldOblique /Courier /Courier-Oblique /Courier-Bold /Courier-BoldOblique /Times-Roman /AvantGarde-Book /AvantGarde-BookOblique /AvantGarde-Demi /AvantGarde-DemiOblique /Bookman-Demi /Bookman-DemiItalic /Bookman-Light
 /Bookman-LightItalic /Helvetica-Narrow /Helvetica-Narrow-Bold /Helvetica-Narrow-BoldOblique /Helvetica-Narrow-Oblique /NewCenturySchlbk-Roman /NewCenturySchlbk-Bold /NewCenturySchlbk-BoldItalic /NewCenturySchlbk-Italic /Palatino-Bold
 /Palatino-BoldItalic /Palatino-Italic /Palatino-Roman ] {ISOLatin1Encoding reEncode } forall
%%EndProlog
%%BeginSetup
%%EndSetup
newpath  gsave  .25 .25 scale  gsave  0 0 t black[  ] 0 sd 3 lw 1 1 1 c 2268 1418 0 0 bf black 1 1 1 c 1088 1390 23 14 bf black 1 1 1 c black 1 1 1 c 828 700 153 578 bf black 828 700 153 578 bl 1 1 1 c 828 700 153 578 bf black 828 700 153 578 bl 153
 578 m 828 X s 153 597 m -19 Y s 170 588 m -10 Y s 186 588 m -10 Y s 203 588 m -10 Y s 219 588 m -10 Y s 236 597 m -19 Y s 253 588 m -10 Y s 269 588 m -10 Y s 286 588 m -10 Y s 302 588 m -10 Y s 319 597 m -19 Y s 335 588 m -10 Y s 352 588 m -10 Y s
 368 588 m -10 Y s 385 588 m -10 Y s 401 597 m -19 Y s 418 588 m -10 Y s 435 588 m -10 Y s 451 588 m -10 Y s 468 588 m -10 Y s 484 597 m -19 Y s 501 588 m -10 Y s 517 588 m -10 Y s 534 588 m -10 Y s 550 588 m -10 Y s 567 597 m -19 Y s 583 588 m -10 Y
 s 600 588 m -10 Y s 617 588 m -10 Y s 633 588 m -10 Y s 650 597 m -19 Y s 666 588 m -10 Y s 683 588 m -10 Y s 699 588 m -10 Y s 716 588 m -10 Y s 732 597 m -19 Y s 749 588 m -10 Y s 765 588 m -10 Y s 782 588 m -10 Y s 799 588 m -10 Y s 815 597 m -19
 Y s 832 588 m -10 Y s 848 588 m -10 Y s 865 588 m -10 Y s 881 588 m -10 Y s 898 597 m -19 Y s 914 588 m -10 Y s 931 588 m -10 Y s 947 588 m -10 Y s 964 588 m -10 Y s 981 597 m -19 Y s
 gsave  1088 834 23 570 C 141.91 552.029 t 0 r /Helvetica findfont 26.9818 sf 0 0 m (2.5) show NC gr 
 gsave  1088 834 23 570 C 126.3 552.029 t 0 r /Symbol findfont 26.9818 sf 0 0 m (-) show NC gr 
 gsave  1088 834 23 570 C 235.57 552.029 t 0 r /Helvetica findfont 26.9818 sf 0 0 m (2) show NC gr 
 gsave  1088 834 23 570 C 219.96 552.029 t 0 r /Symbol findfont 26.9818 sf 0 0 m (-) show NC gr 
 gsave  1088 834 23 570 C 306.525 552.029 t 0 r /Helvetica findfont 26.9818 sf 0 0 m (1.5) show NC gr 
 gsave  1088 834 23 570 C 290.915 552.029 t 0 r /Symbol findfont 26.9818 sf 0 0 m (-) show NC gr 
 gsave  1088 834 23 570 C 401.604 552.029 t 0 r /Helvetica findfont 26.9818 sf 0 0 m (1) show NC gr 
 gsave  1088 834 23 570 C 387.413 552.029 t 0 r /Symbol findfont 26.9818 sf 0 0 m (-) show NC gr 
 gsave  1088 834 23 570 C 472.559 552.029 t 0 r /Helvetica findfont 26.9818 sf 0 0 m (0.5) show NC gr 
 gsave  1088 834 23 570 C 456.949 552.029 t 0 r /Symbol findfont 26.9818 sf 0 0 m (-) show NC gr 
 gsave  1088 834 23 570 C 559.124 552.029 t 0 r /Helvetica findfont 26.9818 sf 0 0 m (0) show NC gr 
 gsave  1088 834 23 570 C 630.079 552.029 t 0 r /Helvetica findfont 26.9818 sf 0 0 m (0.5) show NC gr 
 gsave  1088 834 23 570 C 726.578 552.029 t 0 r /Helvetica findfont 26.9818 sf 0 0 m (1) show NC gr 
 gsave  1088 834 23 570 C 796.113 552.029 t 0 r /Helvetica findfont 26.9818 sf 0 0 m (1.5) show NC gr 
 gsave  1088 834 23 570 C 889.774 552.029 t 0 r /Helvetica findfont 26.9818 sf 0 0 m (2) show NC gr 
 gsave  1088 834 23 570 C 960.728 552.029 t 0 r /Helvetica findfont 26.9818 sf 0 0 m (2.5) show NC gr 
 gsave  1088 834 23 570 C 967.824 537.838 t 0 r /Symbol findfont 18.4612 sf 0 0 m (m) show NC gr 
 gsave  1088 834 23 570 C 952.214 525.066 t 0 r /Symbol findfont 26.9818 sf 0 0 m (h) show NC gr  153 1278 m 828 X s 153 1259 m 19 Y s 170 1269 m 9 Y s 186 1269 m 9 Y s 203 1269 m 9 Y s 219 1269 m 9 Y s 236 1259 m 19 Y s 253 1269 m 9 Y s 269 1269 m 9
 Y s 286 1269 m 9 Y s 302 1269 m 9 Y s 319 1259 m 19 Y s 335 1269 m 9 Y s 352 1269 m 9 Y s 368 1269 m 9 Y s 385 1269 m 9 Y s 401 1259 m 19 Y s 418 1269 m 9 Y s 435 1269 m 9 Y s 451 1269 m 9 Y s 468 1269 m 9 Y s 484 1259 m 19 Y s 501 1269 m 9 Y s 517
 1269 m 9 Y s 534 1269 m 9 Y s 550 1269 m 9 Y s 567 1259 m 19 Y s 583 1269 m 9 Y s 600 1269 m 9 Y s 617 1269 m 9 Y s 633 1269 m 9 Y s 650 1259 m 19 Y s 666 1269 m 9 Y s 683 1269 m 9 Y s 699 1269 m 9 Y s 716 1269 m 9 Y s 732 1259 m 19 Y s 749 1269 m 9
 Y s 765 1269 m 9 Y s 782 1269 m 9 Y s 799 1269 m 9 Y s 815 1259 m 19 Y s 832 1269 m 9 Y s 848 1269 m 9 Y s 865 1269 m 9 Y s 881 1269 m 9 Y s 898 1259 m 19 Y s 914 1269 m 9 Y s 931 1269 m 9 Y s 947 1269 m 9 Y s 964 1269 m 9 Y s 981 1259 m 19 Y s 153
 578 m 700 Y s 181 648 m -28 X s 167 662 m -14 X s 167 676 m -14 X s 167 690 m -14 X s 167 704 m -14 X s 181 718 m -28 X s 167 732 m -14 X s 167 746 m -14 X s 167 760 m -14 X s 167 774 m -14 X s 181 788 m -28 X s 167 802 m -14 X s 167 816 m -14 X s
 167 830 m -14 X s 167 844 m -14 X s 181 858 m -28 X s 167 872 m -14 X s 167 886 m -14 X s 167 900 m -14 X s 167 914 m -14 X s 181 928 m -28 X s 167 942 m -14 X s 167 956 m -14 X s 167 970 m -14 X s 167 984 m -14 X s 181 998 m -28 X s 167 1012 m -14
 X s 167 1026 m -14 X s 167 1040 m -14 X s 167 1054 m -14 X s 181 1068 m -28 X s 167 1082 m -14 X s 167 1096 m -14 X s 167 1110 m -14 X s 167 1124 m -14 X s 181 1138 m -28 X s 167 1152 m -14 X s 167 1166 m -14 X s 167 1180 m -14 X s 167 1194 m -14 X
 s 181 1208 m -28 X s 167 1222 m -14 X s 167 1236 m -14 X s 167 1250 m -14 X s 167 1264 m -14 X s 181 1278 m -28 X s 181 648 m -28 X s 167 634 m -14 X s 167 620 m -14 X s 167 606 m -14 X s 167 592 m -14 X s
 gsave  1088 834 23 570 C 107.851 635.755 t 0 r /Helvetica findfont 32.6621 sf 0 0 m (0.1) show NC gr 
 gsave  1088 834 23 570 C 103.594 705.291 t 0 r /Helvetica findfont 32.6621 sf 0 0 m (0.2) show NC gr 
 gsave  1088 834 23 570 C 103.594 776.246 t 0 r /Helvetica findfont 32.6621 sf 0 0 m (0.3) show NC gr 
 gsave  1088 834 23 570 C 102.175 845.782 t 0 r /Helvetica findfont 32.6621 sf 0 0 m (0.4) show NC gr 
 gsave  1088 834 23 570 C 102.175 915.317 t 0 r /Helvetica findfont 32.6621 sf 0 0 m (0.5) show NC gr 
 gsave  1088 834 23 570 C 102.175 986.272 t 0 r /Helvetica findfont 32.6621 sf 0 0 m (0.6) show NC gr 
 gsave  1088 834 23 570 C 102.175 1055.81 t 0 r /Helvetica findfont 32.6621 sf 0 0 m (0.7) show NC gr 
 gsave  1088 834 23 570 C 102.175 1126.76 t 0 r /Helvetica findfont 32.6621 sf 0 0 m (0.8) show NC gr 
 gsave  1088 834 23 570 C 103.594 1196.3 t 0 r /Helvetica findfont 32.6621 sf 0 0 m (0.9) show NC gr 
 gsave  1088 834 23 570 C 134.814 1265.83 t 0 r /Helvetica findfont 32.6621 sf 0 0 m (1) show NC gr 
 gsave  1088 834 23 570 C 56.7639 891.193 t 90 r /Helvetica findfont 46.8631 sf 0 0 m (Isolation Efficiency) show NC gr  981 578 m 700 Y s 953 648 m 28 X s 967 662 m 14 X s 967 676 m 14 X s 967 690 m 14 X s 967 704 m 14 X s 953 718 m 28 X s 967 732 m
 14 X s 967 746 m 14 X s 967 760 m 14 X s 967 774 m 14 X s 953 788 m 28 X s 967 802 m 14 X s 967 816 m 14 X s 967 830 m 14 X s 967 844 m 14 X s 953 858 m 28 X s 967 872 m 14 X s 967 886 m 14 X s 967 900 m 14 X s 967 914 m 14 X s 953 928 m 28 X s 967
 942 m 14 X s 967 956 m 14 X s 967 970 m 14 X s 967 984 m 14 X s 953 998 m 28 X s 967 1012 m 14 X s 967 1026 m 14 X s 967 1040 m 14 X s 967 1054 m 14 X s 953 1068 m 28 X s 967 1082 m 14 X s 967 1096 m 14 X s 967 1110 m 14 X s 967 1124 m 14 X s 953
 1138 m 28 X s 967 1152 m 14 X s 967 1166 m 14 X s 967 1180 m 14 X s 967 1194 m 14 X s 953 1208 m 28 X s 967 1222 m 14 X s 967 1236 m 14 X s 967 1250 m 14 X s 967 1264 m 14 X s 953 1278 m 28 X s 953 648 m 28 X s 967 634 m 14 X s 967 620 m 14 X s 967
 606 m 14 X s 967 592 m 14 X s 1 0 0 c 174 1182 m -21 X s 153 1179 m 6 Y s 174 1182 m 21 X s 195 1179 m 6 Y s 174 1182 m 13 Y s 171 1195 m 6 X s 174 1182 m -14 Y s 171 1168 m 6 X s 215 1190 m -20 X s 195 1187 m 6 Y s 215 1190 m 21 X s 236 1187 m 6 Y
 s 215 1190 m 9 Y s 213 1199 m 5 X s 215 1190 m -10 Y s 213 1180 m 5 X s 257 1196 m -21 X s 236 1193 m 6 Y s 257 1196 m 20 X s 277 1193 m 6 Y s 257 1196 m 8 Y s 254 1204 m 6 X s 257 1196 m -9 Y s 254 1187 m 6 X s 298 1180 m -21 X s 277 1177 m 6 Y s
 298 1180 m 21 X s 319 1177 m 6 Y s 298 1180 m 8 Y s 295 1188 m 6 X s 298 1180 m -9 Y s 295 1171 m 6 X s 339 1193 m -20 X s 319 1190 m 6 Y s 339 1193 m 21 X s 360 1190 m 6 Y s 339 1193 m 7 Y s 337 1200 m 5 X s 339 1193 m -8 Y s 337 1185 m 5 X s 381
 1082 m -21 X s 360 1079 m 5 Y s 381 1082 m 20 X s 401 1079 m 5 Y s 381 1082 m 10 Y s 378 1092 m 6 X s 381 1082 m -11 Y s 378 1071 m 6 X s 422 1067 m -21 X s 401 1064 m 6 Y s 422 1067 m 21 X s 443 1064 m 6 Y s 422 1067 m 10 Y s 419 1077 m 6 X s 422
 1067 m -11 Y s 419 1056 m 6 X s 464 1125 m -21 X s 443 1122 m 6 Y s 464 1125 m 20 X s 484 1122 m 6 Y s 464 1125 m 9 Y s 461 1134 m 5 X s 464 1125 m -9 Y s 461 1116 m 5 X s 505 1125 m -21 X s 484 1122 m 6 Y s 505 1125 m 21 X s 526 1122 m 6 Y s 505
 1125 m 9 Y s 502 1134 m 6 X s 505 1125 m -9 Y s 502 1116 m 6 X s 546 1036 m -20 X s 526 1033 m 5 Y s 546 1036 m 21 X s 567 1033 m 5 Y s 546 1036 m 10 Y s 543 1046 m 6 X s 546 1036 m -11 Y s 543 1025 m 6 X s 588 1068 m -21 X s 567 1065 m 6 Y s 588
 1068 m 20 X s 608 1065 m 6 Y s 588 1068 m 11 Y s 585 1079 m 5 X s 588 1068 m -10 Y s 585 1058 m 5 X s 629 1129 m -21 X s 608 1126 m 5 Y s 629 1129 m 21 X s 650 1126 m 5 Y s 629 1129 m 8 Y s 626 1137 m 6 X s 629 1129 m -9 Y s 626 1120 m 6 X s 670
 1125 m -20 X s 650 1122 m 6 Y s 670 1125 m 21 X s 691 1122 m 6 Y s 670 1125 m 9 Y s 667 1134 m 6 X s 670 1125 m -9 Y s 667 1116 m 6 X s 712 1056 m -21 X s 691 1053 m 5 Y s 712 1056 m 20 X s 732 1053 m 5 Y s 712 1056 m 10 Y s 709 1066 m 6 X s 712
 1056 m -11 Y s 709 1045 m 6 X s 753 1099 m -21 X s 732 1097 m 5 Y s 753 1099 m 21 X s 774 1097 m 5 Y s 753 1099 m 10 Y s 750 1109 m 6 X s 753 1099 m -10 Y s 750 1089 m 6 X s 794 1195 m -20 X s 774 1192 m 6 Y s 794 1195 m 21 X s 815 1192 m 6 Y s 794
 1195 m 8 Y s 792 1203 m 5 X s 794 1195 m -8 Y s 792 1187 m 5 X s 836 1162 m -21 X s 815 1159 m 6 Y s 836 1162 m 20 X s 856 1159 m 6 Y s 836 1162 m 9 Y s 833 1171 m 6 X s 836 1162 m -10 Y s 833 1152 m 6 X s 877 1178 m -21 X s 856 1175 m 6 Y s 877
 1178 m 21 X s 898 1175 m 6 Y s 877 1178 m 9 Y s 874 1187 m 6 X s 877 1178 m -10 Y s 874 1168 m 6 X s 919 1169 m -21 X s 898 1166 m 5 Y s 919 1169 m 20 X s 939 1166 m 5 Y s 919 1169 m 10 Y s 916 1179 m 5 X s 919 1169 m -11 Y s 916 1158 m 5 X s 960
 1183 m -21 X s 939 1180 m 6 Y s 960 1183 m 21 X s 981 1180 m 6 Y s 960 1183 m 13 Y s 957 1196 m 6 X s 960 1183 m -14 Y s 957 1169 m 6 X s 0.95 0.95 0.95 c 1 0 0 c /w 12 def /w2 {w 2 div} def /w3 {w 3 div} def 174 1182 215 1190 257 1196 298 1180 339
 1193 381 1082 422 1067 464 1125 505 1125 546 1036 588 1068 629 1129 670 1125 712 1056 753 1099 794 1195 836 1162 877 1178 919 1169 960 1183 20 { m24} R black 168 1126 m -15 X s 153 1123 m 6 Y s 180 1126 m 15 X s 195 1123 m 6 Y s 174 1132 m 17 Y s
 171 1149 m 6 X s 174 1120 m -20 Y s 171 1100 m 6 X s 210 1175 m -15 X s 195 1172 m 6 Y s 221 1175 m 15 X s 236 1172 m 6 Y s 215 1180 m 9 Y s 213 1189 m 5 X s 215 1169 m -10 Y s 213 1159 m 5 X s 251 1185 m -15 X s 236 1182 m 6 Y s 262 1185 m 15 X s
 277 1182 m 6 Y s 257 1191 m 7 Y s 254 1198 m 6 X s 257 1180 m -9 Y s 254 1171 m 6 X s 292 1149 m -15 X s 277 1146 m 6 Y s 304 1149 m 15 X s 319 1146 m 6 Y s 298 1155 m 8 Y s 295 1163 m 6 X s 298 1144 m -10 Y s 295 1134 m 6 X s 334 1187 m -15 X s 319
 1184 m 5 Y s 345 1187 m 15 X s 360 1184 m 5 Y s 339 1192 m 7 Y s 337 1199 m 5 X s 339 1181 m -8 Y s 337 1173 m 5 X s 375 1066 m -15 X s 360 1063 m 6 Y s 386 1066 m 15 X s 401 1063 m 6 Y s 381 1072 m 9 Y s 378 1081 m 6 X s 381 1060 m -10 Y s 378 1050
 m 6 X s 416 986 m -15 X s 401 983 m 6 Y s 428 986 m 15 X s 443 983 m 6 Y s 422 992 m 10 Y s 419 1002 m 6 X s 422 980 m -10 Y s 419 970 m 6 X s 458 1072 m -15 X s 443 1069 m 6 Y s 469 1072 m 15 X s 484 1069 m 6 Y s 464 1078 m 9 Y s 461 1087 m 5 X s
 464 1066 m -10 Y s 461 1056 m 5 X s 499 1065 m -15 X s 484 1063 m 5 Y s 511 1065 m 15 X s 526 1063 m 5 Y s 505 1071 m 9 Y s 502 1080 m 6 X s 505 1060 m -10 Y s 502 1050 m 6 X s 541 982 m -15 X s 526 979 m 6 Y s 552 982 m 15 X s 567 979 m 6 Y s 546
 987 m 12 Y s 543 999 m 6 X s 546 976 m -12 Y s 543 964 m 6 X s 582 993 m -15 X s 567 990 m 6 Y s 593 993 m 15 X s 608 990 m 6 Y s 588 998 m 11 Y s 585 1009 m 5 X s 588 987 m -11 Y s 585 976 m 5 X s 623 1030 m -15 X s 608 1027 m 6 Y s 635 1030 m 15 X
 s 650 1027 m 6 Y s 629 1035 m 10 Y s 626 1045 m 6 X s 629 1024 m -10 Y s 626 1014 m 6 X s 665 1045 m -15 X s 650 1042 m 6 Y s 676 1045 m 15 X s 691 1042 m 6 Y s 670 1050 m 10 Y s 667 1060 m 6 X s 670 1039 m -10 Y s 667 1029 m 6 X s 706 963 m -15 X s
 691 960 m 6 Y s 717 963 m 15 X s 732 960 m 6 Y s 712 969 m 10 Y s 709 979 m 6 X s 712 957 m -11 Y s 709 946 m 6 X s 747 1107 m -15 X s 732 1104 m 6 Y s 759 1107 m 15 X s 774 1104 m 6 Y s 753 1112 m 10 Y s 750 1122 m 6 X s 753 1101 m -10 Y s 750 1091
 m 6 X s 789 1193 m -15 X s 774 1191 m 5 Y s 800 1193 m 15 X s 815 1191 m 5 Y s 794 1199 m 6 Y s 792 1205 m 5 X s 794 1188 m -8 Y s 792 1180 m 5 X s 830 1159 m -15 X s 815 1156 m 6 Y s 841 1159 m 15 X s 856 1156 m 6 Y s 836 1165 m 8 Y s 833 1173 m 6
 X s 836 1154 m -10 Y s 833 1144 m 6 X s 871 1160 m -15 X s 856 1157 m 6 Y s 883 1160 m 15 X s 898 1157 m 6 Y s 877 1166 m 9 Y s 874 1175 m 6 X s 877 1155 m -11 Y s 874 1144 m 6 X s 913 1175 m -15 X s 898 1173 m 5 Y s 924 1175 m 15 X s 939 1173 m 5 Y
 s 919 1181 m 9 Y s 916 1190 m 5 X s 919 1170 m -11 Y s 916 1159 m 5 X s 954 1150 m -15 X s 939 1147 m 6 Y s 966 1150 m 15 X s 981 1147 m 6 Y s 960 1156 m 15 Y s 957 1171 m 6 X s 960 1144 m -18 Y s 957 1126 m 6 X s 0.95 0.95 0.95 c black 174 1126 215
 1175 257 1185 298 1149 339 1187 381 1066 422 986 464 1072 505 1065 546 982 588 993 629 1030 670 1045 712 963 753 1107 794 1193 836 1159 877 1160 919 1175 960 1150 20 { m20} R 1 1 1 c 218 166 240 737 bf black
 gsave  1088 834 23 570 C 429.986 858.554 t 0 r /Helvetica findfont 28.4019 sf 0 0 m (+) show NC gr 
 gsave  1088 834 23 570 C 404.443 842.943 t 0 r /Symbol findfont 44.0229 sf 0 0 m (m) show NC gr 
 gsave  1088 834 23 570 C 293.753 842.943 t 0 r /Helvetica findfont 44.0229 sf 0 0 m (data, ) show NC gr  268 862 m20
 gsave  1088 834 23 570 C 412.957 776.246 t 0 r /Helvetica findfont 28.4019 sf 0 0 m (+) show NC gr 
 gsave  1088 834 23 570 C 387.413 760.636 t 0 r /Symbol findfont 44.0229 sf 0 0 m (m) show NC gr 
 gsave  1088 834 23 570 C 293.753 760.636 t 0 r /Helvetica findfont 44.0229 sf 0 0 m (MC, ) show NC gr  1 0 0 c 268 778 m24 black
 gsave  1088 834 23 570 C 808.885 682.586 t 0 r /Helvetica-Bold findfont 41.1827 sf 0 0 m (\2551) show NC gr 
 gsave  1088 834 23 570 C 305.106 654.204 t 0 r /Helvetica-Bold findfont 62.4841 sf 0 0 m ( = 13 TeV, 22.1 fb) show NC gr 
 gsave  1088 834 23 570 C 272.467 654.204 t 0 r /Helvetica-Bold findfont 62.4841 sf 0 0 m (s) show NC gr  6 lw 253 690 m 5 -39 d s 3 lw 258 651 m 7 56 d s 265 707 m 40 X s 1 1 1 c black 1 1 1 c 828 376 153 200 bf black 828 376 153 200 bl 1 1 1 c 828
 376 153 200 bf black 828 376 153 200 bl 1 1 1 c black 174 256 m 39 Y s 174 306 m 39 Y s 153 301 m 15 X s 180 301 m 15 X s 171 256 m 6 X s 171 345 m 6 X s 153 298 m 6 Y s 195 298 m 6 Y s /w 11 def /w2 {w 2 div} def /w3 {w 3 div} def 174 301 m20 215
 335 m 24 Y s 215 370 m 24 Y s 195 364 m 15 X s 221 364 m 15 X s 213 335 m 5 X s 213 394 m 5 X s 195 362 m 5 Y s 236 362 m 5 Y s 215 364 m20 257 346 m 20 Y s 257 377 m 20 Y s 236 372 m 15 X s 262 372 m 15 X s 254 346 m 6 X s 254 397 m 6 X s 236 369 m
 6 Y s 277 369 m 6 Y s 257 372 m20 298 312 m 22 Y s 298 346 m 21 Y s 277 340 m 15 X s 304 340 m 15 X s 295 312 m 6 X s 295 367 m 6 X s 277 337 m 6 Y s 319 337 m 6 Y s 298 340 m20 339 354 m 19 Y s 339 384 m 19 Y s 319 379 m 15 X s 345 379 m 15 X s 337
 354 m 5 X s 337 403 m 5 X s 319 376 m 5 Y s 360 376 m 5 Y s 339 379 m20 381 323 m 30 Y s 381 364 m 30 Y s 360 358 m 15 X s 386 358 m 15 X s 378 323 m 6 X s 378 394 m 6 X s 360 356 m 5 Y s 401 356 m 5 Y s 381 358 m20 422 200 m 27 Y s 422 238 m 30 Y s
 401 233 m 15 X s 428 233 m 15 X s 419 200 m 6 X s 419 268 m 6 X s 401 230 m 5 Y s 443 230 m 5 Y s 422 233 m20 464 265 m 26 Y s 464 302 m 25 Y s 443 296 m 15 X s 469 296 m 15 X s 461 265 m 5 X s 461 327 m 5 X s 443 294 m 5 Y s 484 294 m 5 Y s 464 296
 m20 505 255 m 25 Y s 505 291 m 24 Y s 484 285 m 15 X s 511 285 m 15 X s 502 255 m 6 X s 502 315 m 6 X s 484 282 m 6 Y s 526 282 m 6 Y s 505 285 m20 546 235 m 37 Y s 546 283 m 36 Y s 526 277 m 15 X s 552 277 m 15 X s 543 235 m 6 X s 543 319 m 6 X s
 526 274 m 6 Y s 567 274 m 6 Y s 546 277 m20 588 207 m 31 Y s 588 249 m 31 Y s 567 243 m 15 X s 593 243 m 15 X s 585 207 m 5 X s 585 280 m 5 X s 567 240 m 6 Y s 608 240 m 6 Y s 588 243 m20 629 200 m 13 Y s 629 225 m 23 Y s 608 219 m 15 X s 635 219 m
 15 X s 626 200 m 6 X s 626 248 m 6 X s 608 216 m 6 Y s 650 216 m 6 Y s 629 219 m20 670 220 m 25 Y s 670 256 m 25 Y s 650 250 m 15 X s 676 250 m 15 X s 667 220 m 6 X s 667 281 m 6 X s 650 248 m 5 Y s 691 248 m 5 Y s 670 250 m20 712 211 m 31 Y s 691
 205 m 15 X s 717 205 m 15 X s 709 242 m 6 X s 691 203 m 5 Y s 732 203 m 5 Y s 712 205 m20 753 367 m 29 Y s 753 407 m 28 Y s 732 401 m 15 X s 759 401 m 15 X s 750 367 m 6 X s 750 435 m 6 X s 732 398 m 6 Y s 774 398 m 6 Y s 753 401 m20 794 362 m 18 Y
 s 794 391 m 18 Y s 774 385 m 15 X s 800 385 m 15 X s 792 362 m 5 X s 792 409 m 5 X s 774 383 m 5 Y s 815 383 m 5 Y s 794 385 m20 836 354 m 23 Y s 836 389 m 23 Y s 815 383 m 15 X s 841 383 m 15 X s 833 354 m 6 X s 833 412 m 6 X s 815 380 m 6 Y s 856
 380 m 6 Y s 836 383 m20 877 331 m 23 Y s 877 366 m 23 Y s 856 360 m 15 X s 883 360 m 15 X s 874 331 m 6 X s 874 389 m 6 X s 856 357 m 6 Y s 898 357 m 6 Y s 877 360 m20 919 367 m 26 Y s 919 404 m 26 Y s 898 399 m 15 X s 924 399 m 15 X s 916 367 m 5 X
 s 916 430 m 5 X s 898 396 m 6 Y s 939 396 m 6 Y s 919 399 m20 960 200 m 131 Y s 960 342 m 234 Y s 939 336 m 15 X s 966 336 m 15 X s 957 200 m 6 X s 957 576 m 6 X s 939 334 m 5 Y s 981 334 m 5 Y s 960 336 m20 153 200 m 828 X s 153 213 m -13 Y s 170
 206 m -6 Y s 186 206 m -6 Y s 203 206 m -6 Y s 219 206 m -6 Y s 236 213 m -13 Y s 253 206 m -6 Y s 269 206 m -6 Y s 286 206 m -6 Y s 302 206 m -6 Y s 319 213 m -13 Y s 335 206 m -6 Y s 352 206 m -6 Y s 368 206 m -6 Y s 385 206 m -6 Y s 401 213 m -13
 Y s 418 206 m -6 Y s 435 206 m -6 Y s 451 206 m -6 Y s 468 206 m -6 Y s 484 213 m -13 Y s 501 206 m -6 Y s 517 206 m -6 Y s 534 206 m -6 Y s 550 206 m -6 Y s 567 213 m -13 Y s 583 206 m -6 Y s 600 206 m -6 Y s 617 206 m -6 Y s 633 206 m -6 Y s 650
 213 m -13 Y s 666 206 m -6 Y s 683 206 m -6 Y s 699 206 m -6 Y s 716 206 m -6 Y s 732 213 m -13 Y s 749 206 m -6 Y s 765 206 m -6 Y s 782 206 m -6 Y s 799 206 m -6 Y s 815 213 m -13 Y s 832 206 m -6 Y s 848 206 m -6 Y s 865 206 m -6 Y s 881 206 m -6
 Y s 898 213 m -13 Y s 914 206 m -6 Y s 931 206 m -6 Y s 947 206 m -6 Y s 964 206 m -6 Y s 981 213 m -13 Y s
 gsave  1088 572 23 28 C 139.071 166.034 t 0 r /Helvetica findfont 32.6681 sf 0 0 m (2.5) show NC gr 
 gsave  1088 572 23 28 C 120.623 166.034 t 0 r /Symbol findfont 32.6681 sf 0 0 m (-) show NC gr 
 gsave  1088 572 23 28 C 235.57 166.034 t 0 r /Helvetica findfont 32.6681 sf 0 0 m (2) show NC gr 
 gsave  1088 572 23 28 C 217.122 166.034 t 0 r /Symbol findfont 32.6681 sf 0 0 m (-) show NC gr 
 gsave  1088 572 23 28 C 303.687 166.034 t 0 r /Helvetica findfont 32.6681 sf 0 0 m (1.5) show NC gr 
 gsave  1088 572 23 28 C 285.238 166.034 t 0 r /Symbol findfont 32.6681 sf 0 0 m (-) show NC gr 
 gsave  1088 572 23 28 C 401.604 166.034 t 0 r /Helvetica findfont 32.6681 sf 0 0 m (1) show NC gr 
 gsave  1088 572 23 28 C 384.575 166.034 t 0 r /Symbol findfont 32.6681 sf 0 0 m (-) show NC gr 
 gsave  1088 572 23 28 C 469.721 166.034 t 0 r /Helvetica findfont 32.6681 sf 0 0 m (0.5) show NC gr 
 gsave  1088 572 23 28 C 451.273 166.034 t 0 r /Symbol findfont 32.6681 sf 0 0 m (-) show NC gr 
 gsave  1088 572 23 28 C 557.705 166.034 t 0 r /Helvetica findfont 32.6681 sf 0 0 m (0) show NC gr 
 gsave  1088 572 23 28 C 625.822 166.034 t 0 r /Helvetica findfont 32.6681 sf 0 0 m (0.5) show NC gr 
 gsave  1088 572 23 28 C 725.158 166.034 t 0 r /Helvetica findfont 32.6681 sf 0 0 m (1) show NC gr 
 gsave  1088 572 23 28 C 791.856 166.034 t 0 r /Helvetica findfont 32.6681 sf 0 0 m (1.5) show NC gr 
 gsave  1088 572 23 28 C 888.355 166.034 t 0 r /Helvetica findfont 32.6681 sf 0 0 m (2) show NC gr 
 gsave  1088 572 23 28 C 956.471 166.034 t 0 r /Helvetica findfont 32.6681 sf 0 0 m (2.5) show NC gr 
 gsave  1088 572 23 28 C 962.148 102.175 t 0 r /Symbol findfont 28.407 sf 0 0 m (m) show NC gr 
 gsave  1088 572 23 28 C 939.442 80.8885 t 0 r /Symbol findfont 42.6105 sf 0 0 m (h) show NC gr  153 576 m 828 X s 153 563 m 13 Y s 170 569 m 7 Y s 186 569 m 7 Y s 203 569 m 7 Y s 219 569 m 7 Y s 236 563 m 13 Y s 253 569 m 7 Y s 269 569 m 7 Y s 286
 569 m 7 Y s 302 569 m 7 Y s 319 563 m 13 Y s 335 569 m 7 Y s 352 569 m 7 Y s 368 569 m 7 Y s 385 569 m 7 Y s 401 563 m 13 Y s 418 569 m 7 Y s 435 569 m 7 Y s 451 569 m 7 Y s 468 569 m 7 Y s 484 563 m 13 Y s 501 569 m 7 Y s 517 569 m 7 Y s 534 569 m
 7 Y s 550 569 m 7 Y s 567 563 m 13 Y s 583 569 m 7 Y s 600 569 m 7 Y s 617 569 m 7 Y s 633 569 m 7 Y s 650 563 m 13 Y s 666 569 m 7 Y s 683 569 m 7 Y s 699 569 m 7 Y s 716 569 m 7 Y s 732 563 m 13 Y s 749 569 m 7 Y s 765 569 m 7 Y s 782 569 m 7 Y s
 799 569 m 7 Y s 815 563 m 13 Y s 832 569 m 7 Y s 848 569 m 7 Y s 865 569 m 7 Y s 881 569 m 7 Y s 898 563 m 13 Y s 914 569 m 7 Y s 931 569 m 7 Y s 947 569 m 7 Y s 964 569 m 7 Y s 981 563 m 13 Y s 153 200 m 376 Y s 175 200 m -22 X s 164 219 m -11 X s
 164 237 m -11 X s 164 256 m -11 X s 164 275 m -11 X s 175 294 m -22 X s 164 313 m -11 X s 164 331 m -11 X s 164 350 m -11 X s 164 369 m -11 X s 175 388 m -22 X s 164 407 m -11 X s 164 425 m -11 X s 164 444 m -11 X s 164 463 m -11 X s 175 482 m -22 X
 s 164 501 m -11 X s 164 519 m -11 X s 164 538 m -11 X s 164 557 m -11 X s 175 576 m -22 X s
 gsave  1088 572 23 28 C 96.4986 187.321 t 0 r /Helvetica findfont 32.6681 sf 0 0 m (0.8) show NC gr 
 gsave  1088 572 23 28 C 97.9177 282.4 t 0 r /Helvetica findfont 32.6681 sf 0 0 m (0.9) show NC gr 
 gsave  1088 572 23 28 C 129.138 376.061 t 0 r /Helvetica findfont 32.6681 sf 0 0 m (1) show NC gr 
 gsave  1088 572 23 28 C 102.175 469.721 t 0 r /Helvetica findfont 32.6681 sf 0 0 m (1.1) show NC gr 
 gsave  1088 572 23 28 C 97.9177 563.381 t 0 r /Helvetica findfont 32.6681 sf 0 0 m (1.2) show NC gr 
 gsave  1088 572 23 28 C 56.7639 282.4 t 90 r /Helvetica findfont 42.6105 sf 0 0 m (Data/MC         ) show NC gr  981 200 m 376 Y s 959 200 m 22 X s 970 219 m 11 X s 970 237 m 11 X s 970 256 m 11 X s 970 275 m 11 X s 959 294 m 22 X s 970 313 m 11 X s
 970 331 m 11 X s 970 350 m 11 X s 970 369 m 11 X s 959 388 m 22 X s 970 407 m 11 X s 970 425 m 11 X s 970 444 m 11 X s 970 463 m 11 X s 959 482 m 22 X s 970 501 m 11 X s 970 519 m 11 X s 970 538 m 11 X s 970 557 m 11 X s 959 576 m 22 X s 0 0 1 c[ 12
 12] 0 sd 6 lw 153 388 m 828 X s 153 388 m 828 X s black[  ] 0 sd 3 lw 1 1 1 c black 174 256 m 39 Y s 174 306 m 39 Y s 153 301 m 15 X s 180 301 m 15 X s 171 256 m 6 X s 171 345 m 6 X s 153 298 m 6 Y s 195 298 m 6 Y s 174 301 m20 215 335 m 24 Y s 215
 370 m 24 Y s 195 364 m 15 X s 221 364 m 15 X s 213 335 m 5 X s 213 394 m 5 X s 195 362 m 5 Y s 236 362 m 5 Y s 215 364 m20 257 346 m 20 Y s 257 377 m 20 Y s 236 372 m 15 X s 262 372 m 15 X s 254 346 m 6 X s 254 397 m 6 X s 236 369 m 6 Y s 277 369 m
 6 Y s 257 372 m20 298 312 m 22 Y s 298 346 m 21 Y s 277 340 m 15 X s 304 340 m 15 X s 295 312 m 6 X s 295 367 m 6 X s 277 337 m 6 Y s 319 337 m 6 Y s 298 340 m20 339 354 m 19 Y s 339 384 m 19 Y s 319 379 m 15 X s 345 379 m 15 X s 337 354 m 5 X s 337
 403 m 5 X s 319 376 m 5 Y s 360 376 m 5 Y s 339 379 m20 381 323 m 30 Y s 381 364 m 30 Y s 360 358 m 15 X s 386 358 m 15 X s 378 323 m 6 X s 378 394 m 6 X s 360 356 m 5 Y s 401 356 m 5 Y s 381 358 m20 422 200 m 27 Y s 422 238 m 30 Y s 401 233 m 15 X
 s 428 233 m 15 X s 419 200 m 6 X s 419 268 m 6 X s 401 230 m 5 Y s 443 230 m 5 Y s 422 233 m20 464 265 m 26 Y s 464 302 m 25 Y s 443 296 m 15 X s 469 296 m 15 X s 461 265 m 5 X s 461 327 m 5 X s 443 294 m 5 Y s 484 294 m 5 Y s 464 296 m20 505 255 m
 25 Y s 505 291 m 24 Y s 484 285 m 15 X s 511 285 m 15 X s 502 255 m 6 X s 502 315 m 6 X s 484 282 m 6 Y s 526 282 m 6 Y s 505 285 m20 546 235 m 37 Y s 546 283 m 36 Y s 526 277 m 15 X s 552 277 m 15 X s 543 235 m 6 X s 543 319 m 6 X s 526 274 m 6 Y s
 567 274 m 6 Y s 546 277 m20 588 207 m 31 Y s 588 249 m 31 Y s 567 243 m 15 X s 593 243 m 15 X s 585 207 m 5 X s 585 280 m 5 X s 567 240 m 6 Y s 608 240 m 6 Y s 588 243 m20 629 200 m 13 Y s 629 225 m 23 Y s 608 219 m 15 X s 635 219 m 15 X s 626 200 m
 6 X s 626 248 m 6 X s 608 216 m 6 Y s 650 216 m 6 Y s 629 219 m20 670 220 m 25 Y s 670 256 m 25 Y s 650 250 m 15 X s 676 250 m 15 X s 667 220 m 6 X s 667 281 m 6 X s 650 248 m 5 Y s 691 248 m 5 Y s 670 250 m20 712 211 m 31 Y s 691 205 m 15 X s 717
 205 m 15 X s 709 242 m 6 X s 691 203 m 5 Y s 732 203 m 5 Y s 712 205 m20 753 367 m 29 Y s 753 407 m 28 Y s 732 401 m 15 X s 759 401 m 15 X s 750 367 m 6 X s 750 435 m 6 X s 732 398 m 6 Y s 774 398 m 6 Y s 753 401 m20 794 362 m 18 Y s 794 391 m 18 Y
 s 774 385 m 15 X s 800 385 m 15 X s 792 362 m 5 X s 792 409 m 5 X s 774 383 m 5 Y s 815 383 m 5 Y s 794 385 m20 836 354 m 23 Y s 836 389 m 23 Y s 815 383 m 15 X s 841 383 m 15 X s 833 354 m 6 X s 833 412 m 6 X s 815 380 m 6 Y s 856 380 m 6 Y s 836
 383 m20 877 331 m 23 Y s 877 366 m 23 Y s 856 360 m 15 X s 883 360 m 15 X s 874 331 m 6 X s 874 389 m 6 X s 856 357 m 6 Y s 898 357 m 6 Y s 877 360 m20 919 367 m 26 Y s 919 404 m 26 Y s 898 399 m 15 X s 924 399 m 15 X s 916 367 m 5 X s 916 430 m 5 X
 s 898 396 m 6 Y s 939 396 m 6 Y s 919 399 m20 960 200 m 131 Y s 960 342 m 234 Y s 939 336 m 15 X s 966 336 m 15 X s 957 200 m 6 X s 957 576 m 6 X s 939 334 m 5 Y s 981 334 m 5 Y s 960 336 m20 1 1 1 c 1088 1390 1157 14 bf black 1 1 1 c black 1 1 1 c
 827 700 1287 578 bf black 827 700 1287 578 bl 1 1 1 c 827 700 1287 578 bf black 827 700 1287 578 bl 1287 578 m 827 X s 1287 597 m -19 Y s 1304 588 m -10 Y s 1320 588 m -10 Y s 1337 588 m -10 Y s 1353 588 m -10 Y s 1370 597 m -19 Y s 1386 588 m -10 Y
 s 1403 588 m -10 Y s 1420 588 m -10 Y s 1436 588 m -10 Y s 1453 597 m -19 Y s 1469 588 m -10 Y s 1486 588 m -10 Y s 1502 588 m -10 Y s 1519 588 m -10 Y s 1535 597 m -19 Y s 1552 588 m -10 Y s 1568 588 m -10 Y s 1585 588 m -10 Y s 1602 588 m -10 Y s
 1618 597 m -19 Y s 1635 588 m -10 Y s 1651 588 m -10 Y s 1668 588 m -10 Y s 1684 588 m -10 Y s 1701 597 m -19 Y s 1717 588 m -10 Y s 1734 588 m -10 Y s 1750 588 m -10 Y s 1767 588 m -10 Y s 1784 597 m -19 Y s 1800 588 m -10 Y s 1817 588 m -10 Y s
 1833 588 m -10 Y s 1850 588 m -10 Y s 1866 597 m -19 Y s 1883 588 m -10 Y s 1899 588 m -10 Y s 1916 588 m -10 Y s 1932 588 m -10 Y s 1949 597 m -19 Y s 1966 588 m -10 Y s 1982 588 m -10 Y s 1999 588 m -10 Y s 2015 588 m -10 Y s 2032 597 m -19 Y s
 2048 588 m -10 Y s 2065 588 m -10 Y s 2081 588 m -10 Y s 2098 588 m -10 Y s 2114 597 m -19 Y s
 gsave  1088 834 1157 570 C 1275.77 552.029 t 0 r /Helvetica findfont 26.9818 sf 0 0 m (2.5) show NC gr 
 gsave  1088 834 1157 570 C 1260.16 552.029 t 0 r /Symbol findfont 26.9818 sf 0 0 m (-) show NC gr 
 gsave  1088 834 1157 570 C 1369.43 552.029 t 0 r /Helvetica findfont 26.9818 sf 0 0 m (2) show NC gr 
 gsave  1088 834 1157 570 C 1353.82 552.029 t 0 r /Symbol findfont 26.9818 sf 0 0 m (-) show NC gr 
 gsave  1088 834 1157 570 C 1440.38 552.029 t 0 r /Helvetica findfont 26.9818 sf 0 0 m (1.5) show NC gr 
 gsave  1088 834 1157 570 C 1424.77 552.029 t 0 r /Symbol findfont 26.9818 sf 0 0 m (-) show NC gr 
 gsave  1088 834 1157 570 C 1535.46 552.029 t 0 r /Helvetica findfont 26.9818 sf 0 0 m (1) show NC gr 
 gsave  1088 834 1157 570 C 1521.27 552.029 t 0 r /Symbol findfont 26.9818 sf 0 0 m (-) show NC gr 
 gsave  1088 834 1157 570 C 1606.42 552.029 t 0 r /Helvetica findfont 26.9818 sf 0 0 m (0.5) show NC gr 
 gsave  1088 834 1157 570 C 1590.81 552.029 t 0 r /Symbol findfont 26.9818 sf 0 0 m (-) show NC gr 
 gsave  1088 834 1157 570 C 1692.98 552.029 t 0 r /Helvetica findfont 26.9818 sf 0 0 m (0) show NC gr 
 gsave  1088 834 1157 570 C 1763.94 552.029 t 0 r /Helvetica findfont 26.9818 sf 0 0 m (0.5) show NC gr 
 gsave  1088 834 1157 570 C 1860.44 552.029 t 0 r /Helvetica findfont 26.9818 sf 0 0 m (1) show NC gr 
 gsave  1088 834 1157 570 C 1929.97 552.029 t 0 r /Helvetica findfont 26.9818 sf 0 0 m (1.5) show NC gr 
 gsave  1088 834 1157 570 C 2023.63 552.029 t 0 r /Helvetica findfont 26.9818 sf 0 0 m (2) show NC gr 
 gsave  1088 834 1157 570 C 2094.59 552.029 t 0 r /Helvetica findfont 26.9818 sf 0 0 m (2.5) show NC gr 
 gsave  1088 834 1157 570 C 2101.68 537.838 t 0 r /Symbol findfont 18.4612 sf 0 0 m (m) show NC gr 
 gsave  1088 834 1157 570 C 2086.07 525.066 t 0 r /Symbol findfont 26.9818 sf 0 0 m (h) show NC gr  1287 1278 m 827 X s 1287 1259 m 19 Y s 1304 1269 m 9 Y s 1320 1269 m 9 Y s 1337 1269 m 9 Y s 1353 1269 m 9 Y s 1370 1259 m 19 Y s 1386 1269 m 9 Y s
 1403 1269 m 9 Y s 1420 1269 m 9 Y s 1436 1269 m 9 Y s 1453 1259 m 19 Y s 1469 1269 m 9 Y s 1486 1269 m 9 Y s 1502 1269 m 9 Y s 1519 1269 m 9 Y s 1535 1259 m 19 Y s 1552 1269 m 9 Y s 1568 1269 m 9 Y s 1585 1269 m 9 Y s 1602 1269 m 9 Y s 1618 1259 m
 19 Y s 1635 1269 m 9 Y s 1651 1269 m 9 Y s 1668 1269 m 9 Y s 1684 1269 m 9 Y s 1701 1259 m 19 Y s 1717 1269 m 9 Y s 1734 1269 m 9 Y s 1750 1269 m 9 Y s 1767 1269 m 9 Y s 1784 1259 m 19 Y s 1800 1269 m 9 Y s 1817 1269 m 9 Y s 1833 1269 m 9 Y s 1850
 1269 m 9 Y s 1866 1259 m 19 Y s 1883 1269 m 9 Y s 1899 1269 m 9 Y s 1916 1269 m 9 Y s 1932 1269 m 9 Y s 1949 1259 m 19 Y s 1966 1269 m 9 Y s 1982 1269 m 9 Y s 1999 1269 m 9 Y s 2015 1269 m 9 Y s 2032 1259 m 19 Y s 2048 1269 m 9 Y s 2065 1269 m 9 Y s
 2081 1269 m 9 Y s 2098 1269 m 9 Y s 2114 1259 m 19 Y s 1287 578 m 700 Y s 1315 648 m -28 X s 1301 662 m -14 X s 1301 676 m -14 X s 1301 690 m -14 X s 1301 704 m -14 X s 1315 718 m -28 X s 1301 732 m -14 X s 1301 746 m -14 X s 1301 760 m -14 X s 1301
 774 m -14 X s 1315 788 m -28 X s 1301 802 m -14 X s 1301 816 m -14 X s 1301 830 m -14 X s 1301 844 m -14 X s 1315 858 m -28 X s 1301 872 m -14 X s 1301 886 m -14 X s 1301 900 m -14 X s 1301 914 m -14 X s 1315 928 m -28 X s 1301 942 m -14 X s 1301
 956 m -14 X s 1301 970 m -14 X s 1301 984 m -14 X s 1315 998 m -28 X s 1301 1012 m -14 X s 1301 1026 m -14 X s 1301 1040 m -14 X s 1301 1054 m -14 X s 1315 1068 m -28 X s 1301 1082 m -14 X s 1301 1096 m -14 X s 1301 1110 m -14 X s 1301 1124 m -14 X
 s 1315 1138 m -28 X s 1301 1152 m -14 X s 1301 1166 m -14 X s 1301 1180 m -14 X s 1301 1194 m -14 X s 1315 1208 m -28 X s 1301 1222 m -14 X s 1301 1236 m -14 X s 1301 1250 m -14 X s 1301 1264 m -14 X s 1315 1278 m -28 X s 1315 648 m -28 X s 1301 634
 m -14 X s 1301 620 m -14 X s 1301 606 m -14 X s 1301 592 m -14 X s
 gsave  1088 834 1157 570 C 1241.71 635.755 t 0 r /Helvetica findfont 32.6621 sf 0 0 m (0.1) show NC gr 
 gsave  1088 834 1157 570 C 1237.45 705.291 t 0 r /Helvetica findfont 32.6621 sf 0 0 m (0.2) show NC gr 
 gsave  1088 834 1157 570 C 1237.45 776.246 t 0 r /Helvetica findfont 32.6621 sf 0 0 m (0.3) show NC gr 
 gsave  1088 834 1157 570 C 1236.03 845.782 t 0 r /Helvetica findfont 32.6621 sf 0 0 m (0.4) show NC gr 
 gsave  1088 834 1157 570 C 1236.03 915.317 t 0 r /Helvetica findfont 32.6621 sf 0 0 m (0.5) show NC gr 
 gsave  1088 834 1157 570 C 1236.03 986.272 t 0 r /Helvetica findfont 32.6621 sf 0 0 m (0.6) show NC gr 
 gsave  1088 834 1157 570 C 1236.03 1055.81 t 0 r /Helvetica findfont 32.6621 sf 0 0 m (0.7) show NC gr 
 gsave  1088 834 1157 570 C 1236.03 1126.76 t 0 r /Helvetica findfont 32.6621 sf 0 0 m (0.8) show NC gr 
 gsave  1088 834 1157 570 C 1237.45 1196.3 t 0 r /Helvetica findfont 32.6621 sf 0 0 m (0.9) show NC gr 
 gsave  1088 834 1157 570 C 1268.67 1265.83 t 0 r /Helvetica findfont 32.6621 sf 0 0 m (1) show NC gr 
 gsave  1088 834 1157 570 C 1190.62 891.193 t 90 r /Helvetica findfont 46.8631 sf 0 0 m (Isolation Efficiency) show NC gr  2114 578 m 700 Y s 2087 648 m 27 X s 2101 662 m 13 X s 2101 676 m 13 X s 2101 690 m 13 X s 2101 704 m 13 X s 2087 718 m 27 X s
 2101 732 m 13 X s 2101 746 m 13 X s 2101 760 m 13 X s 2101 774 m 13 X s 2087 788 m 27 X s 2101 802 m 13 X s 2101 816 m 13 X s 2101 830 m 13 X s 2101 844 m 13 X s 2087 858 m 27 X s 2101 872 m 13 X s 2101 886 m 13 X s 2101 900 m 13 X s 2101 914 m 13 X
 s 2087 928 m 27 X s 2101 942 m 13 X s 2101 956 m 13 X s 2101 970 m 13 X s 2101 984 m 13 X s 2087 998 m 27 X s 2101 1012 m 13 X s 2101 1026 m 13 X s 2101 1040 m 13 X s 2101 1054 m 13 X s 2087 1068 m 27 X s 2101 1082 m 13 X s 2101 1096 m 13 X s 2101
 1110 m 13 X s 2101 1124 m 13 X s 2087 1138 m 27 X s 2101 1152 m 13 X s 2101 1166 m 13 X s 2101 1180 m 13 X s 2101 1194 m 13 X s 2087 1208 m 27 X s 2101 1222 m 13 X s 2101 1236 m 13 X s 2101 1250 m 13 X s 2101 1264 m 13 X s 2087 1278 m 27 X s 2087
 648 m 27 X s 2101 634 m 13 X s 2101 620 m 13 X s 2101 606 m 13 X s 2101 592 m 13 X s 1 0 0 c 1308 1169 m -21 X s 1287 1166 m 6 Y s 1308 1169 m 21 X s 1329 1166 m 6 Y s 1308 1169 m 13 Y s 1305 1182 m 6 X s 1308 1169 m -15 Y s 1305 1154 m 6 X s 1349
 1165 m -20 X s 1329 1162 m 5 Y s 1349 1165 m 21 X s 1370 1162 m 5 Y s 1349 1165 m 10 Y s 1346 1175 m 6 X s 1349 1165 m -12 Y s 1346 1153 m 6 X s 1391 1198 m -21 X s 1370 1195 m 5 Y s 1391 1198 m 20 X s 1411 1195 m 5 Y s 1391 1198 m 8 Y s 1388 1206 m
 5 X s 1391 1198 m -9 Y s 1388 1189 m 5 X s 1432 1171 m -21 X s 1411 1168 m 5 Y s 1432 1171 m 21 X s 1453 1168 m 5 Y s 1432 1171 m 8 Y s 1429 1179 m 6 X s 1432 1171 m -10 Y s 1429 1161 m 6 X s 1473 1193 m -20 X s 1453 1190 m 6 Y s 1473 1193 m 21 X s
 1494 1190 m 6 Y s 1473 1193 m 8 Y s 1470 1201 m 6 X s 1473 1193 m -8 Y s 1470 1185 m 6 X s 1515 1122 m -21 X s 1494 1119 m 6 Y s 1515 1122 m 20 X s 1535 1119 m 6 Y s 1515 1122 m 10 Y s 1512 1132 m 5 X s 1515 1122 m -10 Y s 1512 1112 m 5 X s 1556
 1094 m -21 X s 1535 1091 m 6 Y s 1556 1094 m 21 X s 1577 1091 m 6 Y s 1556 1094 m 10 Y s 1553 1104 m 6 X s 1556 1094 m -10 Y s 1553 1084 m 6 X s 1597 1119 m -20 X s 1577 1116 m 6 Y s 1597 1119 m 21 X s 1618 1116 m 6 Y s 1597 1119 m 9 Y s 1595 1128 m
 5 X s 1597 1119 m -9 Y s 1595 1110 m 5 X s 1639 1138 m -21 X s 1618 1135 m 6 Y s 1639 1138 m 20 X s 1659 1135 m 6 Y s 1639 1138 m 8 Y s 1636 1146 m 6 X s 1639 1138 m -9 Y s 1636 1129 m 6 X s 1680 1033 m -21 X s 1659 1030 m 6 Y s 1680 1033 m 21 X s
 1701 1030 m 6 Y s 1680 1033 m 11 Y s 1677 1044 m 6 X s 1680 1033 m -11 Y s 1677 1022 m 6 X s 1721 1048 m -20 X s 1701 1045 m 6 Y s 1721 1048 m 21 X s 1742 1045 m 6 Y s 1721 1048 m 11 Y s 1719 1059 m 5 X s 1721 1048 m -11 Y s 1719 1037 m 5 X s 1763
 1136 m -21 X s 1742 1133 m 6 Y s 1763 1136 m 21 X s 1784 1133 m 6 Y s 1763 1136 m 8 Y s 1760 1144 m 6 X s 1763 1136 m -9 Y s 1760 1127 m 6 X s 1804 1120 m -20 X s 1784 1117 m 6 Y s 1804 1120 m 21 X s 1825 1117 m 6 Y s 1804 1120 m 9 Y s 1801 1129 m 6
 X s 1804 1120 m -9 Y s 1801 1111 m 6 X s 1846 1073 m -21 X s 1825 1070 m 6 Y s 1846 1073 m 20 X s 1866 1070 m 6 Y s 1846 1073 m 10 Y s 1843 1083 m 5 X s 1846 1073 m -10 Y s 1843 1063 m 5 X s 1887 1072 m -21 X s 1866 1069 m 6 Y s 1887 1072 m 21 X s
 1908 1069 m 6 Y s 1887 1072 m 10 Y s 1884 1082 m 6 X s 1887 1072 m -11 Y s 1884 1061 m 6 X s 1928 1185 m -20 X s 1908 1183 m 5 Y s 1928 1185 m 21 X s 1949 1183 m 5 Y s 1928 1185 m 9 Y s 1925 1194 m 6 X s 1928 1185 m -8 Y s 1925 1177 m 6 X s 1970
 1178 m -21 X s 1949 1176 m 5 Y s 1970 1178 m 20 X s 1990 1176 m 5 Y s 1970 1178 m 9 Y s 1967 1187 m 5 X s 1970 1178 m -9 Y s 1967 1169 m 5 X s 2011 1191 m -21 X s 1990 1188 m 6 Y s 2011 1191 m 21 X s 2032 1188 m 6 Y s 2011 1191 m 9 Y s 2008 1200 m 6
 X s 2011 1191 m -10 Y s 2008 1181 m 6 X s 2052 1188 m -20 X s 2032 1185 m 6 Y s 2052 1188 m 21 X s 2073 1185 m 6 Y s 2052 1188 m 9 Y s 2050 1197 m 5 X s 2052 1188 m -10 Y s 2050 1178 m 5 X s 2094 1156 m -21 X s 2073 1153 m 6 Y s 2094 1156 m 20 X s
 2114 1153 m 6 Y s 2094 1156 m 15 Y s 2091 1171 m 6 X s 2094 1156 m -16 Y s 2091 1140 m 6 X s 0.95 0.95 0.95 c 1 0 0 c /w 12 def /w2 {w 2 div} def /w3 {w 3 div} def 1308 1169 1349 1165 1391 1198 1432 1171 1473 1193 1515 1122 1556 1094 1597 1119 1639
 1138 1680 1033 1721 1048 1763 1136 1804 1120 1846 1073 1887 1072 1928 1185 1970 1178 2011 1191 2052 1188 2094 1156 20 { m24} R black 1302 1156 m -15 X s 1287 1154 m 5 Y s 1314 1156 m 15 X s 1329 1154 m 5 Y s 1308 1162 m 15 Y s 1305 1177 m 6 X s 1308
 1151 m -18 Y s 1305 1133 m 6 X s 1344 1170 m -15 X s 1329 1167 m 6 Y s 1355 1170 m 15 X s 1370 1167 m 6 Y s 1349 1176 m 9 Y s 1346 1185 m 6 X s 1349 1164 m -11 Y s 1346 1153 m 6 X s 1385 1177 m -15 X s 1370 1174 m 6 Y s 1396 1177 m 15 X s 1411 1174
 m 6 Y s 1391 1183 m 7 Y s 1388 1190 m 5 X s 1391 1171 m -9 Y s 1388 1162 m 5 X s 1426 1165 m -15 X s 1411 1162 m 6 Y s 1438 1165 m 15 X s 1453 1162 m 6 Y s 1432 1171 m 7 Y s 1429 1178 m 6 X s 1432 1159 m -8 Y s 1429 1151 m 6 X s 1468 1166 m -15 X s
 1453 1163 m 6 Y s 1479 1166 m 15 X s 1494 1163 m 6 Y s 1473 1172 m 7 Y s 1470 1179 m 6 X s 1473 1161 m -9 Y s 1470 1152 m 6 X s 1509 1081 m -15 X s 1494 1078 m 6 Y s 1520 1081 m 15 X s 1535 1078 m 6 Y s 1515 1087 m 10 Y s 1512 1097 m 5 X s 1515 1076
 m -11 Y s 1512 1065 m 5 X s 1550 1001 m -15 X s 1535 998 m 6 Y s 1562 1001 m 15 X s 1577 998 m 6 Y s 1556 1007 m 11 Y s 1553 1018 m 6 X s 1556 995 m -11 Y s 1553 984 m 6 X s 1592 998 m -15 X s 1577 996 m 5 Y s 1603 998 m 15 X s 1618 996 m 5 Y s 1597
 1004 m 10 Y s 1595 1014 m 5 X s 1597 993 m -11 Y s 1595 982 m 5 X s 1633 1073 m -15 X s 1618 1070 m 5 Y s 1644 1073 m 15 X s 1659 1070 m 5 Y s 1639 1078 m 9 Y s 1636 1087 m 6 X s 1639 1067 m -9 Y s 1636 1058 m 6 X s 1674 1000 m -15 X s 1659 997 m 6
 Y s 1686 1000 m 15 X s 1701 997 m 6 Y s 1680 1006 m 11 Y s 1677 1017 m 6 X s 1680 995 m -12 Y s 1677 983 m 6 X s 1716 1021 m -15 X s 1701 1018 m 6 Y s 1727 1021 m 15 X s 1742 1018 m 6 Y s 1721 1027 m 11 Y s 1719 1038 m 5 X s 1721 1016 m -12 Y s 1719
 1004 m 5 X s 1757 1040 m -15 X s 1742 1037 m 6 Y s 1769 1040 m 15 X s 1784 1037 m 6 Y s 1763 1045 m 10 Y s 1760 1055 m 6 X s 1763 1034 m -10 Y s 1760 1024 m 6 X s 1799 1052 m -15 X s 1784 1049 m 6 Y s 1810 1052 m 15 X s 1825 1049 m 6 Y s 1804 1058 m
 10 Y s 1801 1068 m 6 X s 1804 1047 m -11 Y s 1801 1036 m 6 X s 1840 972 m -15 X s 1825 969 m 6 Y s 1851 972 m 15 X s 1866 969 m 6 Y s 1846 977 m 12 Y s 1843 989 m 5 X s 1846 966 m -11 Y s 1843 955 m 5 X s 1881 1088 m -15 X s 1866 1085 m 6 Y s 1893
 1088 m 15 X s 1908 1085 m 6 Y s 1887 1094 m 9 Y s 1884 1103 m 6 X s 1887 1082 m -10 Y s 1884 1072 m 6 X s 1923 1160 m -15 X s 1908 1157 m 6 Y s 1934 1160 m 15 X s 1949 1157 m 6 Y s 1928 1166 m 7 Y s 1925 1173 m 6 X s 1928 1154 m -9 Y s 1925 1145 m 6
 X s 1964 1157 m -15 X s 1949 1155 m 5 Y s 1975 1157 m 15 X s 1990 1155 m 5 Y s 1970 1163 m 8 Y s 1967 1171 m 5 X s 1970 1152 m -9 Y s 1967 1143 m 5 X s 2005 1161 m -15 X s 1990 1158 m 5 Y s 2017 1161 m 15 X s 2032 1158 m 5 Y s 2011 1166 m 9 Y s 2008
 1175 m 6 X s 2011 1155 m -11 Y s 2008 1144 m 6 X s 2047 1166 m -15 X s 2032 1163 m 6 Y s 2058 1166 m 15 X s 2073 1163 m 6 Y s 2052 1172 m 8 Y s 2050 1180 m 5 X s 2052 1160 m -10 Y s 2050 1150 m 5 X s 2088 1129 m -15 X s 2073 1126 m 5 Y s 2099 1129 m
 15 X s 2114 1126 m 5 Y s 2094 1134 m 16 Y s 2091 1150 m 6 X s 2094 1123 m -18 Y s 2091 1105 m 6 X s 0.95 0.95 0.95 c black 1308 1156 1349 1170 1391 1177 1432 1165 1473 1166 1515 1081 1556 1001 1597 998 1639 1073 1680 1000 1721 1021 1763 1040 1804
 1052 1846 972 1887 1088 1928 1160 1970 1157 2011 1161 2052 1166 2094 1129 20 { m20} R 1 1 1 c 218 166 1374 737 bf black
 gsave  1088 834 1157 570 C 1568.1 864.23 t 0 r /Helvetica findfont 29.8219 sf 0 0 m (\255) show NC gr 
 gsave  1088 834 1157 570 C 1541.14 842.943 t 0 r /Symbol findfont 45.443 sf 0 0 m (m) show NC gr 
 gsave  1088 834 1157 570 C 1427.61 842.943 t 0 r /Helvetica findfont 45.443 sf 0 0 m (data, ) show NC gr  1401 862 m20
 gsave  1088 834 1157 570 C 1549.65 781.922 t 0 r /Helvetica findfont 29.8219 sf 0 0 m (\255) show NC gr 
 gsave  1088 834 1157 570 C 1522.69 760.636 t 0 r /Symbol findfont 45.443 sf 0 0 m (m) show NC gr 
 gsave  1088 834 1157 570 C 1427.61 760.636 t 0 r /Helvetica findfont 45.443 sf 0 0 m (MC, ) show NC gr  1 0 0 c 1401 778 m24 black
 gsave  1088 834 1157 570 C 1942.74 682.586 t 0 r /Helvetica-Bold findfont 41.1827 sf 0 0 m (\2551) show NC gr 
 gsave  1088 834 1157 570 C 1438.96 654.204 t 0 r /Helvetica-Bold findfont 62.4841 sf 0 0 m ( = 13 TeV, 22.1 fb) show NC gr 
 gsave  1088 834 1157 570 C 1406.32 654.204 t 0 r /Helvetica-Bold findfont 62.4841 sf 0 0 m (s) show NC gr  6 lw 1386 690 m 6 -39 d s 3 lw 1392 651 m 7 56 d s 1399 707 m 40 X s 1 1 1 c black 1 1 1 c 827 376 1287 200 bf black 827 376 1287 200 bl 1 1 1
 c 827 376 1287 200 bf black 827 376 1287 200 bl 1 1 1 c black 1308 324 m 39 Y s 1308 374 m 38 Y s 1287 368 m 15 X s 1314 368 m 15 X s 1305 324 m 6 X s 1305 412 m 6 X s 1287 365 m 6 Y s 1329 365 m 6 Y s /w 11 def /w2 {w 2 div} def /w3 {w 3 div} def
 1308 368 m20 1349 364 m 27 Y s 1349 402 m 27 Y s 1329 396 m 15 X s 1355 396 m 15 X s 1346 364 m 6 X s 1346 429 m 6 X s 1329 394 m 5 Y s 1370 394 m 5 Y s 1349 396 m20 1391 331 m 20 Y s 1391 362 m 20 Y s 1370 357 m 15 X s 1396 357 m 15 X s 1388 331 m
 5 X s 1388 382 m 5 X s 1370 354 m 5 Y s 1411 354 m 5 Y s 1391 357 m20 1432 352 m 21 Y s 1432 385 m 21 Y s 1411 379 m 15 X s 1438 379 m 15 X s 1429 352 m 6 X s 1429 406 m 6 X s 1411 376 m 6 Y s 1453 376 m 6 Y s 1432 379 m20 1473 322 m 19 Y s 1473 352
 m 19 Y s 1453 347 m 15 X s 1479 347 m 15 X s 1470 322 m 6 X s 1470 371 m 6 X s 1453 344 m 5 Y s 1494 344 m 5 Y s 1473 347 m20 1515 285 m 26 Y s 1515 323 m 26 Y s 1494 317 m 15 X s 1520 317 m 15 X s 1512 285 m 5 X s 1512 349 m 5 X s 1494 314 m 6 Y s
 1535 314 m 6 Y s 1515 317 m20 1556 200 m 13 Y s 1556 224 m 29 Y s 1535 219 m 15 X s 1562 219 m 15 X s 1553 200 m 6 X s 1553 253 m 6 X s 1535 216 m 5 Y s 1577 216 m 5 Y s 1556 219 m20 1639 250 m 23 Y s 1639 284 m 23 Y s 1618 278 m 15 X s 1644 278 m
 15 X s 1636 250 m 6 X s 1636 307 m 6 X s 1618 276 m 5 Y s 1659 276 m 5 Y s 1639 278 m20 1680 279 m 35 Y s 1680 326 m 35 Y s 1659 320 m 15 X s 1686 320 m 15 X s 1677 279 m 6 X s 1677 361 m 6 X s 1659 317 m 6 Y s 1701 317 m 6 Y s 1680 320 m20 1721 293
 m 36 Y s 1721 340 m 35 Y s 1701 334 m 15 X s 1727 334 m 15 X s 1719 293 m 5 X s 1719 375 m 5 X s 1701 332 m 5 Y s 1742 332 m 5 Y s 1721 334 m20 1763 200 m 20 Y s 1763 231 m 24 Y s 1742 225 m 15 X s 1769 225 m 15 X s 1760 200 m 6 X s 1760 255 m 6 X s
 1742 223 m 5 Y s 1784 223 m 5 Y s 1763 225 m20 1804 239 m 25 Y s 1804 276 m 25 Y s 1784 270 m 15 X s 1810 270 m 15 X s 1801 239 m 6 X s 1801 301 m 6 X s 1784 267 m 6 Y s 1825 267 m 6 Y s 1804 270 m20 1887 382 m 31 Y s 1887 424 m 31 Y s 1866 418 m 15
 X s 1893 418 m 15 X s 1884 382 m 6 X s 1884 455 m 6 X s 1866 416 m 5 Y s 1908 416 m 5 Y s 1887 418 m20 1928 322 m 20 Y s 1928 354 m 20 Y s 1908 348 m 15 X s 1934 348 m 15 X s 1925 322 m 6 X s 1925 374 m 6 X s 1908 345 m 6 Y s 1949 345 m 6 Y s 1928
 348 m20 1970 328 m 21 Y s 1970 361 m 20 Y s 1949 355 m 15 X s 1975 355 m 15 X s 1967 328 m 5 X s 1967 381 m 5 X s 1949 352 m 6 Y s 1990 352 m 6 Y s 1970 355 m20 2011 312 m 23 Y s 2011 347 m 23 Y s 1990 341 m 15 X s 2017 341 m 15 X s 2008 312 m 6 X s
 2008 370 m 6 X s 1990 338 m 6 Y s 2032 338 m 6 Y s 2011 341 m20 2052 326 m 23 Y s 2052 360 m 23 Y s 2032 354 m 15 X s 2058 354 m 15 X s 2050 326 m 5 X s 2050 383 m 5 X s 2032 352 m 5 Y s 2073 352 m 5 Y s 2052 354 m20 2094 200 m 137 Y s 2094 348 m
 228 Y s 2073 343 m 15 X s 2099 343 m 15 X s 2091 200 m 6 X s 2091 576 m 6 X s 2073 340 m 6 Y s 2114 340 m 6 Y s 2094 343 m20 1287 200 m 827 X s 1287 213 m -13 Y s 1304 206 m -6 Y s 1320 206 m -6 Y s 1337 206 m -6 Y s 1353 206 m -6 Y s 1370 213 m -13
 Y s 1386 206 m -6 Y s 1403 206 m -6 Y s 1420 206 m -6 Y s 1436 206 m -6 Y s 1453 213 m -13 Y s 1469 206 m -6 Y s 1486 206 m -6 Y s 1502 206 m -6 Y s 1519 206 m -6 Y s 1535 213 m -13 Y s 1552 206 m -6 Y s 1568 206 m -6 Y s 1585 206 m -6 Y s 1602 206
 m -6 Y s 1618 213 m -13 Y s 1635 206 m -6 Y s 1651 206 m -6 Y s 1668 206 m -6 Y s 1684 206 m -6 Y s 1701 213 m -13 Y s 1717 206 m -6 Y s 1734 206 m -6 Y s 1750 206 m -6 Y s 1767 206 m -6 Y s 1784 213 m -13 Y s 1800 206 m -6 Y s 1817 206 m -6 Y s
 1833 206 m -6 Y s 1850 206 m -6 Y s 1866 213 m -13 Y s 1883 206 m -6 Y s 1899 206 m -6 Y s 1916 206 m -6 Y s 1932 206 m -6 Y s 1949 213 m -13 Y s 1966 206 m -6 Y s 1982 206 m -6 Y s 1999 206 m -6 Y s 2015 206 m -6 Y s 2032 213 m -13 Y s 2048 206 m
 -6 Y s 2065 206 m -6 Y s 2081 206 m -6 Y s 2098 206 m -6 Y s 2114 213 m -13 Y s
 gsave  1088 572 1157 28 C 1272.93 166.034 t 0 r /Helvetica findfont 32.6681 sf 0 0 m (2.5) show NC gr 
 gsave  1088 572 1157 28 C 1254.48 166.034 t 0 r /Symbol findfont 32.6681 sf 0 0 m (-) show NC gr 
 gsave  1088 572 1157 28 C 1369.43 166.034 t 0 r /Helvetica findfont 32.6681 sf 0 0 m (2) show NC gr 
 gsave  1088 572 1157 28 C 1350.98 166.034 t 0 r /Symbol findfont 32.6681 sf 0 0 m (-) show NC gr 
 gsave  1088 572 1157 28 C 1437.54 166.034 t 0 r /Helvetica findfont 32.6681 sf 0 0 m (1.5) show NC gr 
 gsave  1088 572 1157 28 C 1419.1 166.034 t 0 r /Symbol findfont 32.6681 sf 0 0 m (-) show NC gr 
 gsave  1088 572 1157 28 C 1535.46 166.034 t 0 r /Helvetica findfont 32.6681 sf 0 0 m (1) show NC gr 
 gsave  1088 572 1157 28 C 1518.43 166.034 t 0 r /Symbol findfont 32.6681 sf 0 0 m (-) show NC gr 
 gsave  1088 572 1157 28 C 1603.58 166.034 t 0 r /Helvetica findfont 32.6681 sf 0 0 m (0.5) show NC gr 
 gsave  1088 572 1157 28 C 1585.13 166.034 t 0 r /Symbol findfont 32.6681 sf 0 0 m (-) show NC gr 
 gsave  1088 572 1157 28 C 1691.56 166.034 t 0 r /Helvetica findfont 32.6681 sf 0 0 m (0) show NC gr 
 gsave  1088 572 1157 28 C 1759.68 166.034 t 0 r /Helvetica findfont 32.6681 sf 0 0 m (0.5) show NC gr 
 gsave  1088 572 1157 28 C 1859.02 166.034 t 0 r /Helvetica findfont 32.6681 sf 0 0 m (1) show NC gr 
 gsave  1088 572 1157 28 C 1925.71 166.034 t 0 r /Helvetica findfont 32.6681 sf 0 0 m (1.5) show NC gr 
 gsave  1088 572 1157 28 C 2022.21 166.034 t 0 r /Helvetica findfont 32.6681 sf 0 0 m (2) show NC gr 
 gsave  1088 572 1157 28 C 2090.33 166.034 t 0 r /Helvetica findfont 32.6681 sf 0 0 m (2.5) show NC gr 
 gsave  1088 572 1157 28 C 2096.01 102.175 t 0 r /Symbol findfont 28.407 sf 0 0 m (m) show NC gr 
 gsave  1088 572 1157 28 C 2073.3 80.8885 t 0 r /Symbol findfont 42.6105 sf 0 0 m (h) show NC gr  1287 576 m 827 X s 1287 563 m 13 Y s 1304 569 m 7 Y s 1320 569 m 7 Y s 1337 569 m 7 Y s 1353 569 m 7 Y s 1370 563 m 13 Y s 1386 569 m 7 Y s 1403 569 m 7
 Y s 1420 569 m 7 Y s 1436 569 m 7 Y s 1453 563 m 13 Y s 1469 569 m 7 Y s 1486 569 m 7 Y s 1502 569 m 7 Y s 1519 569 m 7 Y s 1535 563 m 13 Y s 1552 569 m 7 Y s 1568 569 m 7 Y s 1585 569 m 7 Y s 1602 569 m 7 Y s 1618 563 m 13 Y s 1635 569 m 7 Y s 1651
 569 m 7 Y s 1668 569 m 7 Y s 1684 569 m 7 Y s 1701 563 m 13 Y s 1717 569 m 7 Y s 1734 569 m 7 Y s 1750 569 m 7 Y s 1767 569 m 7 Y s 1784 563 m 13 Y s 1800 569 m 7 Y s 1817 569 m 7 Y s 1833 569 m 7 Y s 1850 569 m 7 Y s 1866 563 m 13 Y s 1883 569 m 7
 Y s 1899 569 m 7 Y s 1916 569 m 7 Y s 1932 569 m 7 Y s 1949 563 m 13 Y s 1966 569 m 7 Y s 1982 569 m 7 Y s 1999 569 m 7 Y s 2015 569 m 7 Y s 2032 563 m 13 Y s 2048 569 m 7 Y s 2065 569 m 7 Y s 2081 569 m 7 Y s 2098 569 m 7 Y s 2114 563 m 13 Y s 1287
 200 m 376 Y s 1309 200 m -22 X s 1298 219 m -11 X s 1298 237 m -11 X s 1298 256 m -11 X s 1298 275 m -11 X s 1309 294 m -22 X s 1298 313 m -11 X s 1298 331 m -11 X s 1298 350 m -11 X s 1298 369 m -11 X s 1309 388 m -22 X s 1298 407 m -11 X s 1298
 425 m -11 X s 1298 444 m -11 X s 1298 463 m -11 X s 1309 482 m -22 X s 1298 501 m -11 X s 1298 519 m -11 X s 1298 538 m -11 X s 1298 557 m -11 X s 1309 576 m -22 X s
 gsave  1088 572 1157 28 C 1230.36 187.321 t 0 r /Helvetica findfont 32.6681 sf 0 0 m (0.8) show NC gr 
 gsave  1088 572 1157 28 C 1231.78 282.4 t 0 r /Helvetica findfont 32.6681 sf 0 0 m (0.9) show NC gr 
 gsave  1088 572 1157 28 C 1263 376.061 t 0 r /Helvetica findfont 32.6681 sf 0 0 m (1) show NC gr 
 gsave  1088 572 1157 28 C 1236.03 469.721 t 0 r /Helvetica findfont 32.6681 sf 0 0 m (1.1) show NC gr 
 gsave  1088 572 1157 28 C 1231.78 563.381 t 0 r /Helvetica findfont 32.6681 sf 0 0 m (1.2) show NC gr 
 gsave  1088 572 1157 28 C 1192.04 282.4 t 90 r /Helvetica findfont 42.6105 sf 0 0 m (Data/MC         ) show NC gr  2114 200 m 376 Y s 2093 200 m 21 X s 2104 219 m 10 X s 2104 237 m 10 X s 2104 256 m 10 X s 2104 275 m 10 X s 2093 294 m 21 X s 2104
 313 m 10 X s 2104 331 m 10 X s 2104 350 m 10 X s 2104 369 m 10 X s 2093 388 m 21 X s 2104 407 m 10 X s 2104 425 m 10 X s 2104 444 m 10 X s 2104 463 m 10 X s 2093 482 m 21 X s 2104 501 m 10 X s 2104 519 m 10 X s 2104 538 m 10 X s 2104 557 m 10 X s
 2093 576 m 21 X s 0 0 1 c[ 12 12] 0 sd 6 lw 1287 388 m 827 X s 1287 388 m 827 X s black[  ] 0 sd 3 lw 1 1 1 c black 1308 324 m 39 Y s 1308 374 m 38 Y s 1287 368 m 15 X s 1314 368 m 15 X s 1305 324 m 6 X s 1305 412 m 6 X s 1287 365 m 6 Y s 1329 365 m
 6 Y s 1308 368 m20 1349 364 m 27 Y s 1349 402 m 27 Y s 1329 396 m 15 X s 1355 396 m 15 X s 1346 364 m 6 X s 1346 429 m 6 X s 1329 394 m 5 Y s 1370 394 m 5 Y s 1349 396 m20 1391 331 m 20 Y s 1391 362 m 20 Y s 1370 357 m 15 X s 1396 357 m 15 X s 1388
 331 m 5 X s 1388 382 m 5 X s 1370 354 m 5 Y s 1411 354 m 5 Y s 1391 357 m20 1432 352 m 21 Y s 1432 385 m 21 Y s 1411 379 m 15 X s 1438 379 m 15 X s 1429 352 m 6 X s 1429 406 m 6 X s 1411 376 m 6 Y s 1453 376 m 6 Y s 1432 379 m20 1473 322 m 19 Y s
 1473 352 m 19 Y s 1453 347 m 15 X s 1479 347 m 15 X s 1470 322 m 6 X s 1470 371 m 6 X s 1453 344 m 5 Y s 1494 344 m 5 Y s 1473 347 m20 1515 285 m 26 Y s 1515 323 m 26 Y s 1494 317 m 15 X s 1520 317 m 15 X s 1512 285 m 5 X s 1512 349 m 5 X s 1494 314
 m 6 Y s 1535 314 m 6 Y s 1515 317 m20 1556 200 m 13 Y s 1556 224 m 29 Y s 1535 219 m 15 X s 1562 219 m 15 X s 1553 200 m 6 X s 1553 253 m 6 X s 1535 216 m 5 Y s 1577 216 m 5 Y s 1556 219 m20 1639 250 m 23 Y s 1639 284 m 23 Y s 1618 278 m 15 X s 1644
 278 m 15 X s 1636 250 m 6 X s 1636 307 m 6 X s 1618 276 m 5 Y s 1659 276 m 5 Y s 1639 278 m20 1680 279 m 35 Y s 1680 326 m 35 Y s 1659 320 m 15 X s 1686 320 m 15 X s 1677 279 m 6 X s 1677 361 m 6 X s 1659 317 m 6 Y s 1701 317 m 6 Y s 1680 320 m20
 1721 293 m 36 Y s 1721 340 m 35 Y s 1701 334 m 15 X s 1727 334 m 15 X s 1719 293 m 5 X s 1719 375 m 5 X s 1701 332 m 5 Y s 1742 332 m 5 Y s 1721 334 m20 1763 200 m 20 Y s 1763 231 m 24 Y s 1742 225 m 15 X s 1769 225 m 15 X s 1760 200 m 6 X s 1760
 255 m 6 X s 1742 223 m 5 Y s 1784 223 m 5 Y s 1763 225 m20 1804 239 m 25 Y s 1804 276 m 25 Y s 1784 270 m 15 X s 1810 270 m 15 X s 1801 239 m 6 X s 1801 301 m 6 X s 1784 267 m 6 Y s 1825 267 m 6 Y s 1804 270 m20 1887 382 m 31 Y s 1887 424 m 31 Y s
 1866 418 m 15 X s 1893 418 m 15 X s 1884 382 m 6 X s 1884 455 m 6 X s 1866 416 m 5 Y s 1908 416 m 5 Y s 1887 418 m20 1928 322 m 20 Y s 1928 354 m 20 Y s 1908 348 m 15 X s 1934 348 m 15 X s 1925 322 m 6 X s 1925 374 m 6 X s 1908 345 m 6 Y s 1949 345
 m 6 Y s 1928 348 m20 1970 328 m 21 Y s 1970 361 m 20 Y s 1949 355 m 15 X s 1975 355 m 15 X s 1967 328 m 5 X s 1967 381 m 5 X s 1949 352 m 6 Y s 1990 352 m 6 Y s 1970 355 m20 2011 312 m 23 Y s 2011 347 m 23 Y s 1990 341 m 15 X s 2017 341 m 15 X s
 2008 312 m 6 X s 2008 370 m 6 X s 1990 338 m 6 Y s 2032 338 m 6 Y s 2011 341 m20 2052 326 m 23 Y s 2052 360 m 23 Y s 2032 354 m 15 X s 2058 354 m 15 X s 2050 326 m 5 X s 2050 383 m 5 X s 2032 352 m 5 Y s 2073 352 m 5 Y s 2052 354 m20 2094 200 m 137
 Y s 2094 348 m 228 Y s 2073 343 m 15 X s 2099 343 m 15 X s 2091 200 m 6 X s 2091 576 m 6 X s 2073 340 m 6 Y s 2114 340 m 6 Y s 2094 343 m20
 gr  gr showpage
end
%%EOF
