%!PS-Adobe-2.0 EPSF-2.0
%%BoundingBox:  0 0 567 274
%%Title: /home/petr/Analysis_iwona/SFAnalysis/eps/Isolation.eps: Results
%%Creator: ROOT Version 6.16/00
%%CreationDate: Thu May  9 11:26:44 2019
%%DocumentNeededResources: ProcSet (FontSetInit)
%%EndComments
%%BeginProlog
80 dict begin
/s {stroke} def /l {lineto} def /m {moveto} def /t {translate} def
/r {rotate} def /rl {roll}  def /R {repeat} def
/d {rlineto} def /rm {rmoveto} def /gr {grestore} def /f {eofill} def
/c {setrgbcolor} def /black {0 setgray} def /sd {setdash} def
/cl {closepath} def /sf {scalefont setfont} def /lw {setlinewidth} def
/box {m dup 0 exch d exch 0 d 0 exch neg d cl} def
/NC{systemdict begin initclip end}def/C{NC box clip newpath}def
/bl {box s} def /bf {gsave box gsave f grestore 1 lw [] 0 sd s grestore} def /Y { 0 exch d} def /X { 0 d} def 
/K {{pop pop 0 moveto} exch kshow} bind def
/ita {/ang 15 def gsave [1 0 ang dup sin exch cos div 1 0 0] concat} def 
/mp {newpath /y exch def /x exch def} def
/side {[w .77 mul w .23 mul] .385 w mul sd w 0 l currentpoint t -144 r} def
/mr {mp x y w2 0 360 arc} def /m24 {mr s} def /m20 {mr f} def
/mb {mp x y w2 add m w2 neg 0 d 0 w neg d w 0 d 0 w d cl} def
/mt {mp x y w2 add m w2 neg w neg d w 0 d cl} def
/w4 {w 4 div} def
/w6 {w 6 div} def
/w8 {w 8 div} def
/m21 {mb f} def /m25 {mb s} def /m22 {mt f} def /m26{mt s} def
/m23 {mp x y w2 sub m w2 w d w neg 0 d cl f} def
/m27 {mp x y w2 add m w3 neg w2 neg d w3 w2 neg d w3 w2 d cl s} def
/m28 {mp x w2 sub y w2 sub w3 add m w3 0 d  0 w3 neg d w3 0 d 0 w3 d w3 0 d  0 w3 d w3 neg 0 d 0 w3 d w3 neg 0 d 0 w3 neg d w3 neg 0 d cl s } def
/m29 {mp gsave x w2 sub y w2 add w3 sub m currentpoint t 4 {side} repeat cl fill gr} def
/m30 {mp gsave x w2 sub y w2 add w3 sub m currentpoint t 4 {side} repeat cl s gr} def
/m31 {mp x y w2 sub m 0 w d x w2 sub y m w 0 d x w2 sub y w2 add m w w neg d x w2 sub y w2 sub m w w d s} def
/m32 {mp x y w2 sub m w2 w d w neg 0 d cl s} def
/m33 {mp x y w2 add m w3 neg w2 neg d w3 w2 neg d w3 w2 d cl f} def
/m34 {mp x w2 sub y w2 sub w3 add m w3 0 d  0 w3 neg d w3 0 d 0 w3 d w3 0 d  0 w3 d w3 neg 0 d 0 w3 d w3 neg 0 d 0 w3 neg d w3 neg 0 d cl f } def
/m35 {mp x y w2 add m w2 neg w2 neg d w2 w2 neg d w2 w2 d w2 neg w2 d x y w2 sub m 0 w d x w2 sub y m w 0 d s} def
/m36 {mb x w2 sub y w2 add m w w neg d x w2 sub y w2 sub m w w d s} def
/m37 {mp x y m w4 neg w2 d w4 neg w2 neg d w2 0 d  w4 neg w2 neg d w2 0 d w4 neg w2 d w2 0 d w4 neg w2 d w4 neg w2 neg d cl s} def
/m38 {mp x w4 sub y w2 add m w4 neg w4 neg d 0 w2 neg d w4 w4 neg d w2 0 d w4 w4 d 0 w2 d w4 neg w4 d w2 neg 0 d x y w2 sub m 0 w d x w2 sub y m w 0 d cl s} def
/m39 {mp x y m w4 neg w2 d w4 neg w2 neg d w2 0 d  w4 neg w2 neg d w2 0 d w4 neg w2 d w2 0 d w4 neg w2 d w4 neg w2 neg d cl f} def
/m40 {mp x y m w4 w2 d w4 w4 neg d w2 neg w4 neg d w2 w4 neg d w4 neg w4 neg d w4 neg w2 d w4 neg w2 neg d w4 neg w4 d w2 w4 d w2 neg w4 d w4 w4 d w4 w2 neg d cl s} def
/m41 {mp x y m w4 w2 d w4 w4 neg d w2 neg w4 neg d w2 w4 neg d w4 neg w4 neg d w4 neg w2 d w4 neg w2 neg d w4 neg w4 d w2 w4 d w2 neg w4 d w4 w4 d w4 w2 neg d cl f} def
/m42 {mp x y w2 add m w8 neg w2 -3 4 div mul d w2 -3 4 div mul w8 neg d w2 3 4 div mul w8 neg d w8 w2 -3 4 div mul d w8 w2 3 4 div mul d w2 3 4 div mul w8 d w2 -3 4 div mul w8 d w8 neg w2 3 4 div mul d cl s} def
/m43 {mp x y w2 add m w8 neg w2 -3 4 div mul d w2 -3 4 div mul w8 neg d w2 3 4 div mul w8 neg d w8 w2 -3 4 div mul d w8 w2 3 4 div mul d w2 3 4 div mul w8 d w2 -3 4 div mul w8 d w8 neg w2 3 4 div mul d cl f} def
/m44 {mp x y m w6 neg w2 d w2 2 3 div mul 0 d w6 neg w2 neg d w2 w6 d 0 w2 -2 3 div mul d w2 neg w6 d w6 w2 neg d w2 -2 3 div mul 0 d w6 w2 d w2 neg w6 neg d 0 w2 2 3 div mul d w2 w6 neg d cl s} def
/m45 {mp x y m w6 neg w2 d w2 2 3 div mul 0 d w6 neg w2 neg d w2 w6 d 0 w2 -2 3 div mul d w2 neg w6 d w6 w2 neg d w2 -2 3 div mul 0 d w6 w2 d w2 neg w6 neg d 0 w2 2 3 div mul d w2 w6 neg d cl f} def
/m46 {mp x y w4 add m w4 neg w4 d w4 neg w4 neg d  w4 w4 neg d w4 neg w4 neg d w4 w4 neg d w4 w4 d w4 w4 neg d w4 w4 d w4 neg w4 d w4 w4 d w4 neg w4 d w4 neg w4 neg d cl s} def
/m47 {mp x y w4 add m w4 neg w4 d w4 neg w4 neg d w4 w4 neg d w4 neg w4 neg d  w4 w4 neg d w4 w4 d w4 w4 neg d w4 w4 d w4 neg w4 d w4 w4 d w4 neg w4 d w4 neg w4 neg d cl f} def
/m48 {mp x y w4 add m w4 neg w4 d w4 neg w4 neg d w4 w4 neg d  w4 neg w4 neg d w4 w4 neg d w4 w4 d w4 w4 neg d w4 w4 d w4 neg w4 d w4 w4 d w4 neg w4 d w4 neg w4 neg d  w4 w4 neg d w4 neg w4 neg d w4 neg w4 d w4 w4 d cl f} def
/m49 {mp x w2 sub w3 add y w2 sub w3 add m  0 w3 neg d w3 0 d 0 w3 d w3 0 d 0 w3 d w3 neg 0 d 0 w3 d w3 neg 0 d 0 w3 neg d w3 neg 0 d 0 w3 neg d w3 0 d 0 w3 d w3 0 d 0 w3 neg d w3 neg 0 d cl f } def
/m2 {mp x y w2 sub m 0 w d x w2 sub y m w 0 d s} def
/m5 {mp x w2 sub y w2 sub m w w d x w2 sub y w2 add m w w neg d s} def
%%IncludeResource: ProcSet (FontSetInit)
%%IncludeResource: font Times-Roman
%%IncludeResource: font Times-Italic
%%IncludeResource: font Times-Bold
%%IncludeResource: font Times-BoldItalic
%%IncludeResource: font Helvetica
%%IncludeResource: font Helvetica-Oblique
%%IncludeResource: font Helvetica-Bold
%%IncludeResource: font Helvetica-BoldOblique
%%IncludeResource: font Courier
%%IncludeResource: font Courier-Oblique
%%IncludeResource: font Courier-Bold
%%IncludeResource: font Courier-BoldOblique
%%IncludeResource: font Symbol
%%IncludeResource: font ZapfDingbats
/reEncode {exch findfont dup length dict begin {1 index /FID eq  {pop pop} {def} ifelse } forall /Encoding exch def currentdict end dup /FontName get exch definefont pop } def [/Times-Bold /Times-Italic /Times-BoldItalic /Helvetica /Helvetica-Oblique
 /Helvetica-Bold /Helvetica-BoldOblique /Courier /Courier-Oblique /Courier-Bold /Courier-BoldOblique /Times-Roman /AvantGarde-Book /AvantGarde-BookOblique /AvantGarde-Demi /AvantGarde-DemiOblique /Bookman-Demi /Bookman-DemiItalic /Bookman-Light
 /Bookman-LightItalic /Helvetica-Narrow /Helvetica-Narrow-Bold /Helvetica-Narrow-BoldOblique /Helvetica-Narrow-Oblique /NewCenturySchlbk-Roman /NewCenturySchlbk-Bold /NewCenturySchlbk-BoldItalic /NewCenturySchlbk-Italic /Palatino-Bold
 /Palatino-BoldItalic /Palatino-Italic /Palatino-Roman ] {ISOLatin1Encoding reEncode } forall
%%EndProlog
%%BeginSetup
%%EndSetup
newpath  gsave  .25 .25 scale  gsave  0 0 t black[  ] 0 sd 3 lw 1 1 1 c 2268 1094 0 0 bf black 1 1 1 c 1088 1072 23 11 bf black 1 1 1 c 828 858 153 118 bf black 828 858 153 118 bl 1 1 1 c 828 858 153 118 bf black 828 858 153 118 bl 1 0 0 c 1 1 1 c 1
 0 0 c 174 396 m 5 Y s 174 412 m 3 Y s 167 406 m 1 X s 180 406 m 1 X s 171 396 m 6 X s 171 415 m 6 X s 167 404 m 5 Y s 181 404 m 5 Y s /w 12 def /w2 {w 2 div} def /w3 {w 3 div} def 174 406 m20 188 409 m 3 Y s 188 423 m 3 Y s 181 418 m 1 X s 193 418 m
 2 X s 185 409 m 6 X s 185 426 m 6 X s 181 415 m 6 Y s 195 415 m 6 Y s 188 418 m20 202 415 m 3 Y s 202 429 m 2 Y s 195 423 m 1 X s 207 423 m 1 X s 199 415 m 5 X s 199 431 m 5 X s 195 420 m 6 Y s 208 420 m 6 Y s 202 423 m20 215 416 m 3 Y s 215 430 m 2
 Y s 208 424 m 2 X s 221 424 m 1 X s 213 416 m 5 X s 213 432 m 5 X s 208 421 m 6 Y s 222 421 m 6 Y s 215 424 m20 229 416 m 3 Y s 229 430 m 2 Y s 222 424 m 1 X s 235 424 m 1 X s 226 416 m 6 X s 226 432 m 6 X s 222 421 m 6 Y s 236 421 m 6 Y s 229 424
 m20 243 425 m 2 Y s 243 439 m 1 Y s 236 433 m 1 X s 249 433 m 1 X s 240 425 m 6 X s 240 440 m 6 X s 236 430 m 6 Y s 250 430 m 6 Y s 243 433 m20 257 436 m 2 Y s 257 449 m 1 Y s 250 444 m 1 X s 262 444 m 2 X s 254 436 m 6 X s 254 450 m 6 X s 250 441 m
 5 Y s 264 441 m 5 Y s 257 444 m20 270 421 m 3 Y s 270 435 m 1 Y s 264 429 m 1 X s 276 429 m 1 X s 268 421 m 5 X s 268 436 m 5 X s 264 426 m 6 Y s 277 426 m 6 Y s 270 429 m20 284 435 m 1 Y s 284 448 m 1 Y s 277 442 m 2 X s 290 442 m 1 X s 281 435 m 6
 X s 281 449 m 6 X s 277 439 m 6 Y s 291 439 m 6 Y s 284 442 m20 298 444 m 1 Y s 298 456 m 1 Y s 291 451 m 1 X s 304 451 m 1 X s 295 444 m 6 X s 295 457 m 6 X s 291 448 m 6 Y s 305 448 m 6 Y s 298 451 m20 312 445 m 1 Y s 312 457 m 1 Y s 305 451 m 1 X
 s 318 451 m 1 X s 309 445 m 6 X s 309 458 m 6 X s 305 449 m 5 Y s 319 449 m 5 Y s 312 451 m20 326 456 m 1 Y s 319 462 m 1 X s 331 462 m 2 X s 323 456 m 5 X s 319 460 m 5 Y s 333 460 m 5 Y s 326 462 m20 339 453 m s 339 465 m s 333 459 m 1 X s 345 459
 m 1 X s 337 453 m 5 X s 337 465 m 5 X s 333 456 m 6 Y s 346 456 m 6 Y s 339 459 m20 353 463 m s 346 469 m 2 X s 359 469 m 1 X s 350 463 m 6 X s 346 466 m 6 Y s 360 466 m 6 Y s 353 469 m20 360 473 m 1 X s 373 473 m 1 X s 360 470 m 6 Y s 374 470 m 6 Y
 s 367 473 m20 374 474 m 1 X s 386 474 m 2 X s 374 471 m 6 Y s 388 471 m 6 Y s 381 474 m20 388 489 m 1 X s 400 489 m 1 X s 388 486 m 6 Y s 401 486 m 6 Y s 395 489 m20 401 505 m 2 X s 414 505 m 1 X s 401 502 m 6 Y s 415 502 m 6 Y s 408 505 m20 415 508
 m 1 X s 428 508 m 1 X s 415 505 m 5 Y s 429 505 m 5 Y s 422 508 m20 429 516 m 1 X s 442 516 m 1 X s 429 513 m 6 Y s 443 513 m 6 Y s 436 516 m20 443 532 m 1 X s 455 532 m 2 X s 443 529 m 6 Y s 457 529 m 6 Y s 450 532 m20 457 547 m 1 X s 469 547 m 1 X
 s 457 544 m 6 Y s 470 544 m 6 Y s 464 547 m20 470 555 m 2 X s 483 555 m 1 X s 470 552 m 6 Y s 484 552 m 6 Y s 477 555 m20 484 567 m 1 X s 497 567 m 1 X s 484 565 m 5 Y s 498 565 m 5 Y s 491 567 m20 498 593 m 1 X s 511 593 m 1 X s 498 591 m 5 Y s 512
 591 m 5 Y s 505 593 m20 512 619 m 1 X s 524 619 m 2 X s 512 616 m 6 Y s 526 616 m 6 Y s 519 619 m20 526 640 m 1 X s 538 640 m 1 X s 526 637 m 6 Y s 539 637 m 6 Y s 532 640 m20 539 662 m 2 X s 552 662 m 1 X s 539 660 m 5 Y s 553 660 m 5 Y s 546 662
 m20 553 682 m 1 X s 566 682 m 1 X s 553 679 m 6 Y s 567 679 m 6 Y s 560 682 m20 567 691 m 1 X s 579 691 m 2 X s 567 688 m 5 Y s 581 688 m 5 Y s 574 691 m20 581 687 m 1 X s 593 687 m 2 X s 581 685 m 5 Y s 595 685 m 5 Y s 588 687 m20 595 674 m 1 X s
 607 674 m 1 X s 595 671 m 6 Y s 608 671 m 6 Y s 601 674 m20 608 655 m 2 X s 621 655 m 1 X s 608 652 m 6 Y s 622 652 m 6 Y s 615 655 m20 622 625 m 1 X s 635 625 m 1 X s 622 622 m 5 Y s 636 622 m 5 Y s 629 625 m20 636 596 m 1 X s 648 596 m 2 X s 636
 593 m 5 Y s 650 593 m 5 Y s 643 596 m20 650 563 m 1 X s 662 563 m 1 X s 650 560 m 6 Y s 663 560 m 6 Y s 657 563 m20 663 540 m 2 X s 676 540 m 1 X s 663 537 m 6 Y s 677 537 m 6 Y s 670 540 m20 677 525 m 1 X s 690 525 m 1 X s 677 522 m 6 Y s 691 522 m
 6 Y s 684 525 m20 691 510 m 1 X s 704 510 m 1 X s 691 507 m 5 Y s 705 507 m 5 Y s 698 510 m20 705 490 m 1 X s 717 490 m 2 X s 705 487 m 6 Y s 719 487 m 6 Y s 712 490 m20 719 476 m 1 X s 731 476 m 1 X s 719 473 m 6 Y s 732 473 m 6 Y s 725 476 m20 739
 436 m 1 Y s 739 449 m s 732 443 m 2 X s 745 443 m 1 X s 736 436 m 6 X s 736 449 m 6 X s 732 440 m 6 Y s 746 440 m 6 Y s 739 443 m20 753 453 m 1 Y s 753 465 m s 746 460 m 1 X s 759 460 m 1 X s 750 453 m 6 X s 750 465 m 6 X s 746 457 m 5 Y s 760 457 m
 5 Y s 753 460 m20 767 423 m 2 Y s 767 437 m 1 Y s 760 431 m 1 X s 773 431 m 1 X s 764 423 m 6 X s 764 438 m 6 X s 760 428 m 6 Y s 774 428 m 6 Y s 767 431 m20 781 421 m 3 Y s 781 435 m 1 Y s 774 429 m 1 X s 786 429 m 2 X s 778 421 m 5 X s 778 436 m 5
 X s 774 426 m 6 Y s 788 426 m 6 Y s 781 429 m20 794 426 m 2 Y s 794 439 m 2 Y s 788 434 m 1 X s 800 434 m 1 X s 792 426 m 5 X s 792 441 m 5 X s 788 431 m 6 Y s 801 431 m 6 Y s 794 434 m20 808 385 m 5 Y s 808 402 m 3 Y s 801 396 m 2 X s 814 396 m 1 X
 s 805 385 m 6 X s 805 405 m 6 X s 801 393 m 6 Y s 815 393 m 6 Y s 808 396 m20 822 411 m 3 Y s 822 426 m 2 Y s 815 420 m 1 X s 828 420 m 1 X s 819 411 m 6 X s 819 428 m 6 X s 815 417 m 6 Y s 829 417 m 6 Y s 822 420 m20 836 392 m 4 Y s 836 408 m 3 Y s
 829 402 m 1 X s 841 402 m 2 X s 833 392 m 6 X s 833 411 m 6 X s 829 399 m 6 Y s 843 399 m 6 Y s 836 402 m20 850 383 m 6 Y s 850 400 m 4 Y s 843 394 m 1 X s 855 394 m 1 X s 847 383 m 5 X s 847 404 m 5 X s 843 391 m 6 Y s 856 391 m 6 Y s 850 394 m20
 863 390 m 5 Y s 863 406 m 4 Y s 856 401 m 2 X s 869 401 m 1 X s 861 390 m 5 X s 861 410 m 5 X s 856 398 m 5 Y s 870 398 m 5 Y s 863 401 m20 877 369 m 7 Y s 877 387 m 5 Y s 870 381 m 1 X s 883 381 m 1 X s 874 369 m 6 X s 874 392 m 6 X s 870 378 m 6 Y
 s 884 378 m 6 Y s 877 381 m20 891 375 m 7 Y s 891 393 m 4 Y s 884 387 m 1 X s 897 387 m 1 X s 888 375 m 6 X s 888 397 m 6 X s 884 384 m 6 Y s 898 384 m 6 Y s 891 387 m20 905 344 m 10 Y s 905 365 m 6 Y s 898 359 m 1 X s 910 359 m 2 X s 902 344 m 6 X
 s 902 371 m 6 X s 898 356 m 6 Y s 912 356 m 6 Y s 905 359 m20 919 347 m 9 Y s 919 368 m 6 Y s 912 362 m 1 X s 924 362 m 1 X s 916 347 m 5 X s 916 374 m 5 X s 912 359 m 6 Y s 925 359 m 6 Y s 919 362 m20 932 377 m 6 Y s 932 395 m 4 Y s 925 389 m 2 X s
 938 389 m 1 X s 929 377 m 6 X s 929 399 m 6 X s 925 386 m 6 Y s 939 386 m 6 Y s 932 389 m20 946 359 m 8 Y s 946 378 m 6 Y s 939 372 m 1 X s 952 372 m 1 X s 943 359 m 6 X s 943 384 m 6 X s 939 370 m 5 Y s 953 370 m 5 Y s 946 372 m20 960 325 m 12 Y s
 960 348 m 8 Y s 953 342 m 1 X s 966 342 m 1 X s 957 325 m 6 X s 957 356 m 6 X s 953 340 m 5 Y s 967 340 m 5 Y s 960 342 m20 974 353 m 9 Y s 974 373 m 6 Y s 967 367 m 1 X s 979 367 m 2 X s 971 353 m 6 X s 971 379 m 6 X s 967 365 m 5 Y s 981 365 m 5 Y
 s 974 367 m20 black 153 118 m 828 X s 153 143 m -25 Y s 181 130 m -12 Y s 208 130 m -12 Y s 236 130 m -12 Y s 264 130 m -12 Y s 291 143 m -25 Y s 319 130 m -12 Y s 346 130 m -12 Y s 374 130 m -12 Y s 401 130 m -12 Y s 429 143 m -25 Y s 457 130 m -12
 Y s 484 130 m -12 Y s 512 130 m -12 Y s 539 130 m -12 Y s 567 143 m -25 Y s 595 130 m -12 Y s 622 130 m -12 Y s 650 130 m -12 Y s 677 130 m -12 Y s 705 143 m -25 Y s 732 130 m -12 Y s 760 130 m -12 Y s 788 130 m -12 Y s 815 130 m -12 Y s 843 143 m
 -25 Y s 870 130 m -12 Y s 898 130 m -12 Y s 925 130 m -12 Y s 953 130 m -12 Y s 981 143 m -25 Y s
 gsave  1088 1072 23 11 C 133.395 83.7267 t 0 r /Helvetica findfont 35.5047 sf 0 0 m (60) show NC gr 
 gsave  1088 1072 23 11 C 271.047 83.7267 t 0 r /Helvetica findfont 35.5047 sf 0 0 m (70) show NC gr 
 gsave  1088 1072 23 11 C 408.7 83.7267 t 0 r /Helvetica findfont 35.5047 sf 0 0 m (80) show NC gr 
 gsave  1088 1072 23 11 C 546.352 83.7267 t 0 r /Helvetica findfont 35.5047 sf 0 0 m (90) show NC gr 
 gsave  1088 1072 23 11 C 674.071 83.7267 t 0 r /Helvetica findfont 35.5047 sf 0 0 m (100) show NC gr 
 gsave  1088 1072 23 11 C 811.723 83.7267 t 0 r /Helvetica findfont 35.5047 sf 0 0 m (110) show NC gr 
 gsave  1088 1072 23 11 C 949.376 83.7267 t 0 r /Helvetica findfont 35.5047 sf 0 0 m (120) show NC gr 
 gsave  1088 1072 23 11 C 852.877 32.6392 t 0 r /Helvetica findfont 45.446 sf 0 0 m ( [GeV]) show NC gr 
 gsave  1088 1072 23 11 C 835.848 24.1246 t 0 r /Symbol findfont 29.8239 sf 0 0 m (m) show NC gr 
 gsave  1088 1072 23 11 C 818.819 24.1246 t 0 r /Symbol findfont 29.8239 sf 0 0 m (m) show NC gr 
 gsave  1088 1072 23 11 C 783.341 32.6392 t 0 r /Helvetica findfont 45.446 sf 0 0 m (M) show NC gr  153 118 m 858 Y s 166 118 m -13 X s 166 143 m -13 X s 166 161 m -13 X s 166 175 m -13 X s 166 186 m -13 X s 166 196 m -13 X s 166 204 m -13 X s 166
 211 m -13 X s 179 218 m -26 X s
 gsave  1088 1072 23 11 C 131.976 205.769 t 0 r /Helvetica findfont 32.6643 sf 0 0 m (1) show NC gr  166 261 m -13 X s 166 286 m -13 X s 166 304 m -13 X s 166 318 m -13 X s 166 329 m -13 X s 166 338 m -13 X s 166 347 m -13 X s 166 354 m -13 X s 179
 361 m -26 X s
 gsave  1088 1072 23 11 C 109.27 349.098 t 0 r /Helvetica findfont 32.6643 sf 0 0 m (10) show NC gr  166 404 m -13 X s 166 429 m -13 X s 166 447 m -13 X s 166 460 m -13 X s 166 472 m -13 X s 166 481 m -13 X s 166 489 m -13 X s 166 497 m -13 X s 179
 503 m -26 X s
 gsave  1088 1072 23 11 C 131.976 502.36 t 0 r /Helvetica findfont 22.723 sf 0 0 m (2) show NC gr 
 gsave  1088 1072 23 11 C 96.4986 488.169 t 0 r /Helvetica findfont 32.6643 sf 0 0 m (10) show NC gr  166 546 m -13 X s 166 571 m -13 X s 166 589 m -13 X s 166 603 m -13 X s 166 614 m -13 X s 166 624 m -13 X s 166 632 m -13 X s 166 639 m -13 X s 179
 646 m -26 X s
 gsave  1088 1072 23 11 C 131.976 647.108 t 0 r /Helvetica findfont 22.723 sf 0 0 m (3) show NC gr 
 gsave  1088 1072 23 11 C 96.4986 631.498 t 0 r /Helvetica findfont 32.6643 sf 0 0 m (10) show NC gr  166 689 m -13 X s 166 714 m -13 X s 166 732 m -13 X s 166 746 m -13 X s 166 757 m -13 X s 166 767 m -13 X s 166 775 m -13 X s 166 782 m -13 X s 179
 789 m -26 X s
 gsave  1088 1072 23 11 C 131.976 787.599 t 0 r /Helvetica findfont 22.723 sf 0 0 m (4) show NC gr 
 gsave  1088 1072 23 11 C 96.4986 773.408 t 0 r /Helvetica findfont 32.6643 sf 0 0 m (10) show NC gr  166 832 m -13 X s 166 857 m -13 X s 166 875 m -13 X s 166 888 m -13 X s 166 900 m -13 X s 166 909 m -13 X s 166 918 m -13 X s 166 925 m -13 X s 179
 931 m -26 X s
 gsave  1088 1072 23 11 C 131.976 932.347 t 0 r /Helvetica findfont 22.723 sf 0 0 m (5) show NC gr 
 gsave  1088 1072 23 11 C 96.4986 916.736 t 0 r /Helvetica findfont 32.6643 sf 0 0 m (10) show NC gr  166 974 m -13 X s
 gsave  1088 1072 23 11 C 69.5357 557.705 t 90 r /Helvetica findfont 45.446 sf 0 0 m (Entries / NormFactor) show NC gr  1 0 0 c 1 1 1 c 1 0 0 c 174 250 m 70 Y s 174 331 m 28 Y s 167 326 m 1 X s 180 326 m 1 X s 171 250 m 6 X s 171 359 m 6 X s 167 323
 m 6 Y s 181 323 m 6 Y s 174 326 m24 202 297 m 48 Y s 202 356 m 23 Y s 195 351 m 1 X s 207 351 m 1 X s 199 297 m 5 X s 199 379 m 5 X s 195 348 m 6 Y s 208 348 m 6 Y s 202 351 m24 215 250 m 70 Y s 215 331 m 28 Y s 208 326 m 2 X s 221 326 m 1 X s 213
 250 m 5 X s 213 359 m 5 X s 208 323 m 6 Y s 222 323 m 6 Y s 215 326 m24 229 250 m 70 Y s 229 331 m 28 Y s 222 326 m 1 X s 235 326 m 1 X s 226 250 m 6 X s 226 359 m 6 X s 222 323 m 6 Y s 236 323 m 6 Y s 229 326 m24 243 250 m 70 Y s 243 331 m 28 Y s
 236 326 m 1 X s 249 326 m 1 X s 240 250 m 6 X s 240 359 m 6 X s 236 323 m 6 Y s 250 323 m 6 Y s 243 326 m24 257 326 m 37 Y s 257 374 m 20 Y s 250 369 m 1 X s 262 369 m 2 X s 254 326 m 6 X s 254 394 m 6 X s 250 366 m 5 Y s 264 366 m 5 Y s 257 369 m24
 270 297 m 48 Y s 270 356 m 23 Y s 264 351 m 1 X s 276 351 m 1 X s 268 297 m 5 X s 268 379 m 5 X s 264 348 m 6 Y s 277 348 m 6 Y s 270 351 m24 284 297 m 48 Y s 284 356 m 23 Y s 277 351 m 2 X s 290 351 m 1 X s 281 297 m 6 X s 281 379 m 6 X s 277 348 m
 6 Y s 291 348 m 6 Y s 284 351 m24 298 250 m 70 Y s 298 331 m 28 Y s 291 326 m 1 X s 304 326 m 1 X s 295 250 m 6 X s 295 359 m 6 X s 291 323 m 6 Y s 305 323 m 6 Y s 298 326 m24 312 250 m 70 Y s 312 331 m 28 Y s 305 326 m 1 X s 318 326 m 1 X s 309 250
 m 6 X s 309 359 m 6 X s 305 323 m 6 Y s 319 323 m 6 Y s 312 326 m24 367 118 m 159 Y s 367 288 m 38 Y s 360 283 m 1 X s 373 283 m 1 X s 364 118 m 6 X s 364 326 m 6 X s 360 280 m 6 Y s 374 280 m 6 Y s 367 283 m24 381 250 m 70 Y s 381 331 m 28 Y s 374
 326 m 1 X s 386 326 m 2 X s 378 250 m 6 X s 378 359 m 6 X s 374 323 m 6 Y s 388 323 m 6 Y s 381 326 m24 450 118 m 159 Y s 450 288 m 38 Y s 443 283 m 1 X s 455 283 m 2 X s 447 118 m 6 X s 447 326 m 6 X s 443 280 m 6 Y s 457 280 m 6 Y s 450 283 m24
 560 250 m 70 Y s 560 331 m 28 Y s 553 326 m 1 X s 566 326 m 1 X s 557 250 m 6 X s 557 359 m 6 X s 553 323 m 6 Y s 567 323 m 6 Y s 560 326 m24 657 118 m 159 Y s 657 288 m 38 Y s 650 283 m 1 X s 662 283 m 1 X s 654 118 m 5 X s 654 326 m 5 X s 650 280
 m 6 Y s 663 280 m 6 Y s 657 283 m24 767 118 m 159 Y s 767 288 m 38 Y s 760 283 m 1 X s 773 283 m 1 X s 764 118 m 6 X s 764 326 m 6 X s 760 280 m 6 Y s 774 280 m 6 Y s 767 283 m24 808 250 m 70 Y s 808 331 m 28 Y s 801 326 m 2 X s 814 326 m 1 X s 805
 250 m 6 X s 805 359 m 6 X s 801 323 m 6 Y s 815 323 m 6 Y s 808 326 m24 822 118 m 159 Y s 822 288 m 38 Y s 815 283 m 1 X s 828 283 m 1 X s 819 118 m 6 X s 819 326 m 6 X s 815 280 m 6 Y s 829 280 m 6 Y s 822 283 m24 850 250 m 70 Y s 850 331 m 28 Y s
 843 326 m 1 X s 855 326 m 1 X s 847 250 m 5 X s 847 359 m 5 X s 843 323 m 6 Y s 856 323 m 6 Y s 850 326 m24 974 118 m 159 Y s 974 288 m 38 Y s 967 283 m 1 X s 979 283 m 2 X s 971 118 m 6 X s 971 326 m 6 X s 967 280 m 6 Y s 981 280 m 6 Y s 974 283
 m24 black 1 1 1 c black 174 398 m 9 Y s 174 418 m 6 Y s 167 412 m 1 X s 180 412 m 1 X s 171 398 m 6 X s 171 424 m 6 X s 167 409 m 6 Y s 181 409 m 6 Y s 174 412 m20 188 429 m 5 Y s 188 446 m 4 Y s 181 440 m 1 X s 193 440 m 2 X s 185 429 m 6 X s 185
 450 m 6 X s 181 437 m 6 Y s 195 437 m 6 Y s 188 440 m20 202 429 m 5 Y s 202 446 m 4 Y s 195 440 m 1 X s 207 440 m 1 X s 199 429 m 5 X s 199 450 m 5 X s 195 437 m 6 Y s 208 437 m 6 Y s 202 440 m20 215 421 m 6 Y s 215 438 m 5 Y s 208 433 m 2 X s 221
 433 m 1 X s 213 421 m 5 X s 213 443 m 5 X s 208 430 m 6 Y s 222 430 m 6 Y s 215 433 m20 229 427 m 6 Y s 229 444 m 4 Y s 222 438 m 1 X s 235 438 m 1 X s 226 427 m 6 X s 226 448 m 6 X s 222 435 m 6 Y s 236 435 m 6 Y s 229 438 m20 243 441 m 4 Y s 243
 457 m 3 Y s 236 451 m 1 X s 249 451 m 1 X s 240 441 m 6 X s 240 460 m 6 X s 236 448 m 6 Y s 250 448 m 6 Y s 243 451 m20 257 441 m 4 Y s 257 457 m 3 Y s 250 451 m 1 X s 262 451 m 2 X s 254 441 m 6 X s 254 460 m 6 X s 250 448 m 6 Y s 264 448 m 6 Y s
 257 451 m20 270 427 m 6 Y s 270 444 m 4 Y s 264 438 m 1 X s 276 438 m 1 X s 268 427 m 5 X s 268 448 m 5 X s 264 435 m 6 Y s 277 435 m 6 Y s 270 438 m20 284 448 m 4 Y s 284 463 m 3 Y s 277 458 m 2 X s 290 458 m 1 X s 281 448 m 6 X s 281 466 m 6 X s
 277 455 m 6 Y s 291 455 m 6 Y s 284 458 m20 298 421 m 6 Y s 298 438 m 5 Y s 291 433 m 1 X s 304 433 m 1 X s 295 421 m 6 X s 295 443 m 6 X s 291 430 m 6 Y s 305 430 m 6 Y s 298 433 m20 312 458 m 4 Y s 312 473 m 2 Y s 305 467 m 1 X s 318 467 m 1 X s
 309 458 m 6 X s 309 475 m 6 X s 305 465 m 5 Y s 319 465 m 5 Y s 312 467 m20 326 463 m 3 Y s 326 477 m 2 Y s 319 472 m 1 X s 331 472 m 2 X s 323 463 m 5 X s 323 479 m 5 X s 319 469 m 5 Y s 333 469 m 5 Y s 326 472 m20 339 477 m 2 Y s 339 490 m 1 Y s
 333 485 m 1 X s 345 485 m 1 X s 337 477 m 5 X s 337 491 m 5 X s 333 482 m 5 Y s 346 482 m 5 Y s 339 485 m20 353 469 m 3 Y s 353 483 m 2 Y s 346 478 m 2 X s 359 478 m 1 X s 350 469 m 6 X s 350 485 m 6 X s 346 475 m 5 Y s 360 475 m 5 Y s 353 478 m20
 367 454 m 3 Y s 367 468 m 3 Y s 360 463 m 1 X s 373 463 m 1 X s 364 454 m 6 X s 364 471 m 6 X s 360 460 m 6 Y s 374 460 m 6 Y s 367 463 m20 381 468 m 3 Y s 381 482 m 2 Y s 374 477 m 1 X s 386 477 m 2 X s 378 468 m 6 X s 378 484 m 6 X s 374 474 m 5 Y
 s 388 474 m 5 Y s 381 477 m20 395 499 m s 395 511 m s 388 505 m 1 X s 400 505 m 1 X s 392 499 m 5 X s 392 511 m 5 X s 388 502 m 6 Y s 401 502 m 6 Y s 395 505 m20 408 501 m s 408 513 m s 401 507 m 2 X s 414 507 m 1 X s 406 501 m 5 X s 406 513 m 5 X s
 401 504 m 6 Y s 415 504 m 6 Y s 408 507 m20 422 500 m 1 Y s 422 512 m s 415 506 m 1 X s 428 506 m 1 X s 419 500 m 6 X s 419 512 m 6 X s 415 503 m 6 Y s 429 503 m 6 Y s 422 506 m20 436 505 m 1 Y s 429 511 m 1 X s 442 511 m 1 X s 433 505 m 6 X s 429
 509 m 5 Y s 443 509 m 5 Y s 436 511 m20 443 531 m 1 X s 455 531 m 2 X s 443 528 m 6 Y s 457 528 m 6 Y s 450 531 m20 457 541 m 1 X s 469 541 m 1 X s 457 538 m 6 Y s 470 538 m 6 Y s 464 541 m20 470 566 m 2 X s 483 566 m 1 X s 470 563 m 6 Y s 484 563 m
 6 Y s 477 566 m20 484 573 m 1 X s 497 573 m 1 X s 484 570 m 6 Y s 498 570 m 6 Y s 491 573 m20 498 601 m 1 X s 511 601 m 1 X s 498 598 m 5 Y s 512 598 m 5 Y s 505 601 m20 512 613 m 1 X s 524 613 m 2 X s 512 610 m 6 Y s 526 610 m 6 Y s 519 613 m20 526
 642 m 1 X s 538 642 m 1 X s 526 639 m 6 Y s 539 639 m 6 Y s 532 642 m20 539 659 m 2 X s 552 659 m 1 X s 539 656 m 6 Y s 553 656 m 6 Y s 546 659 m20 553 679 m 1 X s 566 679 m 1 X s 553 676 m 6 Y s 567 676 m 6 Y s 560 679 m20 567 689 m 1 X s 579 689 m
 2 X s 567 686 m 6 Y s 581 686 m 6 Y s 574 689 m20 581 691 m 1 X s 593 691 m 2 X s 581 688 m 5 Y s 595 688 m 5 Y s 588 691 m20 595 673 m 1 X s 607 673 m 1 X s 595 670 m 6 Y s 608 670 m 6 Y s 601 673 m20 608 648 m 2 X s 621 648 m 1 X s 608 645 m 6 Y s
 622 645 m 6 Y s 615 648 m20 622 625 m 1 X s 635 625 m 1 X s 622 622 m 6 Y s 636 622 m 6 Y s 629 625 m20 636 592 m 1 X s 648 592 m 2 X s 636 589 m 5 Y s 650 589 m 5 Y s 643 592 m20 650 563 m 1 X s 662 563 m 1 X s 650 560 m 6 Y s 663 560 m 6 Y s 657
 563 m20 663 549 m 2 X s 676 549 m 1 X s 663 546 m 6 Y s 677 546 m 6 Y s 670 549 m20 677 526 m 1 X s 690 526 m 1 X s 677 523 m 6 Y s 691 523 m 6 Y s 684 526 m20 698 501 m s 698 513 m s 691 507 m 1 X s 704 507 m 1 X s 695 501 m 6 X s 695 513 m 6 X s
 691 504 m 6 Y s 705 504 m 6 Y s 698 507 m20 712 485 m 2 Y s 712 498 m 1 Y s 705 492 m 1 X s 717 492 m 2 X s 709 485 m 6 X s 709 499 m 6 X s 705 490 m 5 Y s 719 490 m 5 Y s 712 492 m20 725 472 m 3 Y s 725 486 m 1 Y s 719 480 m 1 X s 731 480 m 1 X s
 723 472 m 5 X s 723 487 m 5 X s 719 477 m 6 Y s 732 477 m 6 Y s 725 480 m20 739 460 m 3 Y s 739 474 m 2 Y s 732 468 m 2 X s 745 468 m 1 X s 736 460 m 6 X s 736 476 m 6 X s 732 466 m 5 Y s 746 466 m 5 Y s 739 468 m20 753 456 m 3 Y s 753 471 m 2 Y s
 746 465 m 1 X s 759 465 m 1 X s 750 456 m 6 X s 750 473 m 6 X s 746 462 m 6 Y s 760 462 m 6 Y s 753 465 m20 767 447 m 4 Y s 767 462 m 3 Y s 760 457 m 1 X s 773 457 m 1 X s 764 447 m 6 X s 764 465 m 6 X s 760 454 m 5 Y s 774 454 m 5 Y s 767 457 m20
 781 432 m 6 Y s 781 449 m 4 Y s 774 443 m 1 X s 786 443 m 2 X s 778 432 m 5 X s 778 453 m 5 X s 774 440 m 6 Y s 788 440 m 6 Y s 781 443 m20 794 416 m 7 Y s 794 434 m 5 Y s 788 429 m 1 X s 800 429 m 1 X s 792 416 m 5 X s 792 439 m 5 X s 788 426 m 6 Y
 s 801 426 m 6 Y s 794 429 m20 808 367 m 13 Y s 808 391 m 9 Y s 801 386 m 2 X s 814 386 m 1 X s 805 367 m 6 X s 805 400 m 6 X s 801 383 m 6 Y s 815 383 m 6 Y s 808 386 m20 822 411 m 8 Y s 822 430 m 5 Y s 815 424 m 1 X s 828 424 m 1 X s 819 411 m 6 X
 s 819 435 m 6 X s 815 422 m 5 Y s 829 422 m 5 Y s 822 424 m20 836 362 m 14 Y s 836 387 m 9 Y s 829 381 m 1 X s 841 381 m 2 X s 833 362 m 6 X s 833 396 m 6 X s 829 379 m 5 Y s 843 379 m 5 Y s 836 381 m20 850 401 m 8 Y s 850 421 m 5 Y s 843 415 m 1 X
 s 855 415 m 1 X s 847 401 m 5 X s 847 426 m 5 X s 843 412 m 6 Y s 856 412 m 6 Y s 850 415 m20 863 380 m 11 Y s 863 403 m 7 Y s 856 397 m 2 X s 869 397 m 1 X s 861 380 m 5 X s 861 410 m 5 X s 856 394 m 6 Y s 870 394 m 6 Y s 863 397 m20 877 357 m 14 Y
 s 877 383 m 9 Y s 870 377 m 1 X s 883 377 m 1 X s 874 357 m 6 X s 874 392 m 6 X s 870 374 m 6 Y s 884 374 m 6 Y s 877 377 m20 891 362 m 14 Y s 891 387 m 9 Y s 884 381 m 1 X s 897 381 m 1 X s 888 362 m 6 X s 888 396 m 6 X s 884 379 m 5 Y s 898 379 m
 5 Y s 891 381 m20 905 401 m 8 Y s 905 421 m 5 Y s 898 415 m 1 X s 910 415 m 2 X s 902 401 m 6 X s 902 426 m 6 X s 898 412 m 6 Y s 912 412 m 6 Y s 905 415 m20 919 376 m 12 Y s 919 399 m 8 Y s 912 393 m 1 X s 924 393 m 1 X s 916 376 m 5 X s 916 407 m
 5 X s 912 391 m 5 Y s 925 391 m 5 Y s 919 393 m20 932 337 m 18 Y s 932 366 m 12 Y s 925 361 m 2 X s 938 361 m 1 X s 929 337 m 6 X s 929 378 m 6 X s 925 358 m 5 Y s 939 358 m 5 Y s 932 361 m20 946 367 m 13 Y s 946 391 m 9 Y s 939 386 m 1 X s 952 386
 m 1 X s 943 367 m 6 X s 943 400 m 6 X s 939 383 m 6 Y s 953 383 m 6 Y s 946 386 m20 960 351 m 15 Y s 960 378 m 10 Y s 953 372 m 1 X s 966 372 m 1 X s 957 351 m 6 X s 957 388 m 6 X s 953 369 m 6 Y s 967 369 m 6 Y s 960 372 m20 974 329 m 19 Y s 974
 360 m 12 Y s 967 354 m 1 X s 979 354 m 2 X s 971 329 m 6 X s 971 372 m 6 X s 967 351 m 6 Y s 981 351 m 6 Y s 974 354 m20 1 1 1 c black 174 296 m 27 Y s 174 335 m 15 Y s 167 329 m 1 X s 180 329 m 1 X s 171 296 m 6 X s 171 350 m 6 X s 167 326 m 6 Y s
 181 326 m 6 Y s 174 329 m24 188 261 m 37 Y s 188 309 m 20 Y s 181 304 m 1 X s 193 304 m 2 X s 185 261 m 6 X s 185 329 m 6 X s 181 301 m 6 Y s 195 301 m 6 Y s 188 304 m24 202 185 m 70 Y s 202 267 m 27 Y s 195 261 m 1 X s 207 261 m 1 X s 199 185 m 5 X
 s 199 294 m 5 X s 195 258 m 6 Y s 208 258 m 6 Y s 202 261 m24 215 337 m 18 Y s 215 366 m 12 Y s 208 361 m 2 X s 221 361 m 1 X s 213 337 m 5 X s 213 378 m 5 X s 208 358 m 5 Y s 222 358 m 5 Y s 215 361 m24 229 185 m 70 Y s 229 267 m 27 Y s 222 261 m 1
 X s 235 261 m 1 X s 226 185 m 6 X s 226 294 m 6 X s 222 258 m 6 Y s 236 258 m 6 Y s 229 261 m24 243 261 m 37 Y s 243 309 m 20 Y s 236 304 m 1 X s 249 304 m 1 X s 240 261 m 6 X s 240 329 m 6 X s 236 301 m 6 Y s 250 301 m 6 Y s 243 304 m24 257 281 m
 31 Y s 257 323 m 18 Y s 250 318 m 1 X s 262 318 m 2 X s 254 281 m 6 X s 254 341 m 6 X s 250 315 m 5 Y s 264 315 m 5 Y s 257 318 m24 270 281 m 31 Y s 270 323 m 18 Y s 264 318 m 1 X s 276 318 m 1 X s 268 281 m 5 X s 268 341 m 5 X s 264 315 m 5 Y s 277
 315 m 5 Y s 270 318 m24 284 233 m 47 Y s 284 292 m 22 Y s 277 286 m 2 X s 290 286 m 1 X s 281 233 m 6 X s 281 314 m 6 X s 277 283 m 6 Y s 291 283 m 6 Y s 284 286 m24 298 233 m 47 Y s 298 292 m 22 Y s 291 286 m 1 X s 304 286 m 1 X s 295 233 m 6 X s
 295 314 m 6 X s 291 283 m 6 Y s 305 283 m 6 Y s 298 286 m24 326 233 m 47 Y s 326 292 m 22 Y s 319 286 m 1 X s 331 286 m 2 X s 323 233 m 5 X s 323 314 m 5 X s 319 283 m 6 Y s 333 283 m 6 Y s 326 286 m24 339 261 m 37 Y s 339 309 m 20 Y s 333 304 m 1 X
 s 345 304 m 1 X s 337 261 m 5 X s 337 329 m 5 X s 333 301 m 6 Y s 346 301 m 6 Y s 339 304 m24 353 118 m 94 Y s 353 224 m 37 Y s 346 218 m 2 X s 359 218 m 1 X s 350 118 m 6 X s 350 261 m 6 X s 346 215 m 6 Y s 360 215 m 6 Y s 353 218 m24 367 118 m 94
 Y s 367 224 m 37 Y s 360 218 m 1 X s 373 218 m 1 X s 364 118 m 6 X s 364 261 m 6 X s 360 215 m 6 Y s 374 215 m 6 Y s 367 218 m24 381 233 m 47 Y s 381 292 m 22 Y s 374 286 m 1 X s 386 286 m 2 X s 378 233 m 6 X s 378 314 m 6 X s 374 283 m 6 Y s 388
 283 m 6 Y s 381 286 m24 395 233 m 47 Y s 395 292 m 22 Y s 388 286 m 1 X s 400 286 m 1 X s 392 233 m 5 X s 392 314 m 5 X s 388 283 m 6 Y s 401 283 m 6 Y s 395 286 m24 408 309 m 24 Y s 408 344 m 14 Y s 401 338 m 2 X s 414 338 m 1 X s 406 309 m 5 X s
 406 358 m 5 X s 401 336 m 5 Y s 415 336 m 5 Y s 408 338 m24 422 233 m 47 Y s 422 292 m 22 Y s 415 286 m 1 X s 428 286 m 1 X s 419 233 m 6 X s 419 314 m 6 X s 415 283 m 6 Y s 429 283 m 6 Y s 422 286 m24 436 233 m 47 Y s 436 292 m 22 Y s 429 286 m 1 X
 s 442 286 m 1 X s 433 233 m 6 X s 433 314 m 6 X s 429 283 m 6 Y s 443 283 m 6 Y s 436 286 m24 450 118 m 94 Y s 450 224 m 37 Y s 443 218 m 1 X s 455 218 m 2 X s 447 118 m 6 X s 447 261 m 6 X s 443 215 m 6 Y s 457 215 m 6 Y s 450 218 m24 477 185 m 70
 Y s 477 267 m 27 Y s 470 261 m 2 X s 483 261 m 1 X s 474 185 m 6 X s 474 294 m 6 X s 470 258 m 6 Y s 484 258 m 6 Y s 477 261 m24 491 118 m 94 Y s 491 224 m 37 Y s 484 218 m 1 X s 497 218 m 1 X s 488 118 m 6 X s 488 261 m 6 X s 484 215 m 6 Y s 498
 215 m 6 Y s 491 218 m24 519 261 m 37 Y s 519 309 m 20 Y s 512 304 m 1 X s 524 304 m 2 X s 516 261 m 6 X s 516 329 m 6 X s 512 301 m 6 Y s 526 301 m 6 Y s 519 304 m24 560 233 m 47 Y s 560 292 m 22 Y s 553 286 m 1 X s 566 286 m 1 X s 557 233 m 6 X s
 557 314 m 6 X s 553 283 m 6 Y s 567 283 m 6 Y s 560 286 m24 574 185 m 70 Y s 574 267 m 27 Y s 567 261 m 1 X s 579 261 m 2 X s 571 185 m 6 X s 571 294 m 6 X s 567 258 m 6 Y s 581 258 m 6 Y s 574 261 m24 588 185 m 70 Y s 588 267 m 27 Y s 581 261 m 1 X
 s 593 261 m 2 X s 585 185 m 5 X s 585 294 m 5 X s 581 258 m 6 Y s 595 258 m 6 Y s 588 261 m24 601 185 m 70 Y s 601 267 m 27 Y s 595 261 m 1 X s 607 261 m 1 X s 599 185 m 5 X s 599 294 m 5 X s 595 258 m 6 Y s 608 258 m 6 Y s 601 261 m24 615 185 m 70
 Y s 615 267 m 27 Y s 608 261 m 2 X s 621 261 m 1 X s 612 185 m 6 X s 612 294 m 6 X s 608 258 m 6 Y s 622 258 m 6 Y s 615 261 m24 629 185 m 70 Y s 629 267 m 27 Y s 622 261 m 1 X s 635 261 m 1 X s 626 185 m 6 X s 626 294 m 6 X s 622 258 m 6 Y s 636
 258 m 6 Y s 629 261 m24 643 118 m 94 Y s 643 224 m 37 Y s 636 218 m 1 X s 648 218 m 2 X s 640 118 m 6 X s 640 261 m 6 X s 636 215 m 6 Y s 650 215 m 6 Y s 643 218 m24 670 118 m 94 Y s 670 224 m 37 Y s 663 218 m 2 X s 676 218 m 1 X s 667 118 m 6 X s
 667 261 m 6 X s 663 215 m 6 Y s 677 215 m 6 Y s 670 218 m24 684 185 m 70 Y s 684 267 m 27 Y s 677 261 m 1 X s 690 261 m 1 X s 681 185 m 6 X s 681 294 m 6 X s 677 258 m 6 Y s 691 258 m 6 Y s 684 261 m24 698 118 m 94 Y s 698 224 m 37 Y s 691 218 m 1 X
 s 704 218 m 1 X s 695 118 m 6 X s 695 261 m 6 X s 691 215 m 6 Y s 705 215 m 6 Y s 698 218 m24 712 118 m 94 Y s 712 224 m 37 Y s 705 218 m 1 X s 717 218 m 2 X s 709 118 m 6 X s 709 261 m 6 X s 705 215 m 6 Y s 719 215 m 6 Y s 712 218 m24 753 233 m 47
 Y s 753 292 m 22 Y s 746 286 m 1 X s 759 286 m 1 X s 750 233 m 6 X s 750 314 m 6 X s 746 283 m 6 Y s 760 283 m 6 Y s 753 286 m24 767 185 m 70 Y s 767 267 m 27 Y s 760 261 m 1 X s 773 261 m 1 X s 764 185 m 6 X s 764 294 m 6 X s 760 258 m 6 Y s 774
 258 m 6 Y s 767 261 m24 850 185 m 70 Y s 850 267 m 27 Y s 843 261 m 1 X s 855 261 m 1 X s 847 185 m 5 X s 847 294 m 5 X s 843 258 m 6 Y s 856 258 m 6 Y s 850 261 m24 877 118 m 94 Y s 877 224 m 37 Y s 870 218 m 1 X s 883 218 m 1 X s 874 118 m 6 X s
 874 261 m 6 X s 870 215 m 6 Y s 884 215 m 6 Y s 877 218 m24 905 118 m 94 Y s 905 224 m 37 Y s 898 218 m 1 X s 910 218 m 2 X s 902 118 m 6 X s 902 261 m 6 X s 898 215 m 6 Y s 912 215 m 6 Y s 905 218 m24 932 118 m 94 Y s 932 224 m 37 Y s 925 218 m 2 X
 s 938 218 m 1 X s 929 118 m 6 X s 929 261 m 6 X s 925 215 m 6 Y s 939 215 m 6 Y s 932 218 m24 946 118 m 94 Y s 946 224 m 37 Y s 939 218 m 1 X s 952 218 m 1 X s 943 118 m 6 X s 943 261 m 6 X s 939 215 m 6 Y s 953 215 m 6 Y s 946 218 m24 960 118 m 94
 Y s 960 224 m 37 Y s 953 218 m 1 X s 966 218 m 1 X s 957 118 m 6 X s 957 261 m 6 X s 953 215 m 6 Y s 967 215 m 6 Y s 960 218 m24 0 0 1 c[ 12 12] 0 sd 6 lw 443 118 m 530 Y s 719 118 m 530 Y s black[  ] 0 sd 3 lw 1 1 1 c 272 268 186 654 bf black
 gsave  1088 1072 23 11 C 252.599 874.164 t 0 r /Helvetica findfont 39.7652 sf 0 0 m (OC data: 14498) show NC gr  220 889 m20
 gsave  1088 1072 23 11 C 252.599 807.466 t 0 r /Helvetica findfont 39.7652 sf 0 0 m (SC data: 27) show NC gr  220 822 m24
 gsave  1088 1072 23 11 C 252.599 740.768 t 0 r /Helvetica findfont 39.7652 sf 0 0 m (OC MC: 31529) show NC gr  1 0 0 c 220 755 m20 black
 gsave  1088 1072 23 11 C 252.599 674.071 t 0 r /Helvetica findfont 39.7652 sf 0 0 m (SC MC: 4) show NC gr  1 0 0 c 220 688 m24 black
 gsave  1088 1072 23 11 C 566.22 901.126 t 0 r /Helvetica-Bold findfont 59.6478 sf 0 0 m (pp collisions) show NC gr  1 1 1 c 1088 1072 1157 11 bf black 1 1 1 c 827 858 1287 118 bf black 827 858 1287 118 bl 1 1 1 c 827 858 1287 118 bf black 827 858
 1287 118 bl 1 0 0 c 1 1 1 c 1 0 0 c 1308 278 m 7 Y s 1308 296 m 4 Y s 1301 290 m 1 X s 1314 290 m 1 X s 1305 278 m 6 X s 1305 300 m 6 X s 1301 287 m 6 Y s 1315 287 m 6 Y s 1308 290 m20 1322 312 m 2 Y s 1322 326 m 1 Y s 1315 320 m 1 X s 1327 320 m 2
 X s 1319 312 m 5 X s 1319 327 m 5 X s 1315 317 m 6 Y s 1329 317 m 6 Y s 1322 320 m20 1335 314 m 3 Y s 1335 328 m 2 Y s 1329 323 m 1 X s 1341 323 m 1 X s 1333 314 m 5 X s 1333 330 m 5 X s 1329 320 m 5 Y s 1342 320 m 5 Y s 1335 323 m20 1349 317 m 2 Y
 s 1349 331 m 1 Y s 1342 325 m 2 X s 1355 325 m 1 X s 1346 317 m 6 X s 1346 332 m 6 X s 1342 322 m 6 Y s 1356 322 m 6 Y s 1349 325 m20 1363 309 m 3 Y s 1363 323 m 2 Y s 1356 317 m 1 X s 1369 317 m 1 X s 1360 309 m 6 X s 1360 325 m 6 X s 1356 315 m 5
 Y s 1370 315 m 5 Y s 1363 317 m20 1377 317 m 2 Y s 1377 331 m 1 Y s 1370 325 m 1 X s 1382 325 m 2 X s 1374 317 m 6 X s 1374 332 m 6 X s 1370 322 m 6 Y s 1384 322 m 6 Y s 1377 325 m20 1391 334 m 1 Y s 1391 346 m s 1384 341 m 1 X s 1396 341 m 1 X s
 1388 334 m 5 X s 1388 346 m 5 X s 1384 338 m 5 Y s 1397 338 m 5 Y s 1391 341 m20 1404 321 m 2 Y s 1404 334 m 1 Y s 1397 328 m 2 X s 1410 328 m 1 X s 1402 321 m 5 X s 1402 335 m 5 X s 1397 325 m 6 Y s 1411 325 m 6 Y s 1404 328 m20 1418 332 m 1 Y s
 1418 345 m s 1411 339 m 1 X s 1424 339 m 1 X s 1415 332 m 6 X s 1415 345 m 6 X s 1411 336 m 6 Y s 1425 336 m 6 Y s 1418 339 m20 1432 341 m s 1425 347 m 1 X s 1438 347 m 1 X s 1429 341 m 6 X s 1425 344 m 6 Y s 1439 344 m 6 Y s 1432 347 m20 1446 344 m
 s 1439 350 m 1 X s 1451 350 m 2 X s 1443 344 m 6 X s 1439 347 m 5 Y s 1453 347 m 5 Y s 1446 350 m20 1460 348 m s 1453 354 m 1 X s 1465 354 m 1 X s 1457 348 m 5 X s 1453 351 m 5 Y s 1466 351 m 5 Y s 1460 354 m20 1473 348 m s 1466 354 m 2 X s 1479 354
 m 1 X s 1470 348 m 6 X s 1466 351 m 5 Y s 1480 351 m 5 Y s 1473 354 m20 1480 365 m 1 X s 1493 365 m 1 X s 1480 362 m 6 Y s 1494 362 m 6 Y s 1487 365 m20 1494 371 m 1 X s 1507 371 m 1 X s 1494 368 m 6 Y s 1508 368 m 6 Y s 1501 371 m20 1508 367 m 1 X
 s 1520 367 m 2 X s 1508 364 m 5 Y s 1522 364 m 5 Y s 1515 367 m20 1522 378 m 1 X s 1534 378 m 1 X s 1522 375 m 6 Y s 1535 375 m 6 Y s 1528 378 m20 1535 391 m 2 X s 1548 391 m 1 X s 1535 388 m 5 Y s 1549 388 m 5 Y s 1542 391 m20 1549 395 m 1 X s 1562
 395 m 1 X s 1549 392 m 6 Y s 1563 392 m 6 Y s 1556 395 m20 1563 398 m 1 X s 1575 398 m 2 X s 1563 395 m 5 Y s 1577 395 m 5 Y s 1570 398 m20 1577 412 m 1 X s 1589 412 m 1 X s 1577 409 m 5 Y s 1590 409 m 5 Y s 1584 412 m20 1590 424 m 2 X s 1603 424 m
 1 X s 1590 421 m 6 Y s 1604 421 m 6 Y s 1597 424 m20 1604 430 m 1 X s 1617 430 m 1 X s 1604 428 m 5 Y s 1618 428 m 5 Y s 1611 430 m20 1618 440 m 1 X s 1631 440 m 1 X s 1618 437 m 6 Y s 1632 437 m 6 Y s 1625 440 m20 1632 458 m 1 X s 1644 458 m 2 X s
 1632 455 m 6 Y s 1646 455 m 6 Y s 1639 458 m20 1646 479 m 1 X s 1658 479 m 1 X s 1646 476 m 6 Y s 1659 476 m 6 Y s 1653 479 m20 1659 495 m 2 X s 1672 495 m 1 X s 1659 492 m 6 Y s 1673 492 m 6 Y s 1666 495 m20 1673 512 m 1 X s 1686 512 m 1 X s 1673
 509 m 6 Y s 1687 509 m 6 Y s 1680 512 m20 1687 526 m 1 X s 1700 526 m 1 X s 1687 523 m 6 Y s 1701 523 m 6 Y s 1694 526 m20 1701 533 m 1 X s 1713 533 m 2 X s 1701 530 m 6 Y s 1715 530 m 6 Y s 1708 533 m20 1715 530 m 1 X s 1727 530 m 1 X s 1715 527 m
 6 Y s 1728 527 m 6 Y s 1721 530 m20 1728 521 m 2 X s 1741 521 m 1 X s 1728 518 m 6 Y s 1742 518 m 6 Y s 1735 521 m20 1742 507 m 1 X s 1755 507 m 1 X s 1742 504 m 6 Y s 1756 504 m 6 Y s 1749 507 m20 1756 483 m 1 X s 1769 483 m 1 X s 1756 480 m 5 Y s
 1770 480 m 5 Y s 1763 483 m20 1770 462 m 1 X s 1782 462 m 2 X s 1770 459 m 6 Y s 1784 459 m 6 Y s 1777 462 m20 1784 437 m 1 X s 1796 437 m 1 X s 1784 434 m 6 Y s 1797 434 m 6 Y s 1790 437 m20 1797 421 m 2 X s 1810 421 m 1 X s 1797 418 m 6 Y s 1811
 418 m 6 Y s 1804 421 m20 1811 409 m 1 X s 1824 409 m 1 X s 1811 406 m 6 Y s 1825 406 m 6 Y s 1818 409 m20 1825 399 m 1 X s 1837 399 m 2 X s 1825 396 m 6 Y s 1839 396 m 6 Y s 1832 399 m20 1839 383 m 1 X s 1851 383 m 1 X s 1839 380 m 6 Y s 1852 380 m
 6 Y s 1846 383 m20 1852 370 m 2 X s 1865 370 m 1 X s 1852 367 m 6 Y s 1866 367 m 6 Y s 1859 370 m20 1873 342 m 1 Y s 1866 348 m 1 X s 1879 348 m 1 X s 1870 342 m 6 X s 1866 345 m 6 Y s 1880 345 m 6 Y s 1873 348 m20 1880 362 m 1 X s 1893 362 m 1 X s
 1880 359 m 6 Y s 1894 359 m 6 Y s 1887 362 m20 1901 331 m 1 Y s 1901 344 m s 1894 338 m 1 X s 1906 338 m 2 X s 1898 331 m 6 X s 1898 344 m 6 X s 1894 335 m 6 Y s 1908 335 m 6 Y s 1901 338 m20 1914 331 m 1 Y s 1914 344 m s 1908 338 m 1 X s 1920 338 m
 1 X s 1912 331 m 5 X s 1912 344 m 5 X s 1908 335 m 6 Y s 1921 335 m 6 Y s 1914 338 m20 1928 329 m 2 Y s 1928 342 m s 1921 336 m 2 X s 1934 336 m 1 X s 1925 329 m 6 X s 1925 342 m 6 X s 1921 333 m 6 Y s 1935 333 m 6 Y s 1928 336 m20 1942 297 m 4 Y s
 1942 312 m 3 Y s 1935 307 m 1 X s 1948 307 m 1 X s 1939 297 m 6 X s 1939 315 m 6 X s 1935 304 m 6 Y s 1949 304 m 6 Y s 1942 307 m20 1956 327 m 2 Y s 1956 340 m 1 Y s 1949 334 m 1 X s 1962 334 m 1 X s 1953 327 m 6 X s 1953 341 m 6 X s 1949 332 m 5 Y
 s 1963 332 m 5 Y s 1956 334 m20 1970 300 m 4 Y s 1970 316 m 2 Y s 1963 310 m 1 X s 1975 310 m 2 X s 1967 300 m 5 X s 1967 318 m 5 X s 1963 307 m 6 Y s 1977 307 m 6 Y s 1970 310 m20 1983 300 m 4 Y s 1983 316 m 2 Y s 1977 310 m 1 X s 1989 310 m 1 X s
 1981 300 m 5 X s 1981 318 m 5 X s 1977 307 m 6 Y s 1990 307 m 6 Y s 1983 310 m20 1997 306 m 3 Y s 1997 320 m 2 Y s 1990 315 m 2 X s 2003 315 m 1 X s 1994 306 m 6 X s 1994 322 m 6 X s 1990 312 m 5 Y s 2004 312 m 5 Y s 1997 315 m20 2011 297 m 4 Y s
 2011 312 m 3 Y s 2004 307 m 1 X s 2017 307 m 1 X s 2008 297 m 6 X s 2008 315 m 6 X s 2004 304 m 6 Y s 2018 304 m 6 Y s 2011 307 m20 2025 300 m 4 Y s 2025 316 m 2 Y s 2018 310 m 1 X s 2030 310 m 2 X s 2022 300 m 6 X s 2022 318 m 6 X s 2018 307 m 6 Y
 s 2032 307 m 6 Y s 2025 310 m20 2039 265 m 9 Y s 2039 285 m 5 Y s 2032 279 m 1 X s 2044 279 m 1 X s 2036 265 m 5 X s 2036 290 m 5 X s 2032 276 m 6 Y s 2045 276 m 6 Y s 2039 279 m20 2052 278 m 7 Y s 2052 296 m 4 Y s 2045 290 m 2 X s 2058 290 m 1 X s
 2050 278 m 5 X s 2050 300 m 5 X s 2045 287 m 6 Y s 2059 287 m 6 Y s 2052 290 m20 2066 295 m 4 Y s 2066 311 m 2 Y s 2059 305 m 1 X s 2072 305 m 1 X s 2063 295 m 6 X s 2063 313 m 6 X s 2059 302 m 6 Y s 2073 302 m 6 Y s 2066 305 m20 2080 291 m 5 Y s
 2080 307 m 3 Y s 2073 301 m 1 X s 2086 301 m 1 X s 2077 291 m 6 X s 2077 310 m 6 X s 2073 298 m 6 Y s 2087 298 m 6 Y s 2080 301 m20 2094 262 m 8 Y s 2094 282 m 5 Y s 2087 276 m 1 X s 2099 276 m 2 X s 2091 262 m 6 X s 2091 287 m 6 X s 2087 273 m 6 Y
 s 2101 273 m 6 Y s 2094 276 m20 2108 281 m 6 Y s 2108 298 m 4 Y s 2101 293 m 1 X s 2113 293 m 1 X s 2105 281 m 5 X s 2105 302 m 5 X s 2101 290 m 6 Y s 2114 290 m 6 Y s 2108 293 m20 black 1287 118 m 827 X s 1287 143 m -25 Y s 1315 130 m -12 Y s 1342
 130 m -12 Y s 1370 130 m -12 Y s 1397 130 m -12 Y s 1425 143 m -25 Y s 1453 130 m -12 Y s 1480 130 m -12 Y s 1508 130 m -12 Y s 1535 130 m -12 Y s 1563 143 m -25 Y s 1590 130 m -12 Y s 1618 130 m -12 Y s 1646 130 m -12 Y s 1673 130 m -12 Y s 1701
 143 m -25 Y s 1728 130 m -12 Y s 1756 130 m -12 Y s 1784 130 m -12 Y s 1811 130 m -12 Y s 1839 143 m -25 Y s 1866 130 m -12 Y s 1894 130 m -12 Y s 1921 130 m -12 Y s 1949 130 m -12 Y s 1977 143 m -25 Y s 2004 130 m -12 Y s 2032 130 m -12 Y s 2059
 130 m -12 Y s 2087 130 m -12 Y s 2114 143 m -25 Y s
 gsave  1088 1072 1157 11 C 1267.25 83.7267 t 0 r /Helvetica findfont 35.5047 sf 0 0 m (60) show NC gr 
 gsave  1088 1072 1157 11 C 1404.91 83.7267 t 0 r /Helvetica findfont 35.5047 sf 0 0 m (70) show NC gr 
 gsave  1088 1072 1157 11 C 1542.56 83.7267 t 0 r /Helvetica findfont 35.5047 sf 0 0 m (80) show NC gr 
 gsave  1088 1072 1157 11 C 1680.21 83.7267 t 0 r /Helvetica findfont 35.5047 sf 0 0 m (90) show NC gr 
 gsave  1088 1072 1157 11 C 1807.93 83.7267 t 0 r /Helvetica findfont 35.5047 sf 0 0 m (100) show NC gr 
 gsave  1088 1072 1157 11 C 1945.58 83.7267 t 0 r /Helvetica findfont 35.5047 sf 0 0 m (110) show NC gr 
 gsave  1088 1072 1157 11 C 2083.23 83.7267 t 0 r /Helvetica findfont 35.5047 sf 0 0 m (120) show NC gr 
 gsave  1088 1072 1157 11 C 1986.74 32.6392 t 0 r /Helvetica findfont 45.446 sf 0 0 m ( [GeV]) show NC gr 
 gsave  1088 1072 1157 11 C 1969.71 24.1246 t 0 r /Symbol findfont 29.8239 sf 0 0 m (m) show NC gr 
 gsave  1088 1072 1157 11 C 1952.68 24.1246 t 0 r /Symbol findfont 29.8239 sf 0 0 m (m) show NC gr 
 gsave  1088 1072 1157 11 C 1917.2 32.6392 t 0 r /Helvetica findfont 45.446 sf 0 0 m (M) show NC gr  1287 118 m 858 Y s 1300 118 m -13 X s 1300 137 m -13 X s 1300 150 m -13 X s 1300 161 m -13 X s 1300 169 m -13 X s 1300 176 m -13 X s 1300 183 m -13 X
 s 1300 188 m -13 X s 1313 193 m -26 X s
 gsave  1088 1072 1157 11 C 1265.83 181.644 t 0 r /Helvetica findfont 32.6643 sf 0 0 m (1) show NC gr  1300 225 m -13 X s 1300 244 m -13 X s 1300 257 m -13 X s 1300 268 m -13 X s 1300 276 m -13 X s 1300 283 m -13 X s 1300 290 m -13 X s 1300 295 m -13
 X s 1313 300 m -26 X s
 gsave  1088 1072 1157 11 C 1243.13 288.077 t 0 r /Helvetica findfont 32.6643 sf 0 0 m (10) show NC gr  1300 332 m -13 X s 1300 351 m -13 X s 1300 365 m -13 X s 1300 375 m -13 X s 1300 383 m -13 X s 1300 391 m -13 X s 1300 397 m -13 X s 1300 402 m
 -13 X s 1313 407 m -26 X s
 gsave  1088 1072 1157 11 C 1265.83 405.862 t 0 r /Helvetica findfont 22.723 sf 0 0 m (2) show NC gr 
 gsave  1088 1072 1157 11 C 1230.36 391.671 t 0 r /Helvetica findfont 32.6643 sf 0 0 m (10) show NC gr  1300 439 m -13 X s 1300 458 m -13 X s 1300 472 m -13 X s 1300 482 m -13 X s 1300 490 m -13 X s 1300 498 m -13 X s 1300 504 m -13 X s 1300 509 m
 -13 X s 1313 514 m -26 X s
 gsave  1088 1072 1157 11 C 1265.83 515.132 t 0 r /Helvetica findfont 22.723 sf 0 0 m (3) show NC gr 
 gsave  1088 1072 1157 11 C 1230.36 499.522 t 0 r /Helvetica findfont 32.6643 sf 0 0 m (10) show NC gr  1300 546 m -13 X s 1300 565 m -13 X s 1300 579 m -13 X s 1300 589 m -13 X s 1300 598 m -13 X s 1300 605 m -13 X s 1300 611 m -13 X s 1300 616 m
 -13 X s 1313 621 m -26 X s
 gsave  1088 1072 1157 11 C 1265.83 620.145 t 0 r /Helvetica findfont 22.723 sf 0 0 m (4) show NC gr 
 gsave  1088 1072 1157 11 C 1230.36 605.954 t 0 r /Helvetica findfont 32.6643 sf 0 0 m (10) show NC gr  1300 654 m -13 X s 1300 672 m -13 X s 1300 686 m -13 X s 1300 696 m -13 X s 1300 705 m -13 X s 1300 712 m -13 X s 1300 718 m -13 X s 1300 723 m
 -13 X s 1313 728 m -26 X s
 gsave  1088 1072 1157 11 C 1265.83 729.416 t 0 r /Helvetica findfont 22.723 sf 0 0 m (5) show NC gr 
 gsave  1088 1072 1157 11 C 1230.36 713.806 t 0 r /Helvetica findfont 32.6643 sf 0 0 m (10) show NC gr  1300 761 m -13 X s 1300 779 m -13 X s 1300 793 m -13 X s 1300 803 m -13 X s 1300 812 m -13 X s 1300 819 m -13 X s 1300 825 m -13 X s 1300 831 m
 -13 X s 1313 835 m -26 X s
 gsave  1088 1072 1157 11 C 1265.83 835.848 t 0 r /Helvetica findfont 22.723 sf 0 0 m (6) show NC gr 
 gsave  1088 1072 1157 11 C 1230.36 820.238 t 0 r /Helvetica findfont 32.6643 sf 0 0 m (10) show NC gr  1300 868 m -13 X s 1300 887 m -13 X s 1300 900 m -13 X s 1300 910 m -13 X s 1300 919 m -13 X s 1300 926 m -13 X s 1300 932 m -13 X s 1300 938 m
 -13 X s 1313 943 m -26 X s
 gsave  1088 1072 1157 11 C 1265.83 942.28 t 0 r /Helvetica findfont 22.723 sf 0 0 m (7) show NC gr 
 gsave  1088 1072 1157 11 C 1230.36 928.089 t 0 r /Helvetica findfont 32.6643 sf 0 0 m (10) show NC gr  1300 975 m -13 X s
 gsave  1088 1072 1157 11 C 1203.39 557.705 t 90 r /Helvetica findfont 45.446 sf 0 0 m (Entries / NormFactor) show NC gr  1 0 0 c 1 1 1 c 1 0 0 c 1942 136 m 51 Y s 1942 199 m 19 Y s 1935 193 m 1 X s 1948 193 m 1 X s 1939 136 m 6 X s 1939 218 m 6 X s
 1935 190 m 6 Y s 1949 190 m 6 Y s 1942 193 m24 black 1 1 1 c black 1308 297 m 10 Y s 1308 318 m 6 Y s 1301 312 m 1 X s 1314 312 m 1 X s 1305 297 m 6 X s 1305 324 m 6 X s 1301 309 m 6 Y s 1315 309 m 6 Y s 1308 312 m20 1322 309 m 7 Y s 1322 328 m 4 Y
 s 1315 322 m 1 X s 1327 322 m 2 X s 1319 309 m 5 X s 1319 332 m 5 X s 1315 319 m 6 Y s 1329 319 m 6 Y s 1322 322 m20 1335 312 m 7 Y s 1335 330 m 5 Y s 1329 325 m 1 X s 1341 325 m 1 X s 1333 312 m 5 X s 1333 335 m 5 X s 1329 322 m 6 Y s 1342 322 m 6
 Y s 1335 325 m20 1349 315 m 7 Y s 1349 333 m 4 Y s 1342 327 m 2 X s 1355 327 m 1 X s 1346 315 m 6 X s 1346 337 m 6 X s 1342 325 m 5 Y s 1356 325 m 5 Y s 1349 327 m20 1363 305 m 8 Y s 1363 325 m 5 Y s 1356 319 m 1 X s 1369 319 m 1 X s 1360 305 m 6 X
 s 1360 330 m 6 X s 1356 316 m 6 Y s 1370 316 m 6 Y s 1363 319 m20 1377 318 m 6 Y s 1377 336 m 4 Y s 1370 330 m 1 X s 1382 330 m 2 X s 1374 318 m 6 X s 1374 340 m 6 X s 1370 327 m 6 Y s 1384 327 m 6 Y s 1377 330 m20 1391 334 m 5 Y s 1391 350 m 3 Y s
 1384 345 m 1 X s 1396 345 m 1 X s 1388 334 m 5 X s 1388 353 m 5 X s 1384 342 m 5 Y s 1397 342 m 5 Y s 1391 345 m20 1404 328 m 5 Y s 1404 344 m 4 Y s 1397 339 m 2 X s 1410 339 m 1 X s 1402 328 m 5 X s 1402 348 m 5 X s 1397 336 m 6 Y s 1411 336 m 6 Y
 s 1404 339 m20 1418 340 m 4 Y s 1418 355 m 3 Y s 1411 350 m 1 X s 1424 350 m 1 X s 1415 340 m 6 X s 1415 358 m 6 X s 1411 347 m 5 Y s 1425 347 m 5 Y s 1418 350 m20 1432 318 m 6 Y s 1432 336 m 4 Y s 1425 330 m 1 X s 1438 330 m 1 X s 1429 318 m 6 X s
 1429 340 m 6 X s 1425 327 m 6 Y s 1439 327 m 6 Y s 1432 330 m20 1446 351 m 3 Y s 1446 365 m 2 Y s 1439 360 m 1 X s 1451 360 m 2 X s 1443 351 m 6 X s 1443 367 m 6 X s 1439 357 m 5 Y s 1453 357 m 5 Y s 1446 360 m20 1460 354 m 2 Y s 1460 368 m 1 Y s
 1453 362 m 1 X s 1465 362 m 1 X s 1457 354 m 5 X s 1457 369 m 5 X s 1453 359 m 6 Y s 1466 359 m 6 Y s 1460 362 m20 1473 372 m 1 Y s 1473 384 m s 1466 378 m 2 X s 1479 378 m 1 X s 1470 372 m 6 X s 1470 384 m 6 X s 1466 376 m 5 Y s 1480 376 m 5 Y s
 1473 378 m20 1487 355 m 3 Y s 1487 369 m 1 Y s 1480 363 m 1 X s 1493 363 m 1 X s 1484 355 m 6 X s 1484 370 m 6 X s 1480 361 m 5 Y s 1494 361 m 5 Y s 1487 363 m20 1501 338 m 4 Y s 1501 354 m 2 Y s 1494 348 m 1 X s 1507 348 m 1 X s 1498 338 m 6 X s
 1498 356 m 6 X s 1494 345 m 6 Y s 1508 345 m 6 Y s 1501 348 m20 1515 351 m 3 Y s 1515 365 m 2 Y s 1508 360 m 1 X s 1520 360 m 2 X s 1512 351 m 5 X s 1512 367 m 5 X s 1508 357 m 5 Y s 1522 357 m 5 Y s 1515 360 m20 1528 384 m s 1522 390 m 1 X s 1534
 390 m 1 X s 1526 384 m 5 X s 1522 387 m 6 Y s 1535 387 m 6 Y s 1528 390 m20 1542 383 m 1 Y s 1535 389 m 2 X s 1548 389 m 1 X s 1539 383 m 6 X s 1535 386 m 6 Y s 1549 386 m 6 Y s 1542 389 m20 1556 385 m s 1549 391 m 1 X s 1562 391 m 1 X s 1553 385 m
 6 X s 1549 388 m 5 Y s 1563 388 m 5 Y s 1556 391 m20 1563 395 m 1 X s 1575 395 m 2 X s 1563 392 m 6 Y s 1577 392 m 6 Y s 1570 395 m20 1577 408 m 1 X s 1589 408 m 1 X s 1577 405 m 5 Y s 1590 405 m 5 Y s 1584 408 m20 1590 420 m 2 X s 1603 420 m 1 X s
 1590 417 m 6 Y s 1604 417 m 6 Y s 1597 420 m20 1604 439 m 1 X s 1617 439 m 1 X s 1604 436 m 6 Y s 1618 436 m 6 Y s 1611 439 m20 1618 444 m 1 X s 1631 444 m 1 X s 1618 442 m 5 Y s 1632 442 m 5 Y s 1625 444 m20 1632 467 m 1 X s 1644 467 m 2 X s 1632
 464 m 6 Y s 1646 464 m 6 Y s 1639 467 m20 1646 473 m 1 X s 1658 473 m 1 X s 1646 470 m 6 Y s 1659 470 m 6 Y s 1653 473 m20 1659 498 m 2 X s 1672 498 m 1 X s 1659 495 m 5 Y s 1673 495 m 5 Y s 1666 498 m20 1673 508 m 1 X s 1686 508 m 1 X s 1673 505 m
 6 Y s 1687 505 m 6 Y s 1680 508 m20 1687 524 m 1 X s 1700 524 m 1 X s 1687 521 m 6 Y s 1701 521 m 6 Y s 1694 524 m20 1701 532 m 1 X s 1713 532 m 2 X s 1701 529 m 6 Y s 1715 529 m 6 Y s 1708 532 m20 1715 535 m 1 X s 1727 535 m 1 X s 1715 532 m 6 Y s
 1728 532 m 6 Y s 1721 535 m20 1728 520 m 2 X s 1741 520 m 1 X s 1728 517 m 6 Y s 1742 517 m 6 Y s 1735 520 m20 1742 502 m 1 X s 1755 502 m 1 X s 1742 499 m 6 Y s 1756 499 m 6 Y s 1749 502 m20 1756 485 m 1 X s 1769 485 m 1 X s 1756 482 m 6 Y s 1770
 482 m 6 Y s 1763 485 m20 1770 458 m 1 X s 1782 458 m 2 X s 1770 455 m 6 Y s 1784 455 m 6 Y s 1777 458 m20 1784 437 m 1 X s 1796 437 m 1 X s 1784 434 m 5 Y s 1797 434 m 5 Y s 1790 437 m20 1797 429 m 2 X s 1810 429 m 1 X s 1797 426 m 6 Y s 1811 426 m
 6 Y s 1804 429 m20 1811 406 m 1 X s 1824 406 m 1 X s 1811 403 m 6 Y s 1825 403 m 6 Y s 1818 406 m20 1832 385 m s 1825 391 m 1 X s 1837 391 m 2 X s 1829 385 m 6 X s 1825 388 m 5 Y s 1839 388 m 5 Y s 1832 391 m20 1846 379 m s 1839 385 m 1 X s 1851 385
 m 1 X s 1843 379 m 5 X s 1839 382 m 6 Y s 1852 382 m 6 Y s 1846 385 m20 1859 369 m 1 Y s 1859 382 m s 1852 376 m 2 X s 1865 376 m 1 X s 1857 369 m 5 X s 1857 382 m 5 X s 1852 373 m 6 Y s 1866 373 m 6 Y s 1859 376 m20 1873 355 m 3 Y s 1873 369 m 1 Y
 s 1866 363 m 1 X s 1879 363 m 1 X s 1870 355 m 6 X s 1870 370 m 6 X s 1866 361 m 5 Y s 1880 361 m 5 Y s 1873 363 m20 1887 359 m 2 Y s 1887 372 m 1 Y s 1880 367 m 1 X s 1893 367 m 1 X s 1884 359 m 6 X s 1884 373 m 6 X s 1880 364 m 6 Y s 1894 364 m 6
 Y s 1887 367 m20 1901 351 m 3 Y s 1901 365 m 2 Y s 1894 360 m 1 X s 1906 360 m 2 X s 1898 351 m 6 X s 1898 367 m 6 X s 1894 357 m 5 Y s 1908 357 m 5 Y s 1901 360 m20 1914 340 m 4 Y s 1914 355 m 3 Y s 1908 350 m 1 X s 1920 350 m 1 X s 1912 340 m 5 X
 s 1912 358 m 5 X s 1908 347 m 5 Y s 1921 347 m 5 Y s 1914 350 m20 1928 323 m 6 Y s 1928 340 m 4 Y s 1921 335 m 2 X s 1934 335 m 1 X s 1925 323 m 6 X s 1925 344 m 6 X s 1921 332 m 5 Y s 1935 332 m 5 Y s 1928 335 m20 1942 282 m 12 Y s 1942 306 m 7 Y s
 1935 300 m 1 X s 1948 300 m 1 X s 1939 282 m 6 X s 1939 313 m 6 X s 1935 297 m 6 Y s 1949 297 m 6 Y s 1942 300 m20 1956 312 m 7 Y s 1956 330 m 5 Y s 1949 325 m 1 X s 1962 325 m 1 X s 1953 312 m 6 X s 1953 335 m 6 X s 1949 322 m 6 Y s 1963 322 m 6 Y
 s 1956 325 m20 1970 261 m 17 Y s 1970 289 m 9 Y s 1963 283 m 1 X s 1975 283 m 2 X s 1967 261 m 5 X s 1967 298 m 5 X s 1963 281 m 5 Y s 1977 281 m 5 Y s 1970 283 m20 1983 318 m 6 Y s 1983 336 m 4 Y s 1977 330 m 1 X s 1989 330 m 1 X s 1981 318 m 5 X s
 1981 340 m 5 X s 1977 327 m 6 Y s 1990 327 m 6 Y s 1983 330 m20 1997 288 m 11 Y s 1997 310 m 7 Y s 1990 305 m 2 X s 2003 305 m 1 X s 1994 288 m 6 X s 1994 317 m 6 X s 1990 302 m 5 Y s 2004 302 m 5 Y s 1997 305 m20 2011 225 m 27 Y s 2011 263 m 13 Y s
 2004 257 m 1 X s 2017 257 m 1 X s 2008 225 m 6 X s 2008 276 m 6 X s 2004 255 m 5 Y s 2018 255 m 5 Y s 2011 257 m20 2025 288 m 11 Y s 2025 310 m 7 Y s 2018 305 m 1 X s 2030 305 m 2 X s 2022 288 m 6 X s 2022 317 m 6 X s 2018 302 m 5 Y s 2032 302 m 5 Y
 s 2025 305 m20 2039 309 m 7 Y s 2039 328 m 4 Y s 2032 322 m 1 X s 2044 322 m 1 X s 2036 309 m 5 X s 2036 332 m 5 X s 2032 319 m 6 Y s 2045 319 m 6 Y s 2039 322 m20 2052 301 m 9 Y s 2052 321 m 6 Y s 2045 316 m 2 X s 2058 316 m 1 X s 2050 301 m 5 X s
 2050 327 m 5 X s 2045 313 m 6 Y s 2059 313 m 6 Y s 2052 316 m20 2066 240 m 22 Y s 2066 274 m 11 Y s 2059 268 m 1 X s 2072 268 m 1 X s 2063 240 m 6 X s 2063 285 m 6 X s 2059 265 m 6 Y s 2073 265 m 6 Y s 2066 268 m20 2080 282 m 12 Y s 2080 306 m 7 Y s
 2073 300 m 1 X s 2086 300 m 1 X s 2077 282 m 6 X s 2077 313 m 6 X s 2073 297 m 6 Y s 2087 297 m 6 Y s 2080 300 m20 2094 282 m 12 Y s 2094 306 m 7 Y s 2087 300 m 1 X s 2099 300 m 2 X s 2091 282 m 6 X s 2091 313 m 6 X s 2087 297 m 6 Y s 2101 297 m 6 Y
 s 2094 300 m20 2108 204 m 34 Y s 2108 250 m 15 Y s 2101 244 m 1 X s 2113 244 m 1 X s 2105 204 m 5 X s 2105 265 m 5 X s 2101 241 m 6 Y s 2114 241 m 6 Y s 2108 244 m20 1 1 1 c black 1418 118 m 69 Y s 1418 199 m 26 Y s 1411 193 m 1 X s 1424 193 m 1 X s
 1415 118 m 6 X s 1415 225 m 6 X s 1411 190 m 6 Y s 1425 190 m 6 Y s 1418 193 m24 0 0 1 c[ 12 12] 0 sd 6 lw 1577 118 m 397 Y s 1852 118 m 397 Y s black[  ] 0 sd 3 lw 1 1 1 c 272 268 1320 654 bf black
 gsave  1088 1072 1157 11 C 1386.46 874.164 t 0 r /Helvetica findfont 39.7652 sf 0 0 m (OC data: 10606) show NC gr  1354 889 m20
 gsave  1088 1072 1157 11 C 1386.46 807.466 t 0 r /Helvetica findfont 39.7652 sf 0 0 m (SC data: 0) show NC gr  1354 822 m24
 gsave  1088 1072 1157 11 C 1386.46 740.768 t 0 r /Helvetica findfont 39.7652 sf 0 0 m (OC MC: 24973) show NC gr  1 0 0 c 1354 755 m20 black
 gsave  1088 1072 1157 11 C 1386.46 674.071 t 0 r /Helvetica findfont 39.7652 sf 0 0 m (SC MC: 0) show NC gr  1 0 0 c 1354 688 m24 black
 gsave  1088 1072 1157 11 C 1700.08 901.126 t 0 r /Helvetica-Bold findfont 59.6478 sf 0 0 m (pp collisions) show NC gr 
 gr  gr showpage
end
%%EOF
