%!PS-Adobe-2.0 EPSF-2.0
%%BoundingBox:  0 0 567 274
%%Title: /home/petr/Analysis_iwona/SFAnalysis/eps/MSTree.eps: Results
%%Creator: ROOT Version 6.16/00
%%CreationDate: Thu May  9 11:26:32 2019
%%DocumentNeededResources: ProcSet (FontSetInit)
%%EndComments
%%BeginProlog
80 dict begin
/s {stroke} def /l {lineto} def /m {moveto} def /t {translate} def
/r {rotate} def /rl {roll}  def /R {repeat} def
/d {rlineto} def /rm {rmoveto} def /gr {grestore} def /f {eofill} def
/c {setrgbcolor} def /black {0 setgray} def /sd {setdash} def
/cl {closepath} def /sf {scalefont setfont} def /lw {setlinewidth} def
/box {m dup 0 exch d exch 0 d 0 exch neg d cl} def
/NC{systemdict begin initclip end}def/C{NC box clip newpath}def
/bl {box s} def /bf {gsave box gsave f grestore 1 lw [] 0 sd s grestore} def /Y { 0 exch d} def /X { 0 d} def 
/K {{pop pop 0 moveto} exch kshow} bind def
/ita {/ang 15 def gsave [1 0 ang dup sin exch cos div 1 0 0] concat} def 
/mp {newpath /y exch def /x exch def} def
/side {[w .77 mul w .23 mul] .385 w mul sd w 0 l currentpoint t -144 r} def
/mr {mp x y w2 0 360 arc} def /m24 {mr s} def /m20 {mr f} def
/mb {mp x y w2 add m w2 neg 0 d 0 w neg d w 0 d 0 w d cl} def
/mt {mp x y w2 add m w2 neg w neg d w 0 d cl} def
/w4 {w 4 div} def
/w6 {w 6 div} def
/w8 {w 8 div} def
/m21 {mb f} def /m25 {mb s} def /m22 {mt f} def /m26{mt s} def
/m23 {mp x y w2 sub m w2 w d w neg 0 d cl f} def
/m27 {mp x y w2 add m w3 neg w2 neg d w3 w2 neg d w3 w2 d cl s} def
/m28 {mp x w2 sub y w2 sub w3 add m w3 0 d  0 w3 neg d w3 0 d 0 w3 d w3 0 d  0 w3 d w3 neg 0 d 0 w3 d w3 neg 0 d 0 w3 neg d w3 neg 0 d cl s } def
/m29 {mp gsave x w2 sub y w2 add w3 sub m currentpoint t 4 {side} repeat cl fill gr} def
/m30 {mp gsave x w2 sub y w2 add w3 sub m currentpoint t 4 {side} repeat cl s gr} def
/m31 {mp x y w2 sub m 0 w d x w2 sub y m w 0 d x w2 sub y w2 add m w w neg d x w2 sub y w2 sub m w w d s} def
/m32 {mp x y w2 sub m w2 w d w neg 0 d cl s} def
/m33 {mp x y w2 add m w3 neg w2 neg d w3 w2 neg d w3 w2 d cl f} def
/m34 {mp x w2 sub y w2 sub w3 add m w3 0 d  0 w3 neg d w3 0 d 0 w3 d w3 0 d  0 w3 d w3 neg 0 d 0 w3 d w3 neg 0 d 0 w3 neg d w3 neg 0 d cl f } def
/m35 {mp x y w2 add m w2 neg w2 neg d w2 w2 neg d w2 w2 d w2 neg w2 d x y w2 sub m 0 w d x w2 sub y m w 0 d s} def
/m36 {mb x w2 sub y w2 add m w w neg d x w2 sub y w2 sub m w w d s} def
/m37 {mp x y m w4 neg w2 d w4 neg w2 neg d w2 0 d  w4 neg w2 neg d w2 0 d w4 neg w2 d w2 0 d w4 neg w2 d w4 neg w2 neg d cl s} def
/m38 {mp x w4 sub y w2 add m w4 neg w4 neg d 0 w2 neg d w4 w4 neg d w2 0 d w4 w4 d 0 w2 d w4 neg w4 d w2 neg 0 d x y w2 sub m 0 w d x w2 sub y m w 0 d cl s} def
/m39 {mp x y m w4 neg w2 d w4 neg w2 neg d w2 0 d  w4 neg w2 neg d w2 0 d w4 neg w2 d w2 0 d w4 neg w2 d w4 neg w2 neg d cl f} def
/m40 {mp x y m w4 w2 d w4 w4 neg d w2 neg w4 neg d w2 w4 neg d w4 neg w4 neg d w4 neg w2 d w4 neg w2 neg d w4 neg w4 d w2 w4 d w2 neg w4 d w4 w4 d w4 w2 neg d cl s} def
/m41 {mp x y m w4 w2 d w4 w4 neg d w2 neg w4 neg d w2 w4 neg d w4 neg w4 neg d w4 neg w2 d w4 neg w2 neg d w4 neg w4 d w2 w4 d w2 neg w4 d w4 w4 d w4 w2 neg d cl f} def
/m42 {mp x y w2 add m w8 neg w2 -3 4 div mul d w2 -3 4 div mul w8 neg d w2 3 4 div mul w8 neg d w8 w2 -3 4 div mul d w8 w2 3 4 div mul d w2 3 4 div mul w8 d w2 -3 4 div mul w8 d w8 neg w2 3 4 div mul d cl s} def
/m43 {mp x y w2 add m w8 neg w2 -3 4 div mul d w2 -3 4 div mul w8 neg d w2 3 4 div mul w8 neg d w8 w2 -3 4 div mul d w8 w2 3 4 div mul d w2 3 4 div mul w8 d w2 -3 4 div mul w8 d w8 neg w2 3 4 div mul d cl f} def
/m44 {mp x y m w6 neg w2 d w2 2 3 div mul 0 d w6 neg w2 neg d w2 w6 d 0 w2 -2 3 div mul d w2 neg w6 d w6 w2 neg d w2 -2 3 div mul 0 d w6 w2 d w2 neg w6 neg d 0 w2 2 3 div mul d w2 w6 neg d cl s} def
/m45 {mp x y m w6 neg w2 d w2 2 3 div mul 0 d w6 neg w2 neg d w2 w6 d 0 w2 -2 3 div mul d w2 neg w6 d w6 w2 neg d w2 -2 3 div mul 0 d w6 w2 d w2 neg w6 neg d 0 w2 2 3 div mul d w2 w6 neg d cl f} def
/m46 {mp x y w4 add m w4 neg w4 d w4 neg w4 neg d  w4 w4 neg d w4 neg w4 neg d w4 w4 neg d w4 w4 d w4 w4 neg d w4 w4 d w4 neg w4 d w4 w4 d w4 neg w4 d w4 neg w4 neg d cl s} def
/m47 {mp x y w4 add m w4 neg w4 d w4 neg w4 neg d w4 w4 neg d w4 neg w4 neg d  w4 w4 neg d w4 w4 d w4 w4 neg d w4 w4 d w4 neg w4 d w4 w4 d w4 neg w4 d w4 neg w4 neg d cl f} def
/m48 {mp x y w4 add m w4 neg w4 d w4 neg w4 neg d w4 w4 neg d  w4 neg w4 neg d w4 w4 neg d w4 w4 d w4 w4 neg d w4 w4 d w4 neg w4 d w4 w4 d w4 neg w4 d w4 neg w4 neg d  w4 w4 neg d w4 neg w4 neg d w4 neg w4 d w4 w4 d cl f} def
/m49 {mp x w2 sub w3 add y w2 sub w3 add m  0 w3 neg d w3 0 d 0 w3 d w3 0 d 0 w3 d w3 neg 0 d 0 w3 d w3 neg 0 d 0 w3 neg d w3 neg 0 d 0 w3 neg d w3 0 d 0 w3 d w3 0 d 0 w3 neg d w3 neg 0 d cl f } def
/m2 {mp x y w2 sub m 0 w d x w2 sub y m w 0 d s} def
/m5 {mp x w2 sub y w2 sub m w w d x w2 sub y w2 add m w w neg d s} def
%%IncludeResource: ProcSet (FontSetInit)
%%IncludeResource: font Times-Roman
%%IncludeResource: font Times-Italic
%%IncludeResource: font Times-Bold
%%IncludeResource: font Times-BoldItalic
%%IncludeResource: font Helvetica
%%IncludeResource: font Helvetica-Oblique
%%IncludeResource: font Helvetica-Bold
%%IncludeResource: font Helvetica-BoldOblique
%%IncludeResource: font Courier
%%IncludeResource: font Courier-Oblique
%%IncludeResource: font Courier-Bold
%%IncludeResource: font Courier-BoldOblique
%%IncludeResource: font Symbol
%%IncludeResource: font ZapfDingbats
/reEncode {exch findfont dup length dict begin {1 index /FID eq  {pop pop} {def} ifelse } forall /Encoding exch def currentdict end dup /FontName get exch definefont pop } def [/Times-Bold /Times-Italic /Times-BoldItalic /Helvetica /Helvetica-Oblique
 /Helvetica-Bold /Helvetica-BoldOblique /Courier /Courier-Oblique /Courier-Bold /Courier-BoldOblique /Times-Roman /AvantGarde-Book /AvantGarde-BookOblique /AvantGarde-Demi /AvantGarde-DemiOblique /Bookman-Demi /Bookman-DemiItalic /Bookman-Light
 /Bookman-LightItalic /Helvetica-Narrow /Helvetica-Narrow-Bold /Helvetica-Narrow-BoldOblique /Helvetica-Narrow-Oblique /NewCenturySchlbk-Roman /NewCenturySchlbk-Bold /NewCenturySchlbk-BoldItalic /NewCenturySchlbk-Italic /Palatino-Bold
 /Palatino-BoldItalic /Palatino-Italic /Palatino-Roman ] {ISOLatin1Encoding reEncode } forall
%%EndProlog
%%BeginSetup
%%EndSetup
newpath  gsave  .25 .25 scale  gsave  0 0 t black[  ] 0 sd 3 lw 1 1 1 c 2268 1094 0 0 bf black 1 1 1 c 1088 1072 23 11 bf black 1 1 1 c 828 858 153 118 bf black 828 858 153 118 bl 1 1 1 c 828 858 153 118 bf black 828 858 153 118 bl 1 0 0 c 1 1 1 c 1
 0 0 c 174 379 m 6 Y s 174 397 m 4 Y s 167 391 m 1 X s 180 391 m 1 X s 171 379 m 6 X s 171 401 m 6 X s 167 388 m 6 Y s 181 388 m 6 Y s /w 12 def /w2 {w 2 div} def /w3 {w 3 div} def 174 391 m20 188 399 m 4 Y s 188 414 m 3 Y s 181 409 m 1 X s 193 409 m
 2 X s 185 399 m 6 X s 185 417 m 6 X s 181 406 m 5 Y s 195 406 m 5 Y s 188 409 m20 202 395 m 5 Y s 202 411 m 4 Y s 195 406 m 1 X s 207 406 m 1 X s 199 395 m 5 X s 199 415 m 5 X s 195 403 m 6 Y s 208 403 m 6 Y s 202 406 m20 215 399 m 4 Y s 215 414 m 3
 Y s 208 409 m 2 X s 221 409 m 1 X s 213 399 m 5 X s 213 417 m 5 X s 208 406 m 5 Y s 222 406 m 5 Y s 215 409 m20 229 401 m 5 Y s 229 417 m 3 Y s 222 411 m 1 X s 235 411 m 1 X s 226 401 m 6 X s 226 420 m 6 X s 222 408 m 6 Y s 236 408 m 6 Y s 229 411
 m20 243 412 m 3 Y s 243 427 m 2 Y s 236 421 m 1 X s 249 421 m 1 X s 240 412 m 6 X s 240 429 m 6 X s 236 418 m 6 Y s 250 418 m 6 Y s 243 421 m20 257 420 m 3 Y s 257 434 m 2 Y s 250 429 m 1 X s 262 429 m 2 X s 254 420 m 6 X s 254 436 m 6 X s 250 426 m
 5 Y s 264 426 m 5 Y s 257 429 m20 270 404 m 4 Y s 270 420 m 2 Y s 264 414 m 1 X s 276 414 m 1 X s 268 404 m 5 X s 268 422 m 5 X s 264 411 m 6 Y s 277 411 m 6 Y s 270 414 m20 284 420 m 3 Y s 284 434 m 2 Y s 277 429 m 2 X s 290 429 m 1 X s 281 420 m 6
 X s 281 436 m 6 X s 277 426 m 5 Y s 291 426 m 5 Y s 284 429 m20 298 431 m 2 Y s 298 444 m 2 Y s 291 439 m 1 X s 304 439 m 1 X s 295 431 m 6 X s 295 446 m 6 X s 291 436 m 6 Y s 305 436 m 6 Y s 298 439 m20 312 434 m 2 Y s 312 447 m 1 Y s 305 441 m 1 X
 s 318 441 m 1 X s 309 434 m 6 X s 309 448 m 6 X s 305 438 m 6 Y s 319 438 m 6 Y s 312 441 m20 326 435 m 2 Y s 326 449 m 1 Y s 319 443 m 1 X s 331 443 m 2 X s 323 435 m 5 X s 323 450 m 5 X s 319 440 m 6 Y s 333 440 m 6 Y s 326 443 m20 339 441 m 2 Y s
 339 454 m 1 Y s 333 448 m 1 X s 345 448 m 1 X s 337 441 m 5 X s 337 455 m 5 X s 333 445 m 6 Y s 346 445 m 6 Y s 339 448 m20 353 451 m 1 Y s 353 463 m 1 Y s 346 458 m 2 X s 359 458 m 1 X s 350 451 m 6 X s 350 464 m 6 X s 346 455 m 6 Y s 360 455 m 6 Y
 s 353 458 m20 367 458 m 1 Y s 367 470 m s 360 464 m 1 X s 373 464 m 1 X s 364 458 m 6 X s 364 470 m 6 X s 360 461 m 6 Y s 374 461 m 6 Y s 367 464 m20 381 459 m s 374 465 m 1 X s 386 465 m 2 X s 378 459 m 6 X s 374 462 m 6 Y s 388 462 m 6 Y s 381 465
 m20 388 480 m 1 X s 400 480 m 1 X s 388 477 m 6 Y s 401 477 m 6 Y s 395 480 m20 401 498 m 2 X s 414 498 m 1 X s 401 496 m 5 Y s 415 496 m 5 Y s 408 498 m20 415 502 m 1 X s 428 502 m 1 X s 415 499 m 6 Y s 429 499 m 6 Y s 422 502 m20 429 509 m 1 X s
 442 509 m 1 X s 429 507 m 5 Y s 443 507 m 5 Y s 436 509 m20 443 527 m 1 X s 455 527 m 2 X s 443 524 m 6 Y s 457 524 m 6 Y s 450 527 m20 457 541 m 1 X s 469 541 m 1 X s 457 538 m 6 Y s 470 538 m 6 Y s 464 541 m20 470 552 m 2 X s 483 552 m 1 X s 470
 549 m 6 Y s 484 549 m 6 Y s 477 552 m20 484 564 m 1 X s 497 564 m 1 X s 484 561 m 6 Y s 498 561 m 6 Y s 491 564 m20 498 591 m 1 X s 511 591 m 1 X s 498 589 m 5 Y s 512 589 m 5 Y s 505 591 m20 512 617 m 1 X s 524 617 m 2 X s 512 614 m 6 Y s 526 614 m
 6 Y s 519 617 m20 526 638 m 1 X s 538 638 m 1 X s 526 635 m 6 Y s 539 635 m 6 Y s 532 638 m20 539 660 m 2 X s 552 660 m 1 X s 539 657 m 6 Y s 553 657 m 6 Y s 546 660 m20 553 680 m 1 X s 566 680 m 1 X s 553 677 m 6 Y s 567 677 m 6 Y s 560 680 m20 567
 689 m 1 X s 579 689 m 2 X s 567 686 m 6 Y s 581 686 m 6 Y s 574 689 m20 581 686 m 1 X s 593 686 m 2 X s 581 683 m 6 Y s 595 683 m 6 Y s 588 686 m20 595 673 m 1 X s 607 673 m 1 X s 595 670 m 6 Y s 608 670 m 6 Y s 601 673 m20 608 653 m 2 X s 621 653 m
 1 X s 608 651 m 5 Y s 622 651 m 5 Y s 615 653 m20 622 623 m 1 X s 635 623 m 1 X s 622 621 m 5 Y s 636 621 m 5 Y s 629 623 m20 636 593 m 1 X s 648 593 m 2 X s 636 590 m 6 Y s 650 590 m 6 Y s 643 593 m20 650 562 m 1 X s 662 562 m 1 X s 650 559 m 5 Y s
 663 559 m 5 Y s 657 562 m20 663 539 m 2 X s 676 539 m 1 X s 663 536 m 5 Y s 677 536 m 5 Y s 670 539 m20 677 526 m 1 X s 690 526 m 1 X s 677 523 m 6 Y s 691 523 m 6 Y s 684 526 m20 691 507 m 1 X s 704 507 m 1 X s 691 504 m 6 Y s 705 504 m 6 Y s 698
 507 m20 705 490 m 1 X s 717 490 m 2 X s 705 487 m 5 Y s 719 487 m 5 Y s 712 490 m20 725 467 m 1 Y s 719 473 m 1 X s 731 473 m 1 X s 723 467 m 5 X s 719 470 m 6 Y s 732 470 m 6 Y s 725 473 m20 739 430 m 2 Y s 739 444 m 1 Y s 732 438 m 2 X s 745 438 m
 1 X s 736 430 m 6 X s 736 445 m 6 X s 732 435 m 6 Y s 746 435 m 6 Y s 739 438 m20 753 452 m 1 Y s 753 464 m s 746 458 m 1 X s 759 458 m 1 X s 750 452 m 6 X s 750 464 m 6 X s 746 456 m 5 Y s 760 456 m 5 Y s 753 458 m20 767 426 m 3 Y s 767 440 m 1 Y s
 760 434 m 1 X s 773 434 m 1 X s 764 426 m 6 X s 764 441 m 6 X s 760 431 m 6 Y s 774 431 m 6 Y s 767 434 m20 781 418 m 3 Y s 781 432 m 2 Y s 774 427 m 1 X s 786 427 m 2 X s 778 418 m 5 X s 778 434 m 5 X s 774 424 m 5 Y s 788 424 m 5 Y s 781 427 m20
 794 423 m 3 Y s 794 437 m 2 Y s 788 431 m 1 X s 800 431 m 1 X s 792 423 m 5 X s 792 439 m 5 X s 788 429 m 5 Y s 801 429 m 5 Y s 794 431 m20 808 381 m 6 Y s 808 399 m 4 Y s 801 393 m 2 X s 814 393 m 1 X s 805 381 m 6 X s 805 403 m 6 X s 801 390 m 6 Y
 s 815 390 m 6 Y s 808 393 m20 822 413 m 4 Y s 822 428 m 2 Y s 815 422 m 1 X s 828 422 m 1 X s 819 413 m 6 X s 819 430 m 6 X s 815 419 m 6 Y s 829 419 m 6 Y s 822 422 m20 836 392 m 5 Y s 836 408 m 4 Y s 829 403 m 1 X s 841 403 m 2 X s 833 392 m 6 X s
 833 412 m 6 X s 829 400 m 6 Y s 843 400 m 6 Y s 836 403 m20 850 383 m 6 Y s 850 400 m 4 Y s 843 395 m 1 X s 855 395 m 1 X s 847 383 m 5 X s 847 404 m 5 X s 843 392 m 6 Y s 856 392 m 6 Y s 850 395 m20 863 387 m 5 Y s 863 404 m 3 Y s 856 398 m 2 X s
 869 398 m 1 X s 861 387 m 5 X s 861 407 m 5 X s 856 395 m 6 Y s 870 395 m 6 Y s 863 398 m20 877 371 m 7 Y s 877 389 m 5 Y s 870 383 m 1 X s 883 383 m 1 X s 874 371 m 6 X s 874 394 m 6 X s 870 380 m 6 Y s 884 380 m 6 Y s 877 383 m20 891 377 m 7 Y s
 891 395 m 4 Y s 884 389 m 1 X s 897 389 m 1 X s 888 377 m 6 X s 888 399 m 6 X s 884 386 m 6 Y s 898 386 m 6 Y s 891 389 m20 905 352 m 9 Y s 905 372 m 7 Y s 898 367 m 1 X s 910 367 m 2 X s 902 352 m 6 X s 902 379 m 6 X s 898 364 m 6 Y s 912 364 m 6 Y
 s 905 367 m20 919 355 m 9 Y s 919 375 m 6 Y s 912 369 m 1 X s 924 369 m 1 X s 916 355 m 5 X s 916 381 m 5 X s 912 367 m 5 Y s 925 367 m 5 Y s 919 369 m20 932 373 m 7 Y s 932 391 m 5 Y s 925 385 m 2 X s 938 385 m 1 X s 929 373 m 6 X s 929 396 m 6 X s
 925 383 m 5 Y s 939 383 m 5 Y s 932 385 m20 946 361 m 8 Y s 946 380 m 6 Y s 939 374 m 1 X s 952 374 m 1 X s 943 361 m 6 X s 943 386 m 6 X s 939 372 m 5 Y s 953 372 m 5 Y s 946 374 m20 960 326 m 12 Y s 960 350 m 8 Y s 953 344 m 1 X s 966 344 m 1 X s
 957 326 m 6 X s 957 358 m 6 X s 953 341 m 6 Y s 967 341 m 6 Y s 960 344 m20 974 352 m 9 Y s 974 372 m 7 Y s 967 367 m 1 X s 979 367 m 2 X s 971 352 m 6 X s 971 379 m 6 X s 967 364 m 6 Y s 981 364 m 6 Y s 974 367 m20 black 153 118 m 828 X s 153 143 m
 -25 Y s 181 130 m -12 Y s 208 130 m -12 Y s 236 130 m -12 Y s 264 130 m -12 Y s 291 143 m -25 Y s 319 130 m -12 Y s 346 130 m -12 Y s 374 130 m -12 Y s 401 130 m -12 Y s 429 143 m -25 Y s 457 130 m -12 Y s 484 130 m -12 Y s 512 130 m -12 Y s 539 130
 m -12 Y s 567 143 m -25 Y s 595 130 m -12 Y s 622 130 m -12 Y s 650 130 m -12 Y s 677 130 m -12 Y s 705 143 m -25 Y s 732 130 m -12 Y s 760 130 m -12 Y s 788 130 m -12 Y s 815 130 m -12 Y s 843 143 m -25 Y s 870 130 m -12 Y s 898 130 m -12 Y s 925
 130 m -12 Y s 953 130 m -12 Y s 981 143 m -25 Y s
 gsave  1088 1072 23 11 C 133.395 83.7267 t 0 r /Helvetica findfont 35.5047 sf 0 0 m (60) show NC gr 
 gsave  1088 1072 23 11 C 271.047 83.7267 t 0 r /Helvetica findfont 35.5047 sf 0 0 m (70) show NC gr 
 gsave  1088 1072 23 11 C 408.7 83.7267 t 0 r /Helvetica findfont 35.5047 sf 0 0 m (80) show NC gr 
 gsave  1088 1072 23 11 C 546.352 83.7267 t 0 r /Helvetica findfont 35.5047 sf 0 0 m (90) show NC gr 
 gsave  1088 1072 23 11 C 674.071 83.7267 t 0 r /Helvetica findfont 35.5047 sf 0 0 m (100) show NC gr 
 gsave  1088 1072 23 11 C 811.723 83.7267 t 0 r /Helvetica findfont 35.5047 sf 0 0 m (110) show NC gr 
 gsave  1088 1072 23 11 C 949.376 83.7267 t 0 r /Helvetica findfont 35.5047 sf 0 0 m (120) show NC gr 
 gsave  1088 1072 23 11 C 852.877 32.6392 t 0 r /Helvetica findfont 45.446 sf 0 0 m ( [GeV]) show NC gr 
 gsave  1088 1072 23 11 C 835.848 24.1246 t 0 r /Symbol findfont 29.8239 sf 0 0 m (m) show NC gr 
 gsave  1088 1072 23 11 C 818.819 24.1246 t 0 r /Symbol findfont 29.8239 sf 0 0 m (m) show NC gr 
 gsave  1088 1072 23 11 C 783.341 32.6392 t 0 r /Helvetica findfont 45.446 sf 0 0 m (M) show NC gr  153 118 m 858 Y s 166 118 m -13 X s 166 143 m -13 X s 166 161 m -13 X s 166 175 m -13 X s 166 187 m -13 X s 166 196 m -13 X s 166 205 m -13 X s 166
 212 m -13 X s 179 218 m -26 X s
 gsave  1088 1072 23 11 C 131.976 205.769 t 0 r /Helvetica findfont 32.6643 sf 0 0 m (1) show NC gr  166 262 m -13 X s 166 287 m -13 X s 166 305 m -13 X s 166 319 m -13 X s 166 330 m -13 X s 166 340 m -13 X s 166 348 m -13 X s 166 355 m -13 X s 179
 362 m -26 X s
 gsave  1088 1072 23 11 C 109.27 350.517 t 0 r /Helvetica findfont 32.6643 sf 0 0 m (10) show NC gr  166 405 m -13 X s 166 430 m -13 X s 166 448 m -13 X s 166 462 m -13 X s 166 474 m -13 X s 166 483 m -13 X s 166 492 m -13 X s 166 499 m -13 X s 179
 506 m -26 X s
 gsave  1088 1072 23 11 C 131.976 505.198 t 0 r /Helvetica findfont 22.723 sf 0 0 m (2) show NC gr 
 gsave  1088 1072 23 11 C 96.4986 491.007 t 0 r /Helvetica findfont 32.6643 sf 0 0 m (10) show NC gr  166 549 m -13 X s 166 574 m -13 X s 166 592 m -13 X s 166 606 m -13 X s 166 617 m -13 X s 166 627 m -13 X s 166 635 m -13 X s 166 642 m -13 X s 179
 649 m -26 X s
 gsave  1088 1072 23 11 C 131.976 649.946 t 0 r /Helvetica findfont 22.723 sf 0 0 m (3) show NC gr 
 gsave  1088 1072 23 11 C 96.4986 634.336 t 0 r /Helvetica findfont 32.6643 sf 0 0 m (10) show NC gr  166 692 m -13 X s 166 718 m -13 X s 166 735 m -13 X s 166 749 m -13 X s 166 761 m -13 X s 166 770 m -13 X s 166 779 m -13 X s 166 786 m -13 X s 179
 793 m -26 X s
 gsave  1088 1072 23 11 C 131.976 791.856 t 0 r /Helvetica findfont 22.723 sf 0 0 m (4) show NC gr 
 gsave  1088 1072 23 11 C 96.4986 777.665 t 0 r /Helvetica findfont 32.6643 sf 0 0 m (10) show NC gr  166 836 m -13 X s 166 861 m -13 X s 166 879 m -13 X s 166 893 m -13 X s 166 904 m -13 X s 166 914 m -13 X s 166 922 m -13 X s 166 930 m -13 X s 179
 936 m -26 X s
 gsave  1088 1072 23 11 C 131.976 936.604 t 0 r /Helvetica findfont 22.723 sf 0 0 m (5) show NC gr 
 gsave  1088 1072 23 11 C 96.4986 920.994 t 0 r /Helvetica findfont 32.6643 sf 0 0 m (10) show NC gr 
 gsave  1088 1072 23 11 C 69.5357 557.705 t 90 r /Helvetica findfont 45.446 sf 0 0 m (Entries / NormFactor) show NC gr  1 0 0 c 1 1 1 c 1 0 0 c 174 290 m 48 Y s 174 349 m 23 Y s 167 344 m 1 X s 180 344 m 1 X s 171 290 m 6 X s 171 372 m 6 X s 167 341
 m 6 Y s 181 341 m 6 Y s 174 344 m24 188 118 m 152 Y s 188 281 m 38 Y s 181 275 m 1 X s 193 275 m 2 X s 185 118 m 6 X s 185 319 m 6 X s 181 273 m 5 Y s 195 273 m 5 Y s 188 275 m24 215 118 m 152 Y s 215 281 m 38 Y s 208 275 m 2 X s 221 275 m 1 X s 213
 118 m 5 X s 213 319 m 5 X s 208 273 m 5 Y s 222 273 m 5 Y s 215 275 m24 229 118 m 152 Y s 229 281 m 38 Y s 222 275 m 1 X s 235 275 m 1 X s 226 118 m 6 X s 226 319 m 6 X s 222 273 m 5 Y s 236 273 m 5 Y s 229 275 m24 243 242 m 71 Y s 243 324 m 28 Y s
 236 319 m 1 X s 249 319 m 1 X s 240 242 m 6 X s 240 352 m 6 X s 236 316 m 5 Y s 250 316 m 5 Y s 243 319 m24 257 242 m 71 Y s 257 324 m 28 Y s 250 319 m 1 X s 262 319 m 2 X s 254 242 m 6 X s 254 352 m 6 X s 250 316 m 5 Y s 264 316 m 5 Y s 257 319 m24
 270 118 m 152 Y s 270 281 m 38 Y s 264 275 m 1 X s 276 275 m 1 X s 268 118 m 5 X s 268 319 m 5 X s 264 273 m 5 Y s 277 273 m 5 Y s 270 275 m24 284 242 m 71 Y s 284 324 m 28 Y s 277 319 m 2 X s 290 319 m 1 X s 281 242 m 6 X s 281 352 m 6 X s 277 316
 m 5 Y s 291 316 m 5 Y s 284 319 m24 298 242 m 71 Y s 298 324 m 28 Y s 291 319 m 1 X s 304 319 m 1 X s 295 242 m 6 X s 295 352 m 6 X s 291 316 m 5 Y s 305 316 m 5 Y s 298 319 m24 353 290 m 48 Y s 353 349 m 23 Y s 346 344 m 2 X s 359 344 m 1 X s 350
 290 m 6 X s 350 372 m 6 X s 346 341 m 6 Y s 360 341 m 6 Y s 353 344 m24 367 118 m 152 Y s 367 281 m 38 Y s 360 275 m 1 X s 373 275 m 1 X s 364 118 m 6 X s 364 319 m 6 X s 360 273 m 5 Y s 374 273 m 5 Y s 367 275 m24 381 242 m 71 Y s 381 324 m 28 Y s
 374 319 m 1 X s 386 319 m 2 X s 378 242 m 6 X s 378 352 m 6 X s 374 316 m 5 Y s 388 316 m 5 Y s 381 319 m24 395 118 m 152 Y s 395 281 m 38 Y s 388 275 m 1 X s 400 275 m 1 X s 392 118 m 5 X s 392 319 m 5 X s 388 273 m 5 Y s 401 273 m 5 Y s 395 275
 m24 408 118 m 152 Y s 408 281 m 38 Y s 401 275 m 2 X s 414 275 m 1 X s 406 118 m 5 X s 406 319 m 5 X s 401 273 m 5 Y s 415 273 m 5 Y s 408 275 m24 450 242 m 71 Y s 450 324 m 28 Y s 443 319 m 1 X s 455 319 m 2 X s 447 242 m 6 X s 447 352 m 6 X s 443
 316 m 5 Y s 457 316 m 5 Y s 450 319 m24 477 118 m 152 Y s 477 281 m 38 Y s 470 275 m 2 X s 483 275 m 1 X s 474 118 m 6 X s 474 319 m 6 X s 470 273 m 5 Y s 484 273 m 5 Y s 477 275 m24 491 242 m 71 Y s 491 324 m 28 Y s 484 319 m 1 X s 497 319 m 1 X s
 488 242 m 6 X s 488 352 m 6 X s 484 316 m 5 Y s 498 316 m 5 Y s 491 319 m24 505 242 m 71 Y s 505 324 m 28 Y s 498 319 m 1 X s 511 319 m 1 X s 502 242 m 6 X s 502 352 m 6 X s 498 316 m 5 Y s 512 316 m 5 Y s 505 319 m24 532 118 m 152 Y s 532 281 m 38
 Y s 526 275 m 1 X s 538 275 m 1 X s 530 118 m 5 X s 530 319 m 5 X s 526 273 m 5 Y s 539 273 m 5 Y s 532 275 m24 560 242 m 71 Y s 560 324 m 28 Y s 553 319 m 1 X s 566 319 m 1 X s 557 242 m 6 X s 557 352 m 6 X s 553 316 m 5 Y s 567 316 m 5 Y s 560 319
 m24 588 118 m 152 Y s 588 281 m 38 Y s 581 275 m 1 X s 593 275 m 2 X s 585 118 m 5 X s 585 319 m 5 X s 581 273 m 5 Y s 595 273 m 5 Y s 588 275 m24 615 118 m 152 Y s 615 281 m 38 Y s 608 275 m 2 X s 621 275 m 1 X s 612 118 m 6 X s 612 319 m 6 X s 608
 273 m 5 Y s 622 273 m 5 Y s 615 275 m24 698 118 m 152 Y s 698 281 m 38 Y s 691 275 m 1 X s 704 275 m 1 X s 695 118 m 6 X s 695 319 m 6 X s 691 273 m 5 Y s 705 273 m 5 Y s 698 275 m24 725 118 m 152 Y s 725 281 m 38 Y s 719 275 m 1 X s 731 275 m 1 X s
 723 118 m 5 X s 723 319 m 5 X s 719 273 m 5 Y s 732 273 m 5 Y s 725 275 m24 753 118 m 152 Y s 753 281 m 38 Y s 746 275 m 1 X s 759 275 m 1 X s 750 118 m 6 X s 750 319 m 6 X s 746 273 m 5 Y s 760 273 m 5 Y s 753 275 m24 767 242 m 71 Y s 767 324 m 28
 Y s 760 319 m 1 X s 773 319 m 1 X s 764 242 m 6 X s 764 352 m 6 X s 760 316 m 5 Y s 774 316 m 5 Y s 767 319 m24 822 118 m 152 Y s 822 281 m 38 Y s 815 275 m 1 X s 828 275 m 1 X s 819 118 m 6 X s 819 319 m 6 X s 815 273 m 5 Y s 829 273 m 5 Y s 822
 275 m24 836 118 m 152 Y s 836 281 m 38 Y s 829 275 m 1 X s 841 275 m 2 X s 833 118 m 6 X s 833 319 m 6 X s 829 273 m 5 Y s 843 273 m 5 Y s 836 275 m24 919 118 m 152 Y s 919 281 m 38 Y s 912 275 m 1 X s 924 275 m 1 X s 916 118 m 5 X s 916 319 m 5 X s
 912 273 m 5 Y s 925 273 m 5 Y s 919 275 m24 932 290 m 48 Y s 932 349 m 23 Y s 925 344 m 2 X s 938 344 m 1 X s 929 290 m 6 X s 929 372 m 6 X s 925 341 m 6 Y s 939 341 m 6 Y s 932 344 m24 974 290 m 48 Y s 974 349 m 23 Y s 967 344 m 1 X s 979 344 m 2 X
 s 971 290 m 6 X s 971 372 m 6 X s 967 341 m 6 Y s 981 341 m 6 Y s 974 344 m24 black 1 1 1 c black 174 396 m 9 Y s 174 417 m 6 Y s 167 411 m 1 X s 180 411 m 1 X s 171 396 m 6 X s 171 423 m 6 X s 167 408 m 6 Y s 181 408 m 6 Y s 174 411 m20 188 402 m 9
 Y s 188 422 m 6 Y s 181 417 m 1 X s 193 417 m 2 X s 185 402 m 6 X s 185 428 m 6 X s 181 414 m 5 Y s 195 414 m 5 Y s 188 417 m20 202 408 m 8 Y s 202 427 m 6 Y s 195 422 m 1 X s 207 422 m 1 X s 199 408 m 5 X s 199 433 m 5 X s 195 419 m 5 Y s 208 419 m
 5 Y s 202 422 m20 215 399 m 9 Y s 215 420 m 6 Y s 208 414 m 2 X s 221 414 m 1 X s 213 399 m 5 X s 213 426 m 5 X s 208 411 m 6 Y s 222 411 m 6 Y s 215 414 m20 229 411 m 7 Y s 229 430 m 5 Y s 222 424 m 1 X s 235 424 m 1 X s 226 411 m 6 X s 226 435 m 6
 X s 222 421 m 6 Y s 236 421 m 6 Y s 229 424 m20 243 416 m 7 Y s 243 434 m 5 Y s 236 428 m 1 X s 249 428 m 1 X s 240 416 m 6 X s 240 439 m 6 X s 236 426 m 5 Y s 250 426 m 5 Y s 243 428 m20 257 427 m 6 Y s 257 444 m 4 Y s 250 438 m 1 X s 262 438 m 2 X
 s 254 427 m 6 X s 254 448 m 6 X s 250 435 m 6 Y s 264 435 m 6 Y s 257 438 m20 270 429 m 5 Y s 270 446 m 4 Y s 264 440 m 1 X s 276 440 m 1 X s 268 429 m 5 X s 268 450 m 5 X s 264 437 m 6 Y s 277 437 m 6 Y s 270 440 m20 284 429 m 5 Y s 284 446 m 4 Y s
 277 440 m 2 X s 290 440 m 1 X s 281 429 m 6 X s 281 450 m 6 X s 277 437 m 6 Y s 291 437 m 6 Y s 284 440 m20 298 402 m 9 Y s 298 422 m 6 Y s 291 417 m 1 X s 304 417 m 1 X s 295 402 m 6 X s 295 428 m 6 X s 291 414 m 5 Y s 305 414 m 5 Y s 298 417 m20
 312 453 m 4 Y s 312 468 m 3 Y s 305 462 m 1 X s 318 462 m 1 X s 309 453 m 6 X s 309 471 m 6 X s 305 459 m 6 Y s 319 459 m 6 Y s 312 462 m20 326 453 m 4 Y s 326 468 m 3 Y s 319 462 m 1 X s 331 462 m 2 X s 323 453 m 5 X s 323 471 m 5 X s 319 459 m 6 Y
 s 333 459 m 6 Y s 326 462 m20 339 460 m 4 Y s 339 475 m 2 Y s 333 469 m 1 X s 345 469 m 1 X s 337 460 m 5 X s 337 477 m 5 X s 333 467 m 5 Y s 346 467 m 5 Y s 339 469 m20 353 454 m 4 Y s 353 469 m 3 Y s 346 464 m 2 X s 359 464 m 1 X s 350 454 m 6 X s
 350 472 m 6 X s 346 461 m 5 Y s 360 461 m 5 Y s 353 464 m20 367 436 m 5 Y s 367 453 m 3 Y s 360 447 m 1 X s 373 447 m 1 X s 364 436 m 6 X s 364 456 m 6 X s 360 444 m 6 Y s 374 444 m 6 Y s 367 447 m20 381 459 m 4 Y s 381 474 m 2 Y s 374 468 m 1 X s
 386 468 m 2 X s 378 459 m 6 X s 378 476 m 6 X s 374 465 m 6 Y s 388 465 m 6 Y s 381 468 m20 395 494 m 1 Y s 395 507 m s 388 501 m 1 X s 400 501 m 1 X s 392 494 m 5 X s 392 507 m 5 X s 388 498 m 6 Y s 401 498 m 6 Y s 395 501 m20 408 491 m 2 Y s 408
 504 m 1 Y s 401 498 m 2 X s 414 498 m 1 X s 406 491 m 5 X s 406 505 m 5 X s 401 495 m 6 Y s 415 495 m 6 Y s 408 498 m20 422 493 m 2 Y s 422 506 m 1 Y s 415 500 m 1 X s 428 500 m 1 X s 419 493 m 6 X s 419 507 m 6 X s 415 497 m 6 Y s 429 497 m 6 Y s
 422 500 m20 436 506 m s 429 512 m 1 X s 442 512 m 1 X s 433 506 m 6 X s 429 509 m 6 Y s 443 509 m 6 Y s 436 512 m20 443 525 m 1 X s 455 525 m 2 X s 443 522 m 6 Y s 457 522 m 6 Y s 450 525 m20 457 533 m 1 X s 469 533 m 1 X s 457 530 m 6 Y s 470 530 m
 6 Y s 464 533 m20 470 562 m 2 X s 483 562 m 1 X s 470 559 m 6 Y s 484 559 m 6 Y s 477 562 m20 484 569 m 1 X s 497 569 m 1 X s 484 566 m 6 Y s 498 566 m 6 Y s 491 569 m20 498 597 m 1 X s 511 597 m 1 X s 498 594 m 6 Y s 512 594 m 6 Y s 505 597 m20 512
 610 m 1 X s 524 610 m 2 X s 512 607 m 6 Y s 526 607 m 6 Y s 519 610 m20 526 641 m 1 X s 538 641 m 1 X s 526 638 m 5 Y s 539 638 m 5 Y s 532 641 m20 539 657 m 2 X s 552 657 m 1 X s 539 654 m 6 Y s 553 654 m 6 Y s 546 657 m20 553 677 m 1 X s 566 677 m
 1 X s 553 674 m 6 Y s 567 674 m 6 Y s 560 677 m20 567 687 m 1 X s 579 687 m 2 X s 567 684 m 6 Y s 581 684 m 6 Y s 574 687 m20 581 689 m 1 X s 593 689 m 2 X s 581 686 m 6 Y s 595 686 m 6 Y s 588 689 m20 595 671 m 1 X s 607 671 m 1 X s 595 668 m 6 Y s
 608 668 m 6 Y s 601 671 m20 608 647 m 2 X s 621 647 m 1 X s 608 644 m 6 Y s 622 644 m 6 Y s 615 647 m20 622 624 m 1 X s 635 624 m 1 X s 622 621 m 5 Y s 636 621 m 5 Y s 629 624 m20 636 590 m 1 X s 648 590 m 2 X s 636 587 m 6 Y s 650 587 m 6 Y s 643
 590 m20 650 563 m 1 X s 662 563 m 1 X s 650 560 m 6 Y s 663 560 m 6 Y s 657 563 m20 663 548 m 2 X s 676 548 m 1 X s 663 545 m 6 Y s 677 545 m 6 Y s 670 548 m20 677 526 m 1 X s 690 526 m 1 X s 677 523 m 6 Y s 691 523 m 6 Y s 684 526 m20 698 502 m 1 Y
 s 698 514 m s 691 509 m 1 X s 704 509 m 1 X s 695 502 m 6 X s 695 514 m 6 X s 691 506 m 5 Y s 705 506 m 5 Y s 698 509 m20 712 484 m 2 Y s 712 497 m 1 Y s 705 492 m 1 X s 717 492 m 2 X s 709 484 m 6 X s 709 498 m 6 X s 705 489 m 5 Y s 719 489 m 5 Y s
 712 492 m20 725 475 m 3 Y s 725 489 m 1 Y s 719 483 m 1 X s 731 483 m 1 X s 723 475 m 5 X s 723 490 m 5 X s 719 480 m 6 Y s 732 480 m 6 Y s 725 483 m20 739 457 m 3 Y s 739 472 m 2 Y s 732 466 m 2 X s 745 466 m 1 X s 736 457 m 6 X s 736 474 m 6 X s
 732 463 m 6 Y s 746 463 m 6 Y s 739 466 m20 753 449 m 4 Y s 753 464 m 3 Y s 746 458 m 1 X s 759 458 m 1 X s 750 449 m 6 X s 750 467 m 6 X s 746 456 m 5 Y s 760 456 m 5 Y s 753 458 m20 767 439 m 5 Y s 767 456 m 3 Y s 760 450 m 1 X s 773 450 m 1 X s
 764 439 m 6 X s 764 459 m 6 X s 760 447 m 6 Y s 774 447 m 6 Y s 767 450 m20 781 430 m 6 Y s 781 448 m 3 Y s 774 442 m 1 X s 786 442 m 2 X s 778 430 m 5 X s 778 451 m 5 X s 774 439 m 6 Y s 788 439 m 6 Y s 781 442 m20 794 418 m 7 Y s 794 436 m 5 Y s
 788 430 m 1 X s 800 430 m 1 X s 792 418 m 5 X s 792 441 m 5 X s 788 428 m 5 Y s 801 428 m 5 Y s 794 430 m20 808 364 m 13 Y s 808 389 m 9 Y s 801 383 m 2 X s 814 383 m 1 X s 805 364 m 6 X s 805 398 m 6 X s 801 380 m 6 Y s 815 380 m 6 Y s 808 383 m20
 822 411 m 7 Y s 822 430 m 5 Y s 815 424 m 1 X s 828 424 m 1 X s 819 411 m 6 X s 819 435 m 6 X s 815 421 m 6 Y s 829 421 m 6 Y s 822 424 m20 836 369 m 13 Y s 836 393 m 9 Y s 829 387 m 1 X s 841 387 m 2 X s 833 369 m 6 X s 833 402 m 6 X s 829 384 m 6
 Y s 843 384 m 6 Y s 836 387 m20 850 402 m 9 Y s 850 422 m 6 Y s 843 417 m 1 X s 855 417 m 1 X s 847 402 m 5 X s 847 428 m 5 X s 843 414 m 5 Y s 856 414 m 5 Y s 850 417 m20 863 378 m 11 Y s 863 401 m 8 Y s 856 395 m 2 X s 869 395 m 1 X s 861 378 m 5
 X s 861 409 m 5 X s 856 392 m 6 Y s 870 392 m 6 Y s 863 395 m20 877 352 m 16 Y s 877 379 m 10 Y s 870 373 m 1 X s 883 373 m 1 X s 874 352 m 6 X s 874 389 m 6 X s 870 371 m 5 Y s 884 371 m 5 Y s 877 373 m20 891 369 m 13 Y s 891 393 m 9 Y s 884 387 m
 1 X s 897 387 m 1 X s 888 369 m 6 X s 888 402 m 6 X s 884 384 m 6 Y s 898 384 m 6 Y s 891 387 m20 905 389 m 11 Y s 905 411 m 7 Y s 898 405 m 1 X s 910 405 m 2 X s 902 389 m 6 X s 902 418 m 6 X s 898 402 m 6 Y s 912 402 m 6 Y s 905 405 m20 919 382 m
 11 Y s 919 404 m 8 Y s 912 399 m 1 X s 924 399 m 1 X s 916 382 m 5 X s 916 412 m 5 X s 912 396 m 5 Y s 925 396 m 5 Y s 919 399 m20 932 338 m 18 Y s 932 368 m 11 Y s 925 362 m 2 X s 938 362 m 1 X s 929 338 m 6 X s 929 379 m 6 X s 925 359 m 6 Y s 939
 359 m 6 Y s 932 362 m20 946 369 m 13 Y s 946 393 m 9 Y s 939 387 m 1 X s 952 387 m 1 X s 943 369 m 6 X s 943 402 m 6 X s 939 384 m 6 Y s 953 384 m 6 Y s 946 387 m20 960 352 m 16 Y s 960 379 m 10 Y s 953 373 m 1 X s 966 373 m 1 X s 957 352 m 6 X s
 957 389 m 6 X s 953 371 m 5 Y s 967 371 m 5 Y s 960 373 m20 974 352 m 16 Y s 974 379 m 10 Y s 967 373 m 1 X s 979 373 m 2 X s 971 352 m 6 X s 971 389 m 6 X s 967 371 m 5 Y s 981 371 m 5 Y s 974 373 m20 1 1 1 c black 174 233 m 48 Y s 174 293 m 22 Y s
 167 287 m 1 X s 180 287 m 1 X s 171 233 m 6 X s 171 315 m 6 X s 167 284 m 6 Y s 181 284 m 6 Y s 174 287 m24 188 233 m 48 Y s 188 293 m 22 Y s 181 287 m 1 X s 193 287 m 2 X s 185 233 m 6 X s 185 315 m 6 X s 181 284 m 6 Y s 195 284 m 6 Y s 188 287 m24
 202 233 m 48 Y s 202 293 m 22 Y s 195 287 m 1 X s 207 287 m 1 X s 199 233 m 5 X s 199 315 m 5 X s 195 284 m 6 Y s 208 284 m 6 Y s 202 287 m24 215 118 m 95 Y s 215 224 m 38 Y s 208 218 m 2 X s 221 218 m 1 X s 213 118 m 5 X s 213 262 m 5 X s 208 216 m
 5 Y s 222 216 m 5 Y s 215 218 m24 229 185 m 71 Y s 229 267 m 28 Y s 222 262 m 1 X s 235 262 m 1 X s 226 185 m 6 X s 226 295 m 6 X s 222 259 m 6 Y s 236 259 m 6 Y s 229 262 m24 243 185 m 71 Y s 243 267 m 28 Y s 236 262 m 1 X s 249 262 m 1 X s 240 185
 m 6 X s 240 295 m 6 X s 236 259 m 6 Y s 250 259 m 6 Y s 243 262 m24 257 282 m 31 Y s 257 324 m 18 Y s 250 319 m 1 X s 262 319 m 2 X s 254 282 m 6 X s 254 342 m 6 X s 250 316 m 6 Y s 264 316 m 6 Y s 257 319 m24 270 118 m 95 Y s 270 224 m 38 Y s 264
 218 m 1 X s 276 218 m 1 X s 268 118 m 5 X s 268 262 m 5 X s 264 216 m 5 Y s 277 216 m 5 Y s 270 218 m24 284 118 m 95 Y s 284 224 m 38 Y s 277 218 m 2 X s 290 218 m 1 X s 281 118 m 6 X s 281 262 m 6 X s 277 216 m 5 Y s 291 216 m 5 Y s 284 218 m24 298
 185 m 71 Y s 298 267 m 28 Y s 291 262 m 1 X s 304 262 m 1 X s 295 185 m 6 X s 295 295 m 6 X s 291 259 m 6 Y s 305 259 m 6 Y s 298 262 m24 312 185 m 71 Y s 312 267 m 28 Y s 305 262 m 1 X s 318 262 m 1 X s 309 185 m 6 X s 309 295 m 6 X s 305 259 m 6 Y
 s 319 259 m 6 Y s 312 262 m24 326 185 m 71 Y s 326 267 m 28 Y s 319 262 m 1 X s 331 262 m 2 X s 323 185 m 5 X s 323 295 m 5 X s 319 259 m 6 Y s 333 259 m 6 Y s 326 262 m24 339 321 m 21 Y s 339 354 m 13 Y s 333 348 m 1 X s 345 348 m 1 X s 337 321 m 5
 X s 337 367 m 5 X s 333 345 m 6 Y s 346 345 m 6 Y s 339 348 m24 353 233 m 48 Y s 353 293 m 22 Y s 346 287 m 2 X s 359 287 m 1 X s 350 233 m 6 X s 350 315 m 6 X s 346 284 m 6 Y s 360 284 m 6 Y s 353 287 m24 367 185 m 71 Y s 367 267 m 28 Y s 360 262 m
 1 X s 373 262 m 1 X s 364 185 m 6 X s 364 295 m 6 X s 360 259 m 6 Y s 374 259 m 6 Y s 367 262 m24 381 233 m 48 Y s 381 293 m 22 Y s 374 287 m 1 X s 386 287 m 2 X s 378 233 m 6 X s 378 315 m 6 X s 374 284 m 6 Y s 388 284 m 6 Y s 381 287 m24 395 118 m
 95 Y s 395 224 m 38 Y s 388 218 m 1 X s 400 218 m 1 X s 392 118 m 5 X s 392 262 m 5 X s 388 216 m 5 Y s 401 216 m 5 Y s 395 218 m24 408 262 m 37 Y s 408 311 m 19 Y s 401 305 m 2 X s 414 305 m 1 X s 406 262 m 5 X s 406 330 m 5 X s 401 302 m 6 Y s 415
 302 m 6 Y s 408 305 m24 422 185 m 71 Y s 422 267 m 28 Y s 415 262 m 1 X s 428 262 m 1 X s 419 185 m 6 X s 419 295 m 6 X s 415 259 m 6 Y s 429 259 m 6 Y s 422 262 m24 436 282 m 31 Y s 436 324 m 18 Y s 429 319 m 1 X s 442 319 m 1 X s 433 282 m 6 X s
 433 342 m 6 X s 429 316 m 6 Y s 443 316 m 6 Y s 436 319 m24 450 118 m 95 Y s 450 224 m 38 Y s 443 218 m 1 X s 455 218 m 2 X s 447 118 m 6 X s 447 262 m 6 X s 443 216 m 5 Y s 457 216 m 5 Y s 450 218 m24 464 233 m 48 Y s 464 293 m 22 Y s 457 287 m 1 X
 s 469 287 m 1 X s 461 233 m 5 X s 461 315 m 5 X s 457 284 m 6 Y s 470 284 m 6 Y s 464 287 m24 477 233 m 48 Y s 477 293 m 22 Y s 470 287 m 2 X s 483 287 m 1 X s 474 233 m 6 X s 474 315 m 6 X s 470 284 m 6 Y s 484 284 m 6 Y s 477 287 m24 491 118 m 95
 Y s 491 224 m 38 Y s 484 218 m 1 X s 497 218 m 1 X s 488 118 m 6 X s 488 262 m 6 X s 484 216 m 5 Y s 498 216 m 5 Y s 491 218 m24 505 233 m 48 Y s 505 293 m 22 Y s 498 287 m 1 X s 511 287 m 1 X s 502 233 m 6 X s 502 315 m 6 X s 498 284 m 6 Y s 512
 284 m 6 Y s 505 287 m24 519 185 m 71 Y s 519 267 m 28 Y s 512 262 m 1 X s 524 262 m 2 X s 516 185 m 6 X s 516 295 m 6 X s 512 259 m 6 Y s 526 259 m 6 Y s 519 262 m24 532 118 m 95 Y s 532 224 m 38 Y s 526 218 m 1 X s 538 218 m 1 X s 530 118 m 5 X s
 530 262 m 5 X s 526 216 m 5 Y s 539 216 m 5 Y s 532 218 m24 546 118 m 95 Y s 546 224 m 38 Y s 539 218 m 2 X s 552 218 m 1 X s 543 118 m 6 X s 543 262 m 6 X s 539 216 m 5 Y s 553 216 m 5 Y s 546 218 m24 560 185 m 71 Y s 560 267 m 28 Y s 553 262 m 1 X
 s 566 262 m 1 X s 557 185 m 6 X s 557 295 m 6 X s 553 259 m 6 Y s 567 259 m 6 Y s 560 262 m24 574 233 m 48 Y s 574 293 m 22 Y s 567 287 m 1 X s 579 287 m 2 X s 571 233 m 6 X s 571 315 m 6 X s 567 284 m 6 Y s 581 284 m 6 Y s 574 287 m24 601 185 m 71
 Y s 601 267 m 28 Y s 595 262 m 1 X s 607 262 m 1 X s 599 185 m 5 X s 599 295 m 5 X s 595 259 m 6 Y s 608 259 m 6 Y s 601 262 m24 615 118 m 95 Y s 615 224 m 38 Y s 608 218 m 2 X s 621 218 m 1 X s 612 118 m 6 X s 612 262 m 6 X s 608 216 m 5 Y s 622
 216 m 5 Y s 615 218 m24 629 118 m 95 Y s 629 224 m 38 Y s 622 218 m 1 X s 635 218 m 1 X s 626 118 m 6 X s 626 262 m 6 X s 622 216 m 5 Y s 636 216 m 5 Y s 629 218 m24 643 185 m 71 Y s 643 267 m 28 Y s 636 262 m 1 X s 648 262 m 2 X s 640 185 m 6 X s
 640 295 m 6 X s 636 259 m 6 Y s 650 259 m 6 Y s 643 262 m24 670 233 m 48 Y s 670 293 m 22 Y s 663 287 m 2 X s 676 287 m 1 X s 667 233 m 6 X s 667 315 m 6 X s 663 284 m 6 Y s 677 284 m 6 Y s 670 287 m24 684 118 m 95 Y s 684 224 m 38 Y s 677 218 m 1 X
 s 690 218 m 1 X s 681 118 m 6 X s 681 262 m 6 X s 677 216 m 5 Y s 691 216 m 5 Y s 684 218 m24 698 118 m 95 Y s 698 224 m 38 Y s 691 218 m 1 X s 704 218 m 1 X s 695 118 m 6 X s 695 262 m 6 X s 691 216 m 5 Y s 705 216 m 5 Y s 698 218 m24 712 118 m 95
 Y s 712 224 m 38 Y s 705 218 m 1 X s 717 218 m 2 X s 709 118 m 6 X s 709 262 m 6 X s 705 216 m 5 Y s 719 216 m 5 Y s 712 218 m24 725 118 m 95 Y s 725 224 m 38 Y s 719 218 m 1 X s 731 218 m 1 X s 723 118 m 5 X s 723 262 m 5 X s 719 216 m 5 Y s 732
 216 m 5 Y s 725 218 m24 739 185 m 71 Y s 739 267 m 28 Y s 732 262 m 2 X s 745 262 m 1 X s 736 185 m 6 X s 736 295 m 6 X s 732 259 m 6 Y s 746 259 m 6 Y s 739 262 m24 753 118 m 95 Y s 753 224 m 38 Y s 746 218 m 1 X s 759 218 m 1 X s 750 118 m 6 X s
 750 262 m 6 X s 746 216 m 5 Y s 760 216 m 5 Y s 753 218 m24 767 233 m 48 Y s 767 293 m 22 Y s 760 287 m 1 X s 773 287 m 1 X s 764 233 m 6 X s 764 315 m 6 X s 760 284 m 6 Y s 774 284 m 6 Y s 767 287 m24 794 233 m 48 Y s 794 293 m 22 Y s 788 287 m 1 X
 s 800 287 m 1 X s 792 233 m 5 X s 792 315 m 5 X s 788 284 m 6 Y s 801 284 m 6 Y s 794 287 m24 808 233 m 48 Y s 808 293 m 22 Y s 801 287 m 2 X s 814 287 m 1 X s 805 233 m 6 X s 805 315 m 6 X s 801 284 m 6 Y s 815 284 m 6 Y s 808 287 m24 822 233 m 48
 Y s 822 293 m 22 Y s 815 287 m 1 X s 828 287 m 1 X s 819 233 m 6 X s 819 315 m 6 X s 815 284 m 6 Y s 829 284 m 6 Y s 822 287 m24 863 118 m 95 Y s 863 224 m 38 Y s 856 218 m 2 X s 869 218 m 1 X s 861 118 m 5 X s 861 262 m 5 X s 856 216 m 5 Y s 870
 216 m 5 Y s 863 218 m24 877 118 m 95 Y s 877 224 m 38 Y s 870 218 m 1 X s 883 218 m 1 X s 874 118 m 6 X s 874 262 m 6 X s 870 216 m 5 Y s 884 216 m 5 Y s 877 218 m24 891 118 m 95 Y s 891 224 m 38 Y s 884 218 m 1 X s 897 218 m 1 X s 888 118 m 6 X s
 888 262 m 6 X s 884 216 m 5 Y s 898 216 m 5 Y s 891 218 m24 905 233 m 48 Y s 905 293 m 22 Y s 898 287 m 1 X s 910 287 m 2 X s 902 233 m 6 X s 902 315 m 6 X s 898 284 m 6 Y s 912 284 m 6 Y s 905 287 m24 919 118 m 95 Y s 919 224 m 38 Y s 912 218 m 1 X
 s 924 218 m 1 X s 916 118 m 5 X s 916 262 m 5 X s 912 216 m 5 Y s 925 216 m 5 Y s 919 218 m24 932 297 m 27 Y s 932 336 m 16 Y s 925 330 m 2 X s 938 330 m 1 X s 929 297 m 6 X s 929 352 m 6 X s 925 327 m 6 Y s 939 327 m 6 Y s 932 330 m24 946 233 m 48
 Y s 946 293 m 22 Y s 939 287 m 1 X s 952 287 m 1 X s 943 233 m 6 X s 943 315 m 6 X s 939 284 m 6 Y s 953 284 m 6 Y s 946 287 m24 960 118 m 95 Y s 960 224 m 38 Y s 953 218 m 1 X s 966 218 m 1 X s 957 118 m 6 X s 957 262 m 6 X s 953 216 m 5 Y s 967
 216 m 5 Y s 960 218 m24 974 185 m 71 Y s 974 267 m 28 Y s 967 262 m 1 X s 979 262 m 2 X s 971 185 m 6 X s 971 295 m 6 X s 967 259 m 6 Y s 981 259 m 6 Y s 974 262 m24 0 0 1 c[ 12 12] 0 sd 6 lw 443 118 m 528 Y s 719 118 m 528 Y s black[  ] 0 sd 3 lw 1
 1 1 c 272 268 186 654 bf black
 gsave  1088 1072 23 11 C 252.599 874.164 t 0 r /Helvetica findfont 39.7652 sf 0 0 m (OC data: 13400) show NC gr  220 889 m20
 gsave  1088 1072 23 11 C 252.599 807.466 t 0 r /Helvetica findfont 39.7652 sf 0 0 m (SC data: 33) show NC gr  220 822 m24
 gsave  1088 1072 23 11 C 252.599 740.768 t 0 r /Helvetica findfont 39.7652 sf 0 0 m (OC MC: 28901) show NC gr  1 0 0 c 220 755 m20 black
 gsave  1088 1072 23 11 C 252.599 674.071 t 0 r /Helvetica findfont 39.7652 sf 0 0 m (SC MC: 14) show NC gr  1 0 0 c 220 688 m24 black
 gsave  1088 1072 23 11 C 566.22 901.126 t 0 r /Helvetica-Bold findfont 59.6478 sf 0 0 m (pp collisions) show NC gr  1 1 1 c 1088 1072 1157 11 bf black 1 1 1 c 827 858 1287 118 bf black 827 858 1287 118 bl 1 1 1 c 827 858 1287 118 bf black 827 858
 1287 118 bl 1 0 0 c 1 1 1 c 1 0 0 c 1308 314 m 3 Y s 1308 328 m 2 Y s 1301 322 m 1 X s 1314 322 m 1 X s 1305 314 m 6 X s 1305 330 m 6 X s 1301 320 m 5 Y s 1315 320 m 5 Y s 1308 322 m20 1322 326 m 2 Y s 1322 339 m 1 Y s 1315 333 m 1 X s 1327 333 m 2
 X s 1319 326 m 5 X s 1319 340 m 5 X s 1315 331 m 5 Y s 1329 331 m 5 Y s 1322 333 m20 1335 326 m 2 Y s 1335 339 m 1 Y s 1329 333 m 1 X s 1341 333 m 1 X s 1333 326 m 5 X s 1333 340 m 5 X s 1329 331 m 5 Y s 1342 331 m 5 Y s 1335 333 m20 1349 327 m 2 Y
 s 1349 340 m 1 Y s 1342 334 m 2 X s 1355 334 m 1 X s 1346 327 m 6 X s 1346 341 m 6 X s 1342 332 m 5 Y s 1356 332 m 5 Y s 1349 334 m20 1363 330 m 2 Y s 1363 343 m 1 Y s 1356 338 m 1 X s 1369 338 m 1 X s 1360 330 m 6 X s 1360 344 m 6 X s 1356 335 m 5
 Y s 1370 335 m 5 Y s 1363 338 m20 1377 337 m 1 Y s 1377 350 m s 1370 344 m 1 X s 1382 344 m 2 X s 1374 337 m 6 X s 1374 350 m 6 X s 1370 341 m 6 Y s 1384 341 m 6 Y s 1377 344 m20 1391 344 m 1 Y s 1384 350 m 1 X s 1396 350 m 1 X s 1388 344 m 5 X s
 1384 348 m 5 Y s 1397 348 m 5 Y s 1391 350 m20 1404 332 m 2 Y s 1404 345 m 1 Y s 1397 339 m 2 X s 1410 339 m 1 X s 1402 332 m 5 X s 1402 346 m 5 X s 1397 337 m 5 Y s 1411 337 m 5 Y s 1404 339 m20 1418 344 m 1 Y s 1411 350 m 1 X s 1424 350 m 1 X s
 1415 344 m 6 X s 1411 348 m 5 Y s 1425 348 m 5 Y s 1418 350 m20 1432 352 m s 1425 357 m 1 X s 1438 357 m 1 X s 1429 352 m 6 X s 1425 355 m 5 Y s 1439 355 m 5 Y s 1432 357 m20 1446 352 m s 1439 358 m 1 X s 1451 358 m 2 X s 1443 352 m 6 X s 1439 355 m
 6 Y s 1453 355 m 6 Y s 1446 358 m20 1453 361 m 1 X s 1465 361 m 1 X s 1453 358 m 6 Y s 1466 358 m 6 Y s 1460 361 m20 1466 365 m 2 X s 1479 365 m 1 X s 1466 362 m 5 Y s 1480 362 m 5 Y s 1473 365 m20 1480 372 m 1 X s 1493 372 m 1 X s 1480 369 m 6 Y s
 1494 369 m 6 Y s 1487 372 m20 1494 377 m 1 X s 1507 377 m 1 X s 1494 374 m 6 Y s 1508 374 m 6 Y s 1501 377 m20 1508 378 m 1 X s 1520 378 m 2 X s 1508 375 m 6 Y s 1522 375 m 6 Y s 1515 378 m20 1522 389 m 1 X s 1534 389 m 1 X s 1522 386 m 5 Y s 1535
 386 m 5 Y s 1528 389 m20 1535 403 m 2 X s 1548 403 m 1 X s 1535 400 m 6 Y s 1549 400 m 6 Y s 1542 403 m20 1549 405 m 1 X s 1562 405 m 1 X s 1549 402 m 6 Y s 1563 402 m 6 Y s 1556 405 m20 1563 411 m 1 X s 1575 411 m 2 X s 1563 408 m 6 Y s 1577 408 m
 6 Y s 1570 411 m20 1577 424 m 1 X s 1589 424 m 1 X s 1577 421 m 6 Y s 1590 421 m 6 Y s 1584 424 m20 1590 435 m 2 X s 1603 435 m 1 X s 1590 432 m 5 Y s 1604 432 m 5 Y s 1597 435 m20 1604 443 m 1 X s 1617 443 m 1 X s 1604 440 m 6 Y s 1618 440 m 6 Y s
 1611 443 m20 1618 452 m 1 X s 1631 452 m 1 X s 1618 449 m 6 Y s 1632 449 m 6 Y s 1625 452 m20 1632 472 m 1 X s 1644 472 m 2 X s 1632 469 m 6 Y s 1646 469 m 6 Y s 1639 472 m20 1646 492 m 1 X s 1658 492 m 1 X s 1646 489 m 5 Y s 1659 489 m 5 Y s 1653
 492 m20 1659 507 m 2 X s 1672 507 m 1 X s 1659 504 m 6 Y s 1673 504 m 6 Y s 1666 507 m20 1673 524 m 1 X s 1686 524 m 1 X s 1673 521 m 6 Y s 1687 521 m 6 Y s 1680 524 m20 1687 539 m 1 X s 1700 539 m 1 X s 1687 536 m 6 Y s 1701 536 m 6 Y s 1694 539
 m20 1701 546 m 1 X s 1713 546 m 2 X s 1701 543 m 5 Y s 1715 543 m 5 Y s 1708 546 m20 1715 543 m 1 X s 1727 543 m 1 X s 1715 540 m 6 Y s 1728 540 m 6 Y s 1721 543 m20 1728 533 m 2 X s 1741 533 m 1 X s 1728 531 m 5 Y s 1742 531 m 5 Y s 1735 533 m20
 1742 519 m 1 X s 1755 519 m 1 X s 1742 516 m 6 Y s 1756 516 m 6 Y s 1749 519 m20 1756 496 m 1 X s 1769 496 m 1 X s 1756 494 m 5 Y s 1770 494 m 5 Y s 1763 496 m20 1770 474 m 1 X s 1782 474 m 2 X s 1770 471 m 6 Y s 1784 471 m 6 Y s 1777 474 m20 1784
 450 m 1 X s 1796 450 m 1 X s 1784 447 m 6 Y s 1797 447 m 6 Y s 1790 450 m20 1797 433 m 2 X s 1810 433 m 1 X s 1797 430 m 6 Y s 1811 430 m 6 Y s 1804 433 m20 1811 423 m 1 X s 1824 423 m 1 X s 1811 420 m 6 Y s 1825 420 m 6 Y s 1818 423 m20 1825 409 m
 1 X s 1837 409 m 2 X s 1825 406 m 6 Y s 1839 406 m 6 Y s 1832 409 m20 1839 396 m 1 X s 1851 396 m 1 X s 1839 393 m 6 Y s 1852 393 m 6 Y s 1846 396 m20 1852 383 m 2 X s 1865 383 m 1 X s 1852 380 m 6 Y s 1866 380 m 6 Y s 1859 383 m20 1873 352 m s 1866
 357 m 1 X s 1879 357 m 1 X s 1870 352 m 6 X s 1866 355 m 5 Y s 1880 355 m 5 Y s 1873 357 m20 1880 373 m 1 X s 1893 373 m 1 X s 1880 370 m 6 Y s 1894 370 m 6 Y s 1887 373 m20 1901 348 m s 1894 354 m 1 X s 1906 354 m 2 X s 1898 348 m 6 X s 1894 351 m
 6 Y s 1908 351 m 6 Y s 1901 354 m20 1914 342 m s 1914 354 m s 1908 348 m 1 X s 1920 348 m 1 X s 1912 342 m 5 X s 1912 354 m 5 X s 1908 345 m 6 Y s 1921 345 m 6 Y s 1914 348 m20 1928 346 m 1 Y s 1921 353 m 2 X s 1934 353 m 1 X s 1925 346 m 6 X s 1921
 350 m 6 Y s 1935 350 m 6 Y s 1928 353 m20 1942 315 m 3 Y s 1942 329 m 2 Y s 1935 324 m 1 X s 1948 324 m 1 X s 1939 315 m 6 X s 1939 331 m 6 X s 1935 321 m 6 Y s 1949 321 m 6 Y s 1942 324 m20 1956 339 m 1 Y s 1956 351 m 1 Y s 1949 346 m 1 X s 1962
 346 m 1 X s 1953 339 m 6 X s 1953 352 m 6 X s 1949 343 m 6 Y s 1963 343 m 6 Y s 1956 346 m20 1970 323 m 2 Y s 1970 337 m 1 Y s 1963 331 m 1 X s 1975 331 m 2 X s 1967 323 m 5 X s 1967 338 m 5 X s 1963 328 m 6 Y s 1977 328 m 6 Y s 1970 331 m20 1983
 317 m 2 Y s 1983 331 m 1 Y s 1977 325 m 1 X s 1989 325 m 1 X s 1981 317 m 5 X s 1981 332 m 5 X s 1977 322 m 6 Y s 1990 322 m 6 Y s 1983 325 m20 1997 318 m 3 Y s 1997 332 m 1 Y s 1990 326 m 2 X s 2003 326 m 1 X s 1994 318 m 6 X s 1994 333 m 6 X s
 1990 324 m 5 Y s 2004 324 m 5 Y s 1997 326 m20 2011 307 m 4 Y s 2011 322 m 2 Y s 2004 317 m 1 X s 2017 317 m 1 X s 2008 307 m 6 X s 2008 324 m 6 X s 2004 314 m 5 Y s 2018 314 m 5 Y s 2011 317 m20 2025 312 m 3 Y s 2025 327 m 2 Y s 2018 321 m 1 X s
 2030 321 m 2 X s 2022 312 m 6 X s 2022 329 m 6 X s 2018 318 m 6 Y s 2032 318 m 6 Y s 2025 321 m20 2039 291 m 5 Y s 2039 308 m 3 Y s 2032 302 m 1 X s 2044 302 m 1 X s 2036 291 m 5 X s 2036 311 m 5 X s 2032 299 m 6 Y s 2045 299 m 6 Y s 2039 302 m20
 2052 293 m 5 Y s 2052 310 m 3 Y s 2045 304 m 2 X s 2058 304 m 1 X s 2050 293 m 5 X s 2050 313 m 5 X s 2045 301 m 6 Y s 2059 301 m 6 Y s 2052 304 m20 2066 309 m 3 Y s 2066 324 m 2 Y s 2059 318 m 1 X s 2072 318 m 1 X s 2063 309 m 6 X s 2063 326 m 6 X
 s 2059 315 m 6 Y s 2073 315 m 6 Y s 2066 318 m20 2080 300 m 4 Y s 2080 316 m 2 Y s 2073 310 m 1 X s 2086 310 m 1 X s 2077 300 m 6 X s 2077 318 m 6 X s 2073 307 m 6 Y s 2087 307 m 6 Y s 2080 310 m20 2094 274 m 8 Y s 2094 293 m 5 Y s 2087 287 m 1 X s
 2099 287 m 2 X s 2091 274 m 6 X s 2091 298 m 6 X s 2087 284 m 6 Y s 2101 284 m 6 Y s 2094 287 m20 2108 293 m 5 Y s 2108 310 m 3 Y s 2101 304 m 1 X s 2113 304 m 1 X s 2105 293 m 5 X s 2105 313 m 5 X s 2101 301 m 6 Y s 2114 301 m 6 Y s 2108 304 m20
 black 1287 118 m 827 X s 1287 143 m -25 Y s 1315 130 m -12 Y s 1342 130 m -12 Y s 1370 130 m -12 Y s 1397 130 m -12 Y s 1425 143 m -25 Y s 1453 130 m -12 Y s 1480 130 m -12 Y s 1508 130 m -12 Y s 1535 130 m -12 Y s 1563 143 m -25 Y s 1590 130 m -12
 Y s 1618 130 m -12 Y s 1646 130 m -12 Y s 1673 130 m -12 Y s 1701 143 m -25 Y s 1728 130 m -12 Y s 1756 130 m -12 Y s 1784 130 m -12 Y s 1811 130 m -12 Y s 1839 143 m -25 Y s 1866 130 m -12 Y s 1894 130 m -12 Y s 1921 130 m -12 Y s 1949 130 m -12 Y
 s 1977 143 m -25 Y s 2004 130 m -12 Y s 2032 130 m -12 Y s 2059 130 m -12 Y s 2087 130 m -12 Y s 2114 143 m -25 Y s
 gsave  1088 1072 1157 11 C 1267.25 83.7267 t 0 r /Helvetica findfont 35.5047 sf 0 0 m (60) show NC gr 
 gsave  1088 1072 1157 11 C 1404.91 83.7267 t 0 r /Helvetica findfont 35.5047 sf 0 0 m (70) show NC gr 
 gsave  1088 1072 1157 11 C 1542.56 83.7267 t 0 r /Helvetica findfont 35.5047 sf 0 0 m (80) show NC gr 
 gsave  1088 1072 1157 11 C 1680.21 83.7267 t 0 r /Helvetica findfont 35.5047 sf 0 0 m (90) show NC gr 
 gsave  1088 1072 1157 11 C 1807.93 83.7267 t 0 r /Helvetica findfont 35.5047 sf 0 0 m (100) show NC gr 
 gsave  1088 1072 1157 11 C 1945.58 83.7267 t 0 r /Helvetica findfont 35.5047 sf 0 0 m (110) show NC gr 
 gsave  1088 1072 1157 11 C 2083.23 83.7267 t 0 r /Helvetica findfont 35.5047 sf 0 0 m (120) show NC gr 
 gsave  1088 1072 1157 11 C 1986.74 32.6392 t 0 r /Helvetica findfont 45.446 sf 0 0 m ( [GeV]) show NC gr 
 gsave  1088 1072 1157 11 C 1969.71 24.1246 t 0 r /Symbol findfont 29.8239 sf 0 0 m (m) show NC gr 
 gsave  1088 1072 1157 11 C 1952.68 24.1246 t 0 r /Symbol findfont 29.8239 sf 0 0 m (m) show NC gr 
 gsave  1088 1072 1157 11 C 1917.2 32.6392 t 0 r /Helvetica findfont 45.446 sf 0 0 m (M) show NC gr  1287 118 m 858 Y s 1300 118 m -13 X s 1300 137 m -13 X s 1300 151 m -13 X s 1300 161 m -13 X s 1300 169 m -13 X s 1300 177 m -13 X s 1300 183 m -13 X
 s 1300 188 m -13 X s 1313 193 m -26 X s
 gsave  1088 1072 1157 11 C 1265.83 181.644 t 0 r /Helvetica findfont 32.6643 sf 0 0 m (1) show NC gr  1300 226 m -13 X s 1300 245 m -13 X s 1300 258 m -13 X s 1300 268 m -13 X s 1300 277 m -13 X s 1300 284 m -13 X s 1300 290 m -13 X s 1300 296 m -13
 X s 1313 301 m -26 X s
 gsave  1088 1072 1157 11 C 1243.13 289.496 t 0 r /Helvetica findfont 32.6643 sf 0 0 m (10) show NC gr  1300 333 m -13 X s 1300 352 m -13 X s 1300 366 m -13 X s 1300 376 m -13 X s 1300 385 m -13 X s 1300 392 m -13 X s 1300 398 m -13 X s 1300 403 m
 -13 X s 1313 408 m -26 X s
 gsave  1088 1072 1157 11 C 1265.83 407.281 t 0 r /Helvetica findfont 22.723 sf 0 0 m (2) show NC gr 
 gsave  1088 1072 1157 11 C 1230.36 393.09 t 0 r /Helvetica findfont 32.6643 sf 0 0 m (10) show NC gr  1300 441 m -13 X s 1300 460 m -13 X s 1300 473 m -13 X s 1300 484 m -13 X s 1300 492 m -13 X s 1300 499 m -13 X s 1300 506 m -13 X s 1300 511 m -13
 X s 1313 516 m -26 X s
 gsave  1088 1072 1157 11 C 1265.83 516.551 t 0 r /Helvetica findfont 22.723 sf 0 0 m (3) show NC gr 
 gsave  1088 1072 1157 11 C 1230.36 500.941 t 0 r /Helvetica findfont 32.6643 sf 0 0 m (10) show NC gr  1300 548 m -13 X s 1300 567 m -13 X s 1300 581 m -13 X s 1300 591 m -13 X s 1300 600 m -13 X s 1300 607 m -13 X s 1300 613 m -13 X s 1300 619 m
 -13 X s 1313 623 m -26 X s
 gsave  1088 1072 1157 11 C 1265.83 622.983 t 0 r /Helvetica findfont 22.723 sf 0 0 m (4) show NC gr 
 gsave  1088 1072 1157 11 C 1230.36 608.792 t 0 r /Helvetica findfont 32.6643 sf 0 0 m (10) show NC gr  1300 656 m -13 X s 1300 675 m -13 X s 1300 688 m -13 X s 1300 699 m -13 X s 1300 707 m -13 X s 1300 714 m -13 X s 1300 721 m -13 X s 1300 726 m
 -13 X s 1313 731 m -26 X s
 gsave  1088 1072 1157 11 C 1265.83 732.254 t 0 r /Helvetica findfont 22.723 sf 0 0 m (5) show NC gr 
 gsave  1088 1072 1157 11 C 1230.36 716.644 t 0 r /Helvetica findfont 32.6643 sf 0 0 m (10) show NC gr  1300 763 m -13 X s 1300 782 m -13 X s 1300 796 m -13 X s 1300 806 m -13 X s 1300 815 m -13 X s 1300 822 m -13 X s 1300 828 m -13 X s 1300 834 m
 -13 X s 1313 839 m -26 X s
 gsave  1088 1072 1157 11 C 1265.83 838.686 t 0 r /Helvetica findfont 22.723 sf 0 0 m (6) show NC gr 
 gsave  1088 1072 1157 11 C 1230.36 823.076 t 0 r /Helvetica findfont 32.6643 sf 0 0 m (10) show NC gr  1300 871 m -13 X s 1300 890 m -13 X s 1300 903 m -13 X s 1300 914 m -13 X s 1300 922 m -13 X s 1300 929 m -13 X s 1300 936 m -13 X s 1300 941 m
 -13 X s 1313 946 m -26 X s
 gsave  1088 1072 1157 11 C 1265.83 945.118 t 0 r /Helvetica findfont 22.723 sf 0 0 m (7) show NC gr 
 gsave  1088 1072 1157 11 C 1230.36 930.927 t 0 r /Helvetica findfont 32.6643 sf 0 0 m (10) show NC gr 
 gsave  1088 1072 1157 11 C 1203.39 557.705 t 90 r /Helvetica findfont 45.446 sf 0 0 m (Entries / NormFactor) show NC gr  1 0 0 c 1 1 1 c 1 0 0 c 1308 211 m 52 Y s 1308 275 m 19 Y s 1301 269 m 1 X s 1314 269 m 1 X s 1305 211 m 6 X s 1305 294 m 6 X s
 1301 266 m 6 Y s 1315 266 m 6 Y s 1308 269 m24 1322 118 m 113 Y s 1322 242 m 27 Y s 1315 236 m 1 X s 1327 236 m 2 X s 1319 118 m 5 X s 1319 269 m 5 X s 1315 234 m 5 Y s 1329 234 m 5 Y s 1322 236 m24 1391 118 m 113 Y s 1391 242 m 27 Y s 1384 236 m 1
 X s 1396 236 m 1 X s 1388 118 m 5 X s 1388 269 m 5 X s 1384 234 m 5 Y s 1397 234 m 5 Y s 1391 236 m24 1418 211 m 52 Y s 1418 275 m 19 Y s 1411 269 m 1 X s 1424 269 m 1 X s 1415 211 m 6 X s 1415 294 m 6 X s 1411 266 m 6 Y s 1425 266 m 6 Y s 1418 269
 m24 1432 211 m 52 Y s 1432 275 m 19 Y s 1425 269 m 1 X s 1438 269 m 1 X s 1429 211 m 6 X s 1429 294 m 6 X s 1425 266 m 6 Y s 1439 266 m 6 Y s 1432 269 m24 1487 118 m 113 Y s 1487 242 m 27 Y s 1480 236 m 1 X s 1493 236 m 1 X s 1484 118 m 6 X s 1484
 269 m 6 X s 1480 234 m 5 Y s 1494 234 m 5 Y s 1487 236 m24 1501 118 m 113 Y s 1501 242 m 27 Y s 1494 236 m 1 X s 1507 236 m 1 X s 1498 118 m 6 X s 1498 269 m 6 X s 1494 234 m 5 Y s 1508 234 m 5 Y s 1501 236 m24 1515 211 m 52 Y s 1515 275 m 19 Y s
 1508 269 m 1 X s 1520 269 m 2 X s 1512 211 m 5 X s 1512 294 m 5 X s 1508 266 m 6 Y s 1522 266 m 6 Y s 1515 269 m24 1528 118 m 113 Y s 1528 242 m 27 Y s 1522 236 m 1 X s 1534 236 m 1 X s 1526 118 m 5 X s 1526 269 m 5 X s 1522 234 m 5 Y s 1535 234 m 5
 Y s 1528 236 m24 1542 118 m 113 Y s 1542 242 m 27 Y s 1535 236 m 2 X s 1548 236 m 1 X s 1539 118 m 6 X s 1539 269 m 6 X s 1535 234 m 5 Y s 1549 234 m 5 Y s 1542 236 m24 1584 211 m 52 Y s 1584 275 m 19 Y s 1577 269 m 1 X s 1589 269 m 1 X s 1581 211 m
 5 X s 1581 294 m 5 X s 1577 266 m 6 Y s 1590 266 m 6 Y s 1584 269 m24 1625 118 m 113 Y s 1625 242 m 27 Y s 1618 236 m 1 X s 1631 236 m 1 X s 1622 118 m 6 X s 1622 269 m 6 X s 1618 234 m 5 Y s 1632 234 m 5 Y s 1625 236 m24 1639 118 m 113 Y s 1639 242
 m 27 Y s 1632 236 m 1 X s 1644 236 m 2 X s 1636 118 m 6 X s 1636 269 m 6 X s 1632 234 m 5 Y s 1646 234 m 5 Y s 1639 236 m24 1694 211 m 52 Y s 1694 275 m 19 Y s 1687 269 m 1 X s 1700 269 m 1 X s 1691 211 m 6 X s 1691 294 m 6 X s 1687 266 m 6 Y s 1701
 266 m 6 Y s 1694 269 m24 1721 118 m 113 Y s 1721 242 m 27 Y s 1715 236 m 1 X s 1727 236 m 1 X s 1719 118 m 5 X s 1719 269 m 5 X s 1715 234 m 5 Y s 1728 234 m 5 Y s 1721 236 m24 1859 118 m 113 Y s 1859 242 m 27 Y s 1852 236 m 2 X s 1865 236 m 1 X s
 1857 118 m 5 X s 1857 269 m 5 X s 1852 234 m 5 Y s 1866 234 m 5 Y s 1859 236 m24 1887 118 m 113 Y s 1887 242 m 27 Y s 1880 236 m 1 X s 1893 236 m 1 X s 1884 118 m 6 X s 1884 269 m 6 X s 1880 234 m 5 Y s 1894 234 m 5 Y s 1887 236 m24 1901 118 m 113 Y
 s 1901 242 m 27 Y s 1894 236 m 1 X s 1906 236 m 2 X s 1898 118 m 6 X s 1898 269 m 6 X s 1894 234 m 5 Y s 1908 234 m 5 Y s 1901 236 m24 1956 118 m 113 Y s 1956 242 m 27 Y s 1949 236 m 1 X s 1962 236 m 1 X s 1953 118 m 6 X s 1953 269 m 6 X s 1949 234
 m 5 Y s 1963 234 m 5 Y s 1956 236 m24 2066 118 m 113 Y s 2066 242 m 27 Y s 2059 236 m 1 X s 2072 236 m 1 X s 2063 118 m 6 X s 2063 269 m 6 X s 2059 234 m 5 Y s 2073 234 m 5 Y s 2066 236 m24 2108 118 m 113 Y s 2108 242 m 27 Y s 2101 236 m 1 X s 2113
 236 m 1 X s 2105 118 m 5 X s 2105 269 m 5 X s 2101 234 m 5 Y s 2114 234 m 5 Y s 2108 236 m24 black 1 1 1 c black 1308 319 m 6 Y s 1308 337 m 3 Y s 1301 331 m 1 X s 1314 331 m 1 X s 1305 319 m 6 X s 1305 340 m 6 X s 1301 328 m 6 Y s 1315 328 m 6 Y s
 1308 331 m20 1322 326 m 6 Y s 1322 343 m 4 Y s 1315 338 m 1 X s 1327 338 m 2 X s 1319 326 m 5 X s 1319 347 m 5 X s 1315 335 m 6 Y s 1329 335 m 6 Y s 1322 338 m20 1335 331 m 5 Y s 1335 347 m 3 Y s 1329 342 m 1 X s 1341 342 m 1 X s 1333 331 m 5 X s
 1333 350 m 5 X s 1329 339 m 6 Y s 1342 339 m 6 Y s 1335 342 m20 1349 326 m 6 Y s 1349 343 m 4 Y s 1342 338 m 2 X s 1355 338 m 1 X s 1346 326 m 6 X s 1346 347 m 6 X s 1342 335 m 6 Y s 1356 335 m 6 Y s 1349 338 m20 1363 331 m 5 Y s 1363 347 m 3 Y s
 1356 342 m 1 X s 1369 342 m 1 X s 1360 331 m 6 X s 1360 350 m 6 X s 1356 339 m 6 Y s 1370 339 m 6 Y s 1363 342 m20 1377 337 m 5 Y s 1377 353 m 2 Y s 1370 347 m 1 X s 1382 347 m 2 X s 1374 337 m 6 X s 1374 355 m 6 X s 1370 344 m 6 Y s 1384 344 m 6 Y
 s 1377 347 m20 1391 349 m 3 Y s 1391 364 m 1 Y s 1384 358 m 1 X s 1396 358 m 1 X s 1388 349 m 5 X s 1388 365 m 5 X s 1384 355 m 6 Y s 1397 355 m 6 Y s 1391 358 m20 1404 346 m 4 Y s 1404 361 m 2 Y s 1397 355 m 2 X s 1410 355 m 1 X s 1402 346 m 5 X s
 1402 363 m 5 X s 1397 352 m 6 Y s 1411 352 m 6 Y s 1404 355 m20 1418 349 m 3 Y s 1418 364 m 1 Y s 1411 358 m 1 X s 1424 358 m 1 X s 1415 349 m 6 X s 1415 365 m 6 X s 1411 355 m 6 Y s 1425 355 m 6 Y s 1418 358 m20 1432 329 m 5 Y s 1432 345 m 4 Y s
 1425 340 m 1 X s 1438 340 m 1 X s 1429 329 m 6 X s 1429 349 m 6 X s 1425 337 m 6 Y s 1439 337 m 6 Y s 1432 340 m20 1446 366 m 1 Y s 1446 379 m 1 Y s 1439 373 m 1 X s 1451 373 m 2 X s 1443 366 m 6 X s 1443 380 m 6 X s 1439 370 m 6 Y s 1453 370 m 6 Y
 s 1446 373 m20 1460 366 m 1 Y s 1460 379 m 1 Y s 1453 373 m 1 X s 1465 373 m 1 X s 1457 366 m 5 X s 1457 380 m 5 X s 1453 370 m 6 Y s 1466 370 m 6 Y s 1460 373 m20 1473 372 m 1 Y s 1473 384 m 1 Y s 1466 379 m 2 X s 1479 379 m 1 X s 1470 372 m 6 X s
 1470 385 m 6 X s 1466 376 m 6 Y s 1480 376 m 6 Y s 1473 379 m20 1487 367 m 1 Y s 1487 380 m s 1480 374 m 1 X s 1493 374 m 1 X s 1484 367 m 6 X s 1484 380 m 6 X s 1480 371 m 6 Y s 1494 371 m 6 Y s 1487 374 m20 1501 354 m 2 Y s 1501 368 m 1 Y s 1494
 362 m 1 X s 1507 362 m 1 X s 1498 354 m 6 X s 1498 369 m 6 X s 1494 359 m 6 Y s 1508 359 m 6 Y s 1501 362 m20 1515 370 m 1 Y s 1515 383 m s 1508 377 m 1 X s 1520 377 m 2 X s 1512 370 m 5 X s 1512 383 m 5 X s 1508 374 m 6 Y s 1522 374 m 6 Y s 1515
 377 m20 1522 405 m 1 X s 1534 405 m 1 X s 1522 402 m 5 Y s 1535 402 m 5 Y s 1528 405 m20 1535 402 m 2 X s 1548 402 m 1 X s 1535 400 m 5 Y s 1549 400 m 5 Y s 1542 402 m20 1549 404 m 1 X s 1562 404 m 1 X s 1549 401 m 6 Y s 1563 401 m 6 Y s 1556 404
 m20 1563 412 m 1 X s 1575 412 m 2 X s 1563 409 m 6 Y s 1577 409 m 6 Y s 1570 412 m20 1577 422 m 1 X s 1589 422 m 1 X s 1577 419 m 6 Y s 1590 419 m 6 Y s 1584 422 m20 1590 429 m 2 X s 1603 429 m 1 X s 1590 426 m 5 Y s 1604 426 m 5 Y s 1597 429 m20
 1604 451 m 1 X s 1617 451 m 1 X s 1604 448 m 5 Y s 1618 448 m 5 Y s 1611 451 m20 1618 456 m 1 X s 1631 456 m 1 X s 1618 453 m 5 Y s 1632 453 m 5 Y s 1625 456 m20 1632 477 m 1 X s 1644 477 m 2 X s 1632 474 m 6 Y s 1646 474 m 6 Y s 1639 477 m20 1646
 487 m 1 X s 1658 487 m 1 X s 1646 484 m 5 Y s 1659 484 m 5 Y s 1653 487 m20 1659 509 m 2 X s 1672 509 m 1 X s 1659 507 m 5 Y s 1673 507 m 5 Y s 1666 509 m20 1673 522 m 1 X s 1686 522 m 1 X s 1673 519 m 5 Y s 1687 519 m 5 Y s 1680 522 m20 1687 537 m
 1 X s 1700 537 m 1 X s 1687 534 m 6 Y s 1701 534 m 6 Y s 1694 537 m20 1701 544 m 1 X s 1713 544 m 2 X s 1701 542 m 5 Y s 1715 542 m 5 Y s 1708 544 m20 1715 546 m 1 X s 1727 546 m 1 X s 1715 543 m 6 Y s 1728 543 m 6 Y s 1721 546 m20 1728 532 m 2 X s
 1741 532 m 1 X s 1728 530 m 5 Y s 1742 530 m 5 Y s 1735 532 m20 1742 514 m 1 X s 1755 514 m 1 X s 1742 512 m 5 Y s 1756 512 m 5 Y s 1749 514 m20 1756 497 m 1 X s 1769 497 m 1 X s 1756 494 m 5 Y s 1770 494 m 5 Y s 1763 497 m20 1770 471 m 1 X s 1782
 471 m 2 X s 1770 469 m 5 Y s 1784 469 m 5 Y s 1777 471 m20 1784 451 m 1 X s 1796 451 m 1 X s 1784 448 m 6 Y s 1797 448 m 6 Y s 1790 451 m20 1797 440 m 2 X s 1810 440 m 1 X s 1797 437 m 5 Y s 1811 437 m 5 Y s 1804 440 m20 1811 423 m 1 X s 1824 423 m
 1 X s 1811 420 m 6 Y s 1825 420 m 6 Y s 1818 423 m20 1825 410 m 1 X s 1837 410 m 2 X s 1825 407 m 6 Y s 1839 407 m 6 Y s 1832 410 m20 1846 390 m s 1839 396 m 1 X s 1851 396 m 1 X s 1843 390 m 5 X s 1839 393 m 5 Y s 1852 393 m 5 Y s 1846 396 m20 1859
 384 m s 1852 390 m 2 X s 1865 390 m 1 X s 1857 384 m 5 X s 1852 387 m 6 Y s 1866 387 m 6 Y s 1859 390 m20 1873 372 m 1 Y s 1873 384 m 1 Y s 1866 379 m 1 X s 1879 379 m 1 X s 1870 372 m 6 X s 1870 385 m 6 X s 1866 376 m 6 Y s 1880 376 m 6 Y s 1873
 379 m20 1887 366 m 1 Y s 1887 379 m 1 Y s 1880 373 m 1 X s 1893 373 m 1 X s 1884 366 m 6 X s 1884 380 m 6 X s 1880 370 m 6 Y s 1894 370 m 6 Y s 1887 373 m20 1901 359 m 2 Y s 1901 372 m 2 Y s 1894 367 m 1 X s 1906 367 m 2 X s 1898 359 m 6 X s 1898
 374 m 6 X s 1894 364 m 6 Y s 1908 364 m 6 Y s 1901 367 m20 1914 352 m 3 Y s 1914 366 m 2 Y s 1908 361 m 1 X s 1920 361 m 1 X s 1912 352 m 5 X s 1912 368 m 5 X s 1908 358 m 6 Y s 1921 358 m 6 Y s 1914 361 m20 1928 339 m 4 Y s 1928 355 m 2 Y s 1921
 349 m 2 X s 1934 349 m 1 X s 1925 339 m 6 X s 1925 357 m 6 X s 1921 346 m 6 Y s 1935 346 m 6 Y s 1928 349 m20 1942 302 m 9 Y s 1942 322 m 6 Y s 1935 317 m 1 X s 1948 317 m 1 X s 1939 302 m 6 X s 1939 328 m 6 X s 1935 314 m 5 Y s 1949 314 m 5 Y s
 1942 317 m20 1956 335 m 5 Y s 1956 351 m 3 Y s 1949 345 m 1 X s 1962 345 m 1 X s 1953 335 m 6 X s 1953 354 m 6 X s 1949 343 m 5 Y s 1963 343 m 5 Y s 1956 345 m20 1970 306 m 8 Y s 1970 325 m 6 Y s 1963 320 m 1 X s 1975 320 m 2 X s 1967 306 m 5 X s
 1967 331 m 5 X s 1963 317 m 6 Y s 1977 317 m 6 Y s 1970 320 m20 1983 329 m 5 Y s 1983 345 m 4 Y s 1977 340 m 1 X s 1989 340 m 1 X s 1981 329 m 5 X s 1981 349 m 5 X s 1977 337 m 6 Y s 1990 337 m 6 Y s 1983 340 m20 1997 309 m 8 Y s 1997 328 m 5 Y s
 1990 323 m 2 X s 2003 323 m 1 X s 1994 309 m 6 X s 1994 333 m 6 X s 1990 320 m 6 Y s 2004 320 m 6 Y s 1997 323 m20 2011 289 m 11 Y s 2011 311 m 7 Y s 2004 305 m 1 X s 2017 305 m 1 X s 2008 289 m 6 X s 2008 318 m 6 X s 2004 302 m 6 Y s 2018 302 m 6 Y
 s 2011 305 m20 2025 302 m 9 Y s 2025 322 m 6 Y s 2018 317 m 1 X s 2030 317 m 2 X s 2022 302 m 6 X s 2022 328 m 6 X s 2018 314 m 5 Y s 2032 314 m 5 Y s 2025 317 m20 2039 319 m 6 Y s 2039 337 m 3 Y s 2032 331 m 1 X s 2044 331 m 1 X s 2036 319 m 5 X s
 2036 340 m 5 X s 2032 328 m 6 Y s 2045 328 m 6 Y s 2039 331 m20 2052 313 m 7 Y s 2052 331 m 5 Y s 2045 326 m 2 X s 2058 326 m 1 X s 2050 313 m 5 X s 2050 336 m 5 X s 2045 323 m 5 Y s 2059 323 m 5 Y s 2052 326 m20 2066 283 m 12 Y s 2066 307 m 7 Y s
 2059 301 m 1 X s 2072 301 m 1 X s 2063 283 m 6 X s 2063 314 m 6 X s 2059 298 m 6 Y s 2073 298 m 6 Y s 2066 301 m20 2080 302 m 9 Y s 2080 322 m 6 Y s 2073 317 m 1 X s 2086 317 m 1 X s 2077 302 m 6 X s 2077 328 m 6 X s 2073 314 m 5 Y s 2087 314 m 5 Y
 s 2080 317 m20 2094 289 m 11 Y s 2094 311 m 7 Y s 2087 305 m 1 X s 2099 305 m 2 X s 2091 289 m 6 X s 2091 318 m 6 X s 2087 302 m 6 Y s 2101 302 m 6 Y s 2094 305 m20 2108 270 m 15 Y s 2108 296 m 9 Y s 2101 290 m 1 X s 2113 290 m 1 X s 2105 270 m 5 X
 s 2105 305 m 5 X s 2101 288 m 5 Y s 2114 288 m 5 Y s 2108 290 m20 1 1 1 c black 1308 168 m 52 Y s 1308 231 m 20 Y s 1301 226 m 1 X s 1314 226 m 1 X s 1305 168 m 6 X s 1305 251 m 6 X s 1301 223 m 6 Y s 1315 223 m 6 Y s 1308 226 m24 1322 168 m 52 Y s
 1322 231 m 20 Y s 1315 226 m 1 X s 1327 226 m 2 X s 1319 168 m 5 X s 1319 251 m 5 X s 1315 223 m 6 Y s 1329 223 m 6 Y s 1322 226 m24 1335 118 m 70 Y s 1335 199 m 27 Y s 1329 193 m 1 X s 1341 193 m 1 X s 1333 118 m 5 X s 1333 226 m 5 X s 1329 190 m 6
 Y s 1342 190 m 6 Y s 1335 193 m24 1363 168 m 52 Y s 1363 231 m 20 Y s 1356 226 m 1 X s 1369 226 m 1 X s 1360 168 m 6 X s 1360 251 m 6 X s 1356 223 m 6 Y s 1370 223 m 6 Y s 1363 226 m24 1377 168 m 52 Y s 1377 231 m 20 Y s 1370 226 m 1 X s 1382 226 m
 2 X s 1374 168 m 6 X s 1374 251 m 6 X s 1370 223 m 6 Y s 1384 223 m 6 Y s 1377 226 m24 1391 168 m 52 Y s 1391 231 m 20 Y s 1384 226 m 1 X s 1396 226 m 1 X s 1388 168 m 5 X s 1388 251 m 5 X s 1384 223 m 6 Y s 1397 223 m 6 Y s 1391 226 m24 1404 118 m
 70 Y s 1404 199 m 27 Y s 1397 193 m 2 X s 1410 193 m 1 X s 1402 118 m 5 X s 1402 226 m 5 X s 1397 190 m 6 Y s 1411 190 m 6 Y s 1404 193 m24 1418 118 m 70 Y s 1418 199 m 27 Y s 1411 193 m 1 X s 1424 193 m 1 X s 1415 118 m 6 X s 1415 226 m 6 X s 1411
 190 m 6 Y s 1425 190 m 6 Y s 1418 193 m24 1432 118 m 70 Y s 1432 199 m 27 Y s 1425 193 m 1 X s 1438 193 m 1 X s 1429 118 m 6 X s 1429 226 m 6 X s 1425 190 m 6 Y s 1439 190 m 6 Y s 1432 193 m24 1460 168 m 52 Y s 1460 231 m 20 Y s 1453 226 m 1 X s
 1465 226 m 1 X s 1457 168 m 5 X s 1457 251 m 5 X s 1453 223 m 6 Y s 1466 223 m 6 Y s 1460 226 m24 1473 168 m 52 Y s 1473 231 m 20 Y s 1466 226 m 2 X s 1479 226 m 1 X s 1470 168 m 6 X s 1470 251 m 6 X s 1466 223 m 6 Y s 1480 223 m 6 Y s 1473 226 m24
 1487 118 m 70 Y s 1487 199 m 27 Y s 1480 193 m 1 X s 1493 193 m 1 X s 1484 118 m 6 X s 1484 226 m 6 X s 1480 190 m 6 Y s 1494 190 m 6 Y s 1487 193 m24 1528 118 m 70 Y s 1528 199 m 27 Y s 1522 193 m 1 X s 1534 193 m 1 X s 1526 118 m 5 X s 1526 226 m
 5 X s 1522 190 m 6 Y s 1535 190 m 6 Y s 1528 193 m24 1542 118 m 70 Y s 1542 199 m 27 Y s 1535 193 m 2 X s 1548 193 m 1 X s 1539 118 m 6 X s 1539 226 m 6 X s 1535 190 m 6 Y s 1549 190 m 6 Y s 1542 193 m24 1556 118 m 70 Y s 1556 199 m 27 Y s 1549 193
 m 1 X s 1562 193 m 1 X s 1553 118 m 6 X s 1553 226 m 6 X s 1549 190 m 6 Y s 1563 190 m 6 Y s 1556 193 m24 1570 204 m 35 Y s 1570 250 m 16 Y s 1563 245 m 1 X s 1575 245 m 2 X s 1567 204 m 6 X s 1567 266 m 6 X s 1563 242 m 5 Y s 1577 242 m 5 Y s 1570
 245 m24 1597 204 m 35 Y s 1597 250 m 16 Y s 1590 245 m 2 X s 1603 245 m 1 X s 1595 204 m 5 X s 1595 266 m 5 X s 1590 242 m 5 Y s 1604 242 m 5 Y s 1597 245 m24 1611 118 m 70 Y s 1611 199 m 27 Y s 1604 193 m 1 X s 1617 193 m 1 X s 1608 118 m 6 X s
 1608 226 m 6 X s 1604 190 m 6 Y s 1618 190 m 6 Y s 1611 193 m24 1625 118 m 70 Y s 1625 199 m 27 Y s 1618 193 m 1 X s 1631 193 m 1 X s 1622 118 m 6 X s 1622 226 m 6 X s 1618 190 m 6 Y s 1632 190 m 6 Y s 1625 193 m24 1639 168 m 52 Y s 1639 231 m 20 Y
 s 1632 226 m 1 X s 1644 226 m 2 X s 1636 168 m 6 X s 1636 251 m 6 X s 1632 223 m 6 Y s 1646 223 m 6 Y s 1639 226 m24 1653 168 m 52 Y s 1653 231 m 20 Y s 1646 226 m 1 X s 1658 226 m 1 X s 1650 168 m 5 X s 1650 251 m 5 X s 1646 223 m 6 Y s 1659 223 m
 6 Y s 1653 226 m24 1666 118 m 70 Y s 1666 199 m 27 Y s 1659 193 m 2 X s 1672 193 m 1 X s 1663 118 m 6 X s 1663 226 m 6 X s 1659 190 m 6 Y s 1673 190 m 6 Y s 1666 193 m24 1680 118 m 70 Y s 1680 199 m 27 Y s 1673 193 m 1 X s 1686 193 m 1 X s 1677 118
 m 6 X s 1677 226 m 6 X s 1673 190 m 6 Y s 1687 190 m 6 Y s 1680 193 m24 1694 168 m 52 Y s 1694 231 m 20 Y s 1687 226 m 1 X s 1700 226 m 1 X s 1691 168 m 6 X s 1691 251 m 6 X s 1687 223 m 6 Y s 1701 223 m 6 Y s 1694 226 m24 1708 118 m 70 Y s 1708 199
 m 27 Y s 1701 193 m 1 X s 1713 193 m 2 X s 1705 118 m 6 X s 1705 226 m 6 X s 1701 190 m 6 Y s 1715 190 m 6 Y s 1708 193 m24 1749 118 m 70 Y s 1749 199 m 27 Y s 1742 193 m 1 X s 1755 193 m 1 X s 1746 118 m 6 X s 1746 226 m 6 X s 1742 190 m 6 Y s 1756
 190 m 6 Y s 1749 193 m24 1777 118 m 70 Y s 1777 199 m 27 Y s 1770 193 m 1 X s 1782 193 m 2 X s 1774 118 m 5 X s 1774 226 m 5 X s 1770 190 m 6 Y s 1784 190 m 6 Y s 1777 193 m24 1804 204 m 35 Y s 1804 250 m 16 Y s 1797 245 m 2 X s 1810 245 m 1 X s
 1801 204 m 6 X s 1801 266 m 6 X s 1797 242 m 5 Y s 1811 242 m 5 Y s 1804 245 m24 1818 118 m 70 Y s 1818 199 m 27 Y s 1811 193 m 1 X s 1824 193 m 1 X s 1815 118 m 6 X s 1815 226 m 6 X s 1811 190 m 6 Y s 1825 190 m 6 Y s 1818 193 m24 1832 118 m 70 Y s
 1832 199 m 27 Y s 1825 193 m 1 X s 1837 193 m 2 X s 1829 118 m 6 X s 1829 226 m 6 X s 1825 190 m 6 Y s 1839 190 m 6 Y s 1832 193 m24 1846 118 m 70 Y s 1846 199 m 27 Y s 1839 193 m 1 X s 1851 193 m 1 X s 1843 118 m 5 X s 1843 226 m 5 X s 1839 190 m 6
 Y s 1852 190 m 6 Y s 1846 193 m24 1873 118 m 70 Y s 1873 199 m 27 Y s 1866 193 m 1 X s 1879 193 m 1 X s 1870 118 m 6 X s 1870 226 m 6 X s 1866 190 m 6 Y s 1880 190 m 6 Y s 1873 193 m24 1887 118 m 70 Y s 1887 199 m 27 Y s 1880 193 m 1 X s 1893 193 m
 1 X s 1884 118 m 6 X s 1884 226 m 6 X s 1880 190 m 6 Y s 1894 190 m 6 Y s 1887 193 m24 1928 204 m 35 Y s 1928 250 m 16 Y s 1921 245 m 2 X s 1934 245 m 1 X s 1925 204 m 6 X s 1925 266 m 6 X s 1921 242 m 5 Y s 1935 242 m 5 Y s 1928 245 m24 1942 168 m
 52 Y s 1942 231 m 20 Y s 1935 226 m 1 X s 1948 226 m 1 X s 1939 168 m 6 X s 1939 251 m 6 X s 1935 223 m 6 Y s 1949 223 m 6 Y s 1942 226 m24 1956 118 m 70 Y s 1956 199 m 27 Y s 1949 193 m 1 X s 1962 193 m 1 X s 1953 118 m 6 X s 1953 226 m 6 X s 1949
 190 m 6 Y s 1963 190 m 6 Y s 1956 193 m24 2011 118 m 70 Y s 2011 199 m 27 Y s 2004 193 m 1 X s 2017 193 m 1 X s 2008 118 m 6 X s 2008 226 m 6 X s 2004 190 m 6 Y s 2018 190 m 6 Y s 2011 193 m24 2025 118 m 70 Y s 2025 199 m 27 Y s 2018 193 m 1 X s
 2030 193 m 2 X s 2022 118 m 6 X s 2022 226 m 6 X s 2018 190 m 6 Y s 2032 190 m 6 Y s 2025 193 m24 2039 168 m 52 Y s 2039 231 m 20 Y s 2032 226 m 1 X s 2044 226 m 1 X s 2036 168 m 5 X s 2036 251 m 5 X s 2032 223 m 6 Y s 2045 223 m 6 Y s 2039 226 m24
 2052 118 m 70 Y s 2052 199 m 27 Y s 2045 193 m 2 X s 2058 193 m 1 X s 2050 118 m 5 X s 2050 226 m 5 X s 2045 190 m 6 Y s 2059 190 m 6 Y s 2052 193 m24 2066 241 m 22 Y s 2066 274 m 12 Y s 2059 268 m 1 X s 2072 268 m 1 X s 2063 241 m 6 X s 2063 286 m
 6 X s 2059 266 m 5 Y s 2073 266 m 5 Y s 2066 268 m24 2080 118 m 70 Y s 2080 199 m 27 Y s 2073 193 m 1 X s 2086 193 m 1 X s 2077 118 m 6 X s 2077 226 m 6 X s 2073 190 m 6 Y s 2087 190 m 6 Y s 2080 193 m24 2094 118 m 70 Y s 2094 199 m 27 Y s 2087 193
 m 1 X s 2099 193 m 2 X s 2091 118 m 6 X s 2091 226 m 6 X s 2087 190 m 6 Y s 2101 190 m 6 Y s 2094 193 m24 2108 118 m 70 Y s 2108 199 m 27 Y s 2101 193 m 1 X s 2113 193 m 1 X s 2105 118 m 5 X s 2105 226 m 5 X s 2101 190 m 6 Y s 2114 190 m 6 Y s 2108
 193 m24 0 0 1 c[ 12 12] 0 sd 6 lw 1577 118 m 395 Y s 1852 118 m 395 Y s black[  ] 0 sd 3 lw 1 1 1 c 272 268 1320 654 bf black
 gsave  1088 1072 1157 11 C 1386.46 874.164 t 0 r /Helvetica findfont 39.7652 sf 0 0 m (OC data: 13349) show NC gr  1354 889 m20
 gsave  1088 1072 1157 11 C 1386.46 807.466 t 0 r /Helvetica findfont 39.7652 sf 0 0 m (SC data: 22) show NC gr  1354 822 m24
 gsave  1088 1072 1157 11 C 1386.46 740.768 t 0 r /Helvetica findfont 39.7652 sf 0 0 m (OC MC: 28860) show NC gr  1 0 0 c 1354 755 m20 black
 gsave  1088 1072 1157 11 C 1386.46 674.071 t 0 r /Helvetica findfont 39.7652 sf 0 0 m (SC MC: 8) show NC gr  1 0 0 c 1354 688 m24 black
 gsave  1088 1072 1157 11 C 1700.08 901.126 t 0 r /Helvetica-Bold findfont 59.6478 sf 0 0 m (pp collisions) show NC gr 
 gr  gr showpage
end
%%EOF
