%!PS-Adobe-2.0 EPSF-2.0
%%BoundingBox:  0 0 567 548
%%Title: : Resultse
%%Creator: ROOT Version 6.16/00
%%CreationDate: Thu May  9 11:26:37 2019
%%DocumentNeededResources: ProcSet (FontSetInit)
%%EndComments
%%BeginProlog
80 dict begin
/s {stroke} def /l {lineto} def /m {moveto} def /t {translate} def
/r {rotate} def /rl {roll}  def /R {repeat} def
/d {rlineto} def /rm {rmoveto} def /gr {grestore} def /f {eofill} def
/c {setrgbcolor} def /black {0 setgray} def /sd {setdash} def
/cl {closepath} def /sf {scalefont setfont} def /lw {setlinewidth} def
/box {m dup 0 exch d exch 0 d 0 exch neg d cl} def
/NC{systemdict begin initclip end}def/C{NC box clip newpath}def
/bl {box s} def /bf {gsave box gsave f grestore 1 lw [] 0 sd s grestore} def /Y { 0 exch d} def /X { 0 d} def 
/K {{pop pop 0 moveto} exch kshow} bind def
/ita {/ang 15 def gsave [1 0 ang dup sin exch cos div 1 0 0] concat} def 
/mp {newpath /y exch def /x exch def} def
/side {[w .77 mul w .23 mul] .385 w mul sd w 0 l currentpoint t -144 r} def
/mr {mp x y w2 0 360 arc} def /m24 {mr s} def /m20 {mr f} def
/mb {mp x y w2 add m w2 neg 0 d 0 w neg d w 0 d 0 w d cl} def
/mt {mp x y w2 add m w2 neg w neg d w 0 d cl} def
/w4 {w 4 div} def
/w6 {w 6 div} def
/w8 {w 8 div} def
/m21 {mb f} def /m25 {mb s} def /m22 {mt f} def /m26{mt s} def
/m23 {mp x y w2 sub m w2 w d w neg 0 d cl f} def
/m27 {mp x y w2 add m w3 neg w2 neg d w3 w2 neg d w3 w2 d cl s} def
/m28 {mp x w2 sub y w2 sub w3 add m w3 0 d  0 w3 neg d w3 0 d 0 w3 d w3 0 d  0 w3 d w3 neg 0 d 0 w3 d w3 neg 0 d 0 w3 neg d w3 neg 0 d cl s } def
/m29 {mp gsave x w2 sub y w2 add w3 sub m currentpoint t 4 {side} repeat cl fill gr} def
/m30 {mp gsave x w2 sub y w2 add w3 sub m currentpoint t 4 {side} repeat cl s gr} def
/m31 {mp x y w2 sub m 0 w d x w2 sub y m w 0 d x w2 sub y w2 add m w w neg d x w2 sub y w2 sub m w w d s} def
/m32 {mp x y w2 sub m w2 w d w neg 0 d cl s} def
/m33 {mp x y w2 add m w3 neg w2 neg d w3 w2 neg d w3 w2 d cl f} def
/m34 {mp x w2 sub y w2 sub w3 add m w3 0 d  0 w3 neg d w3 0 d 0 w3 d w3 0 d  0 w3 d w3 neg 0 d 0 w3 d w3 neg 0 d 0 w3 neg d w3 neg 0 d cl f } def
/m35 {mp x y w2 add m w2 neg w2 neg d w2 w2 neg d w2 w2 d w2 neg w2 d x y w2 sub m 0 w d x w2 sub y m w 0 d s} def
/m36 {mb x w2 sub y w2 add m w w neg d x w2 sub y w2 sub m w w d s} def
/m37 {mp x y m w4 neg w2 d w4 neg w2 neg d w2 0 d  w4 neg w2 neg d w2 0 d w4 neg w2 d w2 0 d w4 neg w2 d w4 neg w2 neg d cl s} def
/m38 {mp x w4 sub y w2 add m w4 neg w4 neg d 0 w2 neg d w4 w4 neg d w2 0 d w4 w4 d 0 w2 d w4 neg w4 d w2 neg 0 d x y w2 sub m 0 w d x w2 sub y m w 0 d cl s} def
/m39 {mp x y m w4 neg w2 d w4 neg w2 neg d w2 0 d  w4 neg w2 neg d w2 0 d w4 neg w2 d w2 0 d w4 neg w2 d w4 neg w2 neg d cl f} def
/m40 {mp x y m w4 w2 d w4 w4 neg d w2 neg w4 neg d w2 w4 neg d w4 neg w4 neg d w4 neg w2 d w4 neg w2 neg d w4 neg w4 d w2 w4 d w2 neg w4 d w4 w4 d w4 w2 neg d cl s} def
/m41 {mp x y m w4 w2 d w4 w4 neg d w2 neg w4 neg d w2 w4 neg d w4 neg w4 neg d w4 neg w2 d w4 neg w2 neg d w4 neg w4 d w2 w4 d w2 neg w4 d w4 w4 d w4 w2 neg d cl f} def
/m42 {mp x y w2 add m w8 neg w2 -3 4 div mul d w2 -3 4 div mul w8 neg d w2 3 4 div mul w8 neg d w8 w2 -3 4 div mul d w8 w2 3 4 div mul d w2 3 4 div mul w8 d w2 -3 4 div mul w8 d w8 neg w2 3 4 div mul d cl s} def
/m43 {mp x y w2 add m w8 neg w2 -3 4 div mul d w2 -3 4 div mul w8 neg d w2 3 4 div mul w8 neg d w8 w2 -3 4 div mul d w8 w2 3 4 div mul d w2 3 4 div mul w8 d w2 -3 4 div mul w8 d w8 neg w2 3 4 div mul d cl f} def
/m44 {mp x y m w6 neg w2 d w2 2 3 div mul 0 d w6 neg w2 neg d w2 w6 d 0 w2 -2 3 div mul d w2 neg w6 d w6 w2 neg d w2 -2 3 div mul 0 d w6 w2 d w2 neg w6 neg d 0 w2 2 3 div mul d w2 w6 neg d cl s} def
/m45 {mp x y m w6 neg w2 d w2 2 3 div mul 0 d w6 neg w2 neg d w2 w6 d 0 w2 -2 3 div mul d w2 neg w6 d w6 w2 neg d w2 -2 3 div mul 0 d w6 w2 d w2 neg w6 neg d 0 w2 2 3 div mul d w2 w6 neg d cl f} def
/m46 {mp x y w4 add m w4 neg w4 d w4 neg w4 neg d  w4 w4 neg d w4 neg w4 neg d w4 w4 neg d w4 w4 d w4 w4 neg d w4 w4 d w4 neg w4 d w4 w4 d w4 neg w4 d w4 neg w4 neg d cl s} def
/m47 {mp x y w4 add m w4 neg w4 d w4 neg w4 neg d w4 w4 neg d w4 neg w4 neg d  w4 w4 neg d w4 w4 d w4 w4 neg d w4 w4 d w4 neg w4 d w4 w4 d w4 neg w4 d w4 neg w4 neg d cl f} def
/m48 {mp x y w4 add m w4 neg w4 d w4 neg w4 neg d w4 w4 neg d  w4 neg w4 neg d w4 w4 neg d w4 w4 d w4 w4 neg d w4 w4 d w4 neg w4 d w4 w4 d w4 neg w4 d w4 neg w4 neg d  w4 w4 neg d w4 neg w4 neg d w4 neg w4 d w4 w4 d cl f} def
/m49 {mp x w2 sub w3 add y w2 sub w3 add m  0 w3 neg d w3 0 d 0 w3 d w3 0 d 0 w3 d w3 neg 0 d 0 w3 d w3 neg 0 d 0 w3 neg d w3 neg 0 d 0 w3 neg d w3 0 d 0 w3 d w3 0 d 0 w3 neg d w3 neg 0 d cl f } def
/m2 {mp x y w2 sub m 0 w d x w2 sub y m w 0 d s} def
/m5 {mp x w2 sub y w2 sub m w w d x w2 sub y w2 add m w w neg d s} def
%%IncludeResource: ProcSet (FontSetInit)
%%IncludeResource: font Times-Roman
%%IncludeResource: font Times-Italic
%%IncludeResource: font Times-Bold
%%IncludeResource: font Times-BoldItalic
%%IncludeResource: font Helvetica
%%IncludeResource: font Helvetica-Oblique
%%IncludeResource: font Helvetica-Bold
%%IncludeResource: font Helvetica-BoldOblique
%%IncludeResource: font Courier
%%IncludeResource: font Courier-Oblique
%%IncludeResource: font Courier-Bold
%%IncludeResource: font Courier-BoldOblique
%%IncludeResource: font Symbol
%%IncludeResource: font ZapfDingbats
/reEncode {exch findfont dup length dict begin {1 index /FID eq  {pop pop} {def} ifelse } forall /Encoding exch def currentdict end dup /FontName get exch definefont pop } def [/Times-Bold /Times-Italic /Times-BoldItalic /Helvetica /Helvetica-Oblique
 /Helvetica-Bold /Helvetica-BoldOblique /Courier /Courier-Oblique /Courier-Bold /Courier-BoldOblique /Times-Roman /AvantGarde-Book /AvantGarde-BookOblique /AvantGarde-Demi /AvantGarde-DemiOblique /Bookman-Demi /Bookman-DemiItalic /Bookman-Light
 /Bookman-LightItalic /Helvetica-Narrow /Helvetica-Narrow-Bold /Helvetica-Narrow-BoldOblique /Helvetica-Narrow-Oblique /NewCenturySchlbk-Roman /NewCenturySchlbk-Bold /NewCenturySchlbk-BoldItalic /NewCenturySchlbk-Italic /Palatino-Bold
 /Palatino-BoldItalic /Palatino-Italic /Palatino-Roman ] {ISOLatin1Encoding reEncode } forall
%%EndProlog
%%BeginSetup
%%EndSetup
newpath  gsave  .25 .25 scale  gsave  0 0 t black[  ] 0 sd 3 lw 1 1 1 c 2268 2191 0 0 bf black 1 1 1 c black 1 1 1 c 1724 1104 272 890 bf black 1724 1104 272 890 bl 1 1 1 c 1724 1104 272 890 bf black 1724 1104 272 890 bl 272 890 m 1724 X s 272 920 m
 -30 Y s 307 905 m -15 Y s 341 905 m -15 Y s 376 905 m -15 Y s 410 905 m -15 Y s 444 920 m -30 Y s 479 905 m -15 Y s 513 905 m -15 Y s 548 905 m -15 Y s 582 905 m -15 Y s 617 920 m -30 Y s 651 905 m -15 Y s 686 905 m -15 Y s 720 905 m -15 Y s 755 905
 m -15 Y s 789 920 m -30 Y s 824 905 m -15 Y s 858 905 m -15 Y s 893 905 m -15 Y s 927 905 m -15 Y s 962 920 m -30 Y s 996 905 m -15 Y s 1030 905 m -15 Y s 1065 905 m -15 Y s 1099 905 m -15 Y s 1134 920 m -30 Y s 1168 905 m -15 Y s 1203 905 m -15 Y s
 1237 905 m -15 Y s 1272 905 m -15 Y s 1306 920 m -30 Y s 1341 905 m -15 Y s 1375 905 m -15 Y s 1410 905 m -15 Y s 1444 905 m -15 Y s 1479 920 m -30 Y s 1513 905 m -15 Y s 1547 905 m -15 Y s 1582 905 m -15 Y s 1616 905 m -15 Y s 1651 920 m -30 Y s
 1685 905 m -15 Y s 1720 905 m -15 Y s 1754 905 m -15 Y s 1789 905 m -15 Y s 1823 920 m -30 Y s 1858 905 m -15 Y s 1892 905 m -15 Y s 1927 905 m -15 Y s 1961 905 m -15 Y s 1996 920 m -30 Y s
 gsave  2268 1315 0 876 C 250.074 846.842 t 0 r /Helvetica findfont 42.6816 sf 0 0 m (2.5) show NC gr 
 gsave  2268 1315 0 876 C 227.34 846.842 t 0 r /Symbol findfont 42.6816 sf 0 0 m (-) show NC gr 
 gsave  2268 1315 0 876 C 443.313 846.842 t 0 r /Helvetica findfont 42.6816 sf 0 0 m (2) show NC gr 
 gsave  2268 1315 0 876 C 417.737 846.842 t 0 r /Symbol findfont 42.6816 sf 0 0 m (-) show NC gr 
 gsave  2268 1315 0 876 C 596.768 846.842 t 0 r /Helvetica findfont 42.6816 sf 0 0 m (1.5) show NC gr 
 gsave  2268 1315 0 876 C 574.034 846.842 t 0 r /Symbol findfont 42.6816 sf 0 0 m (-) show NC gr 
 gsave  2268 1315 0 876 C 790.007 846.842 t 0 r /Helvetica findfont 42.6816 sf 0 0 m (1) show NC gr 
 gsave  2268 1315 0 876 C 764.431 846.842 t 0 r /Symbol findfont 42.6816 sf 0 0 m (-) show NC gr 
 gsave  2268 1315 0 876 C 940.619 846.842 t 0 r /Helvetica findfont 42.6816 sf 0 0 m (0.5) show NC gr 
 gsave  2268 1315 0 876 C 917.885 846.842 t 0 r /Symbol findfont 42.6816 sf 0 0 m (-) show NC gr 
 gsave  2268 1315 0 876 C 1122.49 846.842 t 0 r /Helvetica findfont 42.6816 sf 0 0 m (0) show NC gr 
 gsave  2268 1315 0 876 C 1273.1 846.842 t 0 r /Helvetica findfont 42.6816 sf 0 0 m (0.5) show NC gr 
 gsave  2268 1315 0 876 C 1469.18 846.842 t 0 r /Helvetica findfont 42.6816 sf 0 0 m (1) show NC gr 
 gsave  2268 1315 0 876 C 1616.96 846.842 t 0 r /Helvetica findfont 42.6816 sf 0 0 m (1.5) show NC gr 
 gsave  2268 1315 0 876 C 1810.19 846.842 t 0 r /Helvetica findfont 42.6816 sf 0 0 m (2) show NC gr 
 gsave  2268 1315 0 876 C 1963.65 846.842 t 0 r /Helvetica findfont 42.6816 sf 0 0 m (2.5) show NC gr 
 gsave  2268 1315 0 876 C 1977.86 829.791 t 0 r /Symbol findfont 28.4544 sf 0 0 m (m) show NC gr 
 gsave  2268 1315 0 876 C 1955.12 809.899 t 0 r /Symbol findfont 42.6816 sf 0 0 m (h) show NC gr  272 1994 m 1724 X s 272 1964 m 30 Y s 307 1979 m 15 Y s 341 1979 m 15 Y s 376 1979 m 15 Y s 410 1979 m 15 Y s 444 1964 m 30 Y s 479 1979 m 15 Y s 513
 1979 m 15 Y s 548 1979 m 15 Y s 582 1979 m 15 Y s 617 1964 m 30 Y s 651 1979 m 15 Y s 686 1979 m 15 Y s 720 1979 m 15 Y s 755 1979 m 15 Y s 789 1964 m 30 Y s 824 1979 m 15 Y s 858 1979 m 15 Y s 893 1979 m 15 Y s 927 1979 m 15 Y s 962 1964 m 30 Y s
 996 1979 m 15 Y s 1030 1979 m 15 Y s 1065 1979 m 15 Y s 1099 1979 m 15 Y s 1134 1964 m 30 Y s 1168 1979 m 15 Y s 1203 1979 m 15 Y s 1237 1979 m 15 Y s 1272 1979 m 15 Y s 1306 1964 m 30 Y s 1341 1979 m 15 Y s 1375 1979 m 15 Y s 1410 1979 m 15 Y s
 1444 1979 m 15 Y s 1479 1964 m 30 Y s 1513 1979 m 15 Y s 1547 1979 m 15 Y s 1582 1979 m 15 Y s 1616 1979 m 15 Y s 1651 1964 m 30 Y s 1685 1979 m 15 Y s 1720 1979 m 15 Y s 1754 1979 m 15 Y s 1789 1979 m 15 Y s 1823 1964 m 30 Y s 1858 1979 m 15 Y s
 1892 1979 m 15 Y s 1927 1979 m 15 Y s 1961 1979 m 15 Y s 1996 1964 m 30 Y s 272 890 m 1104 Y s 329 1007 m -57 X s 301 1031 m -29 X s 301 1055 m -29 X s 301 1079 m -29 X s 301 1103 m -29 X s 329 1127 m -57 X s 301 1150 m -29 X s 301 1174 m -29 X s
 301 1198 m -29 X s 301 1222 m -29 X s 329 1246 m -57 X s 301 1270 m -29 X s 301 1293 m -29 X s 301 1317 m -29 X s 301 1341 m -29 X s 329 1365 m -57 X s 301 1389 m -29 X s 301 1413 m -29 X s 301 1436 m -29 X s 301 1460 m -29 X s 329 1484 m -57 X s
 301 1508 m -29 X s 301 1532 m -29 X s 301 1556 m -29 X s 301 1579 m -29 X s 329 1603 m -57 X s 301 1627 m -29 X s 301 1651 m -29 X s 301 1675 m -29 X s 301 1699 m -29 X s 329 1722 m -57 X s 301 1746 m -29 X s 301 1770 m -29 X s 301 1794 m -29 X s
 301 1818 m -29 X s 329 1841 m -57 X s 301 1865 m -29 X s 301 1889 m -29 X s 301 1913 m -29 X s 301 1937 m -29 X s 329 1961 m -57 X s 329 1007 m -57 X s 301 984 m -29 X s 301 960 m -29 X s 301 936 m -29 X s 301 912 m -29 X s 329 1961 m -57 X s 301
 1984 m -29 X s
 gsave  2268 1315 0 876 C 179.03 983.246 t 0 r /Helvetica findfont 65.4451 sf 0 0 m (0.1) show NC gr 
 gsave  2268 1315 0 876 C 170.505 1102.6 t 0 r /Helvetica findfont 65.4451 sf 0 0 m (0.2) show NC gr 
 gsave  2268 1315 0 876 C 170.505 1221.95 t 0 r /Helvetica findfont 65.4451 sf 0 0 m (0.3) show NC gr 
 gsave  2268 1315 0 876 C 167.663 1341.31 t 0 r /Helvetica findfont 65.4451 sf 0 0 m (0.4) show NC gr 
 gsave  2268 1315 0 876 C 167.663 1460.66 t 0 r /Helvetica findfont 65.4451 sf 0 0 m (0.5) show NC gr 
 gsave  2268 1315 0 876 C 167.663 1580.01 t 0 r /Helvetica findfont 65.4451 sf 0 0 m (0.6) show NC gr 
 gsave  2268 1315 0 876 C 167.663 1699.37 t 0 r /Helvetica findfont 65.4451 sf 0 0 m (0.7) show NC gr 
 gsave  2268 1315 0 876 C 167.663 1818.72 t 0 r /Helvetica findfont 65.4451 sf 0 0 m (0.8) show NC gr 
 gsave  2268 1315 0 876 C 170.505 1935.23 t 0 r /Helvetica findfont 65.4451 sf 0 0 m (0.9) show NC gr 
 gsave  2268 1315 0 876 C 65.3603 1423.72 t 90 r /Helvetica findfont 73.9815 sf 0 0 m (Trigger Efficiency) show NC gr  1996 890 m 1104 Y s 1938 1007 m 58 X s 1967 1031 m 29 X s 1967 1055 m 29 X s 1967 1079 m 29 X s 1967 1103 m 29 X s 1938 1127 m 58 X
 s 1967 1150 m 29 X s 1967 1174 m 29 X s 1967 1198 m 29 X s 1967 1222 m 29 X s 1938 1246 m 58 X s 1967 1270 m 29 X s 1967 1293 m 29 X s 1967 1317 m 29 X s 1967 1341 m 29 X s 1938 1365 m 58 X s 1967 1389 m 29 X s 1967 1413 m 29 X s 1967 1436 m 29 X s
 1967 1460 m 29 X s 1938 1484 m 58 X s 1967 1508 m 29 X s 1967 1532 m 29 X s 1967 1556 m 29 X s 1967 1579 m 29 X s 1938 1603 m 58 X s 1967 1627 m 29 X s 1967 1651 m 29 X s 1967 1675 m 29 X s 1967 1699 m 29 X s 1938 1722 m 58 X s 1967 1746 m 29 X s
 1967 1770 m 29 X s 1967 1794 m 29 X s 1967 1818 m 29 X s 1938 1841 m 58 X s 1967 1865 m 29 X s 1967 1889 m 29 X s 1967 1913 m 29 X s 1967 1937 m 29 X s 1938 1961 m 58 X s 1938 1007 m 58 X s 1967 984 m 29 X s 1967 960 m 29 X s 1967 936 m 29 X s 1967
 912 m 29 X s 1938 1961 m 58 X s 1967 1984 m 29 X s 1 0 0 c 315 1926 m -43 X s 272 1921 m 11 Y s 315 1926 m 43 X s 358 1921 m 11 Y s 315 1926 m 32 Y s 310 1958 m 11 X s 315 1926 m -38 Y s 310 1888 m 11 X s 401 1908 m -43 X s 358 1903 m 11 Y s 401
 1908 m 43 X s 444 1903 m 11 Y s 401 1908 m 26 Y s 396 1934 m 11 X s 401 1908 m -29 Y s 396 1879 m 11 X s 488 1955 m -44 X s 444 1949 m 12 Y s 488 1955 m 43 X s 531 1949 m 12 Y s 488 1955 m 20 Y s 482 1975 m 11 X s 488 1955 m -23 Y s 482 1932 m 11 X
 s 574 1926 m -43 X s 531 1920 m 11 Y s 574 1926 m 43 X s 617 1920 m 11 Y s 574 1926 m 20 Y s 568 1946 m 11 X s 574 1926 m -23 Y s 568 1903 m 11 X s 660 1936 m -43 X s 617 1930 m 11 Y s 660 1936 m 43 X s 703 1930 m 11 Y s 660 1936 m 20 Y s 654 1956 m
 12 X s 660 1936 m -23 Y s 654 1913 m 12 X s 746 1783 m -43 X s 703 1778 m 11 Y s 746 1783 m 43 X s 789 1778 m 11 Y s 746 1783 m 27 Y s 740 1810 m 12 X s 746 1783 m -28 Y s 740 1755 m 12 X s 832 1655 m -43 X s 789 1649 m 12 Y s 832 1655 m 43 X s 875
 1649 m 12 Y s 832 1655 m 29 Y s 827 1684 m 11 X s 832 1655 m -31 Y s 827 1624 m 11 X s 918 1642 m -43 X s 875 1636 m 12 Y s 918 1642 m 44 X s 962 1636 m 12 Y s 918 1642 m 28 Y s 913 1670 m 11 X s 918 1642 m -29 Y s 913 1613 m 11 X s 1005 1753 m -43
 X s 962 1747 m 11 Y s 1005 1753 m 43 X s 1048 1747 m 11 Y s 1005 1753 m 25 Y s 999 1778 m 11 X s 1005 1753 m -27 Y s 999 1726 m 11 X s 1091 1631 m -43 X s 1048 1625 m 12 Y s 1091 1631 m 43 X s 1134 1625 m 12 Y s 1091 1631 m 28 Y s 1085 1659 m 11 X s
 1091 1631 m -29 Y s 1085 1602 m 11 X s 1177 1659 m -43 X s 1134 1653 m 12 Y s 1177 1659 m 43 X s 1220 1653 m 12 Y s 1177 1659 m 30 Y s 1171 1689 m 12 X s 1177 1659 m -31 Y s 1171 1628 m 12 X s 1263 1701 m -43 X s 1220 1695 m 11 Y s 1263 1701 m 43 X
 s 1306 1695 m 11 Y s 1263 1701 m 26 Y s 1257 1727 m 12 X s 1263 1701 m -28 Y s 1257 1673 m 12 X s 1349 1727 m -43 X s 1306 1722 m 11 Y s 1349 1727 m 43 X s 1392 1722 m 11 Y s 1349 1727 m 27 Y s 1344 1754 m 11 X s 1349 1727 m -28 Y s 1344 1699 m 11 X
 s 1435 1607 m -43 X s 1392 1601 m 11 Y s 1435 1607 m 44 X s 1479 1601 m 11 Y s 1435 1607 m 30 Y s 1430 1637 m 11 X s 1435 1607 m -31 Y s 1430 1576 m 11 X s 1522 1800 m -43 X s 1479 1794 m 12 Y s 1522 1800 m 43 X s 1565 1794 m 12 Y s 1522 1800 m 25 Y
 s 1516 1825 m 11 X s 1522 1800 m -27 Y s 1516 1773 m 11 X s 1608 1935 m -43 X s 1565 1929 m 12 Y s 1608 1935 m 43 X s 1651 1929 m 12 Y s 1608 1935 m 21 Y s 1602 1956 m 11 X s 1608 1935 m -24 Y s 1602 1911 m 11 X s 1694 1897 m -43 X s 1651 1892 m 11
 Y s 1694 1897 m 43 X s 1737 1892 m 11 Y s 1694 1897 m 23 Y s 1688 1920 m 12 X s 1694 1897 m -24 Y s 1688 1873 m 12 X s 1780 1943 m -43 X s 1737 1938 m 11 Y s 1780 1943 m 43 X s 1823 1938 m 11 Y s 1780 1943 m 23 Y s 1774 1966 m 12 X s 1780 1943 m -25
 Y s 1774 1918 m 12 X s 1866 1938 m -43 X s 1823 1932 m 11 Y s 1866 1938 m 43 X s 1909 1932 m 11 Y s 1866 1938 m 22 Y s 1861 1960 m 11 X s 1866 1938 m -26 Y s 1861 1912 m 11 X s 1953 1874 m -44 X s 1909 1869 m 11 Y s 1953 1874 m 43 X s 1996 1869 m 11
 Y s 1953 1874 m 35 Y s 1947 1909 m 11 X s 1953 1874 m -40 Y s 1947 1834 m 11 X s 0.95 0.95 0.95 c 1 0 0 c /w 25 def /w2 {w 2 div} def /w3 {w 3 div} def 315 1926 401 1908 488 1955 574 1926 660 1936 746 1783 832 1655 918 1642 1005 1753 1091 1631 1177
 1659 1263 1701 1349 1727 1435 1607 1522 1800 1608 1935 1694 1897 1780 1943 1866 1938 1953 1874 20 { m24} R black 304 1876 m -32 X s 272 1870 m 12 Y s 327 1876 m 31 X s 358 1870 m 12 Y s 315 1887 m 26 Y s 310 1913 m 11 X s 315 1865 m -32 Y s 310 1833
 m 11 X s 390 1955 m -32 X s 358 1949 m 11 Y s 413 1955 m 31 X s 444 1949 m 11 Y s 401 1966 m 11 Y s 396 1977 m 11 X s 401 1943 m -14 Y s 396 1929 m 11 X s 476 1975 m -32 X s 444 1969 m 12 Y s 499 1975 m 32 X s 531 1969 m 12 Y s 488 1986 m 8 Y s 482
 1994 m 11 X s 488 1964 m -11 Y s 482 1953 m 11 X s 562 1920 m -31 X s 531 1914 m 11 Y s 585 1920 m 32 X s 617 1914 m 11 Y s 574 1931 m 10 Y s 568 1941 m 11 X s 574 1908 m -13 Y s 568 1895 m 11 X s 649 1962 m -32 X s 617 1957 m 11 Y s 671 1962 m 32 X
 s 703 1957 m 11 Y s 660 1974 m 7 Y s 654 1981 m 12 X s 660 1951 m -10 Y s 654 1941 m 12 X s 735 1768 m -32 X s 703 1762 m 11 Y s 757 1768 m 32 X s 789 1762 m 11 Y s 746 1779 m 14 Y s 740 1793 m 12 X s 746 1756 m -15 Y s 740 1741 m 12 X s 821 1602 m
 -32 X s 789 1596 m 11 Y s 844 1602 m 31 X s 875 1596 m 11 Y s 832 1613 m 17 Y s 827 1630 m 11 X s 832 1590 m -17 Y s 827 1573 m 11 X s 907 1758 m -32 X s 875 1752 m 12 Y s 930 1758 m 32 X s 962 1752 m 12 Y s 918 1769 m 15 Y s 913 1784 m 11 X s 918
 1747 m -17 Y s 913 1730 m 11 X s 993 1755 m -31 X s 962 1749 m 11 Y s 1016 1755 m 32 X s 1048 1749 m 11 Y s 1005 1766 m 14 Y s 999 1780 m 11 X s 1005 1743 m -15 Y s 999 1728 m 11 X s 1079 1590 m -31 X s 1048 1584 m 12 Y s 1102 1590 m 32 X s 1134
 1584 m 12 Y s 1091 1601 m 20 Y s 1085 1621 m 11 X s 1091 1579 m -21 Y s 1085 1558 m 11 X s 1166 1625 m -32 X s 1134 1620 m 11 Y s 1188 1625 m 32 X s 1220 1620 m 11 Y s 1177 1637 m 17 Y s 1171 1654 m 12 X s 1177 1614 m -18 Y s 1171 1596 m 12 X s 1252
 1683 m -32 X s 1220 1677 m 11 Y s 1274 1683 m 32 X s 1306 1677 m 11 Y s 1263 1694 m 15 Y s 1257 1709 m 12 X s 1263 1671 m -16 Y s 1257 1655 m 12 X s 1338 1721 m -32 X s 1306 1715 m 12 Y s 1361 1721 m 31 X s 1392 1715 m 12 Y s 1349 1732 m 16 Y s 1344
 1748 m 11 X s 1349 1710 m -17 Y s 1344 1693 m 11 X s 1424 1589 m -32 X s 1392 1583 m 12 Y s 1447 1589 m 32 X s 1479 1583 m 12 Y s 1435 1600 m 18 Y s 1430 1618 m 11 X s 1435 1577 m -17 Y s 1430 1560 m 11 X s 1510 1830 m -31 X s 1479 1824 m 11 Y s
 1533 1830 m 32 X s 1565 1824 m 11 Y s 1522 1841 m 13 Y s 1516 1854 m 11 X s 1522 1818 m -15 Y s 1516 1803 m 11 X s 1596 1948 m -31 X s 1565 1942 m 12 Y s 1619 1948 m 32 X s 1651 1942 m 12 Y s 1608 1959 m 9 Y s 1602 1968 m 11 X s 1608 1937 m -11 Y s
 1602 1926 m 11 X s 1683 1893 m -32 X s 1651 1887 m 12 Y s 1705 1893 m 32 X s 1737 1887 m 12 Y s 1694 1904 m 12 Y s 1688 1916 m 12 X s 1694 1881 m -14 Y s 1688 1867 m 12 X s 1769 1945 m -32 X s 1737 1939 m 12 Y s 1792 1945 m 31 X s 1823 1939 m 12 Y s
 1780 1957 m 10 Y s 1774 1967 m 12 X s 1780 1934 m -14 Y s 1774 1920 m 12 X s 1855 1960 m -32 X s 1823 1954 m 11 Y s 1878 1960 m 31 X s 1909 1954 m 11 Y s 1866 1971 m 11 Y s 1861 1982 m 11 X s 1866 1948 m -14 Y s 1861 1934 m 11 X s 1941 1895 m -32 X
 s 1909 1890 m 11 Y s 1964 1895 m 32 X s 1996 1890 m 11 Y s 1953 1907 m 22 Y s 1947 1929 m 11 X s 1953 1884 m -28 Y s 1947 1856 m 11 X s 0.95 0.95 0.95 c black 315 1876 401 1955 488 1975 574 1920 660 1962 746 1768 832 1602 918 1758 1005 1755 1091
 1590 1177 1625 1263 1683 1349 1721 1435 1589 1522 1830 1608 1948 1694 1893 1780 1945 1866 1960 1953 1895 20 { m20} R 1 1 1 c 453 263 454 1139 bf black
 gsave  2268 1315 0 876 C 659.286 1307.21 t 0 r /Helvetica findfont 96.745 sf 0 0 m ( data) show NC gr 
 gsave  2268 1315 0 876 C 622.343 1341.31 t 0 r /Helvetica findfont 65.4451 sf 0 0 m (+) show NC gr 
 gsave  2268 1315 0 876 C 565.508 1307.21 t 0 r /Symbol findfont 96.745 sf 0 0 m (m) show NC gr  510 1337 m20
 gsave  2268 1315 0 876 C 642.236 1176.48 t 0 r /Helvetica findfont 96.745 sf 0 0 m ( data) show NC gr 
 gsave  2268 1315 0 876 C 622.343 1221.95 t 0 r /Helvetica findfont 65.4451 sf 0 0 m (\255) show NC gr 
 gsave  2268 1315 0 876 C 565.508 1176.48 t 0 r /Symbol findfont 96.745 sf 0 0 m (m) show NC gr  1 0 0 c 510 1205 m24 black
 gsave  2268 1315 0 876 C 1358.36 1054.29 t 0 r /Helvetica-Bold findfont 65.4451 sf 0 0 m (\2551) show NC gr 
 gsave  2268 1315 0 876 C 556.983 1008.82 t 0 r /Helvetica-Bold findfont 99.5904 sf 0 0 m ( = 13 TeV, 22.1 fb) show NC gr 
 gsave  2268 1315 0 876 C 502.99 1008.82 t 0 r /Helvetica-Bold findfont 99.5904 sf 0 0 m (s) show NC gr  6 lw 472 1066 m 11 -60 d s 3 lw 483 1006 m 9 88 d s 492 1094 m 65 X s 1 1 1 c black 1 1 1 c 1724 593 272 293 bf black 1724 593 272 293 bl 1 1 1 c
 1724 593 272 293 bf black 1724 593 272 293 bl 1 1 1 c black 315 437 m 69 Y s 315 529 m 69 Y s 272 517 m 32 X s 327 517 m 31 X s 310 437 m 11 X s 310 598 m 11 X s 272 512 m 11 Y s 358 512 m 11 Y s /w 23 def /w2 {w 2 div} def /w3 {w 3 div} def 315 517
 m20 401 598 m 47 Y s 401 668 m 47 Y s 358 657 m 32 X s 413 657 m 31 X s 396 598 m 11 X s 396 715 m 11 X s 358 651 m 11 Y s 444 651 m 11 Y s 401 657 m20 488 572 m 34 Y s 488 629 m 33 Y s 444 617 m 32 X s 499 617 m 32 X s 482 572 m 11 X s 482 662 m 11
 X s 444 612 m 11 Y s 531 612 m 11 Y s 488 617 m20 574 533 m 36 Y s 574 592 m 36 Y s 531 581 m 31 X s 585 581 m 32 X s 568 533 m 11 X s 568 628 m 11 X s 531 575 m 11 Y s 617 575 m 11 Y s 574 581 m20 660 582 m 33 Y s 660 638 m 33 Y s 617 627 m 32 X s
 671 627 m 32 X s 654 582 m 12 X s 654 671 m 12 X s 617 621 m 11 Y s 703 621 m 11 Y s 660 627 m20 746 499 m 53 Y s 746 575 m 52 Y s 703 563 m 32 X s 757 563 m 32 X s 740 499 m 12 X s 740 627 m 12 X s 703 558 m 11 Y s 789 558 m 11 Y s 746 563 m20 832
 408 m 67 Y s 832 498 m 66 Y s 789 486 m 32 X s 844 486 m 31 X s 827 408 m 11 X s 827 564 m 11 X s 789 481 m 11 Y s 875 481 m 11 Y s 832 486 m20 918 732 m 74 Y s 918 829 m 57 Y s 875 817 m 32 X s 930 817 m 32 X s 913 732 m 11 X s 913 886 m 11 X s 875
 812 m 11 Y s 962 812 m 11 Y s 918 817 m20 1005 528 m 53 Y s 1005 604 m 53 Y s 962 592 m 31 X s 1016 592 m 32 X s 999 528 m 11 X s 999 657 m 11 X s 962 587 m 11 Y s 1048 587 m 11 Y s 1005 592 m20 1091 423 m 73 Y s 1091 519 m 73 Y s 1048 507 m 31 X s
 1102 507 m 32 X s 1085 423 m 11 X s 1085 592 m 11 X s 1048 502 m 11 Y s 1134 502 m 11 Y s 1091 507 m20 1177 444 m 69 Y s 1177 536 m 69 Y s 1134 525 m 32 X s 1188 525 m 32 X s 1171 444 m 12 X s 1171 605 m 12 X s 1134 519 m 11 Y s 1220 519 m 11 Y s
 1177 525 m20 1263 486 m 59 Y s 1263 568 m 58 Y s 1220 556 m 32 X s 1274 556 m 32 X s 1257 486 m 12 X s 1257 626 m 12 X s 1220 551 m 11 Y s 1306 551 m 11 Y s 1263 556 m20 1349 508 m 59 Y s 1349 589 m 59 Y s 1306 578 m 32 X s 1361 578 m 31 X s 1344
 508 m 11 X s 1344 648 m 11 X s 1306 572 m 12 Y s 1392 572 m 12 Y s 1349 578 m20 1435 466 m 75 Y s 1435 564 m 75 Y s 1392 552 m 32 X s 1447 552 m 32 X s 1430 466 m 11 X s 1430 639 m 11 X s 1392 547 m 11 Y s 1479 547 m 11 Y s 1435 552 m20 1522 575 m
 51 Y s 1522 649 m 51 Y s 1479 637 m 31 X s 1533 637 m 32 X s 1516 575 m 11 X s 1516 700 m 11 X s 1479 632 m 11 Y s 1565 632 m 11 Y s 1522 637 m20 1608 561 m 35 Y s 1608 619 m 35 Y s 1565 608 m 31 X s 1619 608 m 32 X s 1602 561 m 11 X s 1602 654 m 11
 X s 1565 602 m 11 Y s 1651 602 m 11 Y s 1608 608 m20 1694 530 m 41 Y s 1694 594 m 41 Y s 1651 583 m 32 X s 1705 583 m 32 X s 1688 530 m 12 X s 1688 635 m 12 X s 1651 577 m 11 Y s 1737 577 m 11 Y s 1694 583 m20 1780 541 m 39 Y s 1780 603 m 40 Y s
 1737 592 m 32 X s 1792 592 m 31 X s 1774 541 m 12 X s 1774 643 m 12 X s 1737 586 m 11 Y s 1823 586 m 11 Y s 1780 592 m20 1866 569 m 40 Y s 1866 632 m 40 Y s 1823 621 m 32 X s 1878 621 m 31 X s 1861 569 m 11 X s 1861 672 m 11 X s 1823 615 m 11 Y s
 1909 615 m 11 Y s 1866 621 m20 1953 293 m 317 Y s 1953 632 m 254 Y s 1909 621 m 32 X s 1964 621 m 32 X s 1947 293 m 11 X s 1947 886 m 11 X s 1909 615 m 12 Y s 1996 615 m 12 Y s 1953 621 m20 272 293 m 1724 X s 272 313 m -20 Y s 307 303 m -10 Y s 341
 303 m -10 Y s 376 303 m -10 Y s 410 303 m -10 Y s 444 313 m -20 Y s 479 303 m -10 Y s 513 303 m -10 Y s 548 303 m -10 Y s 582 303 m -10 Y s 617 313 m -20 Y s 651 303 m -10 Y s 686 303 m -10 Y s 720 303 m -10 Y s 755 303 m -10 Y s 789 313 m -20 Y s
 824 303 m -10 Y s 858 303 m -10 Y s 893 303 m -10 Y s 927 303 m -10 Y s 962 313 m -20 Y s 996 303 m -10 Y s 1030 303 m -10 Y s 1065 303 m -10 Y s 1099 303 m -10 Y s 1134 313 m -20 Y s 1168 303 m -10 Y s 1203 303 m -10 Y s 1237 303 m -10 Y s 1272 303
 m -10 Y s 1306 313 m -20 Y s 1341 303 m -10 Y s 1375 303 m -10 Y s 1410 303 m -10 Y s 1444 303 m -10 Y s 1479 313 m -20 Y s 1513 303 m -10 Y s 1547 303 m -10 Y s 1582 303 m -10 Y s 1616 303 m -10 Y s 1651 313 m -20 Y s 1685 303 m -10 Y s 1720 303 m
 -10 Y s 1754 303 m -10 Y s 1789 303 m -10 Y s 1823 313 m -20 Y s 1858 303 m -10 Y s 1892 303 m -10 Y s 1927 303 m -10 Y s 1961 303 m -10 Y s 1996 313 m -20 Y s
 gsave  2268 903 0 22 C 241.549 227.34 t 0 r /Helvetica findfont 65.4947 sf 0 0 m (2.5) show NC gr 
 gsave  2268 903 0 22 C 204.606 227.34 t 0 r /Symbol findfont 65.4947 sf 0 0 m (-) show NC gr 
 gsave  2268 903 0 22 C 443.313 227.34 t 0 r /Helvetica findfont 65.4947 sf 0 0 m (2) show NC gr 
 gsave  2268 903 0 22 C 406.37 227.34 t 0 r /Symbol findfont 65.4947 sf 0 0 m (-) show NC gr 
 gsave  2268 903 0 22 C 588.242 227.34 t 0 r /Helvetica findfont 65.4947 sf 0 0 m (1.5) show NC gr 
 gsave  2268 903 0 22 C 551.299 227.34 t 0 r /Symbol findfont 65.4947 sf 0 0 m (-) show NC gr 
 gsave  2268 903 0 22 C 790.007 227.34 t 0 r /Helvetica findfont 65.4947 sf 0 0 m (1) show NC gr 
 gsave  2268 903 0 22 C 755.906 227.34 t 0 r /Symbol findfont 65.4947 sf 0 0 m (-) show NC gr 
 gsave  2268 903 0 22 C 932.094 227.34 t 0 r /Helvetica findfont 65.4947 sf 0 0 m (0.5) show NC gr 
 gsave  2268 903 0 22 C 895.151 227.34 t 0 r /Symbol findfont 65.4947 sf 0 0 m (-) show NC gr 
 gsave  2268 903 0 22 C 1116.81 227.34 t 0 r /Helvetica findfont 65.4947 sf 0 0 m (0) show NC gr 
 gsave  2268 903 0 22 C 1258.9 227.34 t 0 r /Helvetica findfont 65.4947 sf 0 0 m (0.5) show NC gr 
 gsave  2268 903 0 22 C 1463.5 227.34 t 0 r /Helvetica findfont 65.4947 sf 0 0 m (1) show NC gr 
 gsave  2268 903 0 22 C 1602.75 227.34 t 0 r /Helvetica findfont 65.4947 sf 0 0 m (1.5) show NC gr 
 gsave  2268 903 0 22 C 1804.51 227.34 t 0 r /Helvetica findfont 65.4947 sf 0 0 m (2) show NC gr 
 gsave  2268 903 0 22 C 1949.44 227.34 t 0 r /Helvetica findfont 65.4947 sf 0 0 m (2.5) show NC gr 
 gsave  2268 903 0 22 C 1966.49 139.246 t 0 r /Symbol findfont 45.5615 sf 0 0 m (m) show NC gr 
 gsave  2268 903 0 22 C 1929.55 107.987 t 0 r /Symbol findfont 68.3423 sf 0 0 m (h) show NC gr  272 886 m 1724 X s 272 865 m 21 Y s 307 875 m 11 Y s 341 875 m 11 Y s 376 875 m 11 Y s 410 875 m 11 Y s 444 865 m 21 Y s 479 875 m 11 Y s 513 875 m 11 Y s
 548 875 m 11 Y s 582 875 m 11 Y s 617 865 m 21 Y s 651 875 m 11 Y s 686 875 m 11 Y s 720 875 m 11 Y s 755 875 m 11 Y s 789 865 m 21 Y s 824 875 m 11 Y s 858 875 m 11 Y s 893 875 m 11 Y s 927 875 m 11 Y s 962 865 m 21 Y s 996 875 m 11 Y s 1030 875 m
 11 Y s 1065 875 m 11 Y s 1099 875 m 11 Y s 1134 865 m 21 Y s 1168 875 m 11 Y s 1203 875 m 11 Y s 1237 875 m 11 Y s 1272 875 m 11 Y s 1306 865 m 21 Y s 1341 875 m 11 Y s 1375 875 m 11 Y s 1410 875 m 11 Y s 1444 875 m 11 Y s 1479 865 m 21 Y s 1513 875
 m 11 Y s 1547 875 m 11 Y s 1582 875 m 11 Y s 1616 875 m 11 Y s 1651 865 m 21 Y s 1685 875 m 11 Y s 1720 875 m 11 Y s 1754 875 m 11 Y s 1789 875 m 11 Y s 1823 865 m 21 Y s 1858 875 m 11 Y s 1892 875 m 11 Y s 1927 875 m 11 Y s 1961 875 m 11 Y s 1996
 865 m 21 Y s 272 293 m 593 Y s 317 293 m -45 X s 294 322 m -22 X s 294 352 m -22 X s 294 382 m -22 X s 294 411 m -22 X s 317 441 m -45 X s 294 471 m -22 X s 294 500 m -22 X s 294 530 m -22 X s 294 560 m -22 X s 317 589 m -45 X s 294 619 m -22 X s
 294 649 m -22 X s 294 678 m -22 X s 294 708 m -22 X s 317 738 m -45 X s 294 767 m -22 X s 294 797 m -22 X s 294 826 m -22 X s 294 856 m -22 X s 317 886 m -45 X s
 gsave  2268 903 0 22 C 156.296 269.966 t 0 r /Helvetica findfont 65.4947 sf 0 0 m (0.8) show NC gr 
 gsave  2268 903 0 22 C 159.138 417.737 t 0 r /Helvetica findfont 65.4947 sf 0 0 m (0.9) show NC gr 
 gsave  2268 903 0 22 C 221.657 565.508 t 0 r /Helvetica findfont 65.4947 sf 0 0 m (1) show NC gr 
 gsave  2268 903 0 22 C 167.663 713.279 t 0 r /Helvetica findfont 65.4947 sf 0 0 m (1.1) show NC gr 
 gsave  2268 903 0 22 C 159.138 861.05 t 0 r /Helvetica findfont 65.4947 sf 0 0 m (1.2) show NC gr 
 gsave  2268 903 0 22 C 65.3603 389.32 t 90 r /Helvetica findfont 68.3423 sf 0 0 m (Data+ / Data\255    ) show NC gr  1996 293 m 593 Y s 1951 293 m 45 X s 1973 322 m 23 X s 1973 352 m 23 X s 1973 382 m 23 X s 1973 411 m 23 X s 1951 441 m 45 X s 1973
 471 m 23 X s 1973 500 m 23 X s 1973 530 m 23 X s 1973 560 m 23 X s 1951 589 m 45 X s 1973 619 m 23 X s 1973 649 m 23 X s 1973 678 m 23 X s 1973 708 m 23 X s 1951 738 m 45 X s 1973 767 m 23 X s 1973 797 m 23 X s 1973 826 m 23 X s 1973 856 m 23 X s
 1951 886 m 45 X s 0 0 1 c[ 12 12] 0 sd 6 lw 272 589 m 1724 X s 272 589 m 1724 X s black[  ] 0 sd 3 lw 1 1 1 c black 315 437 m 69 Y s 315 529 m 69 Y s 272 517 m 32 X s 327 517 m 31 X s 310 437 m 11 X s 310 598 m 11 X s 272 512 m 11 Y s 358 512 m 11 Y
 s 315 517 m20 401 598 m 47 Y s 401 668 m 47 Y s 358 657 m 32 X s 413 657 m 31 X s 396 598 m 11 X s 396 715 m 11 X s 358 651 m 11 Y s 444 651 m 11 Y s 401 657 m20 488 572 m 34 Y s 488 629 m 33 Y s 444 617 m 32 X s 499 617 m 32 X s 482 572 m 11 X s
 482 662 m 11 X s 444 612 m 11 Y s 531 612 m 11 Y s 488 617 m20 574 533 m 36 Y s 574 592 m 36 Y s 531 581 m 31 X s 585 581 m 32 X s 568 533 m 11 X s 568 628 m 11 X s 531 575 m 11 Y s 617 575 m 11 Y s 574 581 m20 660 582 m 33 Y s 660 638 m 33 Y s 617
 627 m 32 X s 671 627 m 32 X s 654 582 m 12 X s 654 671 m 12 X s 617 621 m 11 Y s 703 621 m 11 Y s 660 627 m20 746 499 m 53 Y s 746 575 m 52 Y s 703 563 m 32 X s 757 563 m 32 X s 740 499 m 12 X s 740 627 m 12 X s 703 558 m 11 Y s 789 558 m 11 Y s 746
 563 m20 832 408 m 67 Y s 832 498 m 66 Y s 789 486 m 32 X s 844 486 m 31 X s 827 408 m 11 X s 827 564 m 11 X s 789 481 m 11 Y s 875 481 m 11 Y s 832 486 m20 918 732 m 74 Y s 918 829 m 57 Y s 875 817 m 32 X s 930 817 m 32 X s 913 732 m 11 X s 913 886
 m 11 X s 875 812 m 11 Y s 962 812 m 11 Y s 918 817 m20 1005 528 m 53 Y s 1005 604 m 53 Y s 962 592 m 31 X s 1016 592 m 32 X s 999 528 m 11 X s 999 657 m 11 X s 962 587 m 11 Y s 1048 587 m 11 Y s 1005 592 m20 1091 423 m 73 Y s 1091 519 m 73 Y s 1048
 507 m 31 X s 1102 507 m 32 X s 1085 423 m 11 X s 1085 592 m 11 X s 1048 502 m 11 Y s 1134 502 m 11 Y s 1091 507 m20 1177 444 m 69 Y s 1177 536 m 69 Y s 1134 525 m 32 X s 1188 525 m 32 X s 1171 444 m 12 X s 1171 605 m 12 X s 1134 519 m 11 Y s 1220
 519 m 11 Y s 1177 525 m20 1263 486 m 59 Y s 1263 568 m 58 Y s 1220 556 m 32 X s 1274 556 m 32 X s 1257 486 m 12 X s 1257 626 m 12 X s 1220 551 m 11 Y s 1306 551 m 11 Y s 1263 556 m20 1349 508 m 59 Y s 1349 589 m 59 Y s 1306 578 m 32 X s 1361 578 m
 31 X s 1344 508 m 11 X s 1344 648 m 11 X s 1306 572 m 12 Y s 1392 572 m 12 Y s 1349 578 m20 1435 466 m 75 Y s 1435 564 m 75 Y s 1392 552 m 32 X s 1447 552 m 32 X s 1430 466 m 11 X s 1430 639 m 11 X s 1392 547 m 11 Y s 1479 547 m 11 Y s 1435 552 m20
 1522 575 m 51 Y s 1522 649 m 51 Y s 1479 637 m 31 X s 1533 637 m 32 X s 1516 575 m 11 X s 1516 700 m 11 X s 1479 632 m 11 Y s 1565 632 m 11 Y s 1522 637 m20 1608 561 m 35 Y s 1608 619 m 35 Y s 1565 608 m 31 X s 1619 608 m 32 X s 1602 561 m 11 X s
 1602 654 m 11 X s 1565 602 m 11 Y s 1651 602 m 11 Y s 1608 608 m20 1694 530 m 41 Y s 1694 594 m 41 Y s 1651 583 m 32 X s 1705 583 m 32 X s 1688 530 m 12 X s 1688 635 m 12 X s 1651 577 m 11 Y s 1737 577 m 11 Y s 1694 583 m20 1780 541 m 39 Y s 1780
 603 m 40 Y s 1737 592 m 32 X s 1792 592 m 31 X s 1774 541 m 12 X s 1774 643 m 12 X s 1737 586 m 11 Y s 1823 586 m 11 Y s 1780 592 m20 1866 569 m 40 Y s 1866 632 m 40 Y s 1823 621 m 32 X s 1878 621 m 31 X s 1861 569 m 11 X s 1861 672 m 11 X s 1823
 615 m 11 Y s 1909 615 m 11 Y s 1866 621 m20 1953 293 m 317 Y s 1953 632 m 254 Y s 1909 621 m 32 X s 1964 621 m 32 X s 1947 293 m 11 X s 1947 886 m 11 X s 1909 615 m 12 Y s 1996 615 m 12 Y s 1953 621 m20
 gr  gr showpage
end
%%EOF
