%!PS-Adobe-2.0 EPSF-2.0
%%BoundingBox:  0 0 567 274
%%Title: /home/petr/Analysis_iwona/SFAnalysis/eps/Triger_barrel.eps: Results
%%Creator: ROOT Version 6.16/00
%%CreationDate: Thu May  9 11:26:35 2019
%%DocumentNeededResources: ProcSet (FontSetInit)
%%EndComments
%%BeginProlog
80 dict begin
/s {stroke} def /l {lineto} def /m {moveto} def /t {translate} def
/r {rotate} def /rl {roll}  def /R {repeat} def
/d {rlineto} def /rm {rmoveto} def /gr {grestore} def /f {eofill} def
/c {setrgbcolor} def /black {0 setgray} def /sd {setdash} def
/cl {closepath} def /sf {scalefont setfont} def /lw {setlinewidth} def
/box {m dup 0 exch d exch 0 d 0 exch neg d cl} def
/NC{systemdict begin initclip end}def/C{NC box clip newpath}def
/bl {box s} def /bf {gsave box gsave f grestore 1 lw [] 0 sd s grestore} def /Y { 0 exch d} def /X { 0 d} def 
/K {{pop pop 0 moveto} exch kshow} bind def
/ita {/ang 15 def gsave [1 0 ang dup sin exch cos div 1 0 0] concat} def 
/mp {newpath /y exch def /x exch def} def
/side {[w .77 mul w .23 mul] .385 w mul sd w 0 l currentpoint t -144 r} def
/mr {mp x y w2 0 360 arc} def /m24 {mr s} def /m20 {mr f} def
/mb {mp x y w2 add m w2 neg 0 d 0 w neg d w 0 d 0 w d cl} def
/mt {mp x y w2 add m w2 neg w neg d w 0 d cl} def
/w4 {w 4 div} def
/w6 {w 6 div} def
/w8 {w 8 div} def
/m21 {mb f} def /m25 {mb s} def /m22 {mt f} def /m26{mt s} def
/m23 {mp x y w2 sub m w2 w d w neg 0 d cl f} def
/m27 {mp x y w2 add m w3 neg w2 neg d w3 w2 neg d w3 w2 d cl s} def
/m28 {mp x w2 sub y w2 sub w3 add m w3 0 d  0 w3 neg d w3 0 d 0 w3 d w3 0 d  0 w3 d w3 neg 0 d 0 w3 d w3 neg 0 d 0 w3 neg d w3 neg 0 d cl s } def
/m29 {mp gsave x w2 sub y w2 add w3 sub m currentpoint t 4 {side} repeat cl fill gr} def
/m30 {mp gsave x w2 sub y w2 add w3 sub m currentpoint t 4 {side} repeat cl s gr} def
/m31 {mp x y w2 sub m 0 w d x w2 sub y m w 0 d x w2 sub y w2 add m w w neg d x w2 sub y w2 sub m w w d s} def
/m32 {mp x y w2 sub m w2 w d w neg 0 d cl s} def
/m33 {mp x y w2 add m w3 neg w2 neg d w3 w2 neg d w3 w2 d cl f} def
/m34 {mp x w2 sub y w2 sub w3 add m w3 0 d  0 w3 neg d w3 0 d 0 w3 d w3 0 d  0 w3 d w3 neg 0 d 0 w3 d w3 neg 0 d 0 w3 neg d w3 neg 0 d cl f } def
/m35 {mp x y w2 add m w2 neg w2 neg d w2 w2 neg d w2 w2 d w2 neg w2 d x y w2 sub m 0 w d x w2 sub y m w 0 d s} def
/m36 {mb x w2 sub y w2 add m w w neg d x w2 sub y w2 sub m w w d s} def
/m37 {mp x y m w4 neg w2 d w4 neg w2 neg d w2 0 d  w4 neg w2 neg d w2 0 d w4 neg w2 d w2 0 d w4 neg w2 d w4 neg w2 neg d cl s} def
/m38 {mp x w4 sub y w2 add m w4 neg w4 neg d 0 w2 neg d w4 w4 neg d w2 0 d w4 w4 d 0 w2 d w4 neg w4 d w2 neg 0 d x y w2 sub m 0 w d x w2 sub y m w 0 d cl s} def
/m39 {mp x y m w4 neg w2 d w4 neg w2 neg d w2 0 d  w4 neg w2 neg d w2 0 d w4 neg w2 d w2 0 d w4 neg w2 d w4 neg w2 neg d cl f} def
/m40 {mp x y m w4 w2 d w4 w4 neg d w2 neg w4 neg d w2 w4 neg d w4 neg w4 neg d w4 neg w2 d w4 neg w2 neg d w4 neg w4 d w2 w4 d w2 neg w4 d w4 w4 d w4 w2 neg d cl s} def
/m41 {mp x y m w4 w2 d w4 w4 neg d w2 neg w4 neg d w2 w4 neg d w4 neg w4 neg d w4 neg w2 d w4 neg w2 neg d w4 neg w4 d w2 w4 d w2 neg w4 d w4 w4 d w4 w2 neg d cl f} def
/m42 {mp x y w2 add m w8 neg w2 -3 4 div mul d w2 -3 4 div mul w8 neg d w2 3 4 div mul w8 neg d w8 w2 -3 4 div mul d w8 w2 3 4 div mul d w2 3 4 div mul w8 d w2 -3 4 div mul w8 d w8 neg w2 3 4 div mul d cl s} def
/m43 {mp x y w2 add m w8 neg w2 -3 4 div mul d w2 -3 4 div mul w8 neg d w2 3 4 div mul w8 neg d w8 w2 -3 4 div mul d w8 w2 3 4 div mul d w2 3 4 div mul w8 d w2 -3 4 div mul w8 d w8 neg w2 3 4 div mul d cl f} def
/m44 {mp x y m w6 neg w2 d w2 2 3 div mul 0 d w6 neg w2 neg d w2 w6 d 0 w2 -2 3 div mul d w2 neg w6 d w6 w2 neg d w2 -2 3 div mul 0 d w6 w2 d w2 neg w6 neg d 0 w2 2 3 div mul d w2 w6 neg d cl s} def
/m45 {mp x y m w6 neg w2 d w2 2 3 div mul 0 d w6 neg w2 neg d w2 w6 d 0 w2 -2 3 div mul d w2 neg w6 d w6 w2 neg d w2 -2 3 div mul 0 d w6 w2 d w2 neg w6 neg d 0 w2 2 3 div mul d w2 w6 neg d cl f} def
/m46 {mp x y w4 add m w4 neg w4 d w4 neg w4 neg d  w4 w4 neg d w4 neg w4 neg d w4 w4 neg d w4 w4 d w4 w4 neg d w4 w4 d w4 neg w4 d w4 w4 d w4 neg w4 d w4 neg w4 neg d cl s} def
/m47 {mp x y w4 add m w4 neg w4 d w4 neg w4 neg d w4 w4 neg d w4 neg w4 neg d  w4 w4 neg d w4 w4 d w4 w4 neg d w4 w4 d w4 neg w4 d w4 w4 d w4 neg w4 d w4 neg w4 neg d cl f} def
/m48 {mp x y w4 add m w4 neg w4 d w4 neg w4 neg d w4 w4 neg d  w4 neg w4 neg d w4 w4 neg d w4 w4 d w4 w4 neg d w4 w4 d w4 neg w4 d w4 w4 d w4 neg w4 d w4 neg w4 neg d  w4 w4 neg d w4 neg w4 neg d w4 neg w4 d w4 w4 d cl f} def
/m49 {mp x w2 sub w3 add y w2 sub w3 add m  0 w3 neg d w3 0 d 0 w3 d w3 0 d 0 w3 d w3 neg 0 d 0 w3 d w3 neg 0 d 0 w3 neg d w3 neg 0 d 0 w3 neg d w3 0 d 0 w3 d w3 0 d 0 w3 neg d w3 neg 0 d cl f } def
/m2 {mp x y w2 sub m 0 w d x w2 sub y m w 0 d s} def
/m5 {mp x w2 sub y w2 sub m w w d x w2 sub y w2 add m w w neg d s} def
%%IncludeResource: ProcSet (FontSetInit)
%%IncludeResource: font Times-Roman
%%IncludeResource: font Times-Italic
%%IncludeResource: font Times-Bold
%%IncludeResource: font Times-BoldItalic
%%IncludeResource: font Helvetica
%%IncludeResource: font Helvetica-Oblique
%%IncludeResource: font Helvetica-Bold
%%IncludeResource: font Helvetica-BoldOblique
%%IncludeResource: font Courier
%%IncludeResource: font Courier-Oblique
%%IncludeResource: font Courier-Bold
%%IncludeResource: font Courier-BoldOblique
%%IncludeResource: font Symbol
%%IncludeResource: font ZapfDingbats
/reEncode {exch findfont dup length dict begin {1 index /FID eq  {pop pop} {def} ifelse } forall /Encoding exch def currentdict end dup /FontName get exch definefont pop } def [/Times-Bold /Times-Italic /Times-BoldItalic /Helvetica /Helvetica-Oblique
 /Helvetica-Bold /Helvetica-BoldOblique /Courier /Courier-Oblique /Courier-Bold /Courier-BoldOblique /Times-Roman /AvantGarde-Book /AvantGarde-BookOblique /AvantGarde-Demi /AvantGarde-DemiOblique /Bookman-Demi /Bookman-DemiItalic /Bookman-Light
 /Bookman-LightItalic /Helvetica-Narrow /Helvetica-Narrow-Bold /Helvetica-Narrow-BoldOblique /Helvetica-Narrow-Oblique /NewCenturySchlbk-Roman /NewCenturySchlbk-Bold /NewCenturySchlbk-BoldItalic /NewCenturySchlbk-Italic /Palatino-Bold
 /Palatino-BoldItalic /Palatino-Italic /Palatino-Roman ] {ISOLatin1Encoding reEncode } forall
%%EndProlog
%%BeginSetup
%%EndSetup
newpath  gsave  .25 .25 scale  gsave  0 0 t black[  ] 0 sd 3 lw 1 1 1 c 2268 1094 0 0 bf black 1 1 1 c 1088 1072 23 11 bf black 1 1 1 c 828 858 153 118 bf black 828 858 153 118 bl 1 1 1 c 828 858 153 118 bf black 828 858 153 118 bl 1 0 0 c 1 1 1 c 1
 0 0 c 174 333 m 13 Y s 174 357 m 9 Y s 167 352 m 1 X s 180 352 m 1 X s 171 333 m 6 X s 171 366 m 6 X s 167 349 m 6 Y s 181 349 m 6 Y s /w 12 def /w2 {w 2 div} def /w3 {w 3 div} def 174 352 m20 188 346 m 11 Y s 188 369 m 7 Y s 181 363 m 1 X s 193 363
 m 2 X s 185 346 m 6 X s 185 376 m 6 X s 181 360 m 6 Y s 195 360 m 6 Y s 188 363 m20 202 377 m 8 Y s 202 396 m 5 Y s 195 390 m 1 X s 207 390 m 1 X s 199 377 m 5 X s 199 401 m 5 X s 195 388 m 5 Y s 208 388 m 5 Y s 202 390 m20 215 379 m 8 Y s 215 398 m
 5 Y s 208 393 m 2 X s 221 393 m 1 X s 213 379 m 5 X s 213 403 m 5 X s 208 390 m 5 Y s 222 390 m 5 Y s 215 393 m20 229 379 m 8 Y s 229 398 m 5 Y s 222 393 m 1 X s 235 393 m 1 X s 226 379 m 6 X s 226 403 m 6 X s 222 390 m 5 Y s 236 390 m 5 Y s 229 393
 m20 243 395 m 6 Y s 243 412 m 4 Y s 236 406 m 1 X s 249 406 m 1 X s 240 395 m 6 X s 240 416 m 6 X s 236 403 m 6 Y s 250 403 m 6 Y s 243 406 m20 257 391 m 6 Y s 257 408 m 5 Y s 250 403 m 1 X s 262 403 m 2 X s 254 391 m 6 X s 254 413 m 6 X s 250 400 m
 5 Y s 264 400 m 5 Y s 257 403 m20 270 386 m 7 Y s 270 404 m 5 Y s 264 399 m 1 X s 276 399 m 1 X s 268 386 m 5 X s 268 409 m 5 X s 264 396 m 6 Y s 277 396 m 6 Y s 270 399 m20 284 408 m 5 Y s 284 425 m 3 Y s 277 419 m 2 X s 290 419 m 1 X s 281 408 m 6
 X s 281 428 m 6 X s 277 416 m 6 Y s 291 416 m 6 Y s 284 419 m20 298 402 m 5 Y s 298 419 m 3 Y s 291 413 m 1 X s 304 413 m 1 X s 295 402 m 6 X s 295 422 m 6 X s 291 410 m 6 Y s 305 410 m 6 Y s 298 413 m20 312 412 m 4 Y s 312 427 m 4 Y s 305 422 m 1 X
 s 318 422 m 1 X s 309 412 m 6 X s 309 431 m 6 X s 305 419 m 6 Y s 319 419 m 6 Y s 312 422 m20 326 427 m 4 Y s 326 442 m 2 Y s 319 437 m 1 X s 331 437 m 2 X s 323 427 m 5 X s 323 444 m 5 X s 319 434 m 5 Y s 333 434 m 5 Y s 326 437 m20 339 426 m 4 Y s
 339 441 m 2 Y s 333 435 m 1 X s 345 435 m 1 X s 337 426 m 5 X s 337 443 m 5 X s 333 433 m 5 Y s 346 433 m 5 Y s 339 435 m20 353 435 m 3 Y s 353 450 m 1 Y s 346 444 m 2 X s 359 444 m 1 X s 350 435 m 6 X s 350 451 m 6 X s 346 441 m 6 Y s 360 441 m 6 Y
 s 353 444 m20 367 419 m 4 Y s 367 434 m 3 Y s 360 428 m 1 X s 373 428 m 1 X s 364 419 m 6 X s 364 437 m 6 X s 360 425 m 6 Y s 374 425 m 6 Y s 367 428 m20 381 449 m 2 Y s 381 462 m 1 Y s 374 456 m 1 X s 386 456 m 2 X s 378 449 m 6 X s 378 463 m 6 X s
 374 453 m 6 Y s 388 453 m 6 Y s 381 456 m20 395 435 m 3 Y s 395 450 m 1 Y s 388 444 m 1 X s 400 444 m 1 X s 392 435 m 5 X s 392 451 m 5 X s 388 441 m 6 Y s 401 441 m 6 Y s 395 444 m20 408 469 m 1 Y s 408 482 m s 401 476 m 2 X s 414 476 m 1 X s 406
 469 m 5 X s 406 482 m 5 X s 401 473 m 6 Y s 415 473 m 6 Y s 408 476 m20 422 475 m 1 Y s 422 487 m s 415 482 m 1 X s 428 482 m 1 X s 419 475 m 6 X s 419 487 m 6 X s 415 479 m 5 Y s 429 479 m 5 Y s 422 482 m20 436 481 m s 429 487 m 1 X s 442 487 m 1 X
 s 433 481 m 6 X s 429 484 m 6 Y s 443 484 m 6 Y s 436 487 m20 443 503 m 1 X s 455 503 m 2 X s 443 501 m 5 Y s 457 501 m 5 Y s 450 503 m20 457 517 m 1 X s 469 517 m 1 X s 457 514 m 6 Y s 470 514 m 6 Y s 464 517 m20 470 529 m 2 X s 483 529 m 1 X s 470
 526 m 6 Y s 484 526 m 6 Y s 477 529 m20 484 542 m 1 X s 497 542 m 1 X s 484 539 m 6 Y s 498 539 m 6 Y s 491 542 m20 498 568 m 1 X s 511 568 m 1 X s 498 565 m 6 Y s 512 565 m 6 Y s 505 568 m20 512 591 m 1 X s 524 591 m 2 X s 512 588 m 6 Y s 526 588 m
 6 Y s 519 591 m20 526 617 m 1 X s 538 617 m 1 X s 526 614 m 6 Y s 539 614 m 6 Y s 532 617 m20 539 644 m 2 X s 552 644 m 1 X s 539 641 m 6 Y s 553 641 m 6 Y s 546 644 m20 553 666 m 1 X s 566 666 m 1 X s 553 663 m 6 Y s 567 663 m 6 Y s 560 666 m20 567
 677 m 1 X s 579 677 m 2 X s 567 674 m 5 Y s 581 674 m 5 Y s 574 677 m20 581 674 m 1 X s 593 674 m 2 X s 581 671 m 6 Y s 595 671 m 6 Y s 588 674 m20 595 659 m 1 X s 607 659 m 1 X s 595 657 m 5 Y s 608 657 m 5 Y s 601 659 m20 608 635 m 2 X s 621 635 m
 1 X s 608 632 m 6 Y s 622 632 m 6 Y s 615 635 m20 622 604 m 1 X s 635 604 m 1 X s 622 601 m 6 Y s 636 601 m 6 Y s 629 604 m20 636 572 m 1 X s 648 572 m 2 X s 636 570 m 5 Y s 650 570 m 5 Y s 643 572 m20 650 534 m 1 X s 662 534 m 1 X s 650 531 m 6 Y s
 663 531 m 6 Y s 657 534 m20 663 509 m 2 X s 676 509 m 1 X s 663 506 m 6 Y s 677 506 m 6 Y s 670 509 m20 684 488 m s 677 494 m 1 X s 690 494 m 1 X s 681 488 m 6 X s 677 491 m 5 Y s 691 491 m 5 Y s 684 494 m20 698 475 m s 698 487 m s 691 481 m 1 X s
 704 481 m 1 X s 695 475 m 6 X s 695 487 m 6 X s 691 478 m 6 Y s 705 478 m 6 Y s 698 481 m20 712 454 m 1 Y s 712 467 m 1 Y s 705 461 m 1 X s 717 461 m 2 X s 709 454 m 6 X s 709 468 m 6 X s 705 458 m 6 Y s 719 458 m 6 Y s 712 461 m20 725 442 m 3 Y s
 725 456 m 2 Y s 719 450 m 1 X s 731 450 m 1 X s 723 442 m 5 X s 723 458 m 5 X s 719 448 m 5 Y s 732 448 m 5 Y s 725 450 m20 739 395 m 6 Y s 739 412 m 4 Y s 732 406 m 2 X s 745 406 m 1 X s 736 395 m 6 X s 736 416 m 6 X s 732 403 m 6 Y s 746 403 m 6 Y
 s 739 406 m20 753 398 m 6 Y s 753 415 m 4 Y s 746 410 m 1 X s 759 410 m 1 X s 750 398 m 6 X s 750 419 m 6 X s 746 407 m 5 Y s 760 407 m 5 Y s 753 410 m20 767 379 m 8 Y s 767 398 m 5 Y s 760 393 m 1 X s 773 393 m 1 X s 764 379 m 6 X s 764 403 m 6 X s
 760 390 m 5 Y s 774 390 m 5 Y s 767 393 m20 781 391 m 6 Y s 781 408 m 5 Y s 774 403 m 1 X s 786 403 m 2 X s 778 391 m 5 X s 778 413 m 5 X s 774 400 m 5 Y s 788 400 m 5 Y s 781 403 m20 794 379 m 8 Y s 794 398 m 5 Y s 788 393 m 1 X s 800 393 m 1 X s
 792 379 m 5 X s 792 403 m 5 X s 788 390 m 5 Y s 801 390 m 5 Y s 794 393 m20 808 342 m 12 Y s 808 365 m 8 Y s 801 359 m 2 X s 814 359 m 1 X s 805 342 m 6 X s 805 373 m 6 X s 801 357 m 5 Y s 815 357 m 5 Y s 808 359 m20 822 372 m 8 Y s 822 391 m 6 Y s
 815 386 m 1 X s 828 386 m 1 X s 819 372 m 6 X s 819 397 m 6 X s 815 383 m 6 Y s 829 383 m 6 Y s 822 386 m20 836 353 m 11 Y s 836 375 m 7 Y s 829 369 m 1 X s 841 369 m 2 X s 833 353 m 6 X s 833 382 m 6 X s 829 367 m 5 Y s 843 367 m 5 Y s 836 369 m20
 850 323 m 14 Y s 850 349 m 9 Y s 843 343 m 1 X s 855 343 m 1 X s 847 323 m 5 X s 847 358 m 5 X s 843 340 m 6 Y s 856 340 m 6 Y s 850 343 m20 863 357 m 10 Y s 863 378 m 7 Y s 856 372 m 2 X s 869 372 m 1 X s 861 357 m 5 X s 861 385 m 5 X s 856 370 m 5
 Y s 870 370 m 5 Y s 863 372 m20 877 288 m 21 Y s 877 320 m 13 Y s 870 314 m 1 X s 883 314 m 1 X s 874 288 m 6 X s 874 333 m 6 X s 870 311 m 6 Y s 884 311 m 6 Y s 877 314 m20 891 338 m 12 Y s 891 361 m 9 Y s 884 356 m 1 X s 897 356 m 1 X s 888 338 m
 6 X s 888 370 m 6 X s 884 353 m 5 Y s 898 353 m 5 Y s 891 356 m20 905 304 m 18 Y s 905 333 m 11 Y s 898 327 m 1 X s 910 327 m 2 X s 902 304 m 6 X s 902 344 m 6 X s 898 325 m 5 Y s 912 325 m 5 Y s 905 327 m20 919 328 m 14 Y s 919 353 m 9 Y s 912 348
 m 1 X s 924 348 m 1 X s 916 328 m 5 X s 916 362 m 5 X s 912 345 m 5 Y s 925 345 m 5 Y s 919 348 m20 932 323 m 14 Y s 932 349 m 9 Y s 925 343 m 2 X s 938 343 m 1 X s 929 323 m 6 X s 929 358 m 6 X s 925 340 m 6 Y s 939 340 m 6 Y s 932 343 m20 946 338
 m 12 Y s 946 361 m 9 Y s 939 356 m 1 X s 952 356 m 1 X s 943 338 m 6 X s 943 370 m 6 X s 939 353 m 5 Y s 953 353 m 5 Y s 946 356 m20 960 267 m 25 Y s 960 304 m 15 Y s 953 298 m 1 X s 966 298 m 1 X s 957 267 m 6 X s 957 319 m 6 X s 953 295 m 6 Y s
 967 295 m 6 Y s 960 298 m20 974 304 m 18 Y s 974 333 m 11 Y s 967 327 m 1 X s 979 327 m 2 X s 971 304 m 6 X s 971 344 m 6 X s 967 325 m 5 Y s 981 325 m 5 Y s 974 327 m20 black 153 118 m 828 X s 153 143 m -25 Y s 181 130 m -12 Y s 208 130 m -12 Y s
 236 130 m -12 Y s 264 130 m -12 Y s 291 143 m -25 Y s 319 130 m -12 Y s 346 130 m -12 Y s 374 130 m -12 Y s 401 130 m -12 Y s 429 143 m -25 Y s 457 130 m -12 Y s 484 130 m -12 Y s 512 130 m -12 Y s 539 130 m -12 Y s 567 143 m -25 Y s 595 130 m -12 Y
 s 622 130 m -12 Y s 650 130 m -12 Y s 677 130 m -12 Y s 705 143 m -25 Y s 732 130 m -12 Y s 760 130 m -12 Y s 788 130 m -12 Y s 815 130 m -12 Y s 843 143 m -25 Y s 870 130 m -12 Y s 898 130 m -12 Y s 925 130 m -12 Y s 953 130 m -12 Y s 981 143 m -25
 Y s
 gsave  1088 1072 23 11 C 133.395 83.7267 t 0 r /Helvetica findfont 35.5047 sf 0 0 m (60) show NC gr 
 gsave  1088 1072 23 11 C 271.047 83.7267 t 0 r /Helvetica findfont 35.5047 sf 0 0 m (70) show NC gr 
 gsave  1088 1072 23 11 C 408.7 83.7267 t 0 r /Helvetica findfont 35.5047 sf 0 0 m (80) show NC gr 
 gsave  1088 1072 23 11 C 546.352 83.7267 t 0 r /Helvetica findfont 35.5047 sf 0 0 m (90) show NC gr 
 gsave  1088 1072 23 11 C 674.071 83.7267 t 0 r /Helvetica findfont 35.5047 sf 0 0 m (100) show NC gr 
 gsave  1088 1072 23 11 C 811.723 83.7267 t 0 r /Helvetica findfont 35.5047 sf 0 0 m (110) show NC gr 
 gsave  1088 1072 23 11 C 949.376 83.7267 t 0 r /Helvetica findfont 35.5047 sf 0 0 m (120) show NC gr 
 gsave  1088 1072 23 11 C 852.877 32.6392 t 0 r /Helvetica findfont 45.446 sf 0 0 m ( [GeV]) show NC gr 
 gsave  1088 1072 23 11 C 835.848 24.1246 t 0 r /Symbol findfont 29.8239 sf 0 0 m (m) show NC gr 
 gsave  1088 1072 23 11 C 818.819 24.1246 t 0 r /Symbol findfont 29.8239 sf 0 0 m (m) show NC gr 
 gsave  1088 1072 23 11 C 783.341 32.6392 t 0 r /Helvetica findfont 45.446 sf 0 0 m (M) show NC gr  153 118 m 858 Y s 166 118 m -13 X s 166 145 m -13 X s 166 163 m -13 X s 166 178 m -13 X s 166 190 m -13 X s 166 200 m -13 X s 166 208 m -13 X s 166
 216 m -13 X s 179 223 m -26 X s
 gsave  1088 1072 23 11 C 131.976 210.026 t 0 r /Helvetica findfont 32.6643 sf 0 0 m (1) show NC gr  166 268 m -13 X s 166 294 m -13 X s 166 313 m -13 X s 166 327 m -13 X s 166 339 m -13 X s 166 349 m -13 X s 166 358 m -13 X s 166 366 m -13 X s 179
 372 m -26 X s
 gsave  1088 1072 23 11 C 109.27 360.451 t 0 r /Helvetica findfont 32.6643 sf 0 0 m (10) show NC gr  166 418 m -13 X s 166 444 m -13 X s 166 463 m -13 X s 166 477 m -13 X s 166 489 m -13 X s 166 499 m -13 X s 166 508 m -13 X s 166 515 m -13 X s 179
 522 m -26 X s
 gsave  1088 1072 23 11 C 131.976 520.808 t 0 r /Helvetica findfont 22.723 sf 0 0 m (2) show NC gr 
 gsave  1088 1072 23 11 C 96.4986 506.618 t 0 r /Helvetica findfont 32.6643 sf 0 0 m (10) show NC gr  166 567 m -13 X s 166 594 m -13 X s 166 612 m -13 X s 166 627 m -13 X s 166 639 m -13 X s 166 649 m -13 X s 166 657 m -13 X s 166 665 m -13 X s 179
 672 m -26 X s
 gsave  1088 1072 23 11 C 131.976 672.652 t 0 r /Helvetica findfont 22.723 sf 0 0 m (3) show NC gr 
 gsave  1088 1072 23 11 C 96.4986 657.042 t 0 r /Helvetica findfont 32.6643 sf 0 0 m (10) show NC gr  166 717 m -13 X s 166 743 m -13 X s 166 762 m -13 X s 166 777 m -13 X s 166 788 m -13 X s 166 798 m -13 X s 166 807 m -13 X s 166 815 m -13 X s 179
 822 m -26 X s
 gsave  1088 1072 23 11 C 131.976 820.238 t 0 r /Helvetica findfont 22.723 sf 0 0 m (4) show NC gr 
 gsave  1088 1072 23 11 C 96.4986 806.047 t 0 r /Helvetica findfont 32.6643 sf 0 0 m (10) show NC gr  166 867 m -13 X s 166 893 m -13 X s 166 912 m -13 X s 166 926 m -13 X s 166 938 m -13 X s 166 948 m -13 X s 166 957 m -13 X s 166 964 m -13 X s 179
 971 m -26 X s
 gsave  1088 1072 23 11 C 131.976 972.081 t 0 r /Helvetica findfont 22.723 sf 0 0 m (5) show NC gr 
 gsave  1088 1072 23 11 C 96.4986 956.471 t 0 r /Helvetica findfont 32.6643 sf 0 0 m (10) show NC gr 
 gsave  1088 1072 23 11 C 69.5357 557.705 t 90 r /Helvetica findfont 45.446 sf 0 0 m (Entries / NormFactor) show NC gr  1 0 0 c 1 1 1 c 1 0 0 c 202 118 m 172 Y s 202 301 m 40 Y s 195 296 m 1 X s 207 296 m 1 X s 199 118 m 5 X s 199 341 m 5 X s 195 293
 m 6 Y s 208 293 m 6 Y s 202 296 m24 215 118 m 172 Y s 215 301 m 40 Y s 208 296 m 2 X s 221 296 m 1 X s 213 118 m 5 X s 213 341 m 5 X s 208 293 m 6 Y s 222 293 m 6 Y s 215 296 m24 243 118 m 172 Y s 243 301 m 40 Y s 236 296 m 1 X s 249 296 m 1 X s 240
 118 m 6 X s 240 341 m 6 X s 236 293 m 6 Y s 250 293 m 6 Y s 243 296 m24 257 118 m 172 Y s 257 301 m 40 Y s 250 296 m 1 X s 262 296 m 2 X s 254 118 m 6 X s 254 341 m 6 X s 250 293 m 6 Y s 264 293 m 6 Y s 257 296 m24 270 118 m 172 Y s 270 301 m 40 Y s
 264 296 m 1 X s 276 296 m 1 X s 268 118 m 5 X s 268 341 m 5 X s 264 293 m 6 Y s 277 293 m 6 Y s 270 296 m24 284 118 m 172 Y s 284 301 m 40 Y s 277 296 m 2 X s 290 296 m 1 X s 281 118 m 6 X s 281 341 m 6 X s 277 293 m 6 Y s 291 293 m 6 Y s 284 296
 m24 298 118 m 172 Y s 298 301 m 40 Y s 291 296 m 1 X s 304 296 m 1 X s 295 118 m 6 X s 295 341 m 6 X s 291 293 m 6 Y s 305 293 m 6 Y s 298 296 m24 312 118 m 172 Y s 312 301 m 40 Y s 305 296 m 1 X s 318 296 m 1 X s 309 118 m 6 X s 309 341 m 6 X s 305
 293 m 6 Y s 319 293 m 6 Y s 312 296 m24 367 118 m 172 Y s 367 301 m 40 Y s 360 296 m 1 X s 373 296 m 1 X s 364 118 m 6 X s 364 341 m 6 X s 360 293 m 6 Y s 374 293 m 6 Y s 367 296 m24 450 118 m 172 Y s 450 301 m 40 Y s 443 296 m 1 X s 455 296 m 2 X s
 447 118 m 6 X s 447 341 m 6 X s 443 293 m 6 Y s 457 293 m 6 Y s 450 296 m24 560 118 m 172 Y s 560 301 m 40 Y s 553 296 m 1 X s 566 296 m 1 X s 557 118 m 6 X s 557 341 m 6 X s 553 293 m 6 Y s 567 293 m 6 Y s 560 296 m24 808 261 m 74 Y s 808 346 m 30
 Y s 801 341 m 2 X s 814 341 m 1 X s 805 261 m 6 X s 805 376 m 6 X s 801 338 m 6 Y s 815 338 m 6 Y s 808 341 m24 822 118 m 172 Y s 822 301 m 40 Y s 815 296 m 1 X s 828 296 m 1 X s 819 118 m 6 X s 819 341 m 6 X s 815 293 m 6 Y s 829 293 m 6 Y s 822
 296 m24 black 1 1 1 c black 174 368 m 16 Y s 174 395 m 10 Y s 167 390 m 1 X s 180 390 m 1 X s 171 368 m 6 X s 171 405 m 6 X s 167 387 m 5 Y s 181 387 m 5 Y s 174 390 m20 188 411 m 10 Y s 188 432 m 7 Y s 181 427 m 1 X s 193 427 m 2 X s 185 411 m 6 X
 s 185 439 m 6 X s 181 424 m 5 Y s 195 424 m 5 Y s 188 427 m20 202 393 m 12 Y s 202 416 m 8 Y s 195 411 m 1 X s 207 411 m 1 X s 199 393 m 5 X s 199 424 m 5 X s 195 408 m 6 Y s 208 408 m 6 Y s 202 411 m20 215 393 m 12 Y s 215 416 m 8 Y s 208 411 m 2 X
 s 221 411 m 1 X s 213 393 m 5 X s 213 424 m 5 X s 208 408 m 6 Y s 222 408 m 6 Y s 215 411 m20 229 384 m 13 Y s 229 409 m 9 Y s 222 403 m 1 X s 235 403 m 1 X s 226 384 m 6 X s 226 418 m 6 X s 222 400 m 6 Y s 236 400 m 6 Y s 229 403 m20 243 408 m 10 Y
 s 243 429 m 7 Y s 236 424 m 1 X s 249 424 m 1 X s 240 408 m 6 X s 240 436 m 6 X s 236 421 m 6 Y s 250 421 m 6 Y s 243 424 m20 257 408 m 10 Y s 257 429 m 7 Y s 250 424 m 1 X s 262 424 m 2 X s 254 408 m 6 X s 254 436 m 6 X s 250 421 m 6 Y s 264 421 m
 6 Y s 257 424 m20 270 355 m 18 Y s 270 384 m 12 Y s 264 379 m 1 X s 276 379 m 1 X s 268 355 m 5 X s 268 396 m 5 X s 264 376 m 6 Y s 277 376 m 6 Y s 270 379 m20 284 418 m 8 Y s 284 438 m 6 Y s 277 432 m 2 X s 290 432 m 1 X s 281 418 m 6 X s 281 444 m
 6 X s 277 429 m 6 Y s 291 429 m 6 Y s 284 432 m20 298 368 m 16 Y s 298 395 m 10 Y s 291 390 m 1 X s 304 390 m 1 X s 295 368 m 6 X s 295 405 m 6 X s 291 387 m 5 Y s 305 387 m 5 Y s 298 390 m20 312 418 m 8 Y s 312 438 m 6 Y s 305 432 m 1 X s 318 432 m
 1 X s 309 418 m 6 X s 309 444 m 6 X s 305 429 m 6 Y s 319 429 m 6 Y s 312 432 m20 326 428 m 8 Y s 326 447 m 6 Y s 319 442 m 1 X s 331 442 m 2 X s 323 428 m 5 X s 323 453 m 5 X s 319 439 m 6 Y s 333 439 m 6 Y s 326 442 m20 339 428 m 8 Y s 339 447 m 6
 Y s 333 442 m 1 X s 345 442 m 1 X s 337 428 m 5 X s 337 453 m 5 X s 333 439 m 6 Y s 346 439 m 6 Y s 339 442 m20 353 440 m 6 Y s 353 458 m 4 Y s 346 452 m 2 X s 359 452 m 1 X s 350 440 m 6 X s 350 462 m 6 X s 346 449 m 6 Y s 360 449 m 6 Y s 353 452
 m20 367 440 m 6 Y s 367 458 m 4 Y s 360 452 m 1 X s 373 452 m 1 X s 364 440 m 6 X s 364 462 m 6 X s 360 449 m 6 Y s 374 449 m 6 Y s 367 452 m20 381 440 m 6 Y s 381 458 m 4 Y s 374 452 m 1 X s 386 452 m 2 X s 378 440 m 6 X s 378 462 m 6 X s 374 449 m
 6 Y s 388 449 m 6 Y s 381 452 m20 395 458 m 5 Y s 395 474 m 4 Y s 388 469 m 1 X s 400 469 m 1 X s 392 458 m 5 X s 392 478 m 5 X s 388 466 m 6 Y s 401 466 m 6 Y s 395 469 m20 408 476 m 4 Y s 408 491 m 3 Y s 401 486 m 2 X s 414 486 m 1 X s 406 476 m 5
 X s 406 494 m 5 X s 401 483 m 5 Y s 415 483 m 5 Y s 408 486 m20 422 470 m 4 Y s 422 485 m 3 Y s 415 480 m 1 X s 428 480 m 1 X s 419 470 m 6 X s 419 488 m 6 X s 415 477 m 6 Y s 429 477 m 6 Y s 422 480 m20 436 455 m 5 Y s 436 471 m 4 Y s 429 466 m 1 X
 s 442 466 m 1 X s 433 455 m 6 X s 433 475 m 6 X s 429 463 m 6 Y s 443 463 m 6 Y s 436 466 m20 450 490 m 2 Y s 450 504 m 1 Y s 443 498 m 1 X s 455 498 m 2 X s 447 490 m 6 X s 447 505 m 6 X s 443 495 m 6 Y s 457 495 m 6 Y s 450 498 m20 464 498 m 2 Y s
 464 512 m 1 Y s 457 506 m 1 X s 469 506 m 1 X s 461 498 m 5 X s 461 513 m 5 X s 457 503 m 6 Y s 470 503 m 6 Y s 464 506 m20 477 526 m 1 Y s 477 538 m s 470 532 m 2 X s 483 532 m 1 X s 474 526 m 6 X s 474 538 m 6 X s 470 530 m 5 Y s 484 530 m 5 Y s
 477 532 m20 484 549 m 1 X s 497 549 m 1 X s 484 547 m 5 Y s 498 547 m 5 Y s 491 549 m20 498 576 m 1 X s 511 576 m 1 X s 498 573 m 6 Y s 512 573 m 6 Y s 505 576 m20 512 587 m 1 X s 524 587 m 2 X s 512 584 m 6 Y s 526 584 m 6 Y s 519 587 m20 526 619 m
 1 X s 538 619 m 1 X s 526 616 m 6 Y s 539 616 m 6 Y s 532 619 m20 539 640 m 2 X s 552 640 m 1 X s 539 637 m 5 Y s 553 637 m 5 Y s 546 640 m20 553 662 m 1 X s 566 662 m 1 X s 553 660 m 5 Y s 567 660 m 5 Y s 560 662 m20 567 676 m 1 X s 579 676 m 2 X s
 567 673 m 6 Y s 581 673 m 6 Y s 574 676 m20 581 675 m 1 X s 593 675 m 2 X s 581 672 m 6 Y s 595 672 m 6 Y s 588 675 m20 595 658 m 1 X s 607 658 m 1 X s 595 655 m 6 Y s 608 655 m 6 Y s 601 658 m20 608 630 m 2 X s 621 630 m 1 X s 608 627 m 6 Y s 622
 627 m 6 Y s 615 630 m20 622 602 m 1 X s 635 602 m 1 X s 622 599 m 6 Y s 636 599 m 6 Y s 629 602 m20 636 568 m 1 X s 648 568 m 2 X s 636 565 m 5 Y s 650 565 m 5 Y s 643 568 m20 657 525 m 1 Y s 657 537 m s 650 531 m 1 X s 662 531 m 1 X s 654 525 m 5 X
 s 654 537 m 5 X s 650 528 m 6 Y s 663 528 m 6 Y s 657 531 m20 670 507 m 2 Y s 670 520 m 1 Y s 663 515 m 2 X s 676 515 m 1 X s 667 507 m 6 X s 667 521 m 6 X s 663 512 m 5 Y s 677 512 m 5 Y s 670 515 m20 684 499 m 2 Y s 684 513 m 1 Y s 677 507 m 1 X s
 690 507 m 1 X s 681 499 m 6 X s 681 514 m 6 X s 677 504 m 6 Y s 691 504 m 6 Y s 684 507 m20 698 481 m 3 Y s 698 496 m 2 Y s 691 490 m 1 X s 704 490 m 1 X s 695 481 m 6 X s 695 498 m 6 X s 691 487 m 6 Y s 705 487 m 6 Y s 698 490 m20 712 448 m 6 Y s
 712 465 m 4 Y s 705 459 m 1 X s 717 459 m 2 X s 709 448 m 6 X s 709 469 m 6 X s 705 456 m 6 Y s 719 456 m 6 Y s 712 459 m20 725 448 m 6 Y s 725 465 m 4 Y s 719 459 m 1 X s 731 459 m 1 X s 723 448 m 5 X s 723 469 m 5 X s 719 456 m 6 Y s 732 456 m 6 Y
 s 725 459 m20 739 433 m 7 Y s 739 452 m 5 Y s 732 446 m 2 X s 745 446 m 1 X s 736 433 m 6 X s 736 457 m 6 X s 732 443 m 6 Y s 746 443 m 6 Y s 739 446 m20 753 433 m 7 Y s 753 452 m 5 Y s 746 446 m 1 X s 759 446 m 1 X s 750 433 m 6 X s 750 457 m 6 X s
 746 443 m 6 Y s 760 443 m 6 Y s 753 446 m20 767 411 m 10 Y s 767 432 m 7 Y s 760 427 m 1 X s 773 427 m 1 X s 764 411 m 6 X s 764 439 m 6 X s 760 424 m 5 Y s 774 424 m 5 Y s 767 427 m20 781 379 m 14 Y s 781 405 m 9 Y s 774 399 m 1 X s 786 399 m 2 X s
 778 379 m 5 X s 778 414 m 5 X s 774 396 m 6 Y s 788 396 m 6 Y s 781 399 m20 794 379 m 14 Y s 794 405 m 9 Y s 788 399 m 1 X s 800 399 m 1 X s 792 379 m 5 X s 792 414 m 5 X s 788 396 m 6 Y s 801 396 m 6 Y s 794 399 m20 808 238 m 51 Y s 808 300 m 24 Y
 s 801 294 m 2 X s 814 294 m 1 X s 805 238 m 6 X s 805 324 m 6 X s 801 291 m 6 Y s 815 291 m 6 Y s 808 294 m20 822 374 m 15 Y s 822 400 m 10 Y s 815 394 m 1 X s 828 394 m 1 X s 819 374 m 6 X s 819 410 m 6 X s 815 392 m 5 Y s 829 392 m 5 Y s 822 394
 m20 836 305 m 29 Y s 836 345 m 17 Y s 829 339 m 1 X s 841 339 m 2 X s 833 305 m 6 X s 833 362 m 6 X s 829 336 m 6 Y s 843 336 m 6 Y s 836 339 m20 850 348 m 19 Y s 850 378 m 12 Y s 843 372 m 1 X s 855 372 m 1 X s 847 348 m 5 X s 847 390 m 5 X s 843
 370 m 5 Y s 856 370 m 5 Y s 850 372 m20 863 348 m 19 Y s 863 378 m 12 Y s 856 372 m 2 X s 869 372 m 1 X s 861 348 m 5 X s 861 390 m 5 X s 856 370 m 5 Y s 870 370 m 5 Y s 863 372 m20 877 318 m 26 Y s 877 355 m 15 Y s 870 349 m 1 X s 883 349 m 1 X s
 874 318 m 6 X s 874 370 m 6 X s 870 346 m 6 Y s 884 346 m 6 Y s 877 349 m20 891 305 m 29 Y s 891 345 m 17 Y s 884 339 m 1 X s 897 339 m 1 X s 888 305 m 6 X s 888 362 m 6 X s 884 336 m 6 Y s 898 336 m 6 Y s 891 339 m20 905 362 m 17 Y s 905 390 m 11 Y
 s 898 384 m 1 X s 910 384 m 2 X s 902 362 m 6 X s 902 401 m 6 X s 898 382 m 5 Y s 912 382 m 5 Y s 905 384 m20 919 374 m 15 Y s 919 400 m 10 Y s 912 394 m 1 X s 924 394 m 1 X s 916 374 m 5 X s 916 410 m 5 X s 912 392 m 5 Y s 925 392 m 5 Y s 919 394
 m20 932 318 m 26 Y s 932 355 m 15 Y s 925 349 m 2 X s 938 349 m 1 X s 929 318 m 6 X s 929 370 m 6 X s 925 346 m 6 Y s 939 346 m 6 Y s 932 349 m20 946 355 m 18 Y s 946 384 m 12 Y s 939 379 m 1 X s 952 379 m 1 X s 943 355 m 6 X s 943 396 m 6 X s 939
 376 m 6 Y s 953 376 m 6 Y s 946 379 m20 960 318 m 26 Y s 960 355 m 15 Y s 953 349 m 1 X s 966 349 m 1 X s 957 318 m 6 X s 957 370 m 6 X s 953 346 m 6 Y s 967 346 m 6 Y s 960 349 m20 974 289 m 33 Y s 974 333 m 18 Y s 967 327 m 1 X s 979 327 m 2 X s
 971 289 m 6 X s 971 351 m 6 X s 967 325 m 5 Y s 981 325 m 5 Y s 974 327 m20 1 1 1 c black 174 238 m 51 Y s 174 300 m 24 Y s 167 294 m 1 X s 180 294 m 1 X s 171 238 m 6 X s 171 324 m 6 X s 167 291 m 6 Y s 181 291 m 6 Y s 174 294 m24 188 118 m 99 Y s
 188 228 m 40 Y s 181 223 m 1 X s 193 223 m 2 X s 185 118 m 6 X s 185 268 m 6 X s 181 220 m 6 Y s 195 220 m 6 Y s 188 223 m24 202 118 m 99 Y s 202 228 m 40 Y s 195 223 m 1 X s 207 223 m 1 X s 199 118 m 5 X s 199 268 m 5 X s 195 220 m 6 Y s 208 220 m
 6 Y s 202 223 m24 215 289 m 33 Y s 215 333 m 18 Y s 208 327 m 2 X s 221 327 m 1 X s 213 289 m 5 X s 213 351 m 5 X s 208 325 m 5 Y s 222 325 m 5 Y s 215 327 m24 257 238 m 51 Y s 257 300 m 24 Y s 250 294 m 1 X s 262 294 m 2 X s 254 238 m 6 X s 254 324
 m 6 X s 250 291 m 6 Y s 264 291 m 6 Y s 257 294 m24 270 188 m 74 Y s 270 274 m 29 Y s 264 268 m 1 X s 276 268 m 1 X s 268 188 m 5 X s 268 303 m 5 X s 264 265 m 6 Y s 277 265 m 6 Y s 270 268 m24 284 188 m 74 Y s 284 274 m 29 Y s 277 268 m 2 X s 290
 268 m 1 X s 281 188 m 6 X s 281 303 m 6 X s 277 265 m 6 Y s 291 265 m 6 Y s 284 268 m24 298 188 m 74 Y s 298 274 m 29 Y s 291 268 m 1 X s 304 268 m 1 X s 295 188 m 6 X s 295 303 m 6 X s 291 265 m 6 Y s 305 265 m 6 Y s 298 268 m24 326 188 m 74 Y s
 326 274 m 29 Y s 319 268 m 1 X s 331 268 m 2 X s 323 188 m 5 X s 323 303 m 5 X s 319 265 m 6 Y s 333 265 m 6 Y s 326 268 m24 367 118 m 99 Y s 367 228 m 40 Y s 360 223 m 1 X s 373 223 m 1 X s 364 118 m 6 X s 364 268 m 6 X s 360 220 m 6 Y s 374 220 m
 6 Y s 367 223 m24 381 188 m 74 Y s 381 274 m 29 Y s 374 268 m 1 X s 386 268 m 2 X s 378 188 m 6 X s 378 303 m 6 X s 374 265 m 6 Y s 388 265 m 6 Y s 381 268 m24 395 118 m 99 Y s 395 228 m 40 Y s 388 223 m 1 X s 400 223 m 1 X s 392 118 m 5 X s 392 268
 m 5 X s 388 220 m 6 Y s 401 220 m 6 Y s 395 223 m24 408 188 m 74 Y s 408 274 m 29 Y s 401 268 m 2 X s 414 268 m 1 X s 406 188 m 5 X s 406 303 m 5 X s 401 265 m 6 Y s 415 265 m 6 Y s 408 268 m24 422 188 m 74 Y s 422 274 m 29 Y s 415 268 m 1 X s 428
 268 m 1 X s 419 188 m 6 X s 419 303 m 6 X s 415 265 m 6 Y s 429 265 m 6 Y s 422 268 m24 436 238 m 51 Y s 436 300 m 24 Y s 429 294 m 1 X s 442 294 m 1 X s 433 238 m 6 X s 433 324 m 6 X s 429 291 m 6 Y s 443 291 m 6 Y s 436 294 m24 450 118 m 99 Y s
 450 228 m 40 Y s 443 223 m 1 X s 455 223 m 2 X s 447 118 m 6 X s 447 268 m 6 X s 443 220 m 6 Y s 457 220 m 6 Y s 450 223 m24 477 118 m 99 Y s 477 228 m 40 Y s 470 223 m 2 X s 483 223 m 1 X s 474 118 m 6 X s 474 268 m 6 X s 470 220 m 6 Y s 484 220 m
 6 Y s 477 223 m24 491 118 m 99 Y s 491 228 m 40 Y s 484 223 m 1 X s 497 223 m 1 X s 488 118 m 6 X s 488 268 m 6 X s 484 220 m 6 Y s 498 220 m 6 Y s 491 223 m24 519 118 m 99 Y s 519 228 m 40 Y s 512 223 m 1 X s 524 223 m 2 X s 516 118 m 6 X s 516 268
 m 6 X s 512 220 m 6 Y s 526 220 m 6 Y s 519 223 m24 560 188 m 74 Y s 560 274 m 29 Y s 553 268 m 1 X s 566 268 m 1 X s 557 188 m 6 X s 557 303 m 6 X s 553 265 m 6 Y s 567 265 m 6 Y s 560 268 m24 615 118 m 99 Y s 615 228 m 40 Y s 608 223 m 2 X s 621
 223 m 1 X s 612 118 m 6 X s 612 268 m 6 X s 608 220 m 6 Y s 622 220 m 6 Y s 615 223 m24 698 118 m 99 Y s 698 228 m 40 Y s 691 223 m 1 X s 704 223 m 1 X s 695 118 m 6 X s 695 268 m 6 X s 691 220 m 6 Y s 705 220 m 6 Y s 698 223 m24 753 118 m 99 Y s
 753 228 m 40 Y s 746 223 m 1 X s 759 223 m 1 X s 750 118 m 6 X s 750 268 m 6 X s 746 220 m 6 Y s 760 220 m 6 Y s 753 223 m24 946 118 m 99 Y s 946 228 m 40 Y s 939 223 m 1 X s 952 223 m 1 X s 943 118 m 6 X s 943 268 m 6 X s 939 220 m 6 Y s 953 220 m
 6 Y s 946 223 m24 960 118 m 99 Y s 960 228 m 40 Y s 953 223 m 1 X s 966 223 m 1 X s 957 118 m 6 X s 957 268 m 6 X s 953 220 m 6 Y s 967 220 m 6 Y s 960 223 m24 0 0 1 c[ 12 12] 0 sd 6 lw 443 118 m 514 Y s 719 118 m 514 Y s black[  ] 0 sd 3 lw 1 1 1 c
 272 268 186 654 bf black
 gsave  1088 1072 23 11 C 252.599 874.164 t 0 r /Helvetica findfont 39.7652 sf 0 0 m (OC data: 7240) show NC gr  220 889 m20
 gsave  1088 1072 23 11 C 252.599 807.466 t 0 r /Helvetica findfont 39.7652 sf 0 0 m (SC data: 8) show NC gr  220 822 m24
 gsave  1088 1072 23 11 C 252.599 740.768 t 0 r /Helvetica findfont 39.7652 sf 0 0 m (OC MC: 16213) show NC gr  1 0 0 c 220 755 m20 black
 gsave  1088 1072 23 11 C 252.599 674.071 t 0 r /Helvetica findfont 39.7652 sf 0 0 m (SC MC: 2) show NC gr  1 0 0 c 220 688 m24 black
 gsave  1088 1072 23 11 C 566.22 901.126 t 0 r /Helvetica-Bold findfont 59.6478 sf 0 0 m (pp collisions) show NC gr  1 1 1 c 1088 1072 1157 11 bf black 1 1 1 c 827 858 1287 118 bf black 827 858 1287 118 bl 1 1 1 c 827 858 1287 118 bf black 827 858
 1287 118 bl 1 0 0 c 1 1 1 c 1 0 0 c 1308 199 m 23 Y s 1308 233 m 12 Y s 1301 228 m 1 X s 1314 228 m 1 X s 1305 199 m 6 X s 1305 245 m 6 X s 1301 225 m 5 Y s 1315 225 m 5 Y s 1308 228 m20 1322 266 m 9 Y s 1322 286 m 6 Y s 1315 280 m 1 X s 1327 280 m
 2 X s 1319 266 m 5 X s 1319 292 m 5 X s 1315 278 m 5 Y s 1329 278 m 5 Y s 1322 280 m20 1335 270 m 8 Y s 1335 289 m 5 Y s 1329 284 m 1 X s 1341 284 m 1 X s 1333 270 m 5 X s 1333 294 m 5 X s 1329 281 m 5 Y s 1342 281 m 5 Y s 1335 284 m20 1349 276 m 8
 Y s 1349 295 m 4 Y s 1342 289 m 2 X s 1355 289 m 1 X s 1346 276 m 6 X s 1346 299 m 6 X s 1342 286 m 6 Y s 1356 286 m 6 Y s 1349 289 m20 1363 266 m 9 Y s 1363 286 m 6 Y s 1356 280 m 1 X s 1369 280 m 1 X s 1360 266 m 6 X s 1360 292 m 6 X s 1356 278 m
 5 Y s 1370 278 m 5 Y s 1363 280 m20 1377 282 m 7 Y s 1377 300 m 4 Y s 1370 294 m 1 X s 1382 294 m 2 X s 1374 282 m 6 X s 1374 304 m 6 X s 1370 292 m 5 Y s 1384 292 m 5 Y s 1377 294 m20 1391 294 m 5 Y s 1391 311 m 3 Y s 1384 305 m 1 X s 1396 305 m 1
 X s 1388 294 m 5 X s 1388 314 m 5 X s 1384 302 m 6 Y s 1397 302 m 6 Y s 1391 305 m20 1404 273 m 8 Y s 1404 292 m 5 Y s 1397 287 m 2 X s 1410 287 m 1 X s 1402 273 m 5 X s 1402 297 m 5 X s 1397 284 m 5 Y s 1411 284 m 5 Y s 1404 287 m20 1418 304 m 4 Y
 s 1418 320 m 2 Y s 1411 314 m 1 X s 1424 314 m 1 X s 1415 304 m 6 X s 1415 322 m 6 X s 1411 311 m 6 Y s 1425 311 m 6 Y s 1418 314 m20 1432 294 m 5 Y s 1432 311 m 3 Y s 1425 305 m 1 X s 1438 305 m 1 X s 1429 294 m 6 X s 1429 314 m 6 X s 1425 302 m 6
 Y s 1439 302 m 6 Y s 1432 305 m20 1446 312 m 4 Y s 1446 327 m 2 Y s 1439 321 m 1 X s 1451 321 m 2 X s 1443 312 m 6 X s 1443 329 m 6 X s 1439 318 m 6 Y s 1453 318 m 6 Y s 1446 321 m20 1460 309 m 4 Y s 1460 324 m 2 Y s 1453 318 m 1 X s 1465 318 m 1 X
 s 1457 309 m 5 X s 1457 326 m 5 X s 1453 316 m 5 Y s 1466 316 m 5 Y s 1460 318 m20 1473 315 m 3 Y s 1473 330 m 1 Y s 1466 324 m 2 X s 1479 324 m 1 X s 1470 315 m 6 X s 1470 331 m 6 X s 1466 321 m 6 Y s 1480 321 m 6 Y s 1473 324 m20 1487 331 m 2 Y s
 1487 344 m 1 Y s 1480 339 m 1 X s 1493 339 m 1 X s 1484 331 m 6 X s 1484 345 m 6 X s 1480 336 m 5 Y s 1494 336 m 5 Y s 1487 339 m20 1501 317 m 3 Y s 1501 331 m 2 Y s 1494 325 m 1 X s 1507 325 m 1 X s 1498 317 m 6 X s 1498 333 m 6 X s 1494 322 m 6 Y
 s 1508 322 m 6 Y s 1501 325 m20 1515 339 m 1 Y s 1515 351 m 1 Y s 1508 346 m 1 X s 1520 346 m 2 X s 1512 339 m 5 X s 1512 352 m 5 X s 1508 343 m 5 Y s 1522 343 m 5 Y s 1515 346 m20 1528 323 m 3 Y s 1528 337 m 1 Y s 1522 331 m 1 X s 1534 331 m 1 X s
 1526 323 m 5 X s 1526 338 m 5 X s 1522 328 m 6 Y s 1535 328 m 6 Y s 1528 331 m20 1542 348 m s 1535 354 m 2 X s 1548 354 m 1 X s 1539 348 m 6 X s 1535 351 m 6 Y s 1549 351 m 6 Y s 1542 354 m20 1549 368 m 1 X s 1562 368 m 1 X s 1549 365 m 6 Y s 1563
 365 m 6 Y s 1556 368 m20 1563 362 m 1 X s 1575 362 m 2 X s 1563 359 m 6 Y s 1577 359 m 6 Y s 1570 362 m20 1577 374 m 1 X s 1589 374 m 1 X s 1577 371 m 6 Y s 1590 371 m 6 Y s 1584 374 m20 1590 389 m 2 X s 1603 389 m 1 X s 1590 386 m 6 Y s 1604 386 m
 6 Y s 1597 389 m20 1604 399 m 1 X s 1617 399 m 1 X s 1604 396 m 6 Y s 1618 396 m 6 Y s 1611 399 m20 1618 409 m 1 X s 1631 409 m 1 X s 1618 406 m 5 Y s 1632 406 m 5 Y s 1625 409 m20 1632 425 m 1 X s 1644 425 m 2 X s 1632 422 m 6 Y s 1646 422 m 6 Y s
 1639 425 m20 1646 446 m 1 X s 1658 446 m 1 X s 1646 444 m 5 Y s 1659 444 m 5 Y s 1653 446 m20 1659 465 m 2 X s 1672 465 m 1 X s 1659 462 m 6 Y s 1673 462 m 6 Y s 1666 465 m20 1673 486 m 1 X s 1686 486 m 1 X s 1673 483 m 5 Y s 1687 483 m 5 Y s 1680
 486 m20 1687 501 m 1 X s 1700 501 m 1 X s 1687 498 m 6 Y s 1701 498 m 6 Y s 1694 501 m20 1701 509 m 1 X s 1713 509 m 2 X s 1701 507 m 5 Y s 1715 507 m 5 Y s 1708 509 m20 1715 507 m 1 X s 1727 507 m 1 X s 1715 504 m 5 Y s 1728 504 m 5 Y s 1721 507
 m20 1728 496 m 2 X s 1741 496 m 1 X s 1728 493 m 6 Y s 1742 493 m 6 Y s 1735 496 m20 1742 479 m 1 X s 1755 479 m 1 X s 1742 476 m 6 Y s 1756 476 m 6 Y s 1749 479 m20 1756 455 m 1 X s 1769 455 m 1 X s 1756 452 m 6 Y s 1770 452 m 6 Y s 1763 455 m20
 1770 432 m 1 X s 1782 432 m 2 X s 1770 429 m 6 Y s 1784 429 m 6 Y s 1777 432 m20 1784 402 m 1 X s 1796 402 m 1 X s 1784 399 m 6 Y s 1797 399 m 6 Y s 1790 402 m20 1797 385 m 2 X s 1810 385 m 1 X s 1797 382 m 5 Y s 1811 382 m 5 Y s 1804 385 m20 1811
 375 m 1 X s 1824 375 m 1 X s 1811 372 m 6 Y s 1825 372 m 6 Y s 1818 375 m20 1825 365 m 1 X s 1837 365 m 2 X s 1825 362 m 6 Y s 1839 362 m 6 Y s 1832 365 m20 1846 345 m s 1839 351 m 1 X s 1851 351 m 1 X s 1843 345 m 5 X s 1839 348 m 6 Y s 1852 348 m
 6 Y s 1846 351 m20 1859 333 m 2 Y s 1859 346 m 1 Y s 1852 340 m 2 X s 1865 340 m 1 X s 1857 333 m 5 X s 1857 347 m 5 X s 1852 338 m 5 Y s 1866 338 m 5 Y s 1859 340 m20 1873 302 m 5 Y s 1873 318 m 2 Y s 1866 312 m 1 X s 1879 312 m 1 X s 1870 302 m 6
 X s 1870 320 m 6 X s 1866 309 m 6 Y s 1880 309 m 6 Y s 1873 312 m20 1887 302 m 5 Y s 1887 318 m 2 Y s 1880 312 m 1 X s 1893 312 m 1 X s 1884 302 m 6 X s 1884 320 m 6 X s 1880 309 m 6 Y s 1894 309 m 6 Y s 1887 312 m20 1901 279 m 7 Y s 1901 298 m 4 Y
 s 1894 292 m 1 X s 1906 292 m 2 X s 1898 279 m 6 X s 1898 302 m 6 X s 1894 289 m 6 Y s 1908 289 m 6 Y s 1901 292 m20 1914 299 m 4 Y s 1914 314 m 3 Y s 1908 309 m 1 X s 1920 309 m 1 X s 1912 299 m 5 X s 1912 317 m 5 X s 1908 306 m 6 Y s 1921 306 m 6
 Y s 1914 309 m20 1928 285 m 6 Y s 1928 302 m 4 Y s 1921 297 m 2 X s 1934 297 m 1 X s 1925 285 m 6 X s 1925 306 m 6 X s 1921 294 m 6 Y s 1935 294 m 6 Y s 1928 297 m20 1942 243 m 12 Y s 1942 267 m 7 Y s 1935 261 m 1 X s 1948 261 m 1 X s 1939 243 m 6 X
 s 1939 274 m 6 X s 1935 258 m 6 Y s 1949 258 m 6 Y s 1942 261 m20 1956 290 m 5 Y s 1956 307 m 3 Y s 1949 301 m 1 X s 1962 301 m 1 X s 1953 290 m 6 X s 1953 310 m 6 X s 1949 298 m 6 Y s 1963 298 m 6 Y s 1956 301 m20 1970 248 m 12 Y s 1970 271 m 7 Y s
 1963 266 m 1 X s 1975 266 m 2 X s 1967 248 m 5 X s 1967 278 m 5 X s 1963 263 m 5 Y s 1977 263 m 5 Y s 1970 266 m20 1983 253 m 11 Y s 1983 275 m 7 Y s 1977 270 m 1 X s 1989 270 m 1 X s 1981 253 m 5 X s 1981 282 m 5 X s 1977 267 m 6 Y s 1990 267 m 6 Y
 s 1983 270 m20 1997 276 m 8 Y s 1997 295 m 4 Y s 1990 289 m 2 X s 2003 289 m 1 X s 1994 276 m 6 X s 1994 299 m 6 X s 1990 286 m 6 Y s 2004 286 m 6 Y s 1997 289 m20 2011 229 m 16 Y s 2011 256 m 9 Y s 2004 250 m 1 X s 2017 250 m 1 X s 2008 229 m 6 X s
 2008 265 m 6 X s 2004 247 m 6 Y s 2018 247 m 6 Y s 2011 250 m20 2025 270 m 8 Y s 2025 289 m 5 Y s 2018 284 m 1 X s 2030 284 m 2 X s 2022 270 m 6 X s 2022 294 m 6 X s 2018 281 m 5 Y s 2032 281 m 5 Y s 2025 284 m20 2039 211 m 20 Y s 2039 242 m 11 Y s
 2032 236 m 1 X s 2044 236 m 1 X s 2036 211 m 5 X s 2036 253 m 5 X s 2032 233 m 6 Y s 2045 233 m 6 Y s 2039 236 m20 2052 258 m 10 Y s 2052 279 m 6 Y s 2045 274 m 2 X s 2058 274 m 1 X s 2050 258 m 5 X s 2050 285 m 5 X s 2045 271 m 5 Y s 2059 271 m 5 Y
 s 2052 274 m20 2066 243 m 12 Y s 2066 267 m 7 Y s 2059 261 m 1 X s 2072 261 m 1 X s 2063 243 m 6 X s 2063 274 m 6 X s 2059 258 m 6 Y s 2073 258 m 6 Y s 2066 261 m20 2080 266 m 9 Y s 2080 286 m 6 Y s 2073 280 m 1 X s 2086 280 m 1 X s 2077 266 m 6 X s
 2077 292 m 6 X s 2073 278 m 5 Y s 2087 278 m 5 Y s 2080 280 m20 2094 221 m 17 Y s 2094 249 m 10 Y s 2087 244 m 1 X s 2099 244 m 2 X s 2091 221 m 6 X s 2091 259 m 6 X s 2087 241 m 6 Y s 2101 241 m 6 Y s 2094 244 m20 2108 248 m 12 Y s 2108 271 m 7 Y s
 2101 266 m 1 X s 2113 266 m 1 X s 2105 248 m 5 X s 2105 278 m 5 X s 2101 263 m 5 Y s 2114 263 m 5 Y s 2108 266 m20 black 1287 118 m 827 X s 1287 143 m -25 Y s 1315 130 m -12 Y s 1342 130 m -12 Y s 1370 130 m -12 Y s 1397 130 m -12 Y s 1425 143 m -25
 Y s 1453 130 m -12 Y s 1480 130 m -12 Y s 1508 130 m -12 Y s 1535 130 m -12 Y s 1563 143 m -25 Y s 1590 130 m -12 Y s 1618 130 m -12 Y s 1646 130 m -12 Y s 1673 130 m -12 Y s 1701 143 m -25 Y s 1728 130 m -12 Y s 1756 130 m -12 Y s 1784 130 m -12 Y
 s 1811 130 m -12 Y s 1839 143 m -25 Y s 1866 130 m -12 Y s 1894 130 m -12 Y s 1921 130 m -12 Y s 1949 130 m -12 Y s 1977 143 m -25 Y s 2004 130 m -12 Y s 2032 130 m -12 Y s 2059 130 m -12 Y s 2087 130 m -12 Y s 2114 143 m -25 Y s
 gsave  1088 1072 1157 11 C 1267.25 83.7267 t 0 r /Helvetica findfont 35.5047 sf 0 0 m (60) show NC gr 
 gsave  1088 1072 1157 11 C 1404.91 83.7267 t 0 r /Helvetica findfont 35.5047 sf 0 0 m (70) show NC gr 
 gsave  1088 1072 1157 11 C 1542.56 83.7267 t 0 r /Helvetica findfont 35.5047 sf 0 0 m (80) show NC gr 
 gsave  1088 1072 1157 11 C 1680.21 83.7267 t 0 r /Helvetica findfont 35.5047 sf 0 0 m (90) show NC gr 
 gsave  1088 1072 1157 11 C 1807.93 83.7267 t 0 r /Helvetica findfont 35.5047 sf 0 0 m (100) show NC gr 
 gsave  1088 1072 1157 11 C 1945.58 83.7267 t 0 r /Helvetica findfont 35.5047 sf 0 0 m (110) show NC gr 
 gsave  1088 1072 1157 11 C 2083.23 83.7267 t 0 r /Helvetica findfont 35.5047 sf 0 0 m (120) show NC gr 
 gsave  1088 1072 1157 11 C 1986.74 32.6392 t 0 r /Helvetica findfont 45.446 sf 0 0 m ( [GeV]) show NC gr 
 gsave  1088 1072 1157 11 C 1969.71 24.1246 t 0 r /Symbol findfont 29.8239 sf 0 0 m (m) show NC gr 
 gsave  1088 1072 1157 11 C 1952.68 24.1246 t 0 r /Symbol findfont 29.8239 sf 0 0 m (m) show NC gr 
 gsave  1088 1072 1157 11 C 1917.2 32.6392 t 0 r /Helvetica findfont 45.446 sf 0 0 m (M) show NC gr  1287 118 m 858 Y s 1300 118 m -13 X s 1300 138 m -13 X s 1300 152 m -13 X s 1300 162 m -13 X s 1300 171 m -13 X s 1300 179 m -13 X s 1300 185 m -13 X
 s 1300 191 m -13 X s 1313 196 m -26 X s
 gsave  1088 1072 1157 11 C 1265.83 183.063 t 0 r /Helvetica findfont 32.6643 sf 0 0 m (1) show NC gr  1300 229 m -13 X s 1300 249 m -13 X s 1300 263 m -13 X s 1300 273 m -13 X s 1300 282 m -13 X s 1300 290 m -13 X s 1300 296 m -13 X s 1300 302 m -13
 X s 1313 307 m -26 X s
 gsave  1088 1072 1157 11 C 1243.13 295.172 t 0 r /Helvetica findfont 32.6643 sf 0 0 m (10) show NC gr  1300 340 m -13 X s 1300 360 m -13 X s 1300 373 m -13 X s 1300 384 m -13 X s 1300 393 m -13 X s 1300 400 m -13 X s 1300 407 m -13 X s 1300 413 m
 -13 X s 1313 418 m -26 X s
 gsave  1088 1072 1157 11 C 1265.83 417.214 t 0 r /Helvetica findfont 22.723 sf 0 0 m (2) show NC gr 
 gsave  1088 1072 1157 11 C 1230.36 403.023 t 0 r /Helvetica findfont 32.6643 sf 0 0 m (10) show NC gr  1300 451 m -13 X s 1300 471 m -13 X s 1300 484 m -13 X s 1300 495 m -13 X s 1300 504 m -13 X s 1300 511 m -13 X s 1300 518 m -13 X s 1300 524 m
 -13 X s 1313 529 m -26 X s
 gsave  1088 1072 1157 11 C 1265.83 529.323 t 0 r /Helvetica findfont 22.723 sf 0 0 m (3) show NC gr 
 gsave  1088 1072 1157 11 C 1230.36 513.713 t 0 r /Helvetica findfont 32.6643 sf 0 0 m (10) show NC gr  1300 562 m -13 X s 1300 582 m -13 X s 1300 595 m -13 X s 1300 606 m -13 X s 1300 615 m -13 X s 1300 622 m -13 X s 1300 629 m -13 X s 1300 635 m
 -13 X s 1313 640 m -26 X s
 gsave  1088 1072 1157 11 C 1265.83 638.594 t 0 r /Helvetica findfont 22.723 sf 0 0 m (4) show NC gr 
 gsave  1088 1072 1157 11 C 1230.36 624.403 t 0 r /Helvetica findfont 32.6643 sf 0 0 m (10) show NC gr  1300 673 m -13 X s 1300 693 m -13 X s 1300 706 m -13 X s 1300 717 m -13 X s 1300 726 m -13 X s 1300 733 m -13 X s 1300 740 m -13 X s 1300 745 m
 -13 X s 1313 751 m -26 X s
 gsave  1088 1072 1157 11 C 1265.83 750.702 t 0 r /Helvetica findfont 22.723 sf 0 0 m (5) show NC gr 
 gsave  1088 1072 1157 11 C 1230.36 735.092 t 0 r /Helvetica findfont 32.6643 sf 0 0 m (10) show NC gr  1300 784 m -13 X s 1300 803 m -13 X s 1300 817 m -13 X s 1300 828 m -13 X s 1300 837 m -13 X s 1300 844 m -13 X s 1300 851 m -13 X s 1300 856 m
 -13 X s 1313 862 m -26 X s
 gsave  1088 1072 1157 11 C 1265.83 862.811 t 0 r /Helvetica findfont 22.723 sf 0 0 m (6) show NC gr 
 gsave  1088 1072 1157 11 C 1230.36 847.201 t 0 r /Helvetica findfont 32.6643 sf 0 0 m (10) show NC gr  1300 895 m -13 X s 1300 914 m -13 X s 1300 928 m -13 X s 1300 939 m -13 X s 1300 948 m -13 X s 1300 955 m -13 X s 1300 962 m -13 X s 1300 967 m
 -13 X s 1313 972 m -26 X s
 gsave  1088 1072 1157 11 C 1265.83 972.081 t 0 r /Helvetica findfont 22.723 sf 0 0 m (7) show NC gr 
 gsave  1088 1072 1157 11 C 1230.36 957.89 t 0 r /Helvetica findfont 32.6643 sf 0 0 m (10) show NC gr 
 gsave  1088 1072 1157 11 C 1203.39 557.705 t 90 r /Helvetica findfont 45.446 sf 0 0 m (Entries / NormFactor) show NC gr  1 0 0 c 1 1 1 c 1 0 0 c 1942 137 m 53 Y s 1942 201 m 20 Y s 1935 196 m 1 X s 1948 196 m 1 X s 1939 137 m 6 X s 1939 221 m 6 X s
 1935 193 m 6 Y s 1949 193 m 6 Y s 1942 196 m24 black 1 1 1 c black 1308 267 m 17 Y s 1308 295 m 10 Y s 1301 290 m 1 X s 1314 290 m 1 X s 1305 267 m 6 X s 1305 305 m 6 X s 1301 287 m 5 Y s 1315 287 m 5 Y s 1308 290 m20 1322 282 m 14 Y s 1322 307 m 8
 Y s 1315 302 m 1 X s 1327 302 m 2 X s 1319 282 m 5 X s 1319 315 m 5 X s 1315 299 m 5 Y s 1329 299 m 5 Y s 1322 302 m20 1335 275 m 15 Y s 1335 302 m 9 Y s 1329 296 m 1 X s 1341 296 m 1 X s 1333 275 m 5 X s 1333 311 m 5 X s 1329 293 m 6 Y s 1342 293 m
 6 Y s 1335 296 m20 1349 267 m 17 Y s 1349 295 m 10 Y s 1342 290 m 2 X s 1355 290 m 1 X s 1346 267 m 6 X s 1346 305 m 6 X s 1342 287 m 5 Y s 1356 287 m 5 Y s 1349 290 m20 1363 229 m 28 Y s 1363 268 m 14 Y s 1356 263 m 1 X s 1369 263 m 1 X s 1360 229
 m 6 X s 1360 282 m 6 X s 1356 260 m 5 Y s 1370 260 m 5 Y s 1363 263 m20 1377 275 m 15 Y s 1377 302 m 9 Y s 1370 296 m 1 X s 1382 296 m 2 X s 1374 275 m 6 X s 1374 311 m 6 X s 1370 293 m 6 Y s 1384 293 m 6 Y s 1377 296 m20 1391 299 m 11 Y s 1391 321
 m 7 Y s 1384 315 m 1 X s 1396 315 m 1 X s 1388 299 m 5 X s 1388 328 m 5 X s 1384 313 m 5 Y s 1397 313 m 5 Y s 1391 315 m20 1404 257 m 19 Y s 1404 288 m 11 Y s 1397 282 m 2 X s 1410 282 m 1 X s 1402 257 m 5 X s 1402 299 m 5 X s 1397 279 m 6 Y s 1411
 279 m 6 Y s 1404 282 m20 1418 315 m 9 Y s 1418 335 m 5 Y s 1411 329 m 1 X s 1424 329 m 1 X s 1415 315 m 6 X s 1415 340 m 6 X s 1411 327 m 5 Y s 1425 327 m 5 Y s 1418 329 m20 1432 282 m 14 Y s 1432 307 m 8 Y s 1425 302 m 1 X s 1438 302 m 1 X s 1429
 282 m 6 X s 1429 315 m 6 X s 1425 299 m 5 Y s 1439 299 m 5 Y s 1432 302 m20 1446 294 m 12 Y s 1446 317 m 7 Y s 1439 311 m 1 X s 1451 311 m 2 X s 1443 294 m 6 X s 1443 324 m 6 X s 1439 308 m 6 Y s 1453 308 m 6 Y s 1446 311 m20 1460 304 m 10 Y s 1460
 325 m 6 Y s 1453 319 m 1 X s 1465 319 m 1 X s 1457 304 m 5 X s 1457 331 m 5 X s 1453 316 m 6 Y s 1466 316 m 6 Y s 1460 319 m20 1473 325 m 7 Y s 1473 343 m 5 Y s 1466 338 m 2 X s 1479 338 m 1 X s 1470 325 m 6 X s 1470 348 m 6 X s 1466 335 m 5 Y s
 1480 335 m 5 Y s 1473 338 m20 1487 322 m 7 Y s 1487 341 m 4 Y s 1480 335 m 1 X s 1493 335 m 1 X s 1484 322 m 6 X s 1484 345 m 6 X s 1480 332 m 6 Y s 1494 332 m 6 Y s 1487 335 m20 1501 322 m 7 Y s 1501 341 m 4 Y s 1494 335 m 1 X s 1507 335 m 1 X s
 1498 322 m 6 X s 1498 345 m 6 X s 1494 332 m 6 Y s 1508 332 m 6 Y s 1501 335 m20 1515 319 m 8 Y s 1515 338 m 5 Y s 1508 332 m 1 X s 1520 332 m 2 X s 1512 319 m 5 X s 1512 343 m 5 X s 1508 329 m 6 Y s 1522 329 m 6 Y s 1515 332 m20 1528 331 m 6 Y s
 1528 348 m 4 Y s 1522 342 m 1 X s 1534 342 m 1 X s 1526 331 m 5 X s 1526 352 m 5 X s 1522 340 m 5 Y s 1535 340 m 5 Y s 1528 342 m20 1542 352 m 4 Y s 1542 367 m 2 Y s 1535 361 m 2 X s 1548 361 m 1 X s 1539 352 m 6 X s 1539 369 m 6 X s 1535 358 m 6 Y
 s 1549 358 m 6 Y s 1542 361 m20 1556 344 m 5 Y s 1556 360 m 3 Y s 1549 355 m 1 X s 1562 355 m 1 X s 1553 344 m 6 X s 1553 363 m 6 X s 1549 352 m 5 Y s 1563 352 m 5 Y s 1556 355 m20 1570 338 m 5 Y s 1570 355 m 3 Y s 1563 349 m 1 X s 1575 349 m 2 X s
 1567 338 m 6 X s 1567 358 m 6 X s 1563 346 m 6 Y s 1577 346 m 6 Y s 1570 349 m20 1584 364 m 3 Y s 1584 378 m 1 Y s 1577 372 m 1 X s 1589 372 m 1 X s 1581 364 m 5 X s 1581 379 m 5 X s 1577 369 m 6 Y s 1590 369 m 6 Y s 1584 372 m20 1597 373 m 2 Y s
 1597 386 m 1 Y s 1590 380 m 2 X s 1603 380 m 1 X s 1595 373 m 5 X s 1595 387 m 5 X s 1590 377 m 6 Y s 1604 377 m 6 Y s 1597 380 m20 1611 391 m 1 Y s 1604 398 m 1 X s 1617 398 m 1 X s 1608 391 m 6 X s 1604 395 m 5 Y s 1618 395 m 5 Y s 1611 398 m20
 1618 413 m 1 X s 1631 413 m 1 X s 1618 410 m 6 Y s 1632 410 m 6 Y s 1625 413 m20 1632 436 m 1 X s 1644 436 m 2 X s 1632 433 m 5 Y s 1646 433 m 5 Y s 1639 436 m20 1646 437 m 1 X s 1658 437 m 1 X s 1646 434 m 6 Y s 1659 434 m 6 Y s 1653 437 m20 1659
 469 m 2 X s 1672 469 m 1 X s 1659 466 m 5 Y s 1673 466 m 5 Y s 1666 469 m20 1673 478 m 1 X s 1686 478 m 1 X s 1673 476 m 5 Y s 1687 476 m 5 Y s 1680 478 m20 1687 498 m 1 X s 1700 498 m 1 X s 1687 496 m 5 Y s 1701 496 m 5 Y s 1694 498 m20 1701 510 m
 1 X s 1713 510 m 2 X s 1701 507 m 6 Y s 1715 507 m 6 Y s 1708 510 m20 1715 511 m 1 X s 1727 511 m 1 X s 1715 508 m 6 Y s 1728 508 m 6 Y s 1721 511 m20 1728 495 m 2 X s 1741 495 m 1 X s 1728 493 m 5 Y s 1742 493 m 5 Y s 1735 495 m20 1742 476 m 1 X s
 1755 476 m 1 X s 1742 473 m 6 Y s 1756 473 m 6 Y s 1749 476 m20 1756 454 m 1 X s 1769 454 m 1 X s 1756 451 m 5 Y s 1770 451 m 5 Y s 1763 454 m20 1770 428 m 1 X s 1782 428 m 2 X s 1770 425 m 5 Y s 1784 425 m 5 Y s 1777 428 m20 1790 396 m 1 Y s 1784
 402 m 1 X s 1796 402 m 1 X s 1788 396 m 5 X s 1784 400 m 5 Y s 1797 400 m 5 Y s 1790 402 m20 1804 388 m 1 Y s 1804 400 m s 1797 395 m 2 X s 1810 395 m 1 X s 1801 388 m 6 X s 1801 400 m 6 X s 1797 392 m 5 Y s 1811 392 m 5 Y s 1804 395 m20 1818 369 m
 2 Y s 1818 383 m 1 Y s 1811 377 m 1 X s 1824 377 m 1 X s 1815 369 m 6 X s 1815 384 m 6 X s 1811 374 m 6 Y s 1825 374 m 6 Y s 1818 377 m20 1832 358 m 3 Y s 1832 373 m 2 Y s 1825 367 m 1 X s 1837 367 m 2 X s 1829 358 m 6 X s 1829 375 m 6 X s 1825 364
 m 6 Y s 1839 364 m 6 Y s 1832 367 m20 1846 336 m 5 Y s 1846 353 m 3 Y s 1839 347 m 1 X s 1851 347 m 1 X s 1843 336 m 5 X s 1843 356 m 5 X s 1839 344 m 6 Y s 1852 344 m 6 Y s 1846 347 m20 1859 340 m 5 Y s 1859 357 m 3 Y s 1852 351 m 2 X s 1865 351 m
 1 X s 1857 340 m 5 X s 1857 360 m 5 X s 1852 348 m 6 Y s 1866 348 m 6 Y s 1859 351 m20 1873 319 m 8 Y s 1873 338 m 5 Y s 1866 332 m 1 X s 1879 332 m 1 X s 1870 319 m 6 X s 1870 343 m 6 X s 1866 329 m 6 Y s 1880 329 m 6 Y s 1873 332 m20 1887 340 m 5
 Y s 1887 357 m 3 Y s 1880 351 m 1 X s 1893 351 m 1 X s 1884 340 m 6 X s 1884 360 m 6 X s 1880 348 m 6 Y s 1894 348 m 6 Y s 1887 351 m20 1901 319 m 8 Y s 1901 338 m 5 Y s 1894 332 m 1 X s 1906 332 m 2 X s 1898 319 m 6 X s 1898 343 m 6 X s 1894 329 m
 6 Y s 1908 329 m 6 Y s 1901 332 m20 1914 282 m 14 Y s 1914 307 m 8 Y s 1908 302 m 1 X s 1920 302 m 1 X s 1912 282 m 5 X s 1912 315 m 5 X s 1908 299 m 5 Y s 1921 299 m 5 Y s 1914 302 m20 1928 275 m 15 Y s 1928 302 m 9 Y s 1921 296 m 2 X s 1934 296 m
 1 X s 1925 275 m 6 X s 1925 311 m 6 X s 1921 293 m 6 Y s 1935 293 m 6 Y s 1928 296 m20 1942 118 m 72 Y s 1942 201 m 28 Y s 1935 196 m 1 X s 1948 196 m 1 X s 1939 118 m 6 X s 1939 229 m 6 X s 1935 193 m 6 Y s 1949 193 m 6 Y s 1942 196 m20 1956 288 m
 13 Y s 1956 312 m 8 Y s 1949 307 m 1 X s 1962 307 m 1 X s 1953 288 m 6 X s 1953 320 m 6 X s 1949 304 m 6 Y s 1963 304 m 6 Y s 1956 307 m20 1970 170 m 53 Y s 1970 235 m 20 Y s 1963 229 m 1 X s 1975 229 m 2 X s 1967 170 m 5 X s 1967 255 m 5 X s 1963
 226 m 6 Y s 1977 226 m 6 Y s 1970 229 m20 1983 257 m 19 Y s 1983 288 m 11 Y s 1977 282 m 1 X s 1989 282 m 1 X s 1981 257 m 5 X s 1981 299 m 5 X s 1977 279 m 6 Y s 1990 279 m 6 Y s 1983 282 m20 1997 229 m 28 Y s 1997 268 m 14 Y s 1990 263 m 2 X s
 2003 263 m 1 X s 1994 229 m 6 X s 1994 282 m 6 X s 1990 260 m 5 Y s 2004 260 m 5 Y s 1997 263 m20 2025 207 m 36 Y s 2025 254 m 17 Y s 2018 249 m 1 X s 2030 249 m 2 X s 2022 207 m 6 X s 2022 271 m 6 X s 2018 246 m 6 Y s 2032 246 m 6 Y s 2025 249 m20
 2039 275 m 15 Y s 2039 302 m 9 Y s 2032 296 m 1 X s 2044 296 m 1 X s 2036 275 m 5 X s 2036 311 m 5 X s 2032 293 m 6 Y s 2045 293 m 6 Y s 2039 296 m20 2052 294 m 12 Y s 2052 317 m 7 Y s 2045 311 m 2 X s 2058 311 m 1 X s 2050 294 m 5 X s 2050 324 m 5
 X s 2045 308 m 6 Y s 2059 308 m 6 Y s 2052 311 m20 2066 207 m 36 Y s 2066 254 m 17 Y s 2059 249 m 1 X s 2072 249 m 1 X s 2063 207 m 6 X s 2063 271 m 6 X s 2059 246 m 6 Y s 2073 246 m 6 Y s 2066 249 m20 2080 267 m 17 Y s 2080 295 m 10 Y s 2073 290 m
 1 X s 2086 290 m 1 X s 2077 267 m 6 X s 2077 305 m 6 X s 2073 287 m 5 Y s 2087 287 m 5 Y s 2080 290 m20 2094 245 m 23 Y s 2094 279 m 12 Y s 2087 273 m 1 X s 2099 273 m 2 X s 2091 245 m 6 X s 2091 291 m 6 X s 2087 270 m 6 Y s 2101 270 m 6 Y s 2094
 273 m20 2108 118 m 72 Y s 2108 201 m 28 Y s 2101 196 m 1 X s 2113 196 m 1 X s 2105 118 m 5 X s 2105 229 m 5 X s 2101 193 m 6 Y s 2114 193 m 6 Y s 2108 196 m20 1 1 1 c black 1418 118 m 72 Y s 1418 201 m 28 Y s 1411 196 m 1 X s 1424 196 m 1 X s 1415
 118 m 6 X s 1415 229 m 6 X s 1411 193 m 6 Y s 1425 193 m 6 Y s 1418 196 m24 0 0 1 c[ 12 12] 0 sd 6 lw 1577 118 m 381 Y s 1852 118 m 381 Y s black[  ] 0 sd 3 lw 1 1 1 c 272 268 1320 654 bf black
 gsave  1088 1072 1157 11 C 1386.46 874.164 t 0 r /Helvetica findfont 39.7652 sf 0 0 m (OC data: 4517) show NC gr  1354 889 m20
 gsave  1088 1072 1157 11 C 1386.46 807.466 t 0 r /Helvetica findfont 39.7652 sf 0 0 m (SC data: 0) show NC gr  1354 822 m24
 gsave  1088 1072 1157 11 C 1386.46 740.768 t 0 r /Helvetica findfont 39.7652 sf 0 0 m (OC MC: 11755) show NC gr  1 0 0 c 1354 755 m20 black
 gsave  1088 1072 1157 11 C 1386.46 674.071 t 0 r /Helvetica findfont 39.7652 sf 0 0 m (SC MC: 0) show NC gr  1 0 0 c 1354 688 m24 black
 gsave  1088 1072 1157 11 C 1700.08 901.126 t 0 r /Helvetica-Bold findfont 59.6478 sf 0 0 m (pp collisions) show NC gr 
 gr  gr showpage
end
%%EOF
