%!PS-Adobe-2.0 EPSF-2.0
%%BoundingBox:  0 0 567 274
%%Title: /home/petr/Analysis_iwona/SFAnalysis/eps/Triger.eps: Results
%%Creator: ROOT Version 6.16/00
%%CreationDate: Thu Apr 25 10:54:48 2019
%%DocumentNeededResources: ProcSet (FontSetInit)
%%EndComments
%%BeginProlog
80 dict begin
/s {stroke} def /l {lineto} def /m {moveto} def /t {translate} def
/r {rotate} def /rl {roll}  def /R {repeat} def
/d {rlineto} def /rm {rmoveto} def /gr {grestore} def /f {eofill} def
/c {setrgbcolor} def /black {0 setgray} def /sd {setdash} def
/cl {closepath} def /sf {scalefont setfont} def /lw {setlinewidth} def
/box {m dup 0 exch d exch 0 d 0 exch neg d cl} def
/NC{systemdict begin initclip end}def/C{NC box clip newpath}def
/bl {box s} def /bf {gsave box gsave f grestore 1 lw [] 0 sd s grestore} def /Y { 0 exch d} def /X { 0 d} def 
/K {{pop pop 0 moveto} exch kshow} bind def
/ita {/ang 15 def gsave [1 0 ang dup sin exch cos div 1 0 0] concat} def 
/mp {newpath /y exch def /x exch def} def
/side {[w .77 mul w .23 mul] .385 w mul sd w 0 l currentpoint t -144 r} def
/mr {mp x y w2 0 360 arc} def /m24 {mr s} def /m20 {mr f} def
/mb {mp x y w2 add m w2 neg 0 d 0 w neg d w 0 d 0 w d cl} def
/mt {mp x y w2 add m w2 neg w neg d w 0 d cl} def
/w4 {w 4 div} def
/w6 {w 6 div} def
/w8 {w 8 div} def
/m21 {mb f} def /m25 {mb s} def /m22 {mt f} def /m26{mt s} def
/m23 {mp x y w2 sub m w2 w d w neg 0 d cl f} def
/m27 {mp x y w2 add m w3 neg w2 neg d w3 w2 neg d w3 w2 d cl s} def
/m28 {mp x w2 sub y w2 sub w3 add m w3 0 d  0 w3 neg d w3 0 d 0 w3 d w3 0 d  0 w3 d w3 neg 0 d 0 w3 d w3 neg 0 d 0 w3 neg d w3 neg 0 d cl s } def
/m29 {mp gsave x w2 sub y w2 add w3 sub m currentpoint t 4 {side} repeat cl fill gr} def
/m30 {mp gsave x w2 sub y w2 add w3 sub m currentpoint t 4 {side} repeat cl s gr} def
/m31 {mp x y w2 sub m 0 w d x w2 sub y m w 0 d x w2 sub y w2 add m w w neg d x w2 sub y w2 sub m w w d s} def
/m32 {mp x y w2 sub m w2 w d w neg 0 d cl s} def
/m33 {mp x y w2 add m w3 neg w2 neg d w3 w2 neg d w3 w2 d cl f} def
/m34 {mp x w2 sub y w2 sub w3 add m w3 0 d  0 w3 neg d w3 0 d 0 w3 d w3 0 d  0 w3 d w3 neg 0 d 0 w3 d w3 neg 0 d 0 w3 neg d w3 neg 0 d cl f } def
/m35 {mp x y w2 add m w2 neg w2 neg d w2 w2 neg d w2 w2 d w2 neg w2 d x y w2 sub m 0 w d x w2 sub y m w 0 d s} def
/m36 {mb x w2 sub y w2 add m w w neg d x w2 sub y w2 sub m w w d s} def
/m37 {mp x y m w4 neg w2 d w4 neg w2 neg d w2 0 d  w4 neg w2 neg d w2 0 d w4 neg w2 d w2 0 d w4 neg w2 d w4 neg w2 neg d cl s} def
/m38 {mp x w4 sub y w2 add m w4 neg w4 neg d 0 w2 neg d w4 w4 neg d w2 0 d w4 w4 d 0 w2 d w4 neg w4 d w2 neg 0 d x y w2 sub m 0 w d x w2 sub y m w 0 d cl s} def
/m39 {mp x y m w4 neg w2 d w4 neg w2 neg d w2 0 d  w4 neg w2 neg d w2 0 d w4 neg w2 d w2 0 d w4 neg w2 d w4 neg w2 neg d cl f} def
/m40 {mp x y m w4 w2 d w4 w4 neg d w2 neg w4 neg d w2 w4 neg d w4 neg w4 neg d w4 neg w2 d w4 neg w2 neg d w4 neg w4 d w2 w4 d w2 neg w4 d w4 w4 d w4 w2 neg d cl s} def
/m41 {mp x y m w4 w2 d w4 w4 neg d w2 neg w4 neg d w2 w4 neg d w4 neg w4 neg d w4 neg w2 d w4 neg w2 neg d w4 neg w4 d w2 w4 d w2 neg w4 d w4 w4 d w4 w2 neg d cl f} def
/m42 {mp x y w2 add m w8 neg w2 -3 4 div mul d w2 -3 4 div mul w8 neg d w2 3 4 div mul w8 neg d w8 w2 -3 4 div mul d w8 w2 3 4 div mul d w2 3 4 div mul w8 d w2 -3 4 div mul w8 d w8 neg w2 3 4 div mul d cl s} def
/m43 {mp x y w2 add m w8 neg w2 -3 4 div mul d w2 -3 4 div mul w8 neg d w2 3 4 div mul w8 neg d w8 w2 -3 4 div mul d w8 w2 3 4 div mul d w2 3 4 div mul w8 d w2 -3 4 div mul w8 d w8 neg w2 3 4 div mul d cl f} def
/m44 {mp x y m w6 neg w2 d w2 2 3 div mul 0 d w6 neg w2 neg d w2 w6 d 0 w2 -2 3 div mul d w2 neg w6 d w6 w2 neg d w2 -2 3 div mul 0 d w6 w2 d w2 neg w6 neg d 0 w2 2 3 div mul d w2 w6 neg d cl s} def
/m45 {mp x y m w6 neg w2 d w2 2 3 div mul 0 d w6 neg w2 neg d w2 w6 d 0 w2 -2 3 div mul d w2 neg w6 d w6 w2 neg d w2 -2 3 div mul 0 d w6 w2 d w2 neg w6 neg d 0 w2 2 3 div mul d w2 w6 neg d cl f} def
/m46 {mp x y w4 add m w4 neg w4 d w4 neg w4 neg d  w4 w4 neg d w4 neg w4 neg d w4 w4 neg d w4 w4 d w4 w4 neg d w4 w4 d w4 neg w4 d w4 w4 d w4 neg w4 d w4 neg w4 neg d cl s} def
/m47 {mp x y w4 add m w4 neg w4 d w4 neg w4 neg d w4 w4 neg d w4 neg w4 neg d  w4 w4 neg d w4 w4 d w4 w4 neg d w4 w4 d w4 neg w4 d w4 w4 d w4 neg w4 d w4 neg w4 neg d cl f} def
/m48 {mp x y w4 add m w4 neg w4 d w4 neg w4 neg d w4 w4 neg d  w4 neg w4 neg d w4 w4 neg d w4 w4 d w4 w4 neg d w4 w4 d w4 neg w4 d w4 w4 d w4 neg w4 d w4 neg w4 neg d  w4 w4 neg d w4 neg w4 neg d w4 neg w4 d w4 w4 d cl f} def
/m49 {mp x w2 sub w3 add y w2 sub w3 add m  0 w3 neg d w3 0 d 0 w3 d w3 0 d 0 w3 d w3 neg 0 d 0 w3 d w3 neg 0 d 0 w3 neg d w3 neg 0 d 0 w3 neg d w3 0 d 0 w3 d w3 0 d 0 w3 neg d w3 neg 0 d cl f } def
/m2 {mp x y w2 sub m 0 w d x w2 sub y m w 0 d s} def
/m5 {mp x w2 sub y w2 sub m w w d x w2 sub y w2 add m w w neg d s} def
%%IncludeResource: ProcSet (FontSetInit)
%%IncludeResource: font Times-Roman
%%IncludeResource: font Times-Italic
%%IncludeResource: font Times-Bold
%%IncludeResource: font Times-BoldItalic
%%IncludeResource: font Helvetica
%%IncludeResource: font Helvetica-Oblique
%%IncludeResource: font Helvetica-Bold
%%IncludeResource: font Helvetica-BoldOblique
%%IncludeResource: font Courier
%%IncludeResource: font Courier-Oblique
%%IncludeResource: font Courier-Bold
%%IncludeResource: font Courier-BoldOblique
%%IncludeResource: font Symbol
%%IncludeResource: font ZapfDingbats
/reEncode {exch findfont dup length dict begin {1 index /FID eq  {pop pop} {def} ifelse } forall /Encoding exch def currentdict end dup /FontName get exch definefont pop } def [/Times-Bold /Times-Italic /Times-BoldItalic /Helvetica /Helvetica-Oblique
 /Helvetica-Bold /Helvetica-BoldOblique /Courier /Courier-Oblique /Courier-Bold /Courier-BoldOblique /Times-Roman /AvantGarde-Book /AvantGarde-BookOblique /AvantGarde-Demi /AvantGarde-DemiOblique /Bookman-Demi /Bookman-DemiItalic /Bookman-Light
 /Bookman-LightItalic /Helvetica-Narrow /Helvetica-Narrow-Bold /Helvetica-Narrow-BoldOblique /Helvetica-Narrow-Oblique /NewCenturySchlbk-Roman /NewCenturySchlbk-Bold /NewCenturySchlbk-BoldItalic /NewCenturySchlbk-Italic /Palatino-Bold
 /Palatino-BoldItalic /Palatino-Italic /Palatino-Roman ] {ISOLatin1Encoding reEncode } forall
%%EndProlog
%%BeginSetup
%%EndSetup
newpath  gsave  .25 .25 scale  gsave  0 0 t black[  ] 0 sd 3 lw 1 1 1 c 2268 1094 0 0 bf black 1 1 1 c 1088 1072 23 11 bf black 1 1 1 c 828 858 153 118 bf black 828 858 153 118 bl 1 1 1 c 828 858 153 118 bf black 828 858 153 118 bl 1 0 0 c 1 1 1 c 1
 0 0 c 174 393 m 4 Y s 174 409 m 3 Y s 167 403 m 1 X s 180 403 m 1 X s 171 393 m 6 X s 171 412 m 6 X s 167 400 m 6 Y s 181 400 m 6 Y s /w 12 def /w2 {w 2 div} def /w3 {w 3 div} def 174 403 m20 188 408 m 4 Y s 188 423 m 2 Y s 181 417 m 1 X s 193 417 m
 2 X s 185 408 m 6 X s 185 425 m 6 X s 181 415 m 5 Y s 195 415 m 5 Y s 188 417 m20 202 410 m 3 Y s 202 424 m 3 Y s 195 419 m 1 X s 207 419 m 1 X s 199 410 m 5 X s 199 427 m 5 X s 195 416 m 5 Y s 208 416 m 5 Y s 202 419 m20 215 415 m 3 Y s 215 430 m 2
 Y s 208 424 m 2 X s 221 424 m 1 X s 213 415 m 5 X s 213 432 m 5 X s 208 421 m 6 Y s 222 421 m 6 Y s 215 424 m20 229 417 m 2 Y s 229 431 m 2 Y s 222 425 m 1 X s 235 425 m 1 X s 226 417 m 6 X s 226 433 m 6 X s 222 422 m 6 Y s 236 422 m 6 Y s 229 425
 m20 243 424 m 2 Y s 243 438 m 1 Y s 236 432 m 1 X s 249 432 m 1 X s 240 424 m 6 X s 240 439 m 6 X s 236 429 m 6 Y s 250 429 m 6 Y s 243 432 m20 257 434 m 2 Y s 257 447 m 1 Y s 250 441 m 1 X s 262 441 m 2 X s 254 434 m 6 X s 254 448 m 6 X s 250 439 m
 5 Y s 264 439 m 5 Y s 257 441 m20 270 418 m 3 Y s 270 432 m 2 Y s 264 426 m 1 X s 276 426 m 1 X s 268 418 m 5 X s 268 434 m 5 X s 264 423 m 6 Y s 277 423 m 6 Y s 270 426 m20 284 431 m 2 Y s 284 445 m 1 Y s 277 439 m 2 X s 290 439 m 1 X s 281 431 m 6
 X s 281 446 m 6 X s 277 436 m 6 Y s 291 436 m 6 Y s 284 439 m20 298 443 m 2 Y s 298 456 m 1 Y s 291 450 m 1 X s 304 450 m 1 X s 295 443 m 6 X s 295 457 m 6 X s 291 448 m 5 Y s 305 448 m 5 Y s 298 450 m20 312 444 m 1 Y s 312 457 m s 305 451 m 1 X s
 318 451 m 1 X s 309 444 m 6 X s 309 457 m 6 X s 305 448 m 6 Y s 319 448 m 6 Y s 312 451 m20 326 454 m 1 Y s 326 466 m s 319 461 m 1 X s 331 461 m 2 X s 323 454 m 5 X s 323 466 m 5 X s 319 458 m 5 Y s 333 458 m 5 Y s 326 461 m20 339 449 m 1 Y s 339
 461 m 1 Y s 333 456 m 1 X s 345 456 m 1 X s 337 449 m 5 X s 337 462 m 5 X s 333 453 m 5 Y s 346 453 m 5 Y s 339 456 m20 353 463 m 1 Y s 346 469 m 2 X s 359 469 m 1 X s 350 463 m 6 X s 346 466 m 6 Y s 360 466 m 6 Y s 353 469 m20 367 464 m s 360 470 m
 1 X s 373 470 m 1 X s 364 464 m 6 X s 360 467 m 6 Y s 374 467 m 6 Y s 367 470 m20 381 467 m s 374 473 m 1 X s 386 473 m 2 X s 378 467 m 6 X s 374 470 m 6 Y s 388 470 m 6 Y s 381 473 m20 388 488 m 1 X s 400 488 m 1 X s 388 486 m 5 Y s 401 486 m 5 Y s
 395 488 m20 401 504 m 2 X s 414 504 m 1 X s 401 501 m 5 Y s 415 501 m 5 Y s 408 504 m20 415 506 m 1 X s 428 506 m 1 X s 415 504 m 5 Y s 429 504 m 5 Y s 422 506 m20 429 515 m 1 X s 442 515 m 1 X s 429 512 m 6 Y s 443 512 m 6 Y s 436 515 m20 443 531 m
 1 X s 455 531 m 2 X s 443 528 m 6 Y s 457 528 m 6 Y s 450 531 m20 457 546 m 1 X s 469 546 m 1 X s 457 544 m 5 Y s 470 544 m 5 Y s 464 546 m20 470 555 m 2 X s 483 555 m 1 X s 470 552 m 6 Y s 484 552 m 6 Y s 477 555 m20 484 567 m 1 X s 497 567 m 1 X s
 484 564 m 6 Y s 498 564 m 6 Y s 491 567 m20 498 593 m 1 X s 511 593 m 1 X s 498 590 m 6 Y s 512 590 m 6 Y s 505 593 m20 512 618 m 1 X s 524 618 m 2 X s 512 616 m 5 Y s 526 616 m 5 Y s 519 618 m20 526 639 m 1 X s 538 639 m 1 X s 526 636 m 6 Y s 539
 636 m 6 Y s 532 639 m20 539 661 m 2 X s 552 661 m 1 X s 539 658 m 6 Y s 553 658 m 6 Y s 546 661 m20 553 681 m 1 X s 566 681 m 1 X s 553 678 m 6 Y s 567 678 m 6 Y s 560 681 m20 567 690 m 1 X s 579 690 m 2 X s 567 687 m 6 Y s 581 687 m 6 Y s 574 690
 m20 581 687 m 1 X s 593 687 m 2 X s 581 684 m 6 Y s 595 684 m 6 Y s 588 687 m20 595 673 m 1 X s 607 673 m 1 X s 595 670 m 6 Y s 608 670 m 6 Y s 601 673 m20 608 655 m 2 X s 621 655 m 1 X s 608 652 m 5 Y s 622 652 m 5 Y s 615 655 m20 622 624 m 1 X s
 635 624 m 1 X s 622 621 m 5 Y s 636 621 m 5 Y s 629 624 m20 636 595 m 1 X s 648 595 m 2 X s 636 592 m 5 Y s 650 592 m 5 Y s 643 595 m20 650 562 m 1 X s 662 562 m 1 X s 650 559 m 6 Y s 663 559 m 6 Y s 657 562 m20 663 539 m 2 X s 676 539 m 1 X s 663
 537 m 5 Y s 677 537 m 5 Y s 670 539 m20 677 525 m 1 X s 690 525 m 1 X s 677 522 m 6 Y s 691 522 m 6 Y s 684 525 m20 691 507 m 1 X s 704 507 m 1 X s 691 504 m 6 Y s 705 504 m 6 Y s 698 507 m20 705 488 m 1 X s 717 488 m 2 X s 705 486 m 5 Y s 719 486 m
 5 Y s 712 488 m20 719 475 m 1 X s 731 475 m 1 X s 719 472 m 5 Y s 732 472 m 5 Y s 725 475 m20 739 434 m 2 Y s 739 447 m 1 Y s 732 441 m 2 X s 745 441 m 1 X s 736 434 m 6 X s 736 448 m 6 X s 732 439 m 5 Y s 746 439 m 5 Y s 739 441 m20 753 453 m 1 Y s
 753 465 m s 746 459 m 1 X s 759 459 m 1 X s 750 453 m 6 X s 750 465 m 6 X s 746 457 m 5 Y s 760 457 m 5 Y s 753 459 m20 767 422 m 2 Y s 767 436 m 1 Y s 760 430 m 1 X s 773 430 m 1 X s 764 422 m 6 X s 764 437 m 6 X s 760 427 m 6 Y s 774 427 m 6 Y s
 767 430 m20 781 418 m 3 Y s 781 432 m 2 Y s 774 426 m 1 X s 786 426 m 2 X s 778 418 m 5 X s 778 434 m 5 X s 774 423 m 6 Y s 788 423 m 6 Y s 781 426 m20 794 426 m 2 Y s 794 440 m 1 Y s 788 434 m 1 X s 800 434 m 1 X s 792 426 m 5 X s 792 441 m 5 X s
 788 431 m 6 Y s 801 431 m 6 Y s 794 434 m20 808 380 m 6 Y s 808 397 m 4 Y s 801 392 m 2 X s 814 392 m 1 X s 805 380 m 6 X s 805 401 m 6 X s 801 389 m 6 Y s 815 389 m 6 Y s 808 392 m20 822 410 m 3 Y s 822 424 m 3 Y s 815 419 m 1 X s 828 419 m 1 X s
 819 410 m 6 X s 819 427 m 6 X s 815 416 m 5 Y s 829 416 m 5 Y s 822 419 m20 836 393 m 4 Y s 836 409 m 3 Y s 829 403 m 1 X s 841 403 m 2 X s 833 393 m 6 X s 833 412 m 6 X s 829 400 m 6 Y s 843 400 m 6 Y s 836 403 m20 850 384 m 5 Y s 850 401 m 4 Y s
 843 395 m 1 X s 855 395 m 1 X s 847 384 m 5 X s 847 405 m 5 X s 843 392 m 6 Y s 856 392 m 6 Y s 850 395 m20 863 388 m 5 Y s 863 404 m 4 Y s 856 398 m 2 X s 869 398 m 1 X s 861 388 m 5 X s 861 408 m 5 X s 856 396 m 5 Y s 870 396 m 5 Y s 863 398 m20
 877 370 m 6 Y s 877 388 m 5 Y s 870 382 m 1 X s 883 382 m 1 X s 874 370 m 6 X s 874 393 m 6 X s 870 379 m 6 Y s 884 379 m 6 Y s 877 382 m20 891 376 m 6 Y s 891 394 m 4 Y s 884 388 m 1 X s 897 388 m 1 X s 888 376 m 6 X s 888 398 m 6 X s 884 385 m 6 Y
 s 898 385 m 6 Y s 891 388 m20 905 341 m 10 Y s 905 363 m 6 Y s 898 357 m 1 X s 910 357 m 2 X s 902 341 m 6 X s 902 369 m 6 X s 898 354 m 6 Y s 912 354 m 6 Y s 905 357 m20 919 348 m 9 Y s 919 369 m 6 Y s 912 363 m 1 X s 924 363 m 1 X s 916 348 m 5 X
 s 916 375 m 5 X s 912 360 m 6 Y s 925 360 m 6 Y s 919 363 m20 932 376 m 6 Y s 932 394 m 4 Y s 925 388 m 2 X s 938 388 m 1 X s 929 376 m 6 X s 929 398 m 6 X s 925 385 m 6 Y s 939 385 m 6 Y s 932 388 m20 946 357 m 8 Y s 946 376 m 6 Y s 939 371 m 1 X s
 952 371 m 1 X s 943 357 m 6 X s 943 382 m 6 X s 939 368 m 6 Y s 953 368 m 6 Y s 946 371 m20 960 325 m 12 Y s 960 349 m 8 Y s 953 343 m 1 X s 966 343 m 1 X s 957 325 m 6 X s 957 357 m 6 X s 953 340 m 6 Y s 967 340 m 6 Y s 960 343 m20 974 354 m 9 Y s
 974 374 m 6 Y s 967 368 m 1 X s 979 368 m 2 X s 971 354 m 6 X s 971 380 m 6 X s 967 365 m 6 Y s 981 365 m 6 Y s 974 368 m20 black 153 118 m 828 X s 153 143 m -25 Y s 181 130 m -12 Y s 208 130 m -12 Y s 236 130 m -12 Y s 264 130 m -12 Y s 291 143 m
 -25 Y s 319 130 m -12 Y s 346 130 m -12 Y s 374 130 m -12 Y s 401 130 m -12 Y s 429 143 m -25 Y s 457 130 m -12 Y s 484 130 m -12 Y s 512 130 m -12 Y s 539 130 m -12 Y s 567 143 m -25 Y s 595 130 m -12 Y s 622 130 m -12 Y s 650 130 m -12 Y s 677 130
 m -12 Y s 705 143 m -25 Y s 732 130 m -12 Y s 760 130 m -12 Y s 788 130 m -12 Y s 815 130 m -12 Y s 843 143 m -25 Y s 870 130 m -12 Y s 898 130 m -12 Y s 925 130 m -12 Y s 953 130 m -12 Y s 981 143 m -25 Y s
 gsave  1088 1072 23 11 C 133.395 83.7267 t 0 r /Helvetica findfont 35.5047 sf 0 0 m (60) show NC gr 
 gsave  1088 1072 23 11 C 271.047 83.7267 t 0 r /Helvetica findfont 35.5047 sf 0 0 m (70) show NC gr 
 gsave  1088 1072 23 11 C 408.7 83.7267 t 0 r /Helvetica findfont 35.5047 sf 0 0 m (80) show NC gr 
 gsave  1088 1072 23 11 C 546.352 83.7267 t 0 r /Helvetica findfont 35.5047 sf 0 0 m (90) show NC gr 
 gsave  1088 1072 23 11 C 674.071 83.7267 t 0 r /Helvetica findfont 35.5047 sf 0 0 m (100) show NC gr 
 gsave  1088 1072 23 11 C 811.723 83.7267 t 0 r /Helvetica findfont 35.5047 sf 0 0 m (110) show NC gr 
 gsave  1088 1072 23 11 C 949.376 83.7267 t 0 r /Helvetica findfont 35.5047 sf 0 0 m (120) show NC gr 
 gsave  1088 1072 23 11 C 852.877 32.6392 t 0 r /Helvetica findfont 45.446 sf 0 0 m ( [GeV]) show NC gr 
 gsave  1088 1072 23 11 C 835.848 24.1246 t 0 r /Symbol findfont 29.8239 sf 0 0 m (m) show NC gr 
 gsave  1088 1072 23 11 C 818.819 24.1246 t 0 r /Symbol findfont 29.8239 sf 0 0 m (m) show NC gr 
 gsave  1088 1072 23 11 C 783.341 32.6392 t 0 r /Helvetica findfont 45.446 sf 0 0 m (M) show NC gr  153 118 m 858 Y s 166 118 m -13 X s 166 143 m -13 X s 166 161 m -13 X s 166 175 m -13 X s 166 186 m -13 X s 166 196 m -13 X s 166 204 m -13 X s 166
 212 m -13 X s 179 218 m -26 X s
 gsave  1088 1072 23 11 C 131.976 205.769 t 0 r /Helvetica findfont 32.6643 sf 0 0 m (1) show NC gr  166 261 m -13 X s 166 286 m -13 X s 166 304 m -13 X s 166 318 m -13 X s 166 329 m -13 X s 166 339 m -13 X s 166 347 m -13 X s 166 355 m -13 X s 179
 361 m -26 X s
 gsave  1088 1072 23 11 C 109.27 349.098 t 0 r /Helvetica findfont 32.6643 sf 0 0 m (10) show NC gr  166 404 m -13 X s 166 429 m -13 X s 166 447 m -13 X s 166 461 m -13 X s 166 473 m -13 X s 166 482 m -13 X s 166 490 m -13 X s 166 498 m -13 X s 179
 504 m -26 X s
 gsave  1088 1072 23 11 C 131.976 503.779 t 0 r /Helvetica findfont 22.723 sf 0 0 m (2) show NC gr 
 gsave  1088 1072 23 11 C 96.4986 489.588 t 0 r /Helvetica findfont 32.6643 sf 0 0 m (10) show NC gr  166 547 m -13 X s 166 573 m -13 X s 166 590 m -13 X s 166 604 m -13 X s 166 616 m -13 X s 166 625 m -13 X s 166 633 m -13 X s 166 641 m -13 X s 179
 647 m -26 X s
 gsave  1088 1072 23 11 C 131.976 648.527 t 0 r /Helvetica findfont 22.723 sf 0 0 m (3) show NC gr 
 gsave  1088 1072 23 11 C 96.4986 632.917 t 0 r /Helvetica findfont 32.6643 sf 0 0 m (10) show NC gr  166 690 m -13 X s 166 716 m -13 X s 166 733 m -13 X s 166 747 m -13 X s 166 759 m -13 X s 166 768 m -13 X s 166 777 m -13 X s 166 784 m -13 X s 179
 790 m -26 X s
 gsave  1088 1072 23 11 C 131.976 789.018 t 0 r /Helvetica findfont 22.723 sf 0 0 m (4) show NC gr 
 gsave  1088 1072 23 11 C 96.4986 774.827 t 0 r /Helvetica findfont 32.6643 sf 0 0 m (10) show NC gr  166 833 m -13 X s 166 859 m -13 X s 166 877 m -13 X s 166 890 m -13 X s 166 902 m -13 X s 166 911 m -13 X s 166 920 m -13 X s 166 927 m -13 X s 179
 933 m -26 X s
 gsave  1088 1072 23 11 C 131.976 933.766 t 0 r /Helvetica findfont 22.723 sf 0 0 m (5) show NC gr 
 gsave  1088 1072 23 11 C 96.4986 918.156 t 0 r /Helvetica findfont 32.6643 sf 0 0 m (10) show NC gr 
 gsave  1088 1072 23 11 C 69.5357 557.705 t 90 r /Helvetica findfont 45.446 sf 0 0 m (Entries / NormFactor) show NC gr  1 0 0 c 1 1 1 c 1 0 0 c 174 250 m 70 Y s 174 332 m 27 Y s 167 326 m 1 X s 180 326 m 1 X s 171 250 m 6 X s 171 359 m 6 X s 167 323
 m 6 Y s 181 323 m 6 Y s 174 326 m24 202 298 m 48 Y s 202 357 m 23 Y s 195 351 m 1 X s 207 351 m 1 X s 199 298 m 5 X s 199 380 m 5 X s 195 348 m 6 Y s 208 348 m 6 Y s 202 351 m24 215 250 m 70 Y s 215 332 m 27 Y s 208 326 m 2 X s 221 326 m 1 X s 213
 250 m 5 X s 213 359 m 5 X s 208 323 m 6 Y s 222 323 m 6 Y s 215 326 m24 229 250 m 70 Y s 229 332 m 27 Y s 222 326 m 1 X s 235 326 m 1 X s 226 250 m 6 X s 226 359 m 6 X s 222 323 m 6 Y s 236 323 m 6 Y s 229 326 m24 243 118 m 159 Y s 243 289 m 37 Y s
 236 283 m 1 X s 249 283 m 1 X s 240 118 m 6 X s 240 326 m 6 X s 236 280 m 6 Y s 250 280 m 6 Y s 243 283 m24 257 326 m 37 Y s 257 375 m 19 Y s 250 369 m 1 X s 262 369 m 2 X s 254 326 m 6 X s 254 394 m 6 X s 250 366 m 6 Y s 264 366 m 6 Y s 257 369 m24
 270 298 m 48 Y s 270 357 m 23 Y s 264 351 m 1 X s 276 351 m 1 X s 268 298 m 5 X s 268 380 m 5 X s 264 348 m 6 Y s 277 348 m 6 Y s 270 351 m24 284 298 m 48 Y s 284 357 m 23 Y s 277 351 m 2 X s 290 351 m 1 X s 281 298 m 6 X s 281 380 m 6 X s 277 348 m
 6 Y s 291 348 m 6 Y s 284 351 m24 298 250 m 70 Y s 298 332 m 27 Y s 291 326 m 1 X s 304 326 m 1 X s 295 250 m 6 X s 295 359 m 6 X s 291 323 m 6 Y s 305 323 m 6 Y s 298 326 m24 312 250 m 70 Y s 312 332 m 27 Y s 305 326 m 1 X s 318 326 m 1 X s 309 250
 m 6 X s 309 359 m 6 X s 305 323 m 6 Y s 319 323 m 6 Y s 312 326 m24 381 250 m 70 Y s 381 332 m 27 Y s 374 326 m 1 X s 386 326 m 2 X s 378 250 m 6 X s 378 359 m 6 X s 374 323 m 6 Y s 388 323 m 6 Y s 381 326 m24 450 118 m 159 Y s 450 289 m 37 Y s 443
 283 m 1 X s 455 283 m 2 X s 447 118 m 6 X s 447 326 m 6 X s 443 280 m 6 Y s 457 280 m 6 Y s 450 283 m24 560 250 m 70 Y s 560 332 m 27 Y s 553 326 m 1 X s 566 326 m 1 X s 557 250 m 6 X s 557 359 m 6 X s 553 323 m 6 Y s 567 323 m 6 Y s 560 326 m24 657
 118 m 159 Y s 657 289 m 37 Y s 650 283 m 1 X s 662 283 m 1 X s 654 118 m 5 X s 654 326 m 5 X s 650 280 m 6 Y s 663 280 m 6 Y s 657 283 m24 767 118 m 159 Y s 767 289 m 37 Y s 760 283 m 1 X s 773 283 m 1 X s 764 118 m 6 X s 764 326 m 6 X s 760 280 m 6
 Y s 774 280 m 6 Y s 767 283 m24 808 250 m 70 Y s 808 332 m 27 Y s 801 326 m 2 X s 814 326 m 1 X s 805 250 m 6 X s 805 359 m 6 X s 801 323 m 6 Y s 815 323 m 6 Y s 808 326 m24 822 118 m 159 Y s 822 289 m 37 Y s 815 283 m 1 X s 828 283 m 1 X s 819 118
 m 6 X s 819 326 m 6 X s 815 280 m 6 Y s 829 280 m 6 Y s 822 283 m24 850 250 m 70 Y s 850 332 m 27 Y s 843 326 m 1 X s 855 326 m 1 X s 847 250 m 5 X s 847 359 m 5 X s 843 323 m 6 Y s 856 323 m 6 Y s 850 326 m24 974 118 m 159 Y s 974 289 m 37 Y s 967
 283 m 1 X s 979 283 m 2 X s 971 118 m 6 X s 971 326 m 6 X s 967 280 m 6 Y s 981 280 m 6 Y s 974 283 m24 black 1 1 1 c black 174 398 m 9 Y s 174 419 m 6 Y s 167 413 m 1 X s 180 413 m 1 X s 171 398 m 6 X s 171 425 m 6 X s 167 410 m 6 Y s 181 410 m 6 Y
 s 174 413 m20 188 428 m 5 Y s 188 445 m 4 Y s 181 439 m 1 X s 193 439 m 2 X s 185 428 m 6 X s 185 449 m 6 X s 181 436 m 6 Y s 195 436 m 6 Y s 188 439 m20 202 426 m 6 Y s 202 443 m 4 Y s 195 437 m 1 X s 207 437 m 1 X s 199 426 m 5 X s 199 447 m 5 X s
 195 434 m 6 Y s 208 434 m 6 Y s 202 437 m20 215 417 m 7 Y s 215 435 m 5 Y s 208 429 m 2 X s 221 429 m 1 X s 213 417 m 5 X s 213 440 m 5 X s 208 427 m 5 Y s 222 427 m 5 Y s 215 429 m20 229 424 m 6 Y s 229 441 m 4 Y s 222 435 m 1 X s 235 435 m 1 X s
 226 424 m 6 X s 226 445 m 6 X s 222 433 m 5 Y s 236 433 m 5 Y s 229 435 m20 243 435 m 5 Y s 243 451 m 4 Y s 236 446 m 1 X s 249 446 m 1 X s 240 435 m 6 X s 240 455 m 6 X s 236 443 m 6 Y s 250 443 m 6 Y s 243 446 m20 257 440 m 5 Y s 257 456 m 3 Y s
 250 450 m 1 X s 262 450 m 2 X s 254 440 m 6 X s 254 459 m 6 X s 250 448 m 5 Y s 264 448 m 5 Y s 257 450 m20 270 428 m 5 Y s 270 445 m 4 Y s 264 439 m 1 X s 276 439 m 1 X s 268 428 m 5 X s 268 449 m 5 X s 264 436 m 6 Y s 277 436 m 6 Y s 270 439 m20
 284 445 m 4 Y s 284 460 m 3 Y s 277 455 m 2 X s 290 455 m 1 X s 281 445 m 6 X s 281 463 m 6 X s 277 452 m 5 Y s 291 452 m 5 Y s 284 455 m20 298 421 m 7 Y s 298 439 m 5 Y s 291 433 m 1 X s 304 433 m 1 X s 295 421 m 6 X s 295 444 m 6 X s 291 431 m 5 Y
 s 305 431 m 5 Y s 298 433 m20 312 458 m 3 Y s 312 473 m 2 Y s 305 467 m 1 X s 318 467 m 1 X s 309 458 m 6 X s 309 475 m 6 X s 305 464 m 6 Y s 319 464 m 6 Y s 312 467 m20 326 461 m 3 Y s 326 475 m 2 Y s 319 469 m 1 X s 331 469 m 2 X s 323 461 m 5 X s
 323 477 m 5 X s 319 467 m 5 Y s 333 467 m 5 Y s 326 469 m20 339 477 m 2 Y s 339 490 m 2 Y s 333 485 m 1 X s 345 485 m 1 X s 337 477 m 5 X s 337 492 m 5 X s 333 482 m 6 Y s 346 482 m 6 Y s 339 485 m20 353 465 m 3 Y s 353 479 m 2 Y s 346 474 m 2 X s
 359 474 m 1 X s 350 465 m 6 X s 350 481 m 6 X s 346 471 m 5 Y s 360 471 m 5 Y s 353 474 m20 367 452 m 4 Y s 367 467 m 2 Y s 360 461 m 1 X s 373 461 m 1 X s 364 452 m 6 X s 364 469 m 6 X s 360 458 m 6 Y s 374 458 m 6 Y s 367 461 m20 381 468 m 3 Y s
 381 482 m 2 Y s 374 477 m 1 X s 386 477 m 2 X s 378 468 m 6 X s 378 484 m 6 X s 374 474 m 5 Y s 388 474 m 5 Y s 381 477 m20 395 498 m 1 Y s 395 511 m s 388 505 m 1 X s 400 505 m 1 X s 392 498 m 5 X s 392 511 m 5 X s 388 502 m 6 Y s 401 502 m 6 Y s
 395 505 m20 408 498 m 1 Y s 408 511 m s 401 505 m 2 X s 414 505 m 1 X s 406 498 m 5 X s 406 511 m 5 X s 401 502 m 6 Y s 415 502 m 6 Y s 408 505 m20 422 498 m 1 Y s 422 510 m s 415 504 m 1 X s 428 504 m 1 X s 419 498 m 6 X s 419 510 m 6 X s 415 501 m
 6 Y s 429 501 m 6 Y s 422 504 m20 436 505 m s 429 511 m 1 X s 442 511 m 1 X s 433 505 m 6 X s 429 508 m 6 Y s 443 508 m 6 Y s 436 511 m20 443 528 m 1 X s 455 528 m 2 X s 443 525 m 6 Y s 457 525 m 6 Y s 450 528 m20 457 540 m 1 X s 469 540 m 1 X s 457
 537 m 6 Y s 470 537 m 6 Y s 464 540 m20 470 566 m 2 X s 483 566 m 1 X s 470 564 m 5 Y s 484 564 m 5 Y s 477 566 m20 484 573 m 1 X s 497 573 m 1 X s 484 570 m 5 Y s 498 570 m 5 Y s 491 573 m20 498 600 m 1 X s 511 600 m 1 X s 498 597 m 6 Y s 512 597 m
 6 Y s 505 600 m20 512 613 m 1 X s 524 613 m 2 X s 512 610 m 6 Y s 526 610 m 6 Y s 519 613 m20 526 642 m 1 X s 538 642 m 1 X s 526 639 m 6 Y s 539 639 m 6 Y s 532 642 m20 539 658 m 2 X s 552 658 m 1 X s 539 655 m 6 Y s 553 655 m 6 Y s 546 658 m20 553
 678 m 1 X s 566 678 m 1 X s 553 675 m 6 Y s 567 675 m 6 Y s 560 678 m20 567 688 m 1 X s 579 688 m 2 X s 567 685 m 6 Y s 581 685 m 6 Y s 574 688 m20 581 690 m 1 X s 593 690 m 2 X s 581 687 m 6 Y s 595 687 m 6 Y s 588 690 m20 595 672 m 1 X s 607 672 m
 1 X s 595 669 m 6 Y s 608 669 m 6 Y s 601 672 m20 608 648 m 2 X s 621 648 m 1 X s 608 645 m 5 Y s 622 645 m 5 Y s 615 648 m20 622 624 m 1 X s 635 624 m 1 X s 622 621 m 6 Y s 636 621 m 6 Y s 629 624 m20 636 590 m 1 X s 648 590 m 2 X s 636 587 m 6 Y s
 650 587 m 6 Y s 643 590 m20 650 563 m 1 X s 662 563 m 1 X s 650 560 m 6 Y s 663 560 m 6 Y s 657 563 m20 663 549 m 2 X s 676 549 m 1 X s 663 546 m 5 Y s 677 546 m 5 Y s 670 549 m20 677 525 m 1 X s 690 525 m 1 X s 677 522 m 6 Y s 691 522 m 6 Y s 684
 525 m20 698 499 m 1 Y s 698 511 m s 691 505 m 1 X s 704 505 m 1 X s 695 499 m 6 X s 695 511 m 6 X s 691 503 m 5 Y s 705 503 m 5 Y s 698 505 m20 712 483 m 2 Y s 712 496 m 1 Y s 705 490 m 1 X s 717 490 m 2 X s 709 483 m 6 X s 709 497 m 6 X s 705 488 m
 5 Y s 719 488 m 5 Y s 712 490 m20 725 472 m 3 Y s 725 486 m 1 Y s 719 480 m 1 X s 731 480 m 1 X s 723 472 m 5 X s 723 487 m 5 X s 719 477 m 6 Y s 732 477 m 6 Y s 725 480 m20 739 454 m 4 Y s 739 469 m 3 Y s 732 464 m 2 X s 745 464 m 1 X s 736 454 m 6
 X s 736 472 m 6 X s 732 461 m 5 Y s 746 461 m 5 Y s 739 464 m20 753 450 m 4 Y s 753 466 m 2 Y s 746 460 m 1 X s 759 460 m 1 X s 750 450 m 6 X s 750 468 m 6 X s 746 457 m 6 Y s 760 457 m 6 Y s 753 460 m20 767 446 m 4 Y s 767 462 m 3 Y s 760 456 m 1 X
 s 773 456 m 1 X s 764 446 m 6 X s 764 465 m 6 X s 760 453 m 6 Y s 774 453 m 6 Y s 767 456 m20 781 428 m 5 Y s 781 445 m 4 Y s 774 439 m 1 X s 786 439 m 2 X s 778 428 m 5 X s 778 449 m 5 X s 774 436 m 6 Y s 788 436 m 6 Y s 781 439 m20 794 415 m 7 Y s
 794 433 m 5 Y s 788 427 m 1 X s 800 427 m 1 X s 792 415 m 5 X s 792 438 m 5 X s 788 425 m 5 Y s 801 425 m 5 Y s 794 427 m20 808 363 m 13 Y s 808 388 m 9 Y s 801 382 m 2 X s 814 382 m 1 X s 805 363 m 6 X s 805 397 m 6 X s 801 379 m 6 Y s 815 379 m 6
 Y s 808 382 m20 822 412 m 8 Y s 822 431 m 5 Y s 815 425 m 1 X s 828 425 m 1 X s 819 412 m 6 X s 819 436 m 6 X s 815 422 m 6 Y s 829 422 m 6 Y s 822 425 m20 836 363 m 13 Y s 836 388 m 9 Y s 829 382 m 1 X s 841 382 m 2 X s 833 363 m 6 X s 833 397 m 6
 X s 829 379 m 6 Y s 843 379 m 6 Y s 836 382 m20 850 398 m 9 Y s 850 419 m 6 Y s 843 413 m 1 X s 855 413 m 1 X s 847 398 m 5 X s 847 425 m 5 X s 843 410 m 6 Y s 856 410 m 6 Y s 850 413 m20 863 377 m 12 Y s 863 400 m 8 Y s 856 394 m 2 X s 869 394 m 1
 X s 861 377 m 5 X s 861 408 m 5 X s 856 391 m 6 Y s 870 391 m 6 Y s 863 394 m20 877 357 m 15 Y s 877 383 m 10 Y s 870 378 m 1 X s 883 378 m 1 X s 874 357 m 6 X s 874 393 m 6 X s 870 375 m 5 Y s 884 375 m 5 Y s 877 378 m20 891 357 m 15 Y s 891 383 m
 10 Y s 884 378 m 1 X s 897 378 m 1 X s 888 357 m 6 X s 888 393 m 6 X s 884 375 m 5 Y s 898 375 m 5 Y s 891 378 m20 905 398 m 9 Y s 905 419 m 6 Y s 898 413 m 1 X s 910 413 m 2 X s 902 398 m 6 X s 902 425 m 6 X s 898 410 m 6 Y s 912 410 m 6 Y s 905
 413 m20 919 373 m 12 Y s 919 396 m 8 Y s 912 390 m 1 X s 924 390 m 1 X s 916 373 m 5 X s 916 404 m 5 X s 912 388 m 5 Y s 925 388 m 5 Y s 919 390 m20 932 338 m 18 Y s 932 367 m 11 Y s 925 361 m 2 X s 938 361 m 1 X s 929 338 m 6 X s 929 378 m 6 X s
 925 358 m 6 Y s 939 358 m 6 Y s 932 361 m20 946 363 m 13 Y s 946 388 m 9 Y s 939 382 m 1 X s 952 382 m 1 X s 943 363 m 6 X s 943 397 m 6 X s 939 379 m 6 Y s 953 379 m 6 Y s 946 382 m20 960 345 m 16 Y s 960 373 m 11 Y s 953 367 m 1 X s 966 367 m 1 X
 s 957 345 m 6 X s 957 384 m 6 X s 953 364 m 6 Y s 967 364 m 6 Y s 960 367 m20 974 329 m 20 Y s 974 360 m 13 Y s 967 355 m 1 X s 979 355 m 2 X s 971 329 m 6 X s 971 373 m 6 X s 967 352 m 6 Y s 981 352 m 6 Y s 974 355 m20 1 1 1 c black 174 297 m 27 Y
 s 174 335 m 16 Y s 167 329 m 1 X s 180 329 m 1 X s 171 297 m 6 X s 171 351 m 6 X s 167 327 m 5 Y s 181 327 m 5 Y s 174 329 m24 188 261 m 38 Y s 188 310 m 19 Y s 181 304 m 1 X s 193 304 m 2 X s 185 261 m 6 X s 185 329 m 6 X s 181 301 m 6 Y s 195 301
 m 6 Y s 188 304 m24 202 185 m 71 Y s 202 267 m 27 Y s 195 261 m 1 X s 207 261 m 1 X s 199 185 m 5 X s 199 294 m 5 X s 195 258 m 6 Y s 208 258 m 6 Y s 202 261 m24 215 329 m 20 Y s 215 360 m 13 Y s 208 355 m 2 X s 221 355 m 1 X s 213 329 m 5 X s 213
 373 m 5 X s 208 352 m 6 Y s 222 352 m 6 Y s 215 355 m24 229 185 m 71 Y s 229 267 m 27 Y s 222 261 m 1 X s 235 261 m 1 X s 226 185 m 6 X s 226 294 m 6 X s 222 258 m 6 Y s 236 258 m 6 Y s 229 261 m24 243 261 m 38 Y s 243 310 m 19 Y s 236 304 m 1 X s
 249 304 m 1 X s 240 261 m 6 X s 240 329 m 6 X s 236 301 m 6 Y s 250 301 m 6 Y s 243 304 m24 257 233 m 48 Y s 257 292 m 23 Y s 250 286 m 1 X s 262 286 m 2 X s 254 233 m 6 X s 254 315 m 6 X s 250 284 m 5 Y s 264 284 m 5 Y s 257 286 m24 270 281 m 31 Y
 s 270 324 m 17 Y s 264 318 m 1 X s 276 318 m 1 X s 268 281 m 5 X s 268 341 m 5 X s 264 315 m 6 Y s 277 315 m 6 Y s 270 318 m24 284 233 m 48 Y s 284 292 m 23 Y s 277 286 m 2 X s 290 286 m 1 X s 281 233 m 6 X s 281 315 m 6 X s 277 284 m 5 Y s 291 284
 m 5 Y s 284 286 m24 298 233 m 48 Y s 298 292 m 23 Y s 291 286 m 1 X s 304 286 m 1 X s 295 233 m 6 X s 295 315 m 6 X s 291 284 m 5 Y s 305 284 m 5 Y s 298 286 m24 326 233 m 48 Y s 326 292 m 23 Y s 319 286 m 1 X s 331 286 m 2 X s 323 233 m 5 X s 323
 315 m 5 X s 319 284 m 5 Y s 333 284 m 5 Y s 326 286 m24 339 261 m 38 Y s 339 310 m 19 Y s 333 304 m 1 X s 345 304 m 1 X s 337 261 m 5 X s 337 329 m 5 X s 333 301 m 6 Y s 346 301 m 6 Y s 339 304 m24 353 118 m 94 Y s 353 224 m 37 Y s 346 218 m 2 X s
 359 218 m 1 X s 350 118 m 6 X s 350 261 m 6 X s 346 215 m 6 Y s 360 215 m 6 Y s 353 218 m24 367 118 m 94 Y s 367 224 m 37 Y s 360 218 m 1 X s 373 218 m 1 X s 364 118 m 6 X s 364 261 m 6 X s 360 215 m 6 Y s 374 215 m 6 Y s 367 218 m24 381 233 m 48 Y
 s 381 292 m 23 Y s 374 286 m 1 X s 386 286 m 2 X s 378 233 m 6 X s 378 315 m 6 X s 374 284 m 5 Y s 388 284 m 5 Y s 381 286 m24 395 233 m 48 Y s 395 292 m 23 Y s 388 286 m 1 X s 400 286 m 1 X s 392 233 m 5 X s 392 315 m 5 X s 388 284 m 5 Y s 401 284
 m 5 Y s 395 286 m24 408 310 m 23 Y s 408 345 m 14 Y s 401 339 m 2 X s 414 339 m 1 X s 406 310 m 5 X s 406 359 m 5 X s 401 336 m 6 Y s 415 336 m 6 Y s 408 339 m24 422 118 m 94 Y s 422 224 m 37 Y s 415 218 m 1 X s 428 218 m 1 X s 419 118 m 6 X s 419
 261 m 6 X s 415 215 m 6 Y s 429 215 m 6 Y s 422 218 m24 436 233 m 48 Y s 436 292 m 23 Y s 429 286 m 1 X s 442 286 m 1 X s 433 233 m 6 X s 433 315 m 6 X s 429 284 m 5 Y s 443 284 m 5 Y s 436 286 m24 450 118 m 94 Y s 450 224 m 37 Y s 443 218 m 1 X s
 455 218 m 2 X s 447 118 m 6 X s 447 261 m 6 X s 443 215 m 6 Y s 457 215 m 6 Y s 450 218 m24 477 185 m 71 Y s 477 267 m 27 Y s 470 261 m 2 X s 483 261 m 1 X s 474 185 m 6 X s 474 294 m 6 X s 470 258 m 6 Y s 484 258 m 6 Y s 477 261 m24 491 118 m 94 Y
 s 491 224 m 37 Y s 484 218 m 1 X s 497 218 m 1 X s 488 118 m 6 X s 488 261 m 6 X s 484 215 m 6 Y s 498 215 m 6 Y s 491 218 m24 519 233 m 48 Y s 519 292 m 23 Y s 512 286 m 1 X s 524 286 m 2 X s 516 233 m 6 X s 516 315 m 6 X s 512 284 m 5 Y s 526 284
 m 5 Y s 519 286 m24 560 233 m 48 Y s 560 292 m 23 Y s 553 286 m 1 X s 566 286 m 1 X s 557 233 m 6 X s 557 315 m 6 X s 553 284 m 5 Y s 567 284 m 5 Y s 560 286 m24 574 185 m 71 Y s 574 267 m 27 Y s 567 261 m 1 X s 579 261 m 2 X s 571 185 m 6 X s 571
 294 m 6 X s 567 258 m 6 Y s 581 258 m 6 Y s 574 261 m24 588 185 m 71 Y s 588 267 m 27 Y s 581 261 m 1 X s 593 261 m 2 X s 585 185 m 5 X s 585 294 m 5 X s 581 258 m 6 Y s 595 258 m 6 Y s 588 261 m24 601 185 m 71 Y s 601 267 m 27 Y s 595 261 m 1 X s
 607 261 m 1 X s 599 185 m 5 X s 599 294 m 5 X s 595 258 m 6 Y s 608 258 m 6 Y s 601 261 m24 615 185 m 71 Y s 615 267 m 27 Y s 608 261 m 2 X s 621 261 m 1 X s 612 185 m 6 X s 612 294 m 6 X s 608 258 m 6 Y s 622 258 m 6 Y s 615 261 m24 629 185 m 71 Y
 s 629 267 m 27 Y s 622 261 m 1 X s 635 261 m 1 X s 626 185 m 6 X s 626 294 m 6 X s 622 258 m 6 Y s 636 258 m 6 Y s 629 261 m24 643 118 m 94 Y s 643 224 m 37 Y s 636 218 m 1 X s 648 218 m 2 X s 640 118 m 6 X s 640 261 m 6 X s 636 215 m 6 Y s 650 215
 m 6 Y s 643 218 m24 670 118 m 94 Y s 670 224 m 37 Y s 663 218 m 2 X s 676 218 m 1 X s 667 118 m 6 X s 667 261 m 6 X s 663 215 m 6 Y s 677 215 m 6 Y s 670 218 m24 684 185 m 71 Y s 684 267 m 27 Y s 677 261 m 1 X s 690 261 m 1 X s 681 185 m 6 X s 681
 294 m 6 X s 677 258 m 6 Y s 691 258 m 6 Y s 684 261 m24 698 118 m 94 Y s 698 224 m 37 Y s 691 218 m 1 X s 704 218 m 1 X s 695 118 m 6 X s 695 261 m 6 X s 691 215 m 6 Y s 705 215 m 6 Y s 698 218 m24 712 118 m 94 Y s 712 224 m 37 Y s 705 218 m 1 X s
 717 218 m 2 X s 709 118 m 6 X s 709 261 m 6 X s 705 215 m 6 Y s 719 215 m 6 Y s 712 218 m24 753 233 m 48 Y s 753 292 m 23 Y s 746 286 m 1 X s 759 286 m 1 X s 750 233 m 6 X s 750 315 m 6 X s 746 284 m 5 Y s 760 284 m 5 Y s 753 286 m24 767 185 m 71 Y
 s 767 267 m 27 Y s 760 261 m 1 X s 773 261 m 1 X s 764 185 m 6 X s 764 294 m 6 X s 760 258 m 6 Y s 774 258 m 6 Y s 767 261 m24 850 185 m 71 Y s 850 267 m 27 Y s 843 261 m 1 X s 855 261 m 1 X s 847 185 m 5 X s 847 294 m 5 X s 843 258 m 6 Y s 856 258
 m 6 Y s 850 261 m24 877 118 m 94 Y s 877 224 m 37 Y s 870 218 m 1 X s 883 218 m 1 X s 874 118 m 6 X s 874 261 m 6 X s 870 215 m 6 Y s 884 215 m 6 Y s 877 218 m24 905 118 m 94 Y s 905 224 m 37 Y s 898 218 m 1 X s 910 218 m 2 X s 902 118 m 6 X s 902
 261 m 6 X s 898 215 m 6 Y s 912 215 m 6 Y s 905 218 m24 932 118 m 94 Y s 932 224 m 37 Y s 925 218 m 2 X s 938 218 m 1 X s 929 118 m 6 X s 929 261 m 6 X s 925 215 m 6 Y s 939 215 m 6 Y s 932 218 m24 946 118 m 94 Y s 946 224 m 37 Y s 939 218 m 1 X s
 952 218 m 1 X s 943 118 m 6 X s 943 261 m 6 X s 939 215 m 6 Y s 953 215 m 6 Y s 946 218 m24 960 118 m 94 Y s 960 224 m 37 Y s 953 218 m 1 X s 966 218 m 1 X s 957 118 m 6 X s 957 261 m 6 X s 953 215 m 6 Y s 967 215 m 6 Y s 960 218 m24 0 0 1 c[ 12 12]
 0 sd 6 lw 443 118 m 529 Y s 719 118 m 529 Y s black[  ] 0 sd 3 lw 1 1 1 c 272 268 186 654 bf black
 gsave  1088 1072 23 11 C 252.599 874.164 t 0 r /Helvetica findfont 39.7652 sf 0 0 m (OC data: 14025) show NC gr  220 889 m20
 gsave  1088 1072 23 11 C 252.599 807.466 t 0 r /Helvetica findfont 39.7652 sf 0 0 m (SC data: 26) show NC gr  220 822 m24
 gsave  1088 1072 23 11 C 252.599 740.768 t 0 r /Helvetica findfont 39.7652 sf 0 0 m (OC MC: 30402) show NC gr  1 0 0 c 220 755 m20 black
 gsave  1088 1072 23 11 C 252.599 674.071 t 0 r /Helvetica findfont 39.7652 sf 0 0 m (SC MC: 4) show NC gr  1 0 0 c 220 688 m24 black
 gsave  1088 1072 23 11 C 566.22 901.126 t 0 r /Helvetica-Bold findfont 59.6478 sf 0 0 m (pp collisions) show NC gr  1 1 1 c 1088 1072 1157 11 bf black 1 1 1 c 827 858 1287 118 bf black 827 858 1287 118 bl 1 1 1 c 827 858 1287 118 bf black 827 858
 1287 118 bl 1 0 0 c 1 1 1 c 1 0 0 c 1308 324 m 2 Y s 1308 337 m 1 Y s 1301 332 m 1 X s 1314 332 m 1 X s 1305 324 m 6 X s 1305 338 m 6 X s 1301 329 m 6 Y s 1315 329 m 6 Y s 1308 332 m20 1322 336 m 1 Y s 1322 348 m 1 Y s 1315 343 m 1 X s 1327 343 m 2
 X s 1319 336 m 5 X s 1319 349 m 5 X s 1315 340 m 5 Y s 1329 340 m 5 Y s 1322 343 m20 1335 337 m 1 Y s 1335 349 m s 1329 343 m 1 X s 1341 343 m 1 X s 1333 337 m 5 X s 1333 349 m 5 X s 1329 341 m 5 Y s 1342 341 m 5 Y s 1335 343 m20 1349 341 m 1 Y s
 1349 353 m s 1342 348 m 2 X s 1355 348 m 1 X s 1346 341 m 6 X s 1346 353 m 6 X s 1342 345 m 5 Y s 1356 345 m 5 Y s 1349 348 m20 1363 342 m 1 Y s 1356 348 m 1 X s 1369 348 m 1 X s 1360 342 m 6 X s 1356 346 m 5 Y s 1370 346 m 5 Y s 1363 348 m20 1377
 347 m 1 Y s 1370 354 m 1 X s 1382 354 m 2 X s 1374 347 m 6 X s 1370 351 m 5 Y s 1384 351 m 5 Y s 1377 354 m20 1384 361 m 1 X s 1396 361 m 1 X s 1384 358 m 5 Y s 1397 358 m 5 Y s 1391 361 m20 1404 343 m s 1397 349 m 2 X s 1410 349 m 1 X s 1402 343 m
 5 X s 1397 346 m 6 Y s 1411 346 m 6 Y s 1404 349 m20 1418 353 m s 1411 359 m 1 X s 1424 359 m 1 X s 1415 353 m 6 X s 1411 356 m 6 Y s 1425 356 m 6 Y s 1418 359 m20 1425 367 m 1 X s 1438 367 m 1 X s 1425 364 m 6 Y s 1439 364 m 6 Y s 1432 367 m20 1439
 368 m 1 X s 1451 368 m 2 X s 1439 365 m 6 Y s 1453 365 m 6 Y s 1446 368 m20 1453 375 m 1 X s 1465 375 m 1 X s 1453 372 m 6 Y s 1466 372 m 6 Y s 1460 375 m20 1466 371 m 2 X s 1479 371 m 1 X s 1466 368 m 6 Y s 1480 368 m 6 Y s 1473 371 m20 1480 381 m
 1 X s 1493 381 m 1 X s 1480 379 m 5 Y s 1494 379 m 5 Y s 1487 381 m20 1494 382 m 1 X s 1507 382 m 1 X s 1494 379 m 6 Y s 1508 379 m 6 Y s 1501 382 m20 1508 384 m 1 X s 1520 384 m 2 X s 1508 381 m 6 Y s 1522 381 m 6 Y s 1515 384 m20 1522 396 m 1 X s
 1534 396 m 1 X s 1522 393 m 6 Y s 1535 393 m 6 Y s 1528 396 m20 1535 407 m 2 X s 1548 407 m 1 X s 1535 404 m 6 Y s 1549 404 m 6 Y s 1542 407 m20 1549 409 m 1 X s 1562 409 m 1 X s 1549 407 m 5 Y s 1563 407 m 5 Y s 1556 409 m20 1563 416 m 1 X s 1575
 416 m 2 X s 1563 413 m 6 Y s 1577 413 m 6 Y s 1570 416 m20 1577 428 m 1 X s 1589 428 m 1 X s 1577 425 m 6 Y s 1590 425 m 6 Y s 1584 428 m20 1590 439 m 2 X s 1603 439 m 1 X s 1590 436 m 6 Y s 1604 436 m 6 Y s 1597 439 m20 1604 446 m 1 X s 1617 446 m
 1 X s 1604 443 m 5 Y s 1618 443 m 5 Y s 1611 446 m20 1618 455 m 1 X s 1631 455 m 1 X s 1618 452 m 5 Y s 1632 452 m 5 Y s 1625 455 m20 1632 474 m 1 X s 1644 474 m 2 X s 1632 471 m 6 Y s 1646 471 m 6 Y s 1639 474 m20 1646 493 m 1 X s 1658 493 m 1 X s
 1646 490 m 6 Y s 1659 490 m 6 Y s 1653 493 m20 1659 509 m 2 X s 1672 509 m 1 X s 1659 506 m 6 Y s 1673 506 m 6 Y s 1666 509 m20 1673 525 m 1 X s 1686 525 m 1 X s 1673 523 m 5 Y s 1687 523 m 5 Y s 1680 525 m20 1687 540 m 1 X s 1700 540 m 1 X s 1687
 538 m 5 Y s 1701 538 m 5 Y s 1694 540 m20 1701 547 m 1 X s 1713 547 m 2 X s 1701 544 m 6 Y s 1715 544 m 6 Y s 1708 547 m20 1715 545 m 1 X s 1727 545 m 1 X s 1715 542 m 5 Y s 1728 542 m 5 Y s 1721 545 m20 1728 534 m 2 X s 1741 534 m 1 X s 1728 532 m
 5 Y s 1742 532 m 5 Y s 1735 534 m20 1742 520 m 1 X s 1755 520 m 1 X s 1742 518 m 5 Y s 1756 518 m 5 Y s 1749 520 m20 1756 497 m 1 X s 1769 497 m 1 X s 1756 494 m 6 Y s 1770 494 m 6 Y s 1763 497 m20 1770 475 m 1 X s 1782 475 m 2 X s 1770 473 m 5 Y s
 1784 473 m 5 Y s 1777 475 m20 1784 451 m 1 X s 1796 451 m 1 X s 1784 448 m 6 Y s 1797 448 m 6 Y s 1790 451 m20 1797 434 m 2 X s 1810 434 m 1 X s 1797 431 m 6 Y s 1811 431 m 6 Y s 1804 434 m20 1811 423 m 1 X s 1824 423 m 1 X s 1811 420 m 6 Y s 1825
 420 m 6 Y s 1818 423 m20 1825 410 m 1 X s 1837 410 m 2 X s 1825 407 m 6 Y s 1839 407 m 6 Y s 1832 410 m20 1839 396 m 1 X s 1851 396 m 1 X s 1839 393 m 6 Y s 1852 393 m 6 Y s 1846 396 m20 1852 385 m 2 X s 1865 385 m 1 X s 1852 383 m 5 Y s 1866 383 m
 5 Y s 1859 385 m20 1866 361 m 1 X s 1879 361 m 1 X s 1866 358 m 5 Y s 1880 358 m 5 Y s 1873 361 m20 1880 374 m 1 X s 1893 374 m 1 X s 1880 371 m 6 Y s 1894 371 m 6 Y s 1887 374 m20 1901 346 m s 1894 352 m 1 X s 1906 352 m 2 X s 1898 346 m 6 X s 1894
 349 m 6 Y s 1908 349 m 6 Y s 1901 352 m20 1914 343 m s 1908 349 m 1 X s 1920 349 m 1 X s 1912 343 m 5 X s 1908 346 m 6 Y s 1921 346 m 6 Y s 1914 349 m20 1928 349 m s 1921 355 m 2 X s 1934 355 m 1 X s 1925 349 m 6 X s 1921 352 m 6 Y s 1935 352 m 6 Y
 s 1928 355 m20 1942 315 m 3 Y s 1942 329 m 2 Y s 1935 323 m 1 X s 1948 323 m 1 X s 1939 315 m 6 X s 1939 331 m 6 X s 1935 320 m 6 Y s 1949 320 m 6 Y s 1942 323 m20 1956 337 m 1 Y s 1956 349 m s 1949 343 m 1 X s 1962 343 m 1 X s 1953 337 m 6 X s 1953
 349 m 6 X s 1949 341 m 5 Y s 1963 341 m 5 Y s 1956 343 m20 1970 324 m 2 Y s 1970 337 m 1 Y s 1963 332 m 1 X s 1975 332 m 2 X s 1967 324 m 5 X s 1967 338 m 5 X s 1963 329 m 6 Y s 1977 329 m 6 Y s 1970 332 m20 1983 317 m 3 Y s 1983 332 m 1 Y s 1977
 326 m 1 X s 1989 326 m 1 X s 1981 317 m 5 X s 1981 333 m 5 X s 1977 323 m 6 Y s 1990 323 m 6 Y s 1983 326 m20 1997 320 m 3 Y s 1997 334 m 1 Y s 1990 328 m 2 X s 2003 328 m 1 X s 1994 320 m 6 X s 1994 335 m 6 X s 1990 325 m 6 Y s 2004 325 m 6 Y s
 1997 328 m20 2011 307 m 3 Y s 2011 322 m 2 Y s 2004 316 m 1 X s 2017 316 m 1 X s 2008 307 m 6 X s 2008 324 m 6 X s 2004 313 m 6 Y s 2018 313 m 6 Y s 2011 316 m20 2025 312 m 3 Y s 2025 326 m 2 Y s 2018 321 m 1 X s 2030 321 m 2 X s 2022 312 m 6 X s
 2022 328 m 6 X s 2018 318 m 5 Y s 2032 318 m 5 Y s 2025 321 m20 2039 285 m 7 Y s 2039 303 m 4 Y s 2032 297 m 1 X s 2044 297 m 1 X s 2036 285 m 5 X s 2036 307 m 5 X s 2032 294 m 6 Y s 2045 294 m 6 Y s 2039 297 m20 2052 290 m 6 Y s 2052 307 m 4 Y s
 2045 302 m 2 X s 2058 302 m 1 X s 2050 290 m 5 X s 2050 311 m 5 X s 2045 299 m 5 Y s 2059 299 m 5 Y s 2052 302 m20 2066 312 m 3 Y s 2066 326 m 2 Y s 2059 321 m 1 X s 2072 321 m 1 X s 2063 312 m 6 X s 2063 328 m 6 X s 2059 318 m 5 Y s 2073 318 m 5 Y
 s 2066 321 m20 2080 297 m 5 Y s 2080 313 m 3 Y s 2073 308 m 1 X s 2086 308 m 1 X s 2077 297 m 6 X s 2077 316 m 6 X s 2073 305 m 5 Y s 2087 305 m 5 Y s 2080 308 m20 2094 273 m 8 Y s 2094 292 m 5 Y s 2087 287 m 1 X s 2099 287 m 2 X s 2091 273 m 6 X s
 2091 297 m 6 X s 2087 284 m 6 Y s 2101 284 m 6 Y s 2094 287 m20 2108 295 m 5 Y s 2108 311 m 3 Y s 2101 306 m 1 X s 2113 306 m 1 X s 2105 295 m 5 X s 2105 314 m 5 X s 2101 303 m 6 Y s 2114 303 m 6 Y s 2108 306 m20 black 1287 118 m 827 X s 1287 143 m
 -25 Y s 1315 130 m -12 Y s 1342 130 m -12 Y s 1370 130 m -12 Y s 1397 130 m -12 Y s 1425 143 m -25 Y s 1453 130 m -12 Y s 1480 130 m -12 Y s 1508 130 m -12 Y s 1535 130 m -12 Y s 1563 143 m -25 Y s 1590 130 m -12 Y s 1618 130 m -12 Y s 1646 130 m
 -12 Y s 1673 130 m -12 Y s 1701 143 m -25 Y s 1728 130 m -12 Y s 1756 130 m -12 Y s 1784 130 m -12 Y s 1811 130 m -12 Y s 1839 143 m -25 Y s 1866 130 m -12 Y s 1894 130 m -12 Y s 1921 130 m -12 Y s 1949 130 m -12 Y s 1977 143 m -25 Y s 2004 130 m
 -12 Y s 2032 130 m -12 Y s 2059 130 m -12 Y s 2087 130 m -12 Y s 2114 143 m -25 Y s
 gsave  1088 1072 1157 11 C 1267.25 83.7267 t 0 r /Helvetica findfont 35.5047 sf 0 0 m (60) show NC gr 
 gsave  1088 1072 1157 11 C 1404.91 83.7267 t 0 r /Helvetica findfont 35.5047 sf 0 0 m (70) show NC gr 
 gsave  1088 1072 1157 11 C 1542.56 83.7267 t 0 r /Helvetica findfont 35.5047 sf 0 0 m (80) show NC gr 
 gsave  1088 1072 1157 11 C 1680.21 83.7267 t 0 r /Helvetica findfont 35.5047 sf 0 0 m (90) show NC gr 
 gsave  1088 1072 1157 11 C 1807.93 83.7267 t 0 r /Helvetica findfont 35.5047 sf 0 0 m (100) show NC gr 
 gsave  1088 1072 1157 11 C 1945.58 83.7267 t 0 r /Helvetica findfont 35.5047 sf 0 0 m (110) show NC gr 
 gsave  1088 1072 1157 11 C 2083.23 83.7267 t 0 r /Helvetica findfont 35.5047 sf 0 0 m (120) show NC gr 
 gsave  1088 1072 1157 11 C 1986.74 32.6392 t 0 r /Helvetica findfont 45.446 sf 0 0 m ( [GeV]) show NC gr 
 gsave  1088 1072 1157 11 C 1969.71 24.1246 t 0 r /Symbol findfont 29.8239 sf 0 0 m (m) show NC gr 
 gsave  1088 1072 1157 11 C 1952.68 24.1246 t 0 r /Symbol findfont 29.8239 sf 0 0 m (m) show NC gr 
 gsave  1088 1072 1157 11 C 1917.2 32.6392 t 0 r /Helvetica findfont 45.446 sf 0 0 m (M) show NC gr  1287 118 m 858 Y s 1300 118 m -13 X s 1300 137 m -13 X s 1300 150 m -13 X s 1300 161 m -13 X s 1300 169 m -13 X s 1300 177 m -13 X s 1300 183 m -13 X
 s 1300 188 m -13 X s 1313 193 m -26 X s
 gsave  1088 1072 1157 11 C 1265.83 181.644 t 0 r /Helvetica findfont 32.6643 sf 0 0 m (1) show NC gr  1300 225 m -13 X s 1300 244 m -13 X s 1300 258 m -13 X s 1300 268 m -13 X s 1300 277 m -13 X s 1300 284 m -13 X s 1300 290 m -13 X s 1300 296 m -13
 X s 1313 300 m -26 X s
 gsave  1088 1072 1157 11 C 1243.13 288.077 t 0 r /Helvetica findfont 32.6643 sf 0 0 m (10) show NC gr  1300 333 m -13 X s 1300 352 m -13 X s 1300 365 m -13 X s 1300 375 m -13 X s 1300 384 m -13 X s 1300 391 m -13 X s 1300 397 m -13 X s 1300 403 m
 -13 X s 1313 408 m -26 X s
 gsave  1088 1072 1157 11 C 1265.83 407.281 t 0 r /Helvetica findfont 22.723 sf 0 0 m (2) show NC gr 
 gsave  1088 1072 1157 11 C 1230.36 393.09 t 0 r /Helvetica findfont 32.6643 sf 0 0 m (10) show NC gr  1300 440 m -13 X s 1300 459 m -13 X s 1300 472 m -13 X s 1300 483 m -13 X s 1300 491 m -13 X s 1300 498 m -13 X s 1300 505 m -13 X s 1300 510 m -13
 X s 1313 515 m -26 X s
 gsave  1088 1072 1157 11 C 1265.83 515.132 t 0 r /Helvetica findfont 22.723 sf 0 0 m (3) show NC gr 
 gsave  1088 1072 1157 11 C 1230.36 499.522 t 0 r /Helvetica findfont 32.6643 sf 0 0 m (10) show NC gr  1300 547 m -13 X s 1300 566 m -13 X s 1300 580 m -13 X s 1300 590 m -13 X s 1300 598 m -13 X s 1300 606 m -13 X s 1300 612 m -13 X s 1300 617 m
 -13 X s 1313 622 m -26 X s
 gsave  1088 1072 1157 11 C 1265.83 621.564 t 0 r /Helvetica findfont 22.723 sf 0 0 m (4) show NC gr 
 gsave  1088 1072 1157 11 C 1230.36 607.373 t 0 r /Helvetica findfont 32.6643 sf 0 0 m (10) show NC gr  1300 655 m -13 X s 1300 673 m -13 X s 1300 687 m -13 X s 1300 697 m -13 X s 1300 706 m -13 X s 1300 713 m -13 X s 1300 719 m -13 X s 1300 725 m
 -13 X s 1313 730 m -26 X s
 gsave  1088 1072 1157 11 C 1265.83 730.835 t 0 r /Helvetica findfont 22.723 sf 0 0 m (5) show NC gr 
 gsave  1088 1072 1157 11 C 1230.36 715.225 t 0 r /Helvetica findfont 32.6643 sf 0 0 m (10) show NC gr  1300 762 m -13 X s 1300 781 m -13 X s 1300 794 m -13 X s 1300 805 m -13 X s 1300 813 m -13 X s 1300 820 m -13 X s 1300 826 m -13 X s 1300 832 m
 -13 X s 1313 837 m -26 X s
 gsave  1088 1072 1157 11 C 1265.83 837.267 t 0 r /Helvetica findfont 22.723 sf 0 0 m (6) show NC gr 
 gsave  1088 1072 1157 11 C 1230.36 821.657 t 0 r /Helvetica findfont 32.6643 sf 0 0 m (10) show NC gr  1300 869 m -13 X s 1300 888 m -13 X s 1300 901 m -13 X s 1300 912 m -13 X s 1300 920 m -13 X s 1300 927 m -13 X s 1300 934 m -13 X s 1300 939 m
 -13 X s 1313 944 m -26 X s
 gsave  1088 1072 1157 11 C 1265.83 943.699 t 0 r /Helvetica findfont 22.723 sf 0 0 m (7) show NC gr 
 gsave  1088 1072 1157 11 C 1230.36 929.508 t 0 r /Helvetica findfont 32.6643 sf 0 0 m (10) show NC gr 
 gsave  1088 1072 1157 11 C 1203.39 557.705 t 90 r /Helvetica findfont 45.446 sf 0 0 m (Entries / NormFactor) show NC gr  1 0 0 c 1 1 1 c 1 0 0 c 1308 217 m 51 Y s 1308 280 m 19 Y s 1301 274 m 1 X s 1314 274 m 1 X s 1305 217 m 6 X s 1305 299 m 6 X s
 1301 271 m 6 Y s 1315 271 m 6 Y s 1308 274 m24 1335 253 m 34 Y s 1335 299 m 15 Y s 1329 293 m 1 X s 1341 293 m 1 X s 1333 253 m 5 X s 1333 314 m 5 X s 1329 290 m 6 Y s 1342 290 m 6 Y s 1335 293 m24 1349 217 m 51 Y s 1349 280 m 19 Y s 1342 274 m 2 X
 s 1355 274 m 1 X s 1346 217 m 6 X s 1346 299 m 6 X s 1342 271 m 6 Y s 1356 271 m 6 Y s 1349 274 m24 1363 217 m 51 Y s 1363 280 m 19 Y s 1356 274 m 1 X s 1369 274 m 1 X s 1360 217 m 6 X s 1360 299 m 6 X s 1356 271 m 6 Y s 1370 271 m 6 Y s 1363 274
 m24 1377 118 m 118 Y s 1377 247 m 27 Y s 1370 242 m 1 X s 1382 242 m 2 X s 1374 118 m 6 X s 1374 274 m 6 X s 1370 239 m 6 Y s 1384 239 m 6 Y s 1377 242 m24 1391 274 m 27 Y s 1391 312 m 13 Y s 1384 306 m 1 X s 1396 306 m 1 X s 1388 274 m 5 X s 1388
 325 m 5 X s 1384 303 m 6 Y s 1397 303 m 6 Y s 1391 306 m24 1404 253 m 34 Y s 1404 299 m 15 Y s 1397 293 m 2 X s 1410 293 m 1 X s 1402 253 m 5 X s 1402 314 m 5 X s 1397 290 m 6 Y s 1411 290 m 6 Y s 1404 293 m24 1418 253 m 34 Y s 1418 299 m 15 Y s
 1411 293 m 1 X s 1424 293 m 1 X s 1415 253 m 6 X s 1415 314 m 6 X s 1411 290 m 6 Y s 1425 290 m 6 Y s 1418 293 m24 1432 217 m 51 Y s 1432 280 m 19 Y s 1425 274 m 1 X s 1438 274 m 1 X s 1429 217 m 6 X s 1429 299 m 6 X s 1425 271 m 6 Y s 1439 271 m 6
 Y s 1432 274 m24 1446 217 m 51 Y s 1446 280 m 19 Y s 1439 274 m 1 X s 1451 274 m 2 X s 1443 217 m 6 X s 1443 299 m 6 X s 1439 271 m 6 Y s 1453 271 m 6 Y s 1446 274 m24 1515 217 m 51 Y s 1515 280 m 19 Y s 1508 274 m 1 X s 1520 274 m 2 X s 1512 217 m
 5 X s 1512 299 m 5 X s 1508 271 m 6 Y s 1522 271 m 6 Y s 1515 274 m24 1584 118 m 118 Y s 1584 247 m 27 Y s 1577 242 m 1 X s 1589 242 m 1 X s 1581 118 m 5 X s 1581 274 m 5 X s 1577 239 m 6 Y s 1590 239 m 6 Y s 1584 242 m24 1694 217 m 51 Y s 1694 280
 m 19 Y s 1687 274 m 1 X s 1700 274 m 1 X s 1691 217 m 6 X s 1691 299 m 6 X s 1687 271 m 6 Y s 1701 271 m 6 Y s 1694 274 m24 1790 118 m 118 Y s 1790 247 m 27 Y s 1784 242 m 1 X s 1796 242 m 1 X s 1788 118 m 5 X s 1788 274 m 5 X s 1784 239 m 6 Y s
 1797 239 m 6 Y s 1790 242 m24 1901 118 m 118 Y s 1901 247 m 27 Y s 1894 242 m 1 X s 1906 242 m 2 X s 1898 118 m 6 X s 1898 274 m 6 X s 1894 239 m 6 Y s 1908 239 m 6 Y s 1901 242 m24 1942 217 m 51 Y s 1942 280 m 19 Y s 1935 274 m 1 X s 1948 274 m 1 X
 s 1939 217 m 6 X s 1939 299 m 6 X s 1935 271 m 6 Y s 1949 271 m 6 Y s 1942 274 m24 1956 118 m 118 Y s 1956 247 m 27 Y s 1949 242 m 1 X s 1962 242 m 1 X s 1953 118 m 6 X s 1953 274 m 6 X s 1949 239 m 6 Y s 1963 239 m 6 Y s 1956 242 m24 1983 217 m 51
 Y s 1983 280 m 19 Y s 1977 274 m 1 X s 1989 274 m 1 X s 1981 217 m 5 X s 1981 299 m 5 X s 1977 271 m 6 Y s 1990 271 m 6 Y s 1983 274 m24 2108 118 m 118 Y s 2108 247 m 27 Y s 2101 242 m 1 X s 2113 242 m 1 X s 2105 118 m 5 X s 2105 274 m 5 X s 2101
 239 m 6 Y s 2114 239 m 6 Y s 2108 242 m24 black 1 1 1 c black 1308 328 m 6 Y s 1308 345 m 3 Y s 1301 339 m 1 X s 1314 339 m 1 X s 1305 328 m 6 X s 1305 348 m 6 X s 1301 336 m 6 Y s 1315 336 m 6 Y s 1308 339 m20 1322 350 m 3 Y s 1322 364 m 2 Y s 1315
 359 m 1 X s 1327 359 m 2 X s 1319 350 m 5 X s 1319 366 m 5 X s 1315 356 m 6 Y s 1329 356 m 6 Y s 1322 359 m20 1335 349 m 3 Y s 1335 363 m 2 Y s 1329 357 m 1 X s 1341 357 m 1 X s 1333 349 m 5 X s 1333 365 m 5 X s 1329 355 m 5 Y s 1342 355 m 5 Y s
 1335 357 m20 1349 342 m 4 Y s 1349 357 m 2 Y s 1342 352 m 2 X s 1355 352 m 1 X s 1346 342 m 6 X s 1346 359 m 6 X s 1342 349 m 5 Y s 1356 349 m 5 Y s 1349 352 m20 1363 347 m 3 Y s 1363 362 m 2 Y s 1356 356 m 1 X s 1369 356 m 1 X s 1360 347 m 6 X s
 1360 364 m 6 X s 1356 353 m 6 Y s 1370 353 m 6 Y s 1363 356 m20 1377 356 m 2 Y s 1377 370 m 1 Y s 1370 364 m 1 X s 1382 364 m 2 X s 1374 356 m 6 X s 1374 371 m 6 X s 1370 361 m 6 Y s 1384 361 m 6 Y s 1377 364 m20 1391 359 m 3 Y s 1391 373 m 1 Y s
 1384 367 m 1 X s 1396 367 m 1 X s 1388 359 m 5 X s 1388 374 m 5 X s 1384 364 m 6 Y s 1397 364 m 6 Y s 1391 367 m20 1404 350 m 3 Y s 1404 364 m 2 Y s 1397 359 m 2 X s 1410 359 m 1 X s 1402 350 m 5 X s 1402 366 m 5 X s 1397 356 m 6 Y s 1411 356 m 6 Y
 s 1404 359 m20 1418 363 m 2 Y s 1418 376 m 1 Y s 1411 370 m 1 X s 1424 370 m 1 X s 1415 363 m 6 X s 1415 377 m 6 X s 1411 368 m 5 Y s 1425 368 m 5 Y s 1418 370 m20 1432 346 m 3 Y s 1432 360 m 2 Y s 1425 355 m 1 X s 1438 355 m 1 X s 1429 346 m 6 X s
 1429 362 m 6 X s 1425 352 m 5 Y s 1439 352 m 5 Y s 1432 355 m20 1446 373 m 1 Y s 1446 386 m s 1439 380 m 1 X s 1451 380 m 2 X s 1443 373 m 6 X s 1443 386 m 6 X s 1439 377 m 6 Y s 1453 377 m 6 Y s 1446 380 m20 1460 375 m 1 Y s 1460 387 m s 1453 382 m
 1 X s 1465 382 m 1 X s 1457 375 m 5 X s 1457 387 m 5 X s 1453 379 m 5 Y s 1466 379 m 5 Y s 1460 382 m20 1473 387 m s 1466 393 m 2 X s 1479 393 m 1 X s 1470 387 m 6 X s 1466 390 m 6 Y s 1480 390 m 6 Y s 1473 393 m20 1487 378 m 1 Y s 1480 385 m 1 X s
 1493 385 m 1 X s 1484 378 m 6 X s 1480 382 m 6 Y s 1494 382 m 6 Y s 1487 385 m20 1501 368 m 2 Y s 1501 381 m 1 Y s 1494 375 m 1 X s 1507 375 m 1 X s 1498 368 m 6 X s 1498 382 m 6 X s 1494 373 m 5 Y s 1508 373 m 5 Y s 1501 375 m20 1515 381 m s 1508
 387 m 1 X s 1520 387 m 2 X s 1512 381 m 5 X s 1508 384 m 6 Y s 1522 384 m 6 Y s 1515 387 m20 1522 408 m 1 X s 1534 408 m 1 X s 1522 405 m 6 Y s 1535 405 m 6 Y s 1528 408 m20 1535 408 m 2 X s 1548 408 m 1 X s 1535 405 m 6 Y s 1549 405 m 6 Y s 1542
 408 m20 1549 408 m 1 X s 1562 408 m 1 X s 1549 405 m 6 Y s 1563 405 m 6 Y s 1556 408 m20 1563 413 m 1 X s 1575 413 m 2 X s 1563 410 m 5 Y s 1577 410 m 5 Y s 1570 413 m20 1577 426 m 1 X s 1589 426 m 1 X s 1577 423 m 5 Y s 1590 423 m 5 Y s 1584 426
 m20 1590 434 m 2 X s 1603 434 m 1 X s 1590 431 m 6 Y s 1604 431 m 6 Y s 1597 434 m20 1604 454 m 1 X s 1617 454 m 1 X s 1604 451 m 6 Y s 1618 451 m 6 Y s 1611 454 m20 1618 459 m 1 X s 1631 459 m 1 X s 1618 456 m 6 Y s 1632 456 m 6 Y s 1625 459 m20
 1632 480 m 1 X s 1644 480 m 2 X s 1632 477 m 5 Y s 1646 477 m 5 Y s 1639 480 m20 1646 489 m 1 X s 1658 489 m 1 X s 1646 486 m 6 Y s 1659 486 m 6 Y s 1653 489 m20 1659 511 m 2 X s 1672 511 m 1 X s 1659 508 m 6 Y s 1673 508 m 6 Y s 1666 511 m20 1673
 523 m 1 X s 1686 523 m 1 X s 1673 520 m 6 Y s 1687 520 m 6 Y s 1680 523 m20 1687 538 m 1 X s 1700 538 m 1 X s 1687 535 m 6 Y s 1701 535 m 6 Y s 1694 538 m20 1701 546 m 1 X s 1713 546 m 2 X s 1701 543 m 6 Y s 1715 543 m 6 Y s 1708 546 m20 1715 547 m
 1 X s 1727 547 m 1 X s 1715 544 m 6 Y s 1728 544 m 6 Y s 1721 547 m20 1728 534 m 2 X s 1741 534 m 1 X s 1728 531 m 5 Y s 1742 531 m 5 Y s 1735 534 m20 1742 515 m 1 X s 1755 515 m 1 X s 1742 512 m 6 Y s 1756 512 m 6 Y s 1749 515 m20 1756 497 m 1 X s
 1769 497 m 1 X s 1756 495 m 5 Y s 1770 495 m 5 Y s 1763 497 m20 1770 472 m 1 X s 1782 472 m 2 X s 1770 469 m 6 Y s 1784 469 m 6 Y s 1777 472 m20 1784 451 m 1 X s 1796 451 m 1 X s 1784 449 m 5 Y s 1797 449 m 5 Y s 1790 451 m20 1797 441 m 2 X s 1810
 441 m 1 X s 1797 438 m 6 Y s 1811 438 m 6 Y s 1804 441 m20 1811 423 m 1 X s 1824 423 m 1 X s 1811 420 m 6 Y s 1825 420 m 6 Y s 1818 423 m20 1825 409 m 1 X s 1837 409 m 2 X s 1825 406 m 5 Y s 1839 406 m 5 Y s 1832 409 m20 1839 397 m 1 X s 1851 397 m
 1 X s 1839 394 m 6 Y s 1852 394 m 6 Y s 1846 397 m20 1859 384 m s 1852 390 m 2 X s 1865 390 m 1 X s 1857 384 m 5 X s 1852 387 m 6 Y s 1866 387 m 6 Y s 1859 390 m20 1873 370 m 2 Y s 1873 383 m s 1866 377 m 1 X s 1879 377 m 1 X s 1870 370 m 6 X s 1870
 383 m 6 X s 1866 374 m 6 Y s 1880 374 m 6 Y s 1873 377 m20 1887 367 m 2 Y s 1887 380 m 1 Y s 1880 374 m 1 X s 1893 374 m 1 X s 1884 367 m 6 X s 1884 381 m 6 X s 1880 372 m 5 Y s 1894 372 m 5 Y s 1887 374 m20 1901 364 m 2 Y s 1901 377 m 1 Y s 1894
 372 m 1 X s 1906 372 m 2 X s 1898 364 m 6 X s 1898 378 m 6 X s 1894 369 m 5 Y s 1908 369 m 5 Y s 1901 372 m20 1914 350 m 3 Y s 1914 364 m 2 Y s 1908 359 m 1 X s 1920 359 m 1 X s 1912 350 m 5 X s 1912 366 m 5 X s 1908 356 m 6 Y s 1921 356 m 6 Y s
 1914 359 m20 1928 340 m 4 Y s 1928 356 m 2 Y s 1921 350 m 2 X s 1934 350 m 1 X s 1925 340 m 6 X s 1925 358 m 6 X s 1921 347 m 6 Y s 1935 347 m 6 Y s 1928 350 m20 1942 302 m 8 Y s 1942 322 m 5 Y s 1935 316 m 1 X s 1948 316 m 1 X s 1939 302 m 6 X s
 1939 327 m 6 X s 1935 313 m 6 Y s 1949 313 m 6 Y s 1942 316 m20 1956 339 m 4 Y s 1956 354 m 2 Y s 1949 348 m 1 X s 1962 348 m 1 X s 1953 339 m 6 X s 1953 356 m 6 X s 1949 346 m 5 Y s 1963 346 m 5 Y s 1956 348 m20 1970 302 m 8 Y s 1970 322 m 5 Y s
 1963 316 m 1 X s 1975 316 m 2 X s 1967 302 m 5 X s 1967 327 m 5 X s 1963 313 m 6 Y s 1977 313 m 6 Y s 1970 316 m20 1983 328 m 6 Y s 1983 345 m 3 Y s 1977 339 m 1 X s 1989 339 m 1 X s 1981 328 m 5 X s 1981 348 m 5 X s 1977 336 m 6 Y s 1990 336 m 6 Y
 s 1983 339 m20 1997 312 m 7 Y s 1997 331 m 4 Y s 1990 325 m 2 X s 2003 325 m 1 X s 1994 312 m 6 X s 1994 335 m 6 X s 1990 322 m 6 Y s 2004 322 m 6 Y s 1997 325 m20 2011 298 m 9 Y s 2011 318 m 6 Y s 2004 313 m 1 X s 2017 313 m 1 X s 2008 298 m 6 X s
 2008 324 m 6 X s 2004 310 m 5 Y s 2018 310 m 5 Y s 2011 313 m20 2025 298 m 9 Y s 2025 318 m 6 Y s 2018 313 m 1 X s 2030 313 m 2 X s 2022 298 m 6 X s 2022 324 m 6 X s 2018 310 m 5 Y s 2032 310 m 5 Y s 2025 313 m20 2039 328 m 6 Y s 2039 345 m 3 Y s
 2032 339 m 1 X s 2044 339 m 1 X s 2036 328 m 5 X s 2036 348 m 5 X s 2032 336 m 6 Y s 2045 336 m 6 Y s 2039 339 m20 2052 309 m 8 Y s 2052 328 m 5 Y s 2045 322 m 2 X s 2058 322 m 1 X s 2050 309 m 5 X s 2050 333 m 5 X s 2045 319 m 6 Y s 2059 319 m 6 Y
 s 2052 322 m20 2066 283 m 12 Y s 2066 306 m 7 Y s 2059 300 m 1 X s 2072 300 m 1 X s 2063 283 m 6 X s 2063 313 m 6 X s 2059 298 m 5 Y s 2073 298 m 5 Y s 2066 300 m20 2080 302 m 8 Y s 2080 322 m 5 Y s 2073 316 m 1 X s 2086 316 m 1 X s 2077 302 m 6 X s
 2077 327 m 6 X s 2073 313 m 6 Y s 2087 313 m 6 Y s 2080 316 m20 2094 288 m 11 Y s 2094 311 m 6 Y s 2087 305 m 1 X s 2099 305 m 2 X s 2091 288 m 6 X s 2091 317 m 6 X s 2087 302 m 6 Y s 2101 302 m 6 Y s 2094 305 m20 2108 277 m 13 Y s 2108 301 m 8 Y s
 2101 296 m 1 X s 2113 296 m 1 X s 2105 277 m 5 X s 2105 309 m 5 X s 2101 293 m 5 Y s 2114 293 m 5 Y s 2108 296 m20 1 1 1 c black 1308 252 m 19 Y s 1308 282 m 11 Y s 1301 277 m 1 X s 1314 277 m 1 X s 1305 252 m 6 X s 1305 293 m 6 X s 1301 274 m 5 Y s
 1315 274 m 5 Y s 1308 277 m24 1322 225 m 27 Y s 1322 263 m 14 Y s 1315 258 m 1 X s 1327 258 m 2 X s 1319 225 m 5 X s 1319 277 m 5 X s 1315 255 m 6 Y s 1329 255 m 6 Y s 1322 258 m24 1335 168 m 52 Y s 1335 231 m 19 Y s 1329 225 m 1 X s 1341 225 m 1 X
 s 1333 168 m 5 X s 1333 250 m 5 X s 1329 223 m 5 Y s 1342 223 m 5 Y s 1335 225 m24 1349 277 m 13 Y s 1349 301 m 8 Y s 1342 296 m 2 X s 1355 296 m 1 X s 1346 277 m 6 X s 1346 309 m 6 X s 1342 293 m 5 Y s 1356 293 m 5 Y s 1349 296 m24 1363 168 m 52 Y
 s 1363 231 m 19 Y s 1356 225 m 1 X s 1369 225 m 1 X s 1360 168 m 6 X s 1360 250 m 6 X s 1356 223 m 5 Y s 1370 223 m 5 Y s 1363 225 m24 1377 225 m 27 Y s 1377 263 m 14 Y s 1370 258 m 1 X s 1382 258 m 2 X s 1374 225 m 6 X s 1374 277 m 6 X s 1370 255 m
 6 Y s 1384 255 m 6 Y s 1377 258 m24 1391 204 m 35 Y s 1391 250 m 16 Y s 1384 244 m 1 X s 1396 244 m 1 X s 1388 204 m 5 X s 1388 266 m 5 X s 1384 241 m 6 Y s 1397 241 m 6 Y s 1391 244 m24 1404 241 m 21 Y s 1404 274 m 11 Y s 1397 268 m 2 X s 1410 268
 m 1 X s 1402 241 m 5 X s 1402 285 m 5 X s 1397 265 m 6 Y s 1411 265 m 6 Y s 1404 268 m24 1418 204 m 35 Y s 1418 250 m 16 Y s 1411 244 m 1 X s 1424 244 m 1 X s 1415 204 m 6 X s 1415 266 m 6 X s 1411 241 m 6 Y s 1425 241 m 6 Y s 1418 244 m24 1432 204
 m 35 Y s 1432 250 m 16 Y s 1425 244 m 1 X s 1438 244 m 1 X s 1429 204 m 6 X s 1429 266 m 6 X s 1425 241 m 6 Y s 1439 241 m 6 Y s 1432 244 m24 1460 204 m 35 Y s 1460 250 m 16 Y s 1453 244 m 1 X s 1465 244 m 1 X s 1457 204 m 5 X s 1457 266 m 5 X s
 1453 241 m 6 Y s 1466 241 m 6 Y s 1460 244 m24 1473 225 m 27 Y s 1473 263 m 14 Y s 1466 258 m 2 X s 1479 258 m 1 X s 1470 225 m 6 X s 1470 277 m 6 X s 1466 255 m 6 Y s 1480 255 m 6 Y s 1473 258 m24 1487 118 m 69 Y s 1487 199 m 26 Y s 1480 193 m 1 X
 s 1493 193 m 1 X s 1484 118 m 6 X s 1484 225 m 6 X s 1480 190 m 6 Y s 1494 190 m 6 Y s 1487 193 m24 1501 118 m 69 Y s 1501 199 m 26 Y s 1494 193 m 1 X s 1507 193 m 1 X s 1498 118 m 6 X s 1498 225 m 6 X s 1494 190 m 6 Y s 1508 190 m 6 Y s 1501 193
 m24 1515 204 m 35 Y s 1515 250 m 16 Y s 1508 244 m 1 X s 1520 244 m 2 X s 1512 204 m 5 X s 1512 266 m 5 X s 1508 241 m 6 Y s 1522 241 m 6 Y s 1515 244 m24 1528 204 m 35 Y s 1528 250 m 16 Y s 1522 244 m 1 X s 1534 244 m 1 X s 1526 204 m 5 X s 1526
 266 m 5 X s 1522 241 m 6 Y s 1535 241 m 6 Y s 1528 244 m24 1542 262 m 16 Y s 1542 289 m 10 Y s 1535 284 m 2 X s 1548 284 m 1 X s 1539 262 m 6 X s 1539 299 m 6 X s 1535 281 m 6 Y s 1549 281 m 6 Y s 1542 284 m24 1556 118 m 69 Y s 1556 199 m 26 Y s
 1549 193 m 1 X s 1562 193 m 1 X s 1553 118 m 6 X s 1553 225 m 6 X s 1549 190 m 6 Y s 1563 190 m 6 Y s 1556 193 m24 1570 204 m 35 Y s 1570 250 m 16 Y s 1563 244 m 1 X s 1575 244 m 2 X s 1567 204 m 6 X s 1567 266 m 6 X s 1563 241 m 6 Y s 1577 241 m 6
 Y s 1570 244 m24 1584 118 m 69 Y s 1584 199 m 26 Y s 1577 193 m 1 X s 1589 193 m 1 X s 1581 118 m 5 X s 1581 225 m 5 X s 1577 190 m 6 Y s 1590 190 m 6 Y s 1584 193 m24 1611 168 m 52 Y s 1611 231 m 19 Y s 1604 225 m 1 X s 1617 225 m 1 X s 1608 168 m
 6 X s 1608 250 m 6 X s 1604 223 m 5 Y s 1618 223 m 5 Y s 1611 225 m24 1625 118 m 69 Y s 1625 199 m 26 Y s 1618 193 m 1 X s 1631 193 m 1 X s 1622 118 m 6 X s 1622 225 m 6 X s 1618 190 m 6 Y s 1632 190 m 6 Y s 1625 193 m24 1653 204 m 35 Y s 1653 250 m
 16 Y s 1646 244 m 1 X s 1658 244 m 1 X s 1650 204 m 5 X s 1650 266 m 5 X s 1646 241 m 6 Y s 1659 241 m 6 Y s 1653 244 m24 1694 204 m 35 Y s 1694 250 m 16 Y s 1687 244 m 1 X s 1700 244 m 1 X s 1691 204 m 6 X s 1691 266 m 6 X s 1687 241 m 6 Y s 1701
 241 m 6 Y s 1694 244 m24 1708 168 m 52 Y s 1708 231 m 19 Y s 1701 225 m 1 X s 1713 225 m 2 X s 1705 168 m 6 X s 1705 250 m 6 X s 1701 223 m 5 Y s 1715 223 m 5 Y s 1708 225 m24 1721 168 m 52 Y s 1721 231 m 19 Y s 1715 225 m 1 X s 1727 225 m 1 X s
 1719 168 m 5 X s 1719 250 m 5 X s 1715 223 m 5 Y s 1728 223 m 5 Y s 1721 225 m24 1735 168 m 52 Y s 1735 231 m 19 Y s 1728 225 m 2 X s 1741 225 m 1 X s 1732 168 m 6 X s 1732 250 m 6 X s 1728 223 m 5 Y s 1742 223 m 5 Y s 1735 225 m24 1749 168 m 52 Y s
 1749 231 m 19 Y s 1742 225 m 1 X s 1755 225 m 1 X s 1746 168 m 6 X s 1746 250 m 6 X s 1742 223 m 5 Y s 1756 223 m 5 Y s 1749 225 m24 1763 168 m 52 Y s 1763 231 m 19 Y s 1756 225 m 1 X s 1769 225 m 1 X s 1760 168 m 6 X s 1760 250 m 6 X s 1756 223 m 5
 Y s 1770 223 m 5 Y s 1763 225 m24 1777 118 m 69 Y s 1777 199 m 26 Y s 1770 193 m 1 X s 1782 193 m 2 X s 1774 118 m 5 X s 1774 225 m 5 X s 1770 190 m 6 Y s 1784 190 m 6 Y s 1777 193 m24 1804 118 m 69 Y s 1804 199 m 26 Y s 1797 193 m 2 X s 1810 193 m
 1 X s 1801 118 m 6 X s 1801 225 m 6 X s 1797 190 m 6 Y s 1811 190 m 6 Y s 1804 193 m24 1818 168 m 52 Y s 1818 231 m 19 Y s 1811 225 m 1 X s 1824 225 m 1 X s 1815 168 m 6 X s 1815 250 m 6 X s 1811 223 m 5 Y s 1825 223 m 5 Y s 1818 225 m24 1832 118 m
 69 Y s 1832 199 m 26 Y s 1825 193 m 1 X s 1837 193 m 2 X s 1829 118 m 6 X s 1829 225 m 6 X s 1825 190 m 6 Y s 1839 190 m 6 Y s 1832 193 m24 1846 118 m 69 Y s 1846 199 m 26 Y s 1839 193 m 1 X s 1851 193 m 1 X s 1843 118 m 5 X s 1843 225 m 5 X s 1839
 190 m 6 Y s 1852 190 m 6 Y s 1846 193 m24 1887 204 m 35 Y s 1887 250 m 16 Y s 1880 244 m 1 X s 1893 244 m 1 X s 1884 204 m 6 X s 1884 266 m 6 X s 1880 241 m 6 Y s 1894 241 m 6 Y s 1887 244 m24 1901 168 m 52 Y s 1901 231 m 19 Y s 1894 225 m 1 X s
 1906 225 m 2 X s 1898 168 m 6 X s 1898 250 m 6 X s 1894 223 m 5 Y s 1908 223 m 5 Y s 1901 225 m24 1983 168 m 52 Y s 1983 231 m 19 Y s 1977 225 m 1 X s 1989 225 m 1 X s 1981 168 m 5 X s 1981 250 m 5 X s 1977 223 m 5 Y s 1990 223 m 5 Y s 1983 225 m24
 2011 118 m 69 Y s 2011 199 m 26 Y s 2004 193 m 1 X s 2017 193 m 1 X s 2008 118 m 6 X s 2008 225 m 6 X s 2004 190 m 6 Y s 2018 190 m 6 Y s 2011 193 m24 2039 118 m 69 Y s 2039 199 m 26 Y s 2032 193 m 1 X s 2044 193 m 1 X s 2036 118 m 5 X s 2036 225 m
 5 X s 2032 190 m 6 Y s 2045 190 m 6 Y s 2039 193 m24 2066 118 m 69 Y s 2066 199 m 26 Y s 2059 193 m 1 X s 2072 193 m 1 X s 2063 118 m 6 X s 2063 225 m 6 X s 2059 190 m 6 Y s 2073 190 m 6 Y s 2066 193 m24 2080 118 m 69 Y s 2080 199 m 26 Y s 2073 193
 m 1 X s 2086 193 m 1 X s 2077 118 m 6 X s 2077 225 m 6 X s 2073 190 m 6 Y s 2087 190 m 6 Y s 2080 193 m24 2094 118 m 69 Y s 2094 199 m 26 Y s 2087 193 m 1 X s 2099 193 m 2 X s 2091 118 m 6 X s 2091 225 m 6 X s 2087 190 m 6 Y s 2101 190 m 6 Y s 2094
 193 m24 0 0 1 c[ 12 12] 0 sd 6 lw 1577 118 m 397 Y s 1852 118 m 397 Y s black[  ] 0 sd 3 lw 1 1 1 c 272 268 1320 654 bf black
 gsave  1088 1072 1157 11 C 1386.46 874.164 t 0 r /Helvetica findfont 39.7652 sf 0 0 m (OC data: 14025) show NC gr  1354 889 m20
 gsave  1088 1072 1157 11 C 1386.46 807.466 t 0 r /Helvetica findfont 39.7652 sf 0 0 m (SC data: 26) show NC gr  1354 822 m24
 gsave  1088 1072 1157 11 C 1386.46 740.768 t 0 r /Helvetica findfont 39.7652 sf 0 0 m (OC MC: 30402) show NC gr  1 0 0 c 1354 755 m20 black
 gsave  1088 1072 1157 11 C 1386.46 674.071 t 0 r /Helvetica findfont 39.7652 sf 0 0 m (SC MC: 4) show NC gr  1 0 0 c 1354 688 m24 black
 gsave  1088 1072 1157 11 C 1700.08 901.126 t 0 r /Helvetica-Bold findfont 59.6478 sf 0 0 m (pp collisions) show NC gr 
 gr  gr showpage
end
%%EOF
