%!PS-Adobe-2.0 EPSF-2.0
%%BoundingBox:  0 0 567 274
%%Title: /home/petr/Analysis_iwona/SFAnalysis/eps/Triger_endcup.eps: Results
%%Creator: ROOT Version 6.16/00
%%CreationDate: Thu May  9 11:26:40 2019
%%DocumentNeededResources: ProcSet (FontSetInit)
%%EndComments
%%BeginProlog
80 dict begin
/s {stroke} def /l {lineto} def /m {moveto} def /t {translate} def
/r {rotate} def /rl {roll}  def /R {repeat} def
/d {rlineto} def /rm {rmoveto} def /gr {grestore} def /f {eofill} def
/c {setrgbcolor} def /black {0 setgray} def /sd {setdash} def
/cl {closepath} def /sf {scalefont setfont} def /lw {setlinewidth} def
/box {m dup 0 exch d exch 0 d 0 exch neg d cl} def
/NC{systemdict begin initclip end}def/C{NC box clip newpath}def
/bl {box s} def /bf {gsave box gsave f grestore 1 lw [] 0 sd s grestore} def /Y { 0 exch d} def /X { 0 d} def 
/K {{pop pop 0 moveto} exch kshow} bind def
/ita {/ang 15 def gsave [1 0 ang dup sin exch cos div 1 0 0] concat} def 
/mp {newpath /y exch def /x exch def} def
/side {[w .77 mul w .23 mul] .385 w mul sd w 0 l currentpoint t -144 r} def
/mr {mp x y w2 0 360 arc} def /m24 {mr s} def /m20 {mr f} def
/mb {mp x y w2 add m w2 neg 0 d 0 w neg d w 0 d 0 w d cl} def
/mt {mp x y w2 add m w2 neg w neg d w 0 d cl} def
/w4 {w 4 div} def
/w6 {w 6 div} def
/w8 {w 8 div} def
/m21 {mb f} def /m25 {mb s} def /m22 {mt f} def /m26{mt s} def
/m23 {mp x y w2 sub m w2 w d w neg 0 d cl f} def
/m27 {mp x y w2 add m w3 neg w2 neg d w3 w2 neg d w3 w2 d cl s} def
/m28 {mp x w2 sub y w2 sub w3 add m w3 0 d  0 w3 neg d w3 0 d 0 w3 d w3 0 d  0 w3 d w3 neg 0 d 0 w3 d w3 neg 0 d 0 w3 neg d w3 neg 0 d cl s } def
/m29 {mp gsave x w2 sub y w2 add w3 sub m currentpoint t 4 {side} repeat cl fill gr} def
/m30 {mp gsave x w2 sub y w2 add w3 sub m currentpoint t 4 {side} repeat cl s gr} def
/m31 {mp x y w2 sub m 0 w d x w2 sub y m w 0 d x w2 sub y w2 add m w w neg d x w2 sub y w2 sub m w w d s} def
/m32 {mp x y w2 sub m w2 w d w neg 0 d cl s} def
/m33 {mp x y w2 add m w3 neg w2 neg d w3 w2 neg d w3 w2 d cl f} def
/m34 {mp x w2 sub y w2 sub w3 add m w3 0 d  0 w3 neg d w3 0 d 0 w3 d w3 0 d  0 w3 d w3 neg 0 d 0 w3 d w3 neg 0 d 0 w3 neg d w3 neg 0 d cl f } def
/m35 {mp x y w2 add m w2 neg w2 neg d w2 w2 neg d w2 w2 d w2 neg w2 d x y w2 sub m 0 w d x w2 sub y m w 0 d s} def
/m36 {mb x w2 sub y w2 add m w w neg d x w2 sub y w2 sub m w w d s} def
/m37 {mp x y m w4 neg w2 d w4 neg w2 neg d w2 0 d  w4 neg w2 neg d w2 0 d w4 neg w2 d w2 0 d w4 neg w2 d w4 neg w2 neg d cl s} def
/m38 {mp x w4 sub y w2 add m w4 neg w4 neg d 0 w2 neg d w4 w4 neg d w2 0 d w4 w4 d 0 w2 d w4 neg w4 d w2 neg 0 d x y w2 sub m 0 w d x w2 sub y m w 0 d cl s} def
/m39 {mp x y m w4 neg w2 d w4 neg w2 neg d w2 0 d  w4 neg w2 neg d w2 0 d w4 neg w2 d w2 0 d w4 neg w2 d w4 neg w2 neg d cl f} def
/m40 {mp x y m w4 w2 d w4 w4 neg d w2 neg w4 neg d w2 w4 neg d w4 neg w4 neg d w4 neg w2 d w4 neg w2 neg d w4 neg w4 d w2 w4 d w2 neg w4 d w4 w4 d w4 w2 neg d cl s} def
/m41 {mp x y m w4 w2 d w4 w4 neg d w2 neg w4 neg d w2 w4 neg d w4 neg w4 neg d w4 neg w2 d w4 neg w2 neg d w4 neg w4 d w2 w4 d w2 neg w4 d w4 w4 d w4 w2 neg d cl f} def
/m42 {mp x y w2 add m w8 neg w2 -3 4 div mul d w2 -3 4 div mul w8 neg d w2 3 4 div mul w8 neg d w8 w2 -3 4 div mul d w8 w2 3 4 div mul d w2 3 4 div mul w8 d w2 -3 4 div mul w8 d w8 neg w2 3 4 div mul d cl s} def
/m43 {mp x y w2 add m w8 neg w2 -3 4 div mul d w2 -3 4 div mul w8 neg d w2 3 4 div mul w8 neg d w8 w2 -3 4 div mul d w8 w2 3 4 div mul d w2 3 4 div mul w8 d w2 -3 4 div mul w8 d w8 neg w2 3 4 div mul d cl f} def
/m44 {mp x y m w6 neg w2 d w2 2 3 div mul 0 d w6 neg w2 neg d w2 w6 d 0 w2 -2 3 div mul d w2 neg w6 d w6 w2 neg d w2 -2 3 div mul 0 d w6 w2 d w2 neg w6 neg d 0 w2 2 3 div mul d w2 w6 neg d cl s} def
/m45 {mp x y m w6 neg w2 d w2 2 3 div mul 0 d w6 neg w2 neg d w2 w6 d 0 w2 -2 3 div mul d w2 neg w6 d w6 w2 neg d w2 -2 3 div mul 0 d w6 w2 d w2 neg w6 neg d 0 w2 2 3 div mul d w2 w6 neg d cl f} def
/m46 {mp x y w4 add m w4 neg w4 d w4 neg w4 neg d  w4 w4 neg d w4 neg w4 neg d w4 w4 neg d w4 w4 d w4 w4 neg d w4 w4 d w4 neg w4 d w4 w4 d w4 neg w4 d w4 neg w4 neg d cl s} def
/m47 {mp x y w4 add m w4 neg w4 d w4 neg w4 neg d w4 w4 neg d w4 neg w4 neg d  w4 w4 neg d w4 w4 d w4 w4 neg d w4 w4 d w4 neg w4 d w4 w4 d w4 neg w4 d w4 neg w4 neg d cl f} def
/m48 {mp x y w4 add m w4 neg w4 d w4 neg w4 neg d w4 w4 neg d  w4 neg w4 neg d w4 w4 neg d w4 w4 d w4 w4 neg d w4 w4 d w4 neg w4 d w4 w4 d w4 neg w4 d w4 neg w4 neg d  w4 w4 neg d w4 neg w4 neg d w4 neg w4 d w4 w4 d cl f} def
/m49 {mp x w2 sub w3 add y w2 sub w3 add m  0 w3 neg d w3 0 d 0 w3 d w3 0 d 0 w3 d w3 neg 0 d 0 w3 d w3 neg 0 d 0 w3 neg d w3 neg 0 d 0 w3 neg d w3 0 d 0 w3 d w3 0 d 0 w3 neg d w3 neg 0 d cl f } def
/m2 {mp x y w2 sub m 0 w d x w2 sub y m w 0 d s} def
/m5 {mp x w2 sub y w2 sub m w w d x w2 sub y w2 add m w w neg d s} def
%%IncludeResource: ProcSet (FontSetInit)
%%IncludeResource: font Times-Roman
%%IncludeResource: font Times-Italic
%%IncludeResource: font Times-Bold
%%IncludeResource: font Times-BoldItalic
%%IncludeResource: font Helvetica
%%IncludeResource: font Helvetica-Oblique
%%IncludeResource: font Helvetica-Bold
%%IncludeResource: font Helvetica-BoldOblique
%%IncludeResource: font Courier
%%IncludeResource: font Courier-Oblique
%%IncludeResource: font Courier-Bold
%%IncludeResource: font Courier-BoldOblique
%%IncludeResource: font Symbol
%%IncludeResource: font ZapfDingbats
/reEncode {exch findfont dup length dict begin {1 index /FID eq  {pop pop} {def} ifelse } forall /Encoding exch def currentdict end dup /FontName get exch definefont pop } def [/Times-Bold /Times-Italic /Times-BoldItalic /Helvetica /Helvetica-Oblique
 /Helvetica-Bold /Helvetica-BoldOblique /Courier /Courier-Oblique /Courier-Bold /Courier-BoldOblique /Times-Roman /AvantGarde-Book /AvantGarde-BookOblique /AvantGarde-Demi /AvantGarde-DemiOblique /Bookman-Demi /Bookman-DemiItalic /Bookman-Light
 /Bookman-LightItalic /Helvetica-Narrow /Helvetica-Narrow-Bold /Helvetica-Narrow-BoldOblique /Helvetica-Narrow-Oblique /NewCenturySchlbk-Roman /NewCenturySchlbk-Bold /NewCenturySchlbk-BoldItalic /NewCenturySchlbk-Italic /Palatino-Bold
 /Palatino-BoldItalic /Palatino-Italic /Palatino-Roman ] {ISOLatin1Encoding reEncode } forall
%%EndProlog
%%BeginSetup
%%EndSetup
newpath  gsave  .25 .25 scale  gsave  0 0 t black[  ] 0 sd 3 lw 1 1 1 c 2268 1094 0 0 bf black 1 1 1 c 1088 1072 23 11 bf black 1 1 1 c 828 858 153 118 bf black 828 858 153 118 bl 1 1 1 c 828 858 153 118 bf black 828 858 153 118 bl 1 0 0 c 1 1 1 c 1
 0 0 c 174 382 m 8 Y s 174 401 m 6 Y s 167 396 m 1 X s 180 396 m 1 X s 171 382 m 6 X s 171 407 m 6 X s 167 393 m 6 Y s 181 393 m 6 Y s /w 12 def /w2 {w 2 div} def /w3 {w 3 div} def 174 396 m20 188 396 m 6 Y s 188 414 m 4 Y s 181 408 m 1 X s 193 408 m
 2 X s 185 396 m 6 X s 185 418 m 6 X s 181 405 m 6 Y s 195 405 m 6 Y s 188 408 m20 202 385 m 7 Y s 202 404 m 5 Y s 195 398 m 1 X s 207 398 m 1 X s 199 385 m 5 X s 199 409 m 5 X s 195 395 m 6 Y s 208 395 m 6 Y s 202 398 m20 215 385 m 7 Y s 215 404 m 5
 Y s 208 398 m 2 X s 221 398 m 1 X s 213 385 m 5 X s 213 409 m 5 X s 208 395 m 6 Y s 222 395 m 6 Y s 215 398 m20 229 385 m 7 Y s 229 404 m 5 Y s 222 398 m 1 X s 235 398 m 1 X s 226 385 m 6 X s 226 409 m 6 X s 222 395 m 6 Y s 236 395 m 6 Y s 229 398
 m20 243 389 m 7 Y s 243 408 m 5 Y s 236 402 m 1 X s 249 402 m 1 X s 240 389 m 6 X s 240 413 m 6 X s 236 399 m 6 Y s 250 399 m 6 Y s 243 402 m20 257 417 m 5 Y s 257 433 m 3 Y s 250 427 m 1 X s 262 427 m 2 X s 254 417 m 6 X s 254 436 m 6 X s 250 425 m
 5 Y s 264 425 m 5 Y s 257 427 m20 270 389 m 7 Y s 270 408 m 5 Y s 264 402 m 1 X s 276 402 m 1 X s 268 389 m 5 X s 268 413 m 5 X s 264 399 m 6 Y s 277 399 m 6 Y s 270 402 m20 284 396 m 6 Y s 284 414 m 4 Y s 277 408 m 2 X s 290 408 m 1 X s 281 396 m 6
 X s 281 418 m 6 X s 277 405 m 6 Y s 291 405 m 6 Y s 284 408 m20 298 423 m 4 Y s 298 438 m 3 Y s 291 433 m 1 X s 304 433 m 1 X s 295 423 m 6 X s 295 441 m 6 X s 291 430 m 6 Y s 305 430 m 6 Y s 298 433 m20 312 415 m 5 Y s 312 432 m 3 Y s 305 426 m 1 X
 s 318 426 m 1 X s 309 415 m 6 X s 309 435 m 6 X s 305 423 m 6 Y s 319 423 m 6 Y s 312 426 m20 326 424 m 4 Y s 326 440 m 2 Y s 319 434 m 1 X s 331 434 m 2 X s 323 424 m 5 X s 323 442 m 5 X s 319 431 m 6 Y s 333 431 m 6 Y s 326 434 m20 339 417 m 5 Y s
 339 433 m 3 Y s 333 427 m 1 X s 345 427 m 1 X s 337 417 m 5 X s 337 436 m 5 X s 333 425 m 5 Y s 346 425 m 5 Y s 339 427 m20 353 431 m 3 Y s 353 446 m 2 Y s 346 440 m 2 X s 359 440 m 1 X s 350 431 m 6 X s 350 448 m 6 X s 346 437 m 6 Y s 360 437 m 6 Y
 s 353 440 m20 367 454 m 2 Y s 367 468 m 1 Y s 360 462 m 1 X s 373 462 m 1 X s 364 454 m 6 X s 364 469 m 6 X s 360 459 m 6 Y s 374 459 m 6 Y s 367 462 m20 381 427 m 4 Y s 381 442 m 3 Y s 374 436 m 1 X s 386 436 m 2 X s 378 427 m 6 X s 378 445 m 6 X s
 374 434 m 5 Y s 388 434 m 5 Y s 381 436 m20 395 473 m 1 Y s 395 485 m s 388 479 m 1 X s 400 479 m 1 X s 392 473 m 5 X s 392 485 m 5 X s 388 477 m 5 Y s 401 477 m 5 Y s 395 479 m20 408 478 m 1 Y s 408 490 m s 401 484 m 2 X s 414 484 m 1 X s 406 478 m
 5 X s 406 490 m 5 X s 401 481 m 6 Y s 415 481 m 6 Y s 408 484 m20 422 478 m 1 Y s 422 490 m s 415 484 m 1 X s 428 484 m 1 X s 419 478 m 6 X s 419 490 m 6 X s 415 481 m 6 Y s 429 481 m 6 Y s 422 484 m20 436 491 m s 429 496 m 1 X s 442 496 m 1 X s 433
 491 m 6 X s 429 494 m 5 Y s 443 494 m 5 Y s 436 496 m20 443 514 m 1 X s 455 514 m 2 X s 443 511 m 6 Y s 457 511 m 6 Y s 450 514 m20 457 532 m 1 X s 469 532 m 1 X s 457 530 m 5 Y s 470 530 m 5 Y s 464 532 m20 470 537 m 2 X s 483 537 m 1 X s 470 534 m
 6 Y s 484 534 m 6 Y s 477 537 m20 484 550 m 1 X s 497 550 m 1 X s 484 547 m 6 Y s 498 547 m 6 Y s 491 550 m20 498 579 m 1 X s 511 579 m 1 X s 498 576 m 6 Y s 512 576 m 6 Y s 505 579 m20 512 608 m 1 X s 524 608 m 2 X s 512 606 m 5 Y s 526 606 m 5 Y s
 519 608 m20 526 628 m 1 X s 538 628 m 1 X s 526 625 m 5 Y s 539 625 m 5 Y s 532 628 m20 539 648 m 2 X s 552 648 m 1 X s 539 645 m 6 Y s 553 645 m 6 Y s 546 648 m20 553 667 m 1 X s 566 667 m 1 X s 553 664 m 6 Y s 567 664 m 6 Y s 560 667 m20 567 674 m
 1 X s 579 674 m 2 X s 567 672 m 5 Y s 581 672 m 5 Y s 574 674 m20 581 670 m 1 X s 593 670 m 2 X s 581 668 m 5 Y s 595 668 m 5 Y s 588 670 m20 595 657 m 1 X s 607 657 m 1 X s 595 654 m 6 Y s 608 654 m 6 Y s 601 657 m20 608 642 m 2 X s 621 642 m 1 X s
 608 639 m 5 Y s 622 639 m 5 Y s 615 642 m20 622 608 m 1 X s 635 608 m 1 X s 622 605 m 6 Y s 636 605 m 6 Y s 629 608 m20 636 579 m 1 X s 648 579 m 2 X s 636 576 m 6 Y s 650 576 m 6 Y s 643 579 m20 650 548 m 1 X s 662 548 m 1 X s 650 545 m 6 Y s 663
 545 m 6 Y s 657 548 m20 663 525 m 2 X s 676 525 m 1 X s 663 522 m 6 Y s 677 522 m 6 Y s 670 525 m20 677 509 m 1 X s 690 509 m 1 X s 677 506 m 6 Y s 691 506 m 6 Y s 684 509 m20 698 483 m 1 Y s 698 495 m s 691 489 m 1 X s 704 489 m 1 X s 695 483 m 6 X
 s 695 495 m 6 X s 691 486 m 6 Y s 705 486 m 6 Y s 698 489 m20 712 460 m 2 Y s 712 473 m 1 Y s 705 468 m 1 X s 717 468 m 2 X s 709 460 m 6 X s 709 474 m 6 X s 705 465 m 6 Y s 719 465 m 6 Y s 712 468 m20 725 441 m 3 Y s 725 455 m 2 Y s 719 450 m 1 X s
 731 450 m 1 X s 723 441 m 5 X s 723 457 m 5 X s 719 447 m 5 Y s 732 447 m 5 Y s 725 450 m20 739 412 m 5 Y s 739 429 m 3 Y s 732 423 m 2 X s 745 423 m 1 X s 736 412 m 6 X s 736 432 m 6 X s 732 420 m 6 Y s 746 420 m 6 Y s 739 423 m20 753 442 m 3 Y s
 753 456 m 2 Y s 746 451 m 1 X s 759 451 m 1 X s 750 442 m 6 X s 750 458 m 6 X s 746 448 m 5 Y s 760 448 m 5 Y s 753 451 m20 767 400 m 6 Y s 767 417 m 5 Y s 760 412 m 1 X s 773 412 m 1 X s 764 400 m 6 X s 764 422 m 6 X s 760 409 m 6 Y s 774 409 m 6 Y
 s 767 412 m20 781 385 m 7 Y s 781 404 m 5 Y s 774 398 m 1 X s 786 398 m 2 X s 778 385 m 5 X s 778 409 m 5 X s 774 395 m 6 Y s 788 395 m 6 Y s 781 398 m20 794 406 m 5 Y s 794 422 m 4 Y s 788 417 m 1 X s 800 417 m 1 X s 792 406 m 5 X s 792 426 m 5 X s
 788 414 m 6 Y s 801 414 m 6 Y s 794 417 m20 808 355 m 11 Y s 808 377 m 8 Y s 801 371 m 2 X s 814 371 m 1 X s 805 355 m 6 X s 805 385 m 6 X s 801 369 m 5 Y s 815 369 m 5 Y s 808 371 m20 822 382 m 8 Y s 822 401 m 6 Y s 815 396 m 1 X s 828 396 m 1 X s
 819 382 m 6 X s 819 407 m 6 X s 815 393 m 6 Y s 829 393 m 6 Y s 822 396 m20 836 358 m 11 Y s 836 380 m 8 Y s 829 375 m 1 X s 841 375 m 2 X s 833 358 m 6 X s 833 388 m 6 X s 829 372 m 5 Y s 843 372 m 5 Y s 836 375 m20 850 365 m 10 Y s 850 386 m 7 Y s
 843 381 m 1 X s 855 381 m 1 X s 847 365 m 5 X s 847 393 m 5 X s 843 378 m 5 Y s 856 378 m 5 Y s 850 381 m20 863 351 m 11 Y s 863 374 m 8 Y s 856 368 m 2 X s 869 368 m 1 X s 861 351 m 5 X s 861 382 m 5 X s 856 365 m 6 Y s 870 365 m 6 Y s 863 368 m20
 877 358 m 11 Y s 877 380 m 8 Y s 870 375 m 1 X s 883 375 m 1 X s 874 358 m 6 X s 874 388 m 6 X s 870 372 m 5 Y s 884 372 m 5 Y s 877 375 m20 891 338 m 13 Y s 891 362 m 9 Y s 884 357 m 1 X s 897 357 m 1 X s 888 338 m 6 X s 888 371 m 6 X s 884 354 m 6
 Y s 898 354 m 6 Y s 891 357 m20 905 301 m 19 Y s 905 332 m 12 Y s 898 326 m 1 X s 910 326 m 2 X s 902 301 m 6 X s 902 344 m 6 X s 898 323 m 6 Y s 912 323 m 6 Y s 905 326 m20 919 272 m 25 Y s 919 308 m 16 Y s 912 303 m 1 X s 924 303 m 1 X s 916 272 m
 5 X s 916 324 m 5 X s 912 300 m 5 Y s 925 300 m 5 Y s 919 303 m20 932 355 m 11 Y s 932 377 m 8 Y s 925 371 m 2 X s 938 371 m 1 X s 929 355 m 6 X s 929 385 m 6 X s 925 369 m 5 Y s 939 369 m 5 Y s 932 371 m20 946 293 m 20 Y s 946 325 m 13 Y s 939 319
 m 1 X s 952 319 m 1 X s 943 293 m 6 X s 943 338 m 6 X s 939 316 m 6 Y s 953 316 m 6 Y s 946 319 m20 960 293 m 20 Y s 960 325 m 13 Y s 953 319 m 1 X s 966 319 m 1 X s 957 293 m 6 X s 957 338 m 6 X s 953 316 m 6 Y s 967 316 m 6 Y s 960 319 m20 974 322
 m 15 Y s 974 349 m 10 Y s 967 343 m 1 X s 979 343 m 2 X s 971 322 m 6 X s 971 359 m 6 X s 967 340 m 6 Y s 981 340 m 6 Y s 974 343 m20 black 153 118 m 828 X s 153 143 m -25 Y s 181 130 m -12 Y s 208 130 m -12 Y s 236 130 m -12 Y s 264 130 m -12 Y s
 291 143 m -25 Y s 319 130 m -12 Y s 346 130 m -12 Y s 374 130 m -12 Y s 401 130 m -12 Y s 429 143 m -25 Y s 457 130 m -12 Y s 484 130 m -12 Y s 512 130 m -12 Y s 539 130 m -12 Y s 567 143 m -25 Y s 595 130 m -12 Y s 622 130 m -12 Y s 650 130 m -12 Y
 s 677 130 m -12 Y s 705 143 m -25 Y s 732 130 m -12 Y s 760 130 m -12 Y s 788 130 m -12 Y s 815 130 m -12 Y s 843 143 m -25 Y s 870 130 m -12 Y s 898 130 m -12 Y s 925 130 m -12 Y s 953 130 m -12 Y s 981 143 m -25 Y s
 gsave  1088 1072 23 11 C 133.395 83.7267 t 0 r /Helvetica findfont 35.5047 sf 0 0 m (60) show NC gr 
 gsave  1088 1072 23 11 C 271.047 83.7267 t 0 r /Helvetica findfont 35.5047 sf 0 0 m (70) show NC gr 
 gsave  1088 1072 23 11 C 408.7 83.7267 t 0 r /Helvetica findfont 35.5047 sf 0 0 m (80) show NC gr 
 gsave  1088 1072 23 11 C 546.352 83.7267 t 0 r /Helvetica findfont 35.5047 sf 0 0 m (90) show NC gr 
 gsave  1088 1072 23 11 C 674.071 83.7267 t 0 r /Helvetica findfont 35.5047 sf 0 0 m (100) show NC gr 
 gsave  1088 1072 23 11 C 811.723 83.7267 t 0 r /Helvetica findfont 35.5047 sf 0 0 m (110) show NC gr 
 gsave  1088 1072 23 11 C 949.376 83.7267 t 0 r /Helvetica findfont 35.5047 sf 0 0 m (120) show NC gr 
 gsave  1088 1072 23 11 C 852.877 32.6392 t 0 r /Helvetica findfont 45.446 sf 0 0 m ( [GeV]) show NC gr 
 gsave  1088 1072 23 11 C 835.848 24.1246 t 0 r /Symbol findfont 29.8239 sf 0 0 m (m) show NC gr 
 gsave  1088 1072 23 11 C 818.819 24.1246 t 0 r /Symbol findfont 29.8239 sf 0 0 m (m) show NC gr 
 gsave  1088 1072 23 11 C 783.341 32.6392 t 0 r /Helvetica findfont 45.446 sf 0 0 m (M) show NC gr  153 118 m 858 Y s 166 118 m -13 X s 166 145 m -13 X s 166 164 m -13 X s 166 178 m -13 X s 166 190 m -13 X s 166 200 m -13 X s 166 209 m -13 X s 166
 217 m -13 X s 179 224 m -26 X s
 gsave  1088 1072 23 11 C 131.976 211.445 t 0 r /Helvetica findfont 32.6643 sf 0 0 m (1) show NC gr  166 269 m -13 X s 166 296 m -13 X s 166 314 m -13 X s 166 329 m -13 X s 166 341 m -13 X s 166 351 m -13 X s 166 360 m -13 X s 166 367 m -13 X s 179
 374 m -26 X s
 gsave  1088 1072 23 11 C 109.27 361.87 t 0 r /Helvetica findfont 32.6643 sf 0 0 m (10) show NC gr  166 420 m -13 X s 166 446 m -13 X s 166 465 m -13 X s 166 480 m -13 X s 166 492 m -13 X s 166 502 m -13 X s 166 511 m -13 X s 166 518 m -13 X s 179
 525 m -26 X s
 gsave  1088 1072 23 11 C 131.976 525.066 t 0 r /Helvetica findfont 22.723 sf 0 0 m (2) show NC gr 
 gsave  1088 1072 23 11 C 96.4986 510.875 t 0 r /Helvetica findfont 32.6643 sf 0 0 m (10) show NC gr  166 571 m -13 X s 166 597 m -13 X s 166 616 m -13 X s 166 631 m -13 X s 166 643 m -13 X s 166 653 m -13 X s 166 661 m -13 X s 166 669 m -13 X s 179
 676 m -26 X s
 gsave  1088 1072 23 11 C 131.976 676.909 t 0 r /Helvetica findfont 22.723 sf 0 0 m (3) show NC gr 
 gsave  1088 1072 23 11 C 96.4986 661.299 t 0 r /Helvetica findfont 32.6643 sf 0 0 m (10) show NC gr  166 721 m -13 X s 166 748 m -13 X s 166 767 m -13 X s 166 781 m -13 X s 166 793 m -13 X s 166 803 m -13 X s 166 812 m -13 X s 166 820 m -13 X s 179
 827 m -26 X s
 gsave  1088 1072 23 11 C 131.976 825.914 t 0 r /Helvetica findfont 22.723 sf 0 0 m (4) show NC gr 
 gsave  1088 1072 23 11 C 96.4986 811.723 t 0 r /Helvetica findfont 32.6643 sf 0 0 m (10) show NC gr  166 872 m -13 X s 166 899 m -13 X s 166 918 m -13 X s 166 932 m -13 X s 166 944 m -13 X s 166 954 m -13 X s 166 963 m -13 X s 166 971 m -13 X s
 gsave  1088 1072 23 11 C 69.5357 557.705 t 90 r /Helvetica findfont 45.446 sf 0 0 m (Entries / NormFactor) show NC gr  1 0 0 c 1 1 1 c 1 0 0 c 174 254 m 75 Y s 174 340 m 30 Y s 167 335 m 1 X s 180 335 m 1 X s 171 254 m 6 X s 171 370 m 6 X s 167 332
 m 5 Y s 181 332 m 5 Y s 174 335 m24 202 254 m 75 Y s 202 340 m 30 Y s 195 335 m 1 X s 207 335 m 1 X s 199 254 m 5 X s 199 370 m 5 X s 195 332 m 5 Y s 208 332 m 5 Y s 202 335 m24 215 118 m 165 Y s 215 295 m 40 Y s 208 289 m 2 X s 221 289 m 1 X s 213
 118 m 5 X s 213 335 m 5 X s 208 286 m 6 Y s 222 286 m 6 Y s 215 289 m24 229 254 m 75 Y s 229 340 m 30 Y s 222 335 m 1 X s 235 335 m 1 X s 226 254 m 6 X s 226 370 m 6 X s 222 332 m 5 Y s 236 332 m 5 Y s 229 335 m24 243 118 m 165 Y s 243 295 m 40 Y s
 236 289 m 1 X s 249 289 m 1 X s 240 118 m 6 X s 240 335 m 6 X s 236 286 m 6 Y s 250 286 m 6 Y s 243 289 m24 257 305 m 50 Y s 257 367 m 24 Y s 250 361 m 1 X s 262 361 m 2 X s 254 305 m 6 X s 254 391 m 6 X s 250 358 m 6 Y s 264 358 m 6 Y s 257 361 m24
 270 254 m 75 Y s 270 340 m 30 Y s 264 335 m 1 X s 276 335 m 1 X s 268 254 m 5 X s 268 370 m 5 X s 264 332 m 5 Y s 277 332 m 5 Y s 270 335 m24 284 254 m 75 Y s 284 340 m 30 Y s 277 335 m 2 X s 290 335 m 1 X s 281 254 m 6 X s 281 370 m 6 X s 277 332 m
 5 Y s 291 332 m 5 Y s 284 335 m24 298 118 m 165 Y s 298 295 m 40 Y s 291 289 m 1 X s 304 289 m 1 X s 295 118 m 6 X s 295 335 m 6 X s 291 286 m 6 Y s 305 286 m 6 Y s 298 289 m24 312 118 m 165 Y s 312 295 m 40 Y s 305 289 m 1 X s 318 289 m 1 X s 309
 118 m 6 X s 309 335 m 6 X s 305 286 m 6 Y s 319 286 m 6 Y s 312 289 m24 381 254 m 75 Y s 381 340 m 30 Y s 374 335 m 1 X s 386 335 m 2 X s 378 254 m 6 X s 378 370 m 6 X s 374 332 m 5 Y s 388 332 m 5 Y s 381 335 m24 560 118 m 165 Y s 560 295 m 40 Y s
 553 289 m 1 X s 566 289 m 1 X s 557 118 m 6 X s 557 335 m 6 X s 553 286 m 6 Y s 567 286 m 6 Y s 560 289 m24 657 118 m 165 Y s 657 295 m 40 Y s 650 289 m 1 X s 662 289 m 1 X s 654 118 m 5 X s 654 335 m 5 X s 650 286 m 6 Y s 663 286 m 6 Y s 657 289
 m24 767 118 m 165 Y s 767 295 m 40 Y s 760 289 m 1 X s 773 289 m 1 X s 764 118 m 6 X s 764 335 m 6 X s 760 286 m 6 Y s 774 286 m 6 Y s 767 289 m24 850 254 m 75 Y s 850 340 m 30 Y s 843 335 m 1 X s 855 335 m 1 X s 847 254 m 5 X s 847 370 m 5 X s 843
 332 m 5 Y s 856 332 m 5 Y s 850 335 m24 974 118 m 165 Y s 974 295 m 40 Y s 967 289 m 1 X s 979 289 m 2 X s 971 118 m 6 X s 971 335 m 6 X s 967 286 m 6 Y s 981 286 m 6 Y s 974 289 m24 black 1 1 1 c black 174 349 m 20 Y s 174 380 m 12 Y s 167 374 m 1
 X s 180 374 m 1 X s 171 349 m 6 X s 171 392 m 6 X s 167 372 m 5 Y s 181 372 m 5 Y s 174 374 m20 188 370 m 16 Y s 188 397 m 11 Y s 181 392 m 1 X s 193 392 m 2 X s 185 370 m 6 X s 185 408 m 6 X s 181 389 m 5 Y s 195 389 m 5 Y s 188 392 m20 202 395 m
 12 Y s 202 419 m 8 Y s 195 413 m 1 X s 207 413 m 1 X s 199 395 m 5 X s 199 427 m 5 X s 195 410 m 6 Y s 208 410 m 6 Y s 202 413 m20 215 376 m 15 Y s 215 402 m 10 Y s 208 396 m 2 X s 221 396 m 1 X s 213 376 m 5 X s 213 412 m 5 X s 208 394 m 5 Y s 222
 394 m 5 Y s 215 396 m20 229 399 m 12 Y s 229 422 m 8 Y s 222 416 m 1 X s 235 416 m 1 X s 226 399 m 6 X s 226 430 m 6 X s 222 414 m 5 Y s 236 414 m 5 Y s 229 416 m20 243 407 m 10 Y s 243 429 m 7 Y s 236 423 m 1 X s 249 423 m 1 X s 240 407 m 6 X s 240
 436 m 6 X s 236 420 m 6 Y s 250 420 m 6 Y s 243 423 m20 257 407 m 10 Y s 257 429 m 7 Y s 250 423 m 1 X s 262 423 m 2 X s 254 407 m 6 X s 254 436 m 6 X s 250 420 m 6 Y s 264 420 m 6 Y s 257 423 m20 270 417 m 9 Y s 270 437 m 7 Y s 264 432 m 1 X s 276
 432 m 1 X s 268 417 m 5 X s 268 444 m 5 X s 264 429 m 6 Y s 277 429 m 6 Y s 270 432 m20 284 414 m 9 Y s 284 435 m 6 Y s 277 429 m 2 X s 290 429 m 1 X s 281 414 m 6 X s 281 441 m 6 X s 277 426 m 6 Y s 291 426 m 6 Y s 284 429 m20 298 399 m 12 Y s 298
 422 m 8 Y s 291 416 m 1 X s 304 416 m 1 X s 295 399 m 6 X s 295 430 m 6 X s 291 414 m 5 Y s 305 414 m 5 Y s 298 416 m20 312 436 m 7 Y s 312 454 m 5 Y s 305 448 m 1 X s 318 448 m 1 X s 309 436 m 6 X s 309 459 m 6 X s 305 446 m 5 Y s 319 446 m 5 Y s
 312 448 m20 326 436 m 7 Y s 326 454 m 5 Y s 319 448 m 1 X s 331 448 m 2 X s 323 436 m 5 X s 323 459 m 5 X s 319 446 m 5 Y s 333 446 m 5 Y s 326 448 m20 339 462 m 5 Y s 339 479 m 3 Y s 333 473 m 1 X s 345 473 m 1 X s 337 462 m 5 X s 337 482 m 5 X s
 333 470 m 6 Y s 346 470 m 6 Y s 339 473 m20 353 438 m 7 Y s 353 456 m 5 Y s 346 451 m 2 X s 359 451 m 1 X s 350 438 m 6 X s 350 461 m 6 X s 346 448 m 5 Y s 360 448 m 5 Y s 353 451 m20 367 395 m 12 Y s 367 419 m 8 Y s 360 413 m 1 X s 373 413 m 1 X s
 364 395 m 6 X s 364 427 m 6 X s 360 410 m 6 Y s 374 410 m 6 Y s 367 413 m20 381 436 m 7 Y s 381 454 m 5 Y s 374 448 m 1 X s 386 448 m 2 X s 378 436 m 6 X s 378 459 m 6 X s 374 446 m 5 Y s 388 446 m 5 Y s 381 448 m20 395 481 m 4 Y s 395 496 m 3 Y s
 388 491 m 1 X s 400 491 m 1 X s 392 481 m 5 X s 392 499 m 5 X s 388 488 m 5 Y s 401 488 m 5 Y s 395 491 m20 408 468 m 5 Y s 408 484 m 3 Y s 401 478 m 2 X s 414 478 m 1 X s 406 468 m 5 X s 406 487 m 5 X s 401 476 m 5 Y s 415 476 m 5 Y s 408 478 m20
 422 474 m 4 Y s 422 489 m 3 Y s 415 484 m 1 X s 428 484 m 1 X s 419 474 m 6 X s 419 492 m 6 X s 415 481 m 5 Y s 429 481 m 5 Y s 422 484 m20 436 495 m 3 Y s 436 509 m 2 Y s 429 504 m 1 X s 442 504 m 1 X s 433 495 m 6 X s 433 511 m 6 X s 429 501 m 6 Y
 s 443 501 m 6 Y s 436 504 m20 450 509 m 1 Y s 450 522 m 1 Y s 443 516 m 1 X s 455 516 m 2 X s 447 509 m 6 X s 447 523 m 6 X s 443 513 m 6 Y s 457 513 m 6 Y s 450 516 m20 464 522 m 1 Y s 464 535 m s 457 529 m 1 X s 469 529 m 1 X s 461 522 m 5 X s 461
 535 m 5 X s 457 526 m 6 Y s 470 526 m 6 Y s 464 529 m20 470 556 m 2 X s 483 556 m 1 X s 470 553 m 5 Y s 484 553 m 5 Y s 477 556 m20 484 554 m 1 X s 497 554 m 1 X s 484 551 m 6 Y s 498 551 m 6 Y s 491 554 m20 498 586 m 1 X s 511 586 m 1 X s 498 583 m
 6 Y s 512 583 m 6 Y s 505 586 m20 512 601 m 1 X s 524 601 m 2 X s 512 598 m 6 Y s 526 598 m 6 Y s 519 601 m20 526 629 m 1 X s 538 629 m 1 X s 526 626 m 6 Y s 539 626 m 6 Y s 532 629 m20 539 645 m 2 X s 552 645 m 1 X s 539 642 m 6 Y s 553 642 m 6 Y s
 546 645 m20 553 664 m 1 X s 566 664 m 1 X s 553 661 m 6 Y s 567 661 m 6 Y s 560 664 m20 567 672 m 1 X s 579 672 m 2 X s 567 669 m 5 Y s 581 669 m 5 Y s 574 672 m20 581 676 m 1 X s 593 676 m 2 X s 581 674 m 5 Y s 595 674 m 5 Y s 588 676 m20 595 656 m
 1 X s 607 656 m 1 X s 595 653 m 6 Y s 608 653 m 6 Y s 601 656 m20 608 632 m 2 X s 621 632 m 1 X s 608 629 m 5 Y s 622 629 m 5 Y s 615 632 m20 622 611 m 1 X s 635 611 m 1 X s 622 608 m 6 Y s 636 608 m 6 Y s 629 611 m20 636 575 m 1 X s 648 575 m 2 X s
 636 572 m 6 Y s 650 572 m 6 Y s 643 575 m20 650 550 m 1 X s 662 550 m 1 X s 650 548 m 5 Y s 663 548 m 5 Y s 657 550 m20 670 531 m s 670 543 m s 663 537 m 2 X s 676 537 m 1 X s 667 531 m 6 X s 667 543 m 6 X s 663 534 m 6 Y s 677 534 m 6 Y s 670 537
 m20 684 489 m 3 Y s 684 504 m 2 Y s 677 498 m 1 X s 690 498 m 1 X s 681 489 m 6 X s 681 506 m 6 X s 677 495 m 6 Y s 691 495 m 6 Y s 684 498 m20 698 462 m 5 Y s 698 479 m 3 Y s 691 473 m 1 X s 704 473 m 1 X s 695 462 m 6 X s 695 482 m 6 X s 691 470 m
 6 Y s 705 470 m 6 Y s 698 473 m20 712 464 m 5 Y s 712 480 m 3 Y s 705 474 m 1 X s 717 474 m 2 X s 709 464 m 6 X s 709 483 m 6 X s 705 471 m 6 Y s 719 471 m 6 Y s 712 474 m20 725 436 m 7 Y s 725 454 m 5 Y s 719 448 m 1 X s 731 448 m 1 X s 723 436 m 5
 X s 723 459 m 5 X s 719 446 m 5 Y s 732 446 m 5 Y s 725 448 m20 739 423 m 8 Y s 739 443 m 6 Y s 732 437 m 2 X s 745 437 m 1 X s 736 423 m 6 X s 736 449 m 6 X s 732 434 m 6 Y s 746 434 m 6 Y s 739 437 m20 753 414 m 9 Y s 753 435 m 6 Y s 746 429 m 1 X
 s 759 429 m 1 X s 750 414 m 6 X s 750 441 m 6 X s 746 426 m 6 Y s 760 426 m 6 Y s 753 429 m20 767 417 m 9 Y s 767 437 m 7 Y s 760 432 m 1 X s 773 432 m 1 X s 764 417 m 6 X s 764 444 m 6 X s 760 429 m 6 Y s 774 429 m 6 Y s 767 432 m20 781 414 m 9 Y s
 781 435 m 6 Y s 774 429 m 1 X s 786 429 m 2 X s 778 414 m 5 X s 778 441 m 5 X s 774 426 m 6 Y s 788 426 m 6 Y s 781 429 m20 794 381 m 14 Y s 794 407 m 9 Y s 788 401 m 1 X s 800 401 m 1 X s 792 381 m 5 X s 792 416 m 5 X s 788 398 m 6 Y s 801 398 m 6
 Y s 794 401 m20 808 364 m 17 Y s 808 392 m 11 Y s 801 386 m 2 X s 814 386 m 1 X s 805 364 m 6 X s 805 403 m 6 X s 801 383 m 6 Y s 815 383 m 6 Y s 808 386 m20 822 376 m 15 Y s 822 402 m 10 Y s 815 396 m 1 X s 828 396 m 1 X s 819 376 m 6 X s 819 412 m
 6 X s 815 394 m 5 Y s 829 394 m 5 Y s 822 396 m20 836 331 m 23 Y s 836 365 m 15 Y s 829 360 m 1 X s 841 360 m 2 X s 833 331 m 6 X s 833 380 m 6 X s 829 357 m 6 Y s 843 357 m 6 Y s 836 360 m20 850 376 m 15 Y s 850 402 m 10 Y s 843 396 m 1 X s 855 396
 m 1 X s 847 376 m 5 X s 847 412 m 5 X s 843 394 m 5 Y s 856 394 m 5 Y s 850 396 m20 863 331 m 23 Y s 863 365 m 15 Y s 856 360 m 2 X s 869 360 m 1 X s 861 331 m 5 X s 861 380 m 5 X s 856 357 m 6 Y s 870 357 m 6 Y s 863 360 m20 877 307 m 28 Y s 877
 347 m 16 Y s 870 341 m 1 X s 883 341 m 1 X s 874 307 m 6 X s 874 363 m 6 X s 870 338 m 6 Y s 884 338 m 6 Y s 877 341 m20 891 331 m 23 Y s 891 365 m 15 Y s 884 360 m 1 X s 897 360 m 1 X s 888 331 m 6 X s 888 380 m 6 X s 884 357 m 6 Y s 898 357 m 6 Y
 s 891 360 m20 905 364 m 17 Y s 905 392 m 11 Y s 898 386 m 1 X s 910 386 m 2 X s 902 364 m 6 X s 902 403 m 6 X s 898 383 m 6 Y s 912 383 m 6 Y s 905 386 m20 919 239 m 51 Y s 919 301 m 24 Y s 912 296 m 1 X s 924 296 m 1 X s 916 239 m 5 X s 916 325 m 5
 X s 912 293 m 5 Y s 925 293 m 5 Y s 919 296 m20 932 239 m 51 Y s 932 301 m 24 Y s 925 296 m 2 X s 938 296 m 1 X s 929 239 m 6 X s 929 325 m 6 X s 925 293 m 5 Y s 939 293 m 5 Y s 932 296 m20 946 269 m 40 Y s 946 320 m 21 Y s 939 314 m 1 X s 952 314 m
 1 X s 943 269 m 6 X s 943 341 m 6 X s 939 312 m 5 Y s 953 312 m 5 Y s 946 314 m20 960 290 m 33 Y s 960 335 m 18 Y s 953 329 m 1 X s 966 329 m 1 X s 957 290 m 6 X s 957 353 m 6 X s 953 326 m 6 Y s 967 326 m 6 Y s 960 329 m20 974 269 m 40 Y s 974 320
 m 21 Y s 967 314 m 1 X s 979 314 m 2 X s 971 269 m 6 X s 971 341 m 6 X s 967 312 m 5 Y s 981 312 m 5 Y s 974 314 m20 1 1 1 c black 174 239 m 51 Y s 174 301 m 24 Y s 167 296 m 1 X s 180 296 m 1 X s 171 239 m 6 X s 171 325 m 6 X s 167 293 m 5 Y s 181
 293 m 5 Y s 174 296 m24 188 239 m 51 Y s 188 301 m 24 Y s 181 296 m 1 X s 193 296 m 2 X s 185 239 m 6 X s 185 325 m 6 X s 181 293 m 5 Y s 195 293 m 5 Y s 188 296 m24 202 118 m 100 Y s 202 229 m 40 Y s 195 224 m 1 X s 207 224 m 1 X s 199 118 m 5 X s
 199 269 m 5 X s 195 221 m 5 Y s 208 221 m 5 Y s 202 224 m24 215 290 m 33 Y s 215 335 m 18 Y s 208 329 m 2 X s 221 329 m 1 X s 213 290 m 5 X s 213 353 m 5 X s 208 326 m 6 Y s 222 326 m 6 Y s 215 329 m24 229 189 m 74 Y s 229 275 m 29 Y s 222 269 m 1 X
 s 235 269 m 1 X s 226 189 m 6 X s 226 304 m 6 X s 222 266 m 6 Y s 236 266 m 6 Y s 229 269 m24 243 269 m 40 Y s 243 320 m 21 Y s 236 314 m 1 X s 249 314 m 1 X s 240 269 m 6 X s 240 341 m 6 X s 236 312 m 5 Y s 250 312 m 5 Y s 243 314 m24 257 189 m 74
 Y s 257 275 m 29 Y s 250 269 m 1 X s 262 269 m 2 X s 254 189 m 6 X s 254 304 m 6 X s 250 266 m 6 Y s 264 266 m 6 Y s 257 269 m24 270 239 m 51 Y s 270 301 m 24 Y s 264 296 m 1 X s 276 296 m 1 X s 268 239 m 5 X s 268 325 m 5 X s 264 293 m 5 Y s 277
 293 m 5 Y s 270 296 m24 284 118 m 100 Y s 284 229 m 40 Y s 277 224 m 2 X s 290 224 m 1 X s 281 118 m 6 X s 281 269 m 6 X s 277 221 m 5 Y s 291 221 m 5 Y s 284 224 m24 298 118 m 100 Y s 298 229 m 40 Y s 291 224 m 1 X s 304 224 m 1 X s 295 118 m 6 X s
 295 269 m 6 X s 291 221 m 5 Y s 305 221 m 5 Y s 298 224 m24 326 118 m 100 Y s 326 229 m 40 Y s 319 224 m 1 X s 331 224 m 2 X s 323 118 m 5 X s 323 269 m 5 X s 319 221 m 5 Y s 333 221 m 5 Y s 326 224 m24 339 269 m 40 Y s 339 320 m 21 Y s 333 314 m 1
 X s 345 314 m 1 X s 337 269 m 5 X s 337 341 m 5 X s 333 312 m 5 Y s 346 312 m 5 Y s 339 314 m24 353 118 m 100 Y s 353 229 m 40 Y s 346 224 m 2 X s 359 224 m 1 X s 350 118 m 6 X s 350 269 m 6 X s 346 221 m 5 Y s 360 221 m 5 Y s 353 224 m24 381 118 m
 100 Y s 381 229 m 40 Y s 374 224 m 1 X s 386 224 m 2 X s 378 118 m 6 X s 378 269 m 6 X s 374 221 m 5 Y s 388 221 m 5 Y s 381 224 m24 395 189 m 74 Y s 395 275 m 29 Y s 388 269 m 1 X s 400 269 m 1 X s 392 189 m 5 X s 392 304 m 5 X s 388 266 m 6 Y s
 401 266 m 6 Y s 395 269 m24 408 290 m 33 Y s 408 335 m 18 Y s 401 329 m 2 X s 414 329 m 1 X s 406 290 m 5 X s 406 353 m 5 X s 401 326 m 6 Y s 415 326 m 6 Y s 408 329 m24 422 118 m 100 Y s 422 229 m 40 Y s 415 224 m 1 X s 428 224 m 1 X s 419 118 m 6
 X s 419 269 m 6 X s 415 221 m 5 Y s 429 221 m 5 Y s 422 224 m24 477 118 m 100 Y s 477 229 m 40 Y s 470 224 m 2 X s 483 224 m 1 X s 474 118 m 6 X s 474 269 m 6 X s 470 221 m 5 Y s 484 221 m 5 Y s 477 224 m24 519 239 m 51 Y s 519 301 m 24 Y s 512 296
 m 1 X s 524 296 m 2 X s 516 239 m 6 X s 516 325 m 6 X s 512 293 m 5 Y s 526 293 m 5 Y s 519 296 m24 560 118 m 100 Y s 560 229 m 40 Y s 553 224 m 1 X s 566 224 m 1 X s 557 118 m 6 X s 557 269 m 6 X s 553 221 m 5 Y s 567 221 m 5 Y s 560 224 m24 574
 189 m 74 Y s 574 275 m 29 Y s 567 269 m 1 X s 579 269 m 2 X s 571 189 m 6 X s 571 304 m 6 X s 567 266 m 6 Y s 581 266 m 6 Y s 574 269 m24 588 189 m 74 Y s 588 275 m 29 Y s 581 269 m 1 X s 593 269 m 2 X s 585 189 m 5 X s 585 304 m 5 X s 581 266 m 6 Y
 s 595 266 m 6 Y s 588 269 m24 601 189 m 74 Y s 601 275 m 29 Y s 595 269 m 1 X s 607 269 m 1 X s 599 189 m 5 X s 599 304 m 5 X s 595 266 m 6 Y s 608 266 m 6 Y s 601 269 m24 615 118 m 100 Y s 615 229 m 40 Y s 608 224 m 2 X s 621 224 m 1 X s 612 118 m
 6 X s 612 269 m 6 X s 608 221 m 5 Y s 622 221 m 5 Y s 615 224 m24 629 189 m 74 Y s 629 275 m 29 Y s 622 269 m 1 X s 635 269 m 1 X s 626 189 m 6 X s 626 304 m 6 X s 622 266 m 6 Y s 636 266 m 6 Y s 629 269 m24 643 118 m 100 Y s 643 229 m 40 Y s 636
 224 m 1 X s 648 224 m 2 X s 640 118 m 6 X s 640 269 m 6 X s 636 221 m 5 Y s 650 221 m 5 Y s 643 224 m24 670 118 m 100 Y s 670 229 m 40 Y s 663 224 m 2 X s 676 224 m 1 X s 667 118 m 6 X s 667 269 m 6 X s 663 221 m 5 Y s 677 221 m 5 Y s 670 224 m24
 684 189 m 74 Y s 684 275 m 29 Y s 677 269 m 1 X s 690 269 m 1 X s 681 189 m 6 X s 681 304 m 6 X s 677 266 m 6 Y s 691 266 m 6 Y s 684 269 m24 712 118 m 100 Y s 712 229 m 40 Y s 705 224 m 1 X s 717 224 m 2 X s 709 118 m 6 X s 709 269 m 6 X s 705 221
 m 5 Y s 719 221 m 5 Y s 712 224 m24 753 189 m 74 Y s 753 275 m 29 Y s 746 269 m 1 X s 759 269 m 1 X s 750 189 m 6 X s 750 304 m 6 X s 746 266 m 6 Y s 760 266 m 6 Y s 753 269 m24 767 189 m 74 Y s 767 275 m 29 Y s 760 269 m 1 X s 773 269 m 1 X s 764
 189 m 6 X s 764 304 m 6 X s 760 266 m 6 Y s 774 266 m 6 Y s 767 269 m24 850 189 m 74 Y s 850 275 m 29 Y s 843 269 m 1 X s 855 269 m 1 X s 847 189 m 5 X s 847 304 m 5 X s 843 266 m 6 Y s 856 266 m 6 Y s 850 269 m24 877 118 m 100 Y s 877 229 m 40 Y s
 870 224 m 1 X s 883 224 m 1 X s 874 118 m 6 X s 874 269 m 6 X s 870 221 m 5 Y s 884 221 m 5 Y s 877 224 m24 905 118 m 100 Y s 905 229 m 40 Y s 898 224 m 1 X s 910 224 m 2 X s 902 118 m 6 X s 902 269 m 6 X s 898 221 m 5 Y s 912 221 m 5 Y s 905 224
 m24 932 118 m 100 Y s 932 229 m 40 Y s 925 224 m 2 X s 938 224 m 1 X s 929 118 m 6 X s 929 269 m 6 X s 925 221 m 5 Y s 939 221 m 5 Y s 932 224 m24 0 0 1 c[ 12 12] 0 sd 6 lw 443 118 m 511 Y s 719 118 m 511 Y s black[  ] 0 sd 3 lw 1 1 1 c 272 268 186
 654 bf black
 gsave  1088 1072 23 11 C 252.599 874.164 t 0 r /Helvetica findfont 39.7652 sf 0 0 m (OC data: 7258) show NC gr  220 889 m20
 gsave  1088 1072 23 11 C 252.599 807.466 t 0 r /Helvetica findfont 39.7652 sf 0 0 m (SC data: 19) show NC gr  220 822 m24
 gsave  1088 1072 23 11 C 252.599 740.768 t 0 r /Helvetica findfont 39.7652 sf 0 0 m (OC MC: 15316) show NC gr  1 0 0 c 220 755 m20 black
 gsave  1088 1072 23 11 C 252.599 674.071 t 0 r /Helvetica findfont 39.7652 sf 0 0 m (SC MC: 2) show NC gr  1 0 0 c 220 688 m24 black
 gsave  1088 1072 23 11 C 566.22 901.126 t 0 r /Helvetica-Bold findfont 59.6478 sf 0 0 m (pp collisions) show NC gr  1 1 1 c 1088 1072 1157 11 bf black 1 1 1 c 827 858 1287 118 bf black 827 858 1287 118 bl 1 1 1 c 827 858 1287 118 bf black 827 858
 1287 118 bl 1 0 0 c 1 1 1 c 1 0 0 c 1308 272 m 9 Y s 1308 292 m 6 Y s 1301 287 m 1 X s 1314 287 m 1 X s 1305 272 m 6 X s 1305 298 m 6 X s 1301 284 m 5 Y s 1315 284 m 5 Y s 1308 287 m20 1322 294 m 7 Y s 1322 312 m 4 Y s 1315 306 m 1 X s 1327 306 m 2
 X s 1319 294 m 5 X s 1319 316 m 5 X s 1315 303 m 6 Y s 1329 303 m 6 Y s 1322 306 m20 1335 297 m 6 Y s 1335 314 m 4 Y s 1329 309 m 1 X s 1341 309 m 1 X s 1333 297 m 5 X s 1333 318 m 5 X s 1329 306 m 5 Y s 1342 306 m 5 Y s 1335 309 m20 1349 297 m 6 Y
 s 1349 314 m 4 Y s 1342 309 m 2 X s 1355 309 m 1 X s 1346 297 m 6 X s 1346 318 m 6 X s 1342 306 m 5 Y s 1356 306 m 5 Y s 1349 309 m20 1363 289 m 7 Y s 1363 307 m 4 Y s 1356 301 m 1 X s 1369 301 m 1 X s 1360 289 m 6 X s 1360 311 m 6 X s 1356 299 m 5
 Y s 1370 299 m 5 Y s 1363 301 m20 1377 292 m 6 Y s 1377 310 m 4 Y s 1370 304 m 1 X s 1382 304 m 2 X s 1374 292 m 6 X s 1374 314 m 6 X s 1370 301 m 6 Y s 1384 301 m 6 Y s 1377 304 m20 1391 316 m 3 Y s 1391 331 m 2 Y s 1384 325 m 1 X s 1396 325 m 1 X
 s 1388 316 m 5 X s 1388 333 m 5 X s 1384 322 m 6 Y s 1397 322 m 6 Y s 1391 325 m20 1404 306 m 5 Y s 1404 322 m 3 Y s 1397 317 m 2 X s 1410 317 m 1 X s 1402 306 m 5 X s 1402 325 m 5 X s 1397 314 m 5 Y s 1411 314 m 5 Y s 1404 317 m20 1418 302 m 5 Y s
 1418 318 m 4 Y s 1411 313 m 1 X s 1424 313 m 1 X s 1415 302 m 6 X s 1415 322 m 6 X s 1411 310 m 6 Y s 1425 310 m 6 Y s 1418 313 m20 1432 328 m 3 Y s 1432 342 m 1 Y s 1425 336 m 1 X s 1438 336 m 1 X s 1429 328 m 6 X s 1429 343 m 6 X s 1425 333 m 6 Y
 s 1439 333 m 6 Y s 1432 336 m20 1446 319 m 3 Y s 1446 334 m 2 Y s 1439 328 m 1 X s 1451 328 m 2 X s 1443 319 m 6 X s 1443 336 m 6 X s 1439 325 m 6 Y s 1453 325 m 6 Y s 1446 328 m20 1460 330 m 3 Y s 1460 344 m 2 Y s 1453 339 m 1 X s 1465 339 m 1 X s
 1457 330 m 5 X s 1457 346 m 5 X s 1453 336 m 6 Y s 1466 336 m 6 Y s 1460 339 m20 1473 325 m 3 Y s 1473 339 m 2 Y s 1466 334 m 2 X s 1479 334 m 1 X s 1470 325 m 6 X s 1470 341 m 6 X s 1466 331 m 6 Y s 1480 331 m 6 Y s 1473 334 m20 1487 335 m 2 Y s
 1487 349 m 1 Y s 1480 343 m 1 X s 1493 343 m 1 X s 1484 335 m 6 X s 1484 350 m 6 X s 1480 340 m 6 Y s 1494 340 m 6 Y s 1487 343 m20 1501 358 m 1 Y s 1494 365 m 1 X s 1507 365 m 1 X s 1498 358 m 6 X s 1494 362 m 5 Y s 1508 362 m 5 Y s 1501 365 m20
 1515 329 m 3 Y s 1515 343 m 2 Y s 1508 337 m 1 X s 1520 337 m 2 X s 1512 329 m 5 X s 1512 345 m 5 X s 1508 335 m 5 Y s 1522 335 m 5 Y s 1515 337 m20 1522 373 m 1 X s 1534 373 m 1 X s 1522 370 m 6 Y s 1535 370 m 6 Y s 1528 373 m20 1535 379 m 2 X s
 1548 379 m 1 X s 1535 377 m 5 Y s 1549 377 m 5 Y s 1542 379 m20 1549 376 m 1 X s 1562 376 m 1 X s 1549 373 m 6 Y s 1563 373 m 6 Y s 1556 376 m20 1563 386 m 1 X s 1575 386 m 2 X s 1563 384 m 5 Y s 1577 384 m 5 Y s 1570 386 m20 1577 403 m 1 X s 1589
 403 m 1 X s 1577 400 m 6 Y s 1590 400 m 6 Y s 1584 403 m20 1590 414 m 2 X s 1603 414 m 1 X s 1590 412 m 5 Y s 1604 412 m 5 Y s 1597 414 m20 1604 418 m 1 X s 1617 418 m 1 X s 1604 415 m 6 Y s 1618 415 m 6 Y s 1611 418 m20 1618 428 m 1 X s 1631 428 m
 1 X s 1618 425 m 6 Y s 1632 425 m 6 Y s 1625 428 m20 1632 449 m 1 X s 1644 449 m 2 X s 1632 446 m 6 Y s 1646 446 m 6 Y s 1639 449 m20 1646 470 m 1 X s 1658 470 m 1 X s 1646 468 m 5 Y s 1659 468 m 5 Y s 1653 470 m20 1659 486 m 2 X s 1672 486 m 1 X s
 1659 484 m 5 Y s 1673 484 m 5 Y s 1666 486 m20 1673 501 m 1 X s 1686 501 m 1 X s 1673 499 m 5 Y s 1687 499 m 5 Y s 1680 501 m20 1687 516 m 1 X s 1700 516 m 1 X s 1687 513 m 6 Y s 1701 513 m 6 Y s 1694 516 m20 1701 521 m 1 X s 1713 521 m 2 X s 1701
 519 m 5 Y s 1715 519 m 5 Y s 1708 521 m20 1715 518 m 1 X s 1727 518 m 1 X s 1715 515 m 6 Y s 1728 515 m 6 Y s 1721 518 m20 1728 509 m 2 X s 1741 509 m 1 X s 1728 506 m 6 Y s 1742 506 m 6 Y s 1735 509 m20 1742 496 m 1 X s 1755 496 m 1 X s 1742 494 m
 5 Y s 1756 494 m 5 Y s 1749 496 m20 1756 471 m 1 X s 1769 471 m 1 X s 1756 468 m 6 Y s 1770 468 m 6 Y s 1763 471 m20 1770 451 m 1 X s 1782 451 m 2 X s 1770 448 m 6 Y s 1784 448 m 6 Y s 1777 451 m20 1784 428 m 1 X s 1796 428 m 1 X s 1784 425 m 6 Y s
 1797 425 m 6 Y s 1790 428 m20 1797 412 m 2 X s 1810 412 m 1 X s 1797 409 m 6 Y s 1811 409 m 6 Y s 1804 412 m20 1811 397 m 1 X s 1824 397 m 1 X s 1811 395 m 5 Y s 1825 395 m 5 Y s 1818 397 m20 1825 386 m 1 X s 1837 386 m 2 X s 1825 383 m 6 Y s 1839
 383 m 6 Y s 1832 386 m20 1846 362 m s 1839 368 m 1 X s 1851 368 m 1 X s 1843 362 m 5 X s 1839 365 m 6 Y s 1852 365 m 6 Y s 1846 368 m20 1859 345 m 1 Y s 1859 358 m s 1852 352 m 2 X s 1865 352 m 1 X s 1857 345 m 5 X s 1857 358 m 5 X s 1852 349 m 6 Y
 s 1866 349 m 6 Y s 1859 352 m20 1873 325 m 3 Y s 1873 339 m 2 Y s 1866 334 m 1 X s 1879 334 m 1 X s 1870 325 m 6 X s 1870 341 m 6 X s 1866 331 m 6 Y s 1880 331 m 6 Y s 1873 334 m20 1887 350 m 1 Y s 1887 363 m s 1880 357 m 1 X s 1893 357 m 1 X s 1884
 350 m 6 X s 1884 363 m 6 X s 1880 354 m 6 Y s 1894 354 m 6 Y s 1887 357 m20 1901 320 m 4 Y s 1901 335 m 2 Y s 1894 330 m 1 X s 1906 330 m 2 X s 1898 320 m 6 X s 1898 337 m 6 X s 1894 327 m 5 Y s 1908 327 m 5 Y s 1901 330 m20 1914 306 m 5 Y s 1914
 322 m 3 Y s 1908 317 m 1 X s 1920 317 m 1 X s 1912 306 m 5 X s 1912 325 m 5 X s 1908 314 m 5 Y s 1921 314 m 5 Y s 1914 317 m20 1928 314 m 4 Y s 1928 329 m 3 Y s 1921 324 m 2 X s 1934 324 m 1 X s 1925 314 m 6 X s 1925 332 m 6 X s 1921 321 m 5 Y s
 1935 321 m 5 Y s 1928 324 m20 1942 283 m 7 Y s 1942 302 m 5 Y s 1935 296 m 1 X s 1948 296 m 1 X s 1939 283 m 6 X s 1939 307 m 6 X s 1935 293 m 6 Y s 1949 293 m 6 Y s 1942 296 m20 1956 306 m 5 Y s 1956 322 m 3 Y s 1949 317 m 1 X s 1962 317 m 1 X s
 1953 306 m 6 X s 1953 325 m 6 X s 1949 314 m 5 Y s 1963 314 m 5 Y s 1956 317 m20 1970 286 m 7 Y s 1970 304 m 5 Y s 1963 299 m 1 X s 1975 299 m 2 X s 1967 286 m 5 X s 1967 309 m 5 X s 1963 296 m 6 Y s 1977 296 m 6 Y s 1970 299 m20 1983 283 m 7 Y s
 1983 302 m 5 Y s 1977 296 m 1 X s 1989 296 m 1 X s 1981 283 m 5 X s 1981 307 m 5 X s 1977 293 m 6 Y s 1990 293 m 6 Y s 1983 296 m20 1997 272 m 9 Y s 1997 292 m 6 Y s 1990 287 m 2 X s 2003 287 m 1 X s 1994 272 m 6 X s 1994 298 m 6 X s 1990 284 m 5 Y
 s 2004 284 m 5 Y s 1997 287 m20 2011 289 m 7 Y s 2011 307 m 4 Y s 2004 301 m 1 X s 2017 301 m 1 X s 2008 289 m 6 X s 2008 311 m 6 X s 2004 299 m 5 Y s 2018 299 m 5 Y s 2011 301 m20 2025 267 m 10 Y s 2025 289 m 6 Y s 2018 283 m 1 X s 2030 283 m 2 X s
 2022 267 m 6 X s 2022 295 m 6 X s 2018 280 m 6 Y s 2032 280 m 6 Y s 2025 283 m20 2039 246 m 14 Y s 2039 271 m 8 Y s 2032 265 m 1 X s 2044 265 m 1 X s 2036 246 m 5 X s 2036 279 m 5 X s 2032 262 m 6 Y s 2045 262 m 6 Y s 2039 265 m20 2052 220 m 20 Y s
 2052 251 m 11 Y s 2045 246 m 2 X s 2058 246 m 1 X s 2050 220 m 5 X s 2050 262 m 5 X s 2045 243 m 5 Y s 2059 243 m 5 Y s 2052 246 m20 2066 279 m 8 Y s 2066 299 m 5 Y s 2059 293 m 1 X s 2072 293 m 1 X s 2063 279 m 6 X s 2063 304 m 6 X s 2059 290 m 6 Y
 s 2073 290 m 6 Y s 2066 293 m20 2080 246 m 14 Y s 2080 271 m 8 Y s 2073 265 m 1 X s 2086 265 m 1 X s 2077 246 m 6 X s 2077 279 m 6 X s 2073 262 m 6 Y s 2087 262 m 6 Y s 2080 265 m20 2094 230 m 17 Y s 2094 259 m 10 Y s 2087 253 m 1 X s 2099 253 m 2 X
 s 2091 230 m 6 X s 2091 269 m 6 X s 2087 250 m 6 Y s 2101 250 m 6 Y s 2094 253 m20 2108 246 m 14 Y s 2108 271 m 8 Y s 2101 265 m 1 X s 2113 265 m 1 X s 2105 246 m 5 X s 2105 279 m 5 X s 2101 262 m 6 Y s 2114 262 m 6 Y s 2108 265 m20 black 1287 118 m
 827 X s 1287 143 m -25 Y s 1315 130 m -12 Y s 1342 130 m -12 Y s 1370 130 m -12 Y s 1397 130 m -12 Y s 1425 143 m -25 Y s 1453 130 m -12 Y s 1480 130 m -12 Y s 1508 130 m -12 Y s 1535 130 m -12 Y s 1563 143 m -25 Y s 1590 130 m -12 Y s 1618 130 m
 -12 Y s 1646 130 m -12 Y s 1673 130 m -12 Y s 1701 143 m -25 Y s 1728 130 m -12 Y s 1756 130 m -12 Y s 1784 130 m -12 Y s 1811 130 m -12 Y s 1839 143 m -25 Y s 1866 130 m -12 Y s 1894 130 m -12 Y s 1921 130 m -12 Y s 1949 130 m -12 Y s 1977 143 m
 -25 Y s 2004 130 m -12 Y s 2032 130 m -12 Y s 2059 130 m -12 Y s 2087 130 m -12 Y s 2114 143 m -25 Y s
 gsave  1088 1072 1157 11 C 1267.25 83.7267 t 0 r /Helvetica findfont 35.5047 sf 0 0 m (60) show NC gr 
 gsave  1088 1072 1157 11 C 1404.91 83.7267 t 0 r /Helvetica findfont 35.5047 sf 0 0 m (70) show NC gr 
 gsave  1088 1072 1157 11 C 1542.56 83.7267 t 0 r /Helvetica findfont 35.5047 sf 0 0 m (80) show NC gr 
 gsave  1088 1072 1157 11 C 1680.21 83.7267 t 0 r /Helvetica findfont 35.5047 sf 0 0 m (90) show NC gr 
 gsave  1088 1072 1157 11 C 1807.93 83.7267 t 0 r /Helvetica findfont 35.5047 sf 0 0 m (100) show NC gr 
 gsave  1088 1072 1157 11 C 1945.58 83.7267 t 0 r /Helvetica findfont 35.5047 sf 0 0 m (110) show NC gr 
 gsave  1088 1072 1157 11 C 2083.23 83.7267 t 0 r /Helvetica findfont 35.5047 sf 0 0 m (120) show NC gr 
 gsave  1088 1072 1157 11 C 1986.74 32.6392 t 0 r /Helvetica findfont 45.446 sf 0 0 m ( [GeV]) show NC gr 
 gsave  1088 1072 1157 11 C 1969.71 24.1246 t 0 r /Symbol findfont 29.8239 sf 0 0 m (m) show NC gr 
 gsave  1088 1072 1157 11 C 1952.68 24.1246 t 0 r /Symbol findfont 29.8239 sf 0 0 m (m) show NC gr 
 gsave  1088 1072 1157 11 C 1917.2 32.6392 t 0 r /Helvetica findfont 45.446 sf 0 0 m (M) show NC gr  1287 118 m 858 Y s 1300 118 m -13 X s 1300 138 m -13 X s 1300 152 m -13 X s 1300 163 m -13 X s 1300 171 m -13 X s 1300 179 m -13 X s 1300 185 m -13 X
 s 1300 191 m -13 X s 1313 196 m -26 X s
 gsave  1088 1072 1157 11 C 1265.83 184.483 t 0 r /Helvetica findfont 32.6643 sf 0 0 m (1) show NC gr  1300 230 m -13 X s 1300 249 m -13 X s 1300 263 m -13 X s 1300 274 m -13 X s 1300 283 m -13 X s 1300 290 m -13 X s 1300 297 m -13 X s 1300 303 m -13
 X s 1313 308 m -26 X s
 gsave  1088 1072 1157 11 C 1243.13 295.172 t 0 r /Helvetica findfont 32.6643 sf 0 0 m (10) show NC gr  1300 341 m -13 X s 1300 361 m -13 X s 1300 375 m -13 X s 1300 386 m -13 X s 1300 395 m -13 X s 1300 402 m -13 X s 1300 408 m -13 X s 1300 414 m
 -13 X s 1313 419 m -26 X s
 gsave  1088 1072 1157 11 C 1265.83 418.634 t 0 r /Helvetica findfont 22.723 sf 0 0 m (2) show NC gr 
 gsave  1088 1072 1157 11 C 1230.36 404.443 t 0 r /Helvetica findfont 32.6643 sf 0 0 m (10) show NC gr  1300 453 m -13 X s 1300 473 m -13 X s 1300 486 m -13 X s 1300 497 m -13 X s 1300 506 m -13 X s 1300 514 m -13 X s 1300 520 m -13 X s 1300 526 m
 -13 X s 1313 531 m -26 X s
 gsave  1088 1072 1157 11 C 1265.83 532.161 t 0 r /Helvetica findfont 22.723 sf 0 0 m (3) show NC gr 
 gsave  1088 1072 1157 11 C 1230.36 516.551 t 0 r /Helvetica findfont 32.6643 sf 0 0 m (10) show NC gr  1300 564 m -13 X s 1300 584 m -13 X s 1300 598 m -13 X s 1300 609 m -13 X s 1300 618 m -13 X s 1300 625 m -13 X s 1300 632 m -13 X s 1300 637 m
 -13 X s 1313 642 m -26 X s
 gsave  1088 1072 1157 11 C 1265.83 641.432 t 0 r /Helvetica findfont 22.723 sf 0 0 m (4) show NC gr 
 gsave  1088 1072 1157 11 C 1230.36 627.241 t 0 r /Helvetica findfont 32.6643 sf 0 0 m (10) show NC gr  1300 676 m -13 X s 1300 696 m -13 X s 1300 710 m -13 X s 1300 720 m -13 X s 1300 729 m -13 X s 1300 737 m -13 X s 1300 743 m -13 X s 1300 749 m
 -13 X s 1313 754 m -26 X s
 gsave  1088 1072 1157 11 C 1265.83 754.959 t 0 r /Helvetica findfont 22.723 sf 0 0 m (5) show NC gr 
 gsave  1088 1072 1157 11 C 1230.36 739.349 t 0 r /Helvetica findfont 32.6643 sf 0 0 m (10) show NC gr  1300 788 m -13 X s 1300 807 m -13 X s 1300 821 m -13 X s 1300 832 m -13 X s 1300 841 m -13 X s 1300 848 m -13 X s 1300 855 m -13 X s 1300 860 m
 -13 X s 1313 866 m -26 X s
 gsave  1088 1072 1157 11 C 1265.83 865.649 t 0 r /Helvetica findfont 22.723 sf 0 0 m (6) show NC gr 
 gsave  1088 1072 1157 11 C 1230.36 850.039 t 0 r /Helvetica findfont 32.6643 sf 0 0 m (10) show NC gr  1300 899 m -13 X s 1300 919 m -13 X s 1300 933 m -13 X s 1300 944 m -13 X s 1300 952 m -13 X s 1300 960 m -13 X s 1300 966 m -13 X s 1300 972 m
 -13 X s
 gsave  1088 1072 1157 11 C 1203.39 557.705 t 90 r /Helvetica findfont 45.446 sf 0 0 m (Entries / NormFactor) show NC gr  1 0 0 c 1 1 1 c 1 0 0 c black 1 1 1 c black 1308 258 m 19 Y s 1308 289 m 11 Y s 1301 283 m 1 X s 1314 283 m 1 X s 1305 258 m 6 X
 s 1305 300 m 6 X s 1301 280 m 6 Y s 1315 280 m 6 Y s 1308 283 m20 1322 267 m 18 Y s 1322 296 m 10 Y s 1315 290 m 1 X s 1327 290 m 2 X s 1319 267 m 5 X s 1319 306 m 5 X s 1315 288 m 5 Y s 1329 288 m 5 Y s 1322 290 m20 1335 283 m 14 Y s 1335 308 m 9 Y
 s 1329 303 m 1 X s 1341 303 m 1 X s 1333 283 m 5 X s 1333 317 m 5 X s 1329 300 m 5 Y s 1342 300 m 5 Y s 1335 303 m20 1349 295 m 12 Y s 1349 318 m 7 Y s 1342 312 m 2 X s 1355 312 m 1 X s 1346 295 m 6 X s 1346 325 m 6 X s 1342 310 m 5 Y s 1356 310 m 5
 Y s 1349 312 m20 1363 295 m 12 Y s 1363 318 m 7 Y s 1356 312 m 1 X s 1369 312 m 1 X s 1360 295 m 6 X s 1360 325 m 6 X s 1356 310 m 5 Y s 1370 310 m 5 Y s 1363 312 m20 1377 295 m 12 Y s 1377 318 m 7 Y s 1370 312 m 1 X s 1382 312 m 2 X s 1374 295 m 6
 X s 1374 325 m 6 X s 1370 310 m 5 Y s 1384 310 m 5 Y s 1377 312 m20 1391 309 m 9 Y s 1391 330 m 6 Y s 1384 324 m 1 X s 1396 324 m 1 X s 1388 309 m 5 X s 1388 336 m 5 X s 1384 321 m 6 Y s 1397 321 m 6 Y s 1391 324 m20 1404 320 m 8 Y s 1404 339 m 5 Y
 s 1397 333 m 2 X s 1410 333 m 1 X s 1402 320 m 5 X s 1402 344 m 5 X s 1397 331 m 5 Y s 1411 331 m 5 Y s 1404 333 m20 1418 305 m 10 Y s 1418 326 m 6 Y s 1411 320 m 1 X s 1424 320 m 1 X s 1415 305 m 6 X s 1415 332 m 6 X s 1411 318 m 5 Y s 1425 318 m 5
 Y s 1418 320 m20 1432 289 m 13 Y s 1432 313 m 8 Y s 1425 308 m 1 X s 1438 308 m 1 X s 1429 289 m 6 X s 1429 321 m 6 X s 1425 305 m 6 Y s 1439 305 m 6 Y s 1432 308 m20 1446 341 m 5 Y s 1446 358 m 3 Y s 1439 352 m 1 X s 1451 352 m 2 X s 1443 341 m 6 X
 s 1443 361 m 6 X s 1439 349 m 6 Y s 1453 349 m 6 Y s 1446 352 m20 1460 341 m 5 Y s 1460 358 m 3 Y s 1453 352 m 1 X s 1465 352 m 1 X s 1457 341 m 5 X s 1457 361 m 5 X s 1453 349 m 6 Y s 1466 349 m 6 Y s 1460 352 m20 1473 359 m 4 Y s 1473 374 m 2 Y s
 1466 368 m 2 X s 1479 368 m 1 X s 1470 359 m 6 X s 1470 376 m 6 X s 1466 366 m 5 Y s 1480 366 m 5 Y s 1473 368 m20 1487 332 m 6 Y s 1487 349 m 4 Y s 1480 344 m 1 X s 1493 344 m 1 X s 1484 332 m 6 X s 1484 353 m 6 X s 1480 341 m 6 Y s 1494 341 m 6 Y
 s 1487 344 m20 1501 289 m 13 Y s 1501 313 m 8 Y s 1494 308 m 1 X s 1507 308 m 1 X s 1498 289 m 6 X s 1498 321 m 6 X s 1494 305 m 6 Y s 1508 305 m 6 Y s 1501 308 m20 1515 326 m 7 Y s 1515 345 m 4 Y s 1508 339 m 1 X s 1520 339 m 2 X s 1512 326 m 5 X s
 1512 349 m 5 X s 1508 336 m 6 Y s 1522 336 m 6 Y s 1515 339 m20 1528 376 m 2 Y s 1528 389 m 1 Y s 1522 384 m 1 X s 1534 384 m 1 X s 1526 376 m 5 X s 1526 390 m 5 X s 1522 381 m 6 Y s 1535 381 m 6 Y s 1528 384 m20 1542 362 m 3 Y s 1542 377 m 1 Y s
 1535 371 m 2 X s 1548 371 m 1 X s 1539 362 m 6 X s 1539 378 m 6 X s 1535 368 m 6 Y s 1549 368 m 6 Y s 1542 371 m20 1556 370 m 3 Y s 1556 384 m 1 Y s 1549 378 m 1 X s 1562 378 m 1 X s 1553 370 m 6 X s 1553 385 m 6 X s 1549 376 m 5 Y s 1563 376 m 5 Y
 s 1556 378 m20 1570 381 m 2 Y s 1570 394 m 1 Y s 1563 389 m 1 X s 1575 389 m 2 X s 1567 381 m 6 X s 1567 395 m 6 X s 1563 386 m 5 Y s 1577 386 m 5 Y s 1570 389 m20 1584 390 m s 1584 402 m s 1577 396 m 1 X s 1589 396 m 1 X s 1581 390 m 5 X s 1581 402
 m 5 X s 1577 393 m 6 Y s 1590 393 m 6 Y s 1584 396 m20 1590 412 m 2 X s 1603 412 m 1 X s 1590 409 m 6 Y s 1604 409 m 6 Y s 1597 412 m20 1604 433 m 1 X s 1617 433 m 1 X s 1604 430 m 6 Y s 1618 430 m 6 Y s 1611 433 m20 1618 433 m 1 X s 1631 433 m 1 X
 s 1618 430 m 6 Y s 1632 430 m 6 Y s 1625 433 m20 1632 457 m 1 X s 1644 457 m 2 X s 1632 454 m 5 Y s 1646 454 m 5 Y s 1639 457 m20 1646 466 m 1 X s 1658 466 m 1 X s 1646 464 m 5 Y s 1659 464 m 5 Y s 1653 466 m20 1659 488 m 2 X s 1672 488 m 1 X s 1659
 485 m 6 Y s 1673 485 m 6 Y s 1666 488 m20 1673 499 m 1 X s 1686 499 m 1 X s 1673 496 m 6 Y s 1687 496 m 6 Y s 1680 499 m20 1687 513 m 1 X s 1700 513 m 1 X s 1687 510 m 6 Y s 1701 510 m 6 Y s 1694 513 m20 1701 519 m 1 X s 1713 519 m 2 X s 1701 516 m
 6 Y s 1715 516 m 6 Y s 1708 519 m20 1715 524 m 1 X s 1727 524 m 1 X s 1715 521 m 6 Y s 1728 521 m 6 Y s 1721 524 m20 1728 509 m 2 X s 1741 509 m 1 X s 1728 506 m 5 Y s 1742 506 m 5 Y s 1735 509 m20 1742 490 m 1 X s 1755 490 m 1 X s 1742 487 m 6 Y s
 1756 487 m 6 Y s 1749 490 m20 1756 476 m 1 X s 1769 476 m 1 X s 1756 473 m 6 Y s 1770 473 m 6 Y s 1763 476 m20 1770 446 m 1 X s 1782 446 m 2 X s 1770 443 m 6 Y s 1784 443 m 6 Y s 1777 446 m20 1784 426 m 1 X s 1796 426 m 1 X s 1784 423 m 6 Y s 1797
 423 m 6 Y s 1790 426 m20 1797 418 m 2 X s 1810 418 m 1 X s 1797 415 m 6 Y s 1811 415 m 6 Y s 1804 418 m20 1818 382 m 2 Y s 1818 395 m 1 Y s 1811 389 m 1 X s 1824 389 m 1 X s 1815 382 m 6 X s 1815 396 m 6 X s 1811 387 m 5 Y s 1825 387 m 5 Y s 1818
 389 m20 1832 359 m 4 Y s 1832 374 m 2 Y s 1825 368 m 1 X s 1837 368 m 2 X s 1829 359 m 6 X s 1829 376 m 6 X s 1825 366 m 5 Y s 1839 366 m 5 Y s 1832 368 m20 1846 365 m 3 Y s 1846 379 m 2 Y s 1839 374 m 1 X s 1851 374 m 1 X s 1843 365 m 5 X s 1843
 381 m 5 X s 1839 371 m 6 Y s 1852 371 m 6 Y s 1846 374 m20 1859 343 m 5 Y s 1859 360 m 3 Y s 1852 354 m 2 X s 1865 354 m 1 X s 1857 343 m 5 X s 1857 363 m 5 X s 1852 351 m 6 Y s 1866 351 m 6 Y s 1859 354 m20 1873 334 m 6 Y s 1873 352 m 3 Y s 1866
 346 m 1 X s 1879 346 m 1 X s 1870 334 m 6 X s 1870 355 m 6 X s 1866 343 m 6 Y s 1880 343 m 6 Y s 1873 346 m20 1887 320 m 8 Y s 1887 339 m 5 Y s 1880 333 m 1 X s 1893 333 m 1 X s 1884 320 m 6 X s 1884 344 m 6 X s 1880 331 m 5 Y s 1894 331 m 5 Y s
 1887 333 m20 1901 326 m 7 Y s 1901 345 m 4 Y s 1894 339 m 1 X s 1906 339 m 2 X s 1898 326 m 6 X s 1898 349 m 6 X s 1894 336 m 6 Y s 1908 336 m 6 Y s 1901 339 m20 1914 329 m 7 Y s 1914 347 m 4 Y s 1908 341 m 1 X s 1920 341 m 1 X s 1912 329 m 5 X s
 1912 351 m 5 X s 1908 338 m 6 Y s 1921 338 m 6 Y s 1914 341 m20 1928 305 m 10 Y s 1928 326 m 6 Y s 1921 320 m 2 X s 1934 320 m 1 X s 1925 305 m 6 X s 1925 332 m 6 X s 1921 318 m 5 Y s 1935 318 m 5 Y s 1928 320 m20 1942 283 m 14 Y s 1942 308 m 9 Y s
 1935 303 m 1 X s 1948 303 m 1 X s 1939 283 m 6 X s 1939 317 m 6 X s 1935 300 m 5 Y s 1949 300 m 5 Y s 1942 303 m20 1956 267 m 18 Y s 1956 296 m 10 Y s 1949 290 m 1 X s 1962 290 m 1 X s 1953 267 m 6 X s 1953 306 m 6 X s 1949 288 m 5 Y s 1963 288 m 5
 Y s 1956 290 m20 1970 245 m 23 Y s 1970 280 m 12 Y s 1963 274 m 1 X s 1975 274 m 2 X s 1967 245 m 5 X s 1967 292 m 5 X s 1963 271 m 6 Y s 1977 271 m 6 Y s 1970 274 m20 1983 305 m 10 Y s 1983 326 m 6 Y s 1977 320 m 1 X s 1989 320 m 1 X s 1981 305 m 5
 X s 1981 332 m 5 X s 1977 318 m 5 Y s 1990 318 m 5 Y s 1983 320 m20 1997 267 m 18 Y s 1997 296 m 10 Y s 1990 290 m 2 X s 2003 290 m 1 X s 1994 267 m 6 X s 1994 306 m 6 X s 1990 288 m 5 Y s 2004 288 m 5 Y s 1997 290 m20 2011 230 m 28 Y s 2011 269 m
 14 Y s 2004 263 m 1 X s 2017 263 m 1 X s 2008 230 m 6 X s 2008 283 m 6 X s 2004 260 m 6 Y s 2018 260 m 6 Y s 2011 263 m20 2025 276 m 15 Y s 2025 303 m 9 Y s 2018 297 m 1 X s 2030 297 m 2 X s 2022 276 m 6 X s 2022 312 m 6 X s 2018 294 m 6 Y s 2032
 294 m 6 Y s 2025 297 m20 2039 276 m 15 Y s 2039 303 m 9 Y s 2032 297 m 1 X s 2044 297 m 1 X s 2036 276 m 5 X s 2036 312 m 5 X s 2032 294 m 6 Y s 2045 294 m 6 Y s 2039 297 m20 2052 208 m 36 Y s 2052 255 m 16 Y s 2045 249 m 2 X s 2058 249 m 1 X s 2050
 208 m 5 X s 2050 271 m 5 X s 2045 247 m 5 Y s 2059 247 m 5 Y s 2052 249 m20 2066 170 m 54 Y s 2066 235 m 21 Y s 2059 230 m 1 X s 2072 230 m 1 X s 2063 170 m 6 X s 2063 256 m 6 X s 2059 227 m 6 Y s 2073 227 m 6 Y s 2066 230 m20 2080 208 m 36 Y s 2080
 255 m 16 Y s 2073 249 m 1 X s 2086 249 m 1 X s 2077 208 m 6 X s 2077 271 m 6 X s 2073 247 m 5 Y s 2087 247 m 5 Y s 2080 249 m20 2094 245 m 23 Y s 2094 280 m 12 Y s 2087 274 m 1 X s 2099 274 m 2 X s 2091 245 m 6 X s 2091 292 m 6 X s 2087 271 m 6 Y s
 2101 271 m 6 Y s 2094 274 m20 2108 170 m 54 Y s 2108 235 m 21 Y s 2101 230 m 1 X s 2113 230 m 1 X s 2105 170 m 5 X s 2105 256 m 5 X s 2101 227 m 6 Y s 2114 227 m 6 Y s 2108 230 m20 1 1 1 c black 0 0 1 c[ 12 12] 0 sd 6 lw 1577 118 m 378 Y s 1852 118
 m 378 Y s black[  ] 0 sd 3 lw 1 1 1 c 272 268 1320 654 bf black
 gsave  1088 1072 1157 11 C 1386.46 874.164 t 0 r /Helvetica findfont 39.7652 sf 0 0 m (OC data: 6089) show NC gr  1354 889 m20
 gsave  1088 1072 1157 11 C 1386.46 807.466 t 0 r /Helvetica findfont 39.7652 sf 0 0 m (SC data: 0) show NC gr  1354 822 m24
 gsave  1088 1072 1157 11 C 1386.46 740.768 t 0 r /Helvetica findfont 39.7652 sf 0 0 m (OC MC: 13218) show NC gr  1 0 0 c 1354 755 m20 black
 gsave  1088 1072 1157 11 C 1386.46 674.071 t 0 r /Helvetica findfont 39.7652 sf 0 0 m (SC MC: 0) show NC gr  1 0 0 c 1354 688 m24 black
 gsave  1088 1072 1157 11 C 1700.08 901.126 t 0 r /Helvetica-Bold findfont 59.6478 sf 0 0 m (pp collisions) show NC gr 
 gr  gr showpage
end
%%EOF
