%!PS-Adobe-2.0 EPSF-2.0
%%BoundingBox:  0 0 567 354
%%Title: : Resultsd
%%Creator: ROOT Version 6.16/00
%%CreationDate: Thu May  9 11:26:41 2019
%%DocumentNeededResources: ProcSet (FontSetInit)
%%EndComments
%%BeginProlog
80 dict begin
/s {stroke} def /l {lineto} def /m {moveto} def /t {translate} def
/r {rotate} def /rl {roll}  def /R {repeat} def
/d {rlineto} def /rm {rmoveto} def /gr {grestore} def /f {eofill} def
/c {setrgbcolor} def /black {0 setgray} def /sd {setdash} def
/cl {closepath} def /sf {scalefont setfont} def /lw {setlinewidth} def
/box {m dup 0 exch d exch 0 d 0 exch neg d cl} def
/NC{systemdict begin initclip end}def/C{NC box clip newpath}def
/bl {box s} def /bf {gsave box gsave f grestore 1 lw [] 0 sd s grestore} def /Y { 0 exch d} def /X { 0 d} def 
/K {{pop pop 0 moveto} exch kshow} bind def
/ita {/ang 15 def gsave [1 0 ang dup sin exch cos div 1 0 0] concat} def 
/mp {newpath /y exch def /x exch def} def
/side {[w .77 mul w .23 mul] .385 w mul sd w 0 l currentpoint t -144 r} def
/mr {mp x y w2 0 360 arc} def /m24 {mr s} def /m20 {mr f} def
/mb {mp x y w2 add m w2 neg 0 d 0 w neg d w 0 d 0 w d cl} def
/mt {mp x y w2 add m w2 neg w neg d w 0 d cl} def
/w4 {w 4 div} def
/w6 {w 6 div} def
/w8 {w 8 div} def
/m21 {mb f} def /m25 {mb s} def /m22 {mt f} def /m26{mt s} def
/m23 {mp x y w2 sub m w2 w d w neg 0 d cl f} def
/m27 {mp x y w2 add m w3 neg w2 neg d w3 w2 neg d w3 w2 d cl s} def
/m28 {mp x w2 sub y w2 sub w3 add m w3 0 d  0 w3 neg d w3 0 d 0 w3 d w3 0 d  0 w3 d w3 neg 0 d 0 w3 d w3 neg 0 d 0 w3 neg d w3 neg 0 d cl s } def
/m29 {mp gsave x w2 sub y w2 add w3 sub m currentpoint t 4 {side} repeat cl fill gr} def
/m30 {mp gsave x w2 sub y w2 add w3 sub m currentpoint t 4 {side} repeat cl s gr} def
/m31 {mp x y w2 sub m 0 w d x w2 sub y m w 0 d x w2 sub y w2 add m w w neg d x w2 sub y w2 sub m w w d s} def
/m32 {mp x y w2 sub m w2 w d w neg 0 d cl s} def
/m33 {mp x y w2 add m w3 neg w2 neg d w3 w2 neg d w3 w2 d cl f} def
/m34 {mp x w2 sub y w2 sub w3 add m w3 0 d  0 w3 neg d w3 0 d 0 w3 d w3 0 d  0 w3 d w3 neg 0 d 0 w3 d w3 neg 0 d 0 w3 neg d w3 neg 0 d cl f } def
/m35 {mp x y w2 add m w2 neg w2 neg d w2 w2 neg d w2 w2 d w2 neg w2 d x y w2 sub m 0 w d x w2 sub y m w 0 d s} def
/m36 {mb x w2 sub y w2 add m w w neg d x w2 sub y w2 sub m w w d s} def
/m37 {mp x y m w4 neg w2 d w4 neg w2 neg d w2 0 d  w4 neg w2 neg d w2 0 d w4 neg w2 d w2 0 d w4 neg w2 d w4 neg w2 neg d cl s} def
/m38 {mp x w4 sub y w2 add m w4 neg w4 neg d 0 w2 neg d w4 w4 neg d w2 0 d w4 w4 d 0 w2 d w4 neg w4 d w2 neg 0 d x y w2 sub m 0 w d x w2 sub y m w 0 d cl s} def
/m39 {mp x y m w4 neg w2 d w4 neg w2 neg d w2 0 d  w4 neg w2 neg d w2 0 d w4 neg w2 d w2 0 d w4 neg w2 d w4 neg w2 neg d cl f} def
/m40 {mp x y m w4 w2 d w4 w4 neg d w2 neg w4 neg d w2 w4 neg d w4 neg w4 neg d w4 neg w2 d w4 neg w2 neg d w4 neg w4 d w2 w4 d w2 neg w4 d w4 w4 d w4 w2 neg d cl s} def
/m41 {mp x y m w4 w2 d w4 w4 neg d w2 neg w4 neg d w2 w4 neg d w4 neg w4 neg d w4 neg w2 d w4 neg w2 neg d w4 neg w4 d w2 w4 d w2 neg w4 d w4 w4 d w4 w2 neg d cl f} def
/m42 {mp x y w2 add m w8 neg w2 -3 4 div mul d w2 -3 4 div mul w8 neg d w2 3 4 div mul w8 neg d w8 w2 -3 4 div mul d w8 w2 3 4 div mul d w2 3 4 div mul w8 d w2 -3 4 div mul w8 d w8 neg w2 3 4 div mul d cl s} def
/m43 {mp x y w2 add m w8 neg w2 -3 4 div mul d w2 -3 4 div mul w8 neg d w2 3 4 div mul w8 neg d w8 w2 -3 4 div mul d w8 w2 3 4 div mul d w2 3 4 div mul w8 d w2 -3 4 div mul w8 d w8 neg w2 3 4 div mul d cl f} def
/m44 {mp x y m w6 neg w2 d w2 2 3 div mul 0 d w6 neg w2 neg d w2 w6 d 0 w2 -2 3 div mul d w2 neg w6 d w6 w2 neg d w2 -2 3 div mul 0 d w6 w2 d w2 neg w6 neg d 0 w2 2 3 div mul d w2 w6 neg d cl s} def
/m45 {mp x y m w6 neg w2 d w2 2 3 div mul 0 d w6 neg w2 neg d w2 w6 d 0 w2 -2 3 div mul d w2 neg w6 d w6 w2 neg d w2 -2 3 div mul 0 d w6 w2 d w2 neg w6 neg d 0 w2 2 3 div mul d w2 w6 neg d cl f} def
/m46 {mp x y w4 add m w4 neg w4 d w4 neg w4 neg d  w4 w4 neg d w4 neg w4 neg d w4 w4 neg d w4 w4 d w4 w4 neg d w4 w4 d w4 neg w4 d w4 w4 d w4 neg w4 d w4 neg w4 neg d cl s} def
/m47 {mp x y w4 add m w4 neg w4 d w4 neg w4 neg d w4 w4 neg d w4 neg w4 neg d  w4 w4 neg d w4 w4 d w4 w4 neg d w4 w4 d w4 neg w4 d w4 w4 d w4 neg w4 d w4 neg w4 neg d cl f} def
/m48 {mp x y w4 add m w4 neg w4 d w4 neg w4 neg d w4 w4 neg d  w4 neg w4 neg d w4 w4 neg d w4 w4 d w4 w4 neg d w4 w4 d w4 neg w4 d w4 w4 d w4 neg w4 d w4 neg w4 neg d  w4 w4 neg d w4 neg w4 neg d w4 neg w4 d w4 w4 d cl f} def
/m49 {mp x w2 sub w3 add y w2 sub w3 add m  0 w3 neg d w3 0 d 0 w3 d w3 0 d 0 w3 d w3 neg 0 d 0 w3 d w3 neg 0 d 0 w3 neg d w3 neg 0 d 0 w3 neg d w3 0 d 0 w3 d w3 0 d 0 w3 neg d w3 neg 0 d cl f } def
/m2 {mp x y w2 sub m 0 w d x w2 sub y m w 0 d s} def
/m5 {mp x w2 sub y w2 sub m w w d x w2 sub y w2 add m w w neg d s} def
%%IncludeResource: ProcSet (FontSetInit)
%%IncludeResource: font Times-Roman
%%IncludeResource: font Times-Italic
%%IncludeResource: font Times-Bold
%%IncludeResource: font Times-BoldItalic
%%IncludeResource: font Helvetica
%%IncludeResource: font Helvetica-Oblique
%%IncludeResource: font Helvetica-Bold
%%IncludeResource: font Helvetica-BoldOblique
%%IncludeResource: font Courier
%%IncludeResource: font Courier-Oblique
%%IncludeResource: font Courier-Bold
%%IncludeResource: font Courier-BoldOblique
%%IncludeResource: font Symbol
%%IncludeResource: font ZapfDingbats
/reEncode {exch findfont dup length dict begin {1 index /FID eq  {pop pop} {def} ifelse } forall /Encoding exch def currentdict end dup /FontName get exch definefont pop } def [/Times-Bold /Times-Italic /Times-BoldItalic /Helvetica /Helvetica-Oblique
 /Helvetica-Bold /Helvetica-BoldOblique /Courier /Courier-Oblique /Courier-Bold /Courier-BoldOblique /Times-Roman /AvantGarde-Book /AvantGarde-BookOblique /AvantGarde-Demi /AvantGarde-DemiOblique /Bookman-Demi /Bookman-DemiItalic /Bookman-Light
 /Bookman-LightItalic /Helvetica-Narrow /Helvetica-Narrow-Bold /Helvetica-Narrow-BoldOblique /Helvetica-Narrow-Oblique /NewCenturySchlbk-Roman /NewCenturySchlbk-Bold /NewCenturySchlbk-BoldItalic /NewCenturySchlbk-Italic /Palatino-Bold
 /Palatino-BoldItalic /Palatino-Italic /Palatino-Roman ] {ISOLatin1Encoding reEncode } forall
%%EndProlog
%%BeginSetup
%%EndSetup
newpath  gsave  .25 .25 scale  gsave  0 0 t black[  ] 0 sd 3 lw 1 1 1 c 2268 1418 0 0 bf black 1 1 1 c 1088 1390 23 14 bf black 1 1 1 c black 1 1 1 c 828 700 153 578 bf black 828 700 153 578 bl 1 1 1 c 828 700 153 578 bf black 828 700 153 578 bl 153
 578 m 828 X s 153 597 m -19 Y s 172 588 m -10 Y s 190 588 m -10 Y s 208 588 m -10 Y s 227 588 m -10 Y s 245 597 m -19 Y s 264 588 m -10 Y s 282 588 m -10 Y s 300 588 m -10 Y s 319 588 m -10 Y s 337 597 m -19 Y s 356 588 m -10 Y s 374 588 m -10 Y s
 392 588 m -10 Y s 411 588 m -10 Y s 429 597 m -19 Y s 447 588 m -10 Y s 466 588 m -10 Y s 484 588 m -10 Y s 503 588 m -10 Y s 521 597 m -19 Y s 539 588 m -10 Y s 558 588 m -10 Y s 576 588 m -10 Y s 595 588 m -10 Y s 613 597 m -19 Y s 631 588 m -10 Y
 s 650 588 m -10 Y s 668 588 m -10 Y s 686 588 m -10 Y s 705 597 m -19 Y s 723 588 m -10 Y s 742 588 m -10 Y s 760 588 m -10 Y s 778 588 m -10 Y s 797 597 m -19 Y s 815 588 m -10 Y s 833 588 m -10 Y s 852 588 m -10 Y s 870 588 m -10 Y s 889 597 m -19
 Y s 907 588 m -10 Y s 925 588 m -10 Y s 944 588 m -10 Y s 962 588 m -10 Y s 981 597 m -19 Y s 981 597 m -19 Y s
 gsave  1088 834 23 570 C 137.652 552.029 t 0 r /Helvetica findfont 26.9818 sf 0 0 m (10) show NC gr 
 gsave  1088 834 23 570 C 228.475 552.029 t 0 r /Helvetica findfont 26.9818 sf 0 0 m (20) show NC gr 
 gsave  1088 834 23 570 C 320.716 552.029 t 0 r /Helvetica findfont 26.9818 sf 0 0 m (30) show NC gr 
 gsave  1088 834 23 570 C 412.957 552.029 t 0 r /Helvetica findfont 26.9818 sf 0 0 m (40) show NC gr 
 gsave  1088 834 23 570 C 505.198 552.029 t 0 r /Helvetica findfont 26.9818 sf 0 0 m (50) show NC gr 
 gsave  1088 834 23 570 C 596.021 552.029 t 0 r /Helvetica findfont 26.9818 sf 0 0 m (60) show NC gr 
 gsave  1088 834 23 570 C 688.262 552.029 t 0 r /Helvetica findfont 26.9818 sf 0 0 m (70) show NC gr 
 gsave  1088 834 23 570 C 780.503 552.029 t 0 r /Helvetica findfont 26.9818 sf 0 0 m (80) show NC gr 
 gsave  1088 834 23 570 C 872.744 552.029 t 0 r /Helvetica findfont 26.9818 sf 0 0 m (90) show NC gr 
 gsave  1088 834 23 570 C 956.471 552.029 t 0 r /Helvetica findfont 26.9818 sf 0 0 m (100) show NC gr 
 gsave  1088 834 23 570 C 967.824 540.676 t 0 r /Symbol findfont 18.4612 sf 0 0 m (m) show NC gr 
 gsave  1088 834 23 570 C 967.824 512.294 t 0 r /Helvetica findfont 18.4612 sf 0 0 m (T) show NC gr 
 gsave  1088 834 23 570 C 952.214 527.904 t 0 r /Helvetica findfont 26.9818 sf 0 0 m (p) show NC gr  153 1278 m 828 X s 153 1259 m 19 Y s 172 1269 m 9 Y s 190 1269 m 9 Y s 208 1269 m 9 Y s 227 1269 m 9 Y s 245 1259 m 19 Y s 264 1269 m 9 Y s 282 1269
 m 9 Y s 300 1269 m 9 Y s 319 1269 m 9 Y s 337 1259 m 19 Y s 356 1269 m 9 Y s 374 1269 m 9 Y s 392 1269 m 9 Y s 411 1269 m 9 Y s 429 1259 m 19 Y s 447 1269 m 9 Y s 466 1269 m 9 Y s 484 1269 m 9 Y s 503 1269 m 9 Y s 521 1259 m 19 Y s 539 1269 m 9 Y s
 558 1269 m 9 Y s 576 1269 m 9 Y s 595 1269 m 9 Y s 613 1259 m 19 Y s 631 1269 m 9 Y s 650 1269 m 9 Y s 668 1269 m 9 Y s 686 1269 m 9 Y s 705 1259 m 19 Y s 723 1269 m 9 Y s 742 1269 m 9 Y s 760 1269 m 9 Y s 778 1269 m 9 Y s 797 1259 m 19 Y s 815 1269
 m 9 Y s 833 1269 m 9 Y s 852 1269 m 9 Y s 870 1269 m 9 Y s 889 1259 m 19 Y s 907 1269 m 9 Y s 925 1269 m 9 Y s 944 1269 m 9 Y s 962 1269 m 9 Y s 981 1259 m 19 Y s 981 1259 m 19 Y s 153 578 m 700 Y s 181 651 m -28 X s 167 666 m -14 X s 167 681 m -14
 X s 167 696 m -14 X s 167 710 m -14 X s 181 725 m -28 X s 167 740 m -14 X s 167 755 m -14 X s 167 770 m -14 X s 167 784 m -14 X s 181 799 m -28 X s 167 814 m -14 X s 167 829 m -14 X s 167 843 m -14 X s 167 858 m -14 X s 181 873 m -28 X s 167 888 m
 -14 X s 167 903 m -14 X s 167 917 m -14 X s 167 932 m -14 X s 181 947 m -28 X s 167 962 m -14 X s 167 976 m -14 X s 167 991 m -14 X s 167 1006 m -14 X s 181 1021 m -28 X s 167 1036 m -14 X s 167 1050 m -14 X s 167 1065 m -14 X s 167 1080 m -14 X s
 181 1095 m -28 X s 167 1109 m -14 X s 167 1124 m -14 X s 167 1139 m -14 X s 167 1154 m -14 X s 181 1168 m -28 X s 167 1183 m -14 X s 167 1198 m -14 X s 167 1213 m -14 X s 167 1228 m -14 X s 181 1242 m -28 X s 181 651 m -28 X s 167 637 m -14 X s 167
 622 m -14 X s 167 607 m -14 X s 167 592 m -14 X s 181 1242 m -28 X s 167 1257 m -14 X s 167 1272 m -14 X s
 gsave  1088 834 23 570 C 107.851 640.013 t 0 r /Helvetica findfont 32.6621 sf 0 0 m (0.1) show NC gr 
 gsave  1088 834 23 570 C 103.594 713.806 t 0 r /Helvetica findfont 32.6621 sf 0 0 m (0.2) show NC gr 
 gsave  1088 834 23 570 C 103.594 787.599 t 0 r /Helvetica findfont 32.6621 sf 0 0 m (0.3) show NC gr 
 gsave  1088 834 23 570 C 102.175 861.392 t 0 r /Helvetica findfont 32.6621 sf 0 0 m (0.4) show NC gr 
 gsave  1088 834 23 570 C 102.175 935.185 t 0 r /Helvetica findfont 32.6621 sf 0 0 m (0.5) show NC gr 
 gsave  1088 834 23 570 C 102.175 1008.98 t 0 r /Helvetica findfont 32.6621 sf 0 0 m (0.6) show NC gr 
 gsave  1088 834 23 570 C 102.175 1082.77 t 0 r /Helvetica findfont 32.6621 sf 0 0 m (0.7) show NC gr 
 gsave  1088 834 23 570 C 102.175 1156.56 t 0 r /Helvetica findfont 32.6621 sf 0 0 m (0.8) show NC gr 
 gsave  1088 834 23 570 C 103.594 1230.36 t 0 r /Helvetica findfont 32.6621 sf 0 0 m (0.9) show NC gr 
 gsave  1088 834 23 570 C 56.7639 916.736 t 90 r /Helvetica findfont 46.8631 sf 0 0 m (Trigger Efficiency) show NC gr  981 578 m 700 Y s 953 651 m 28 X s 967 666 m 14 X s 967 681 m 14 X s 967 696 m 14 X s 967 710 m 14 X s 953 725 m 28 X s 967 740 m
 14 X s 967 755 m 14 X s 967 770 m 14 X s 967 784 m 14 X s 953 799 m 28 X s 967 814 m 14 X s 967 829 m 14 X s 967 843 m 14 X s 967 858 m 14 X s 953 873 m 28 X s 967 888 m 14 X s 967 903 m 14 X s 967 917 m 14 X s 967 932 m 14 X s 953 947 m 28 X s 967
 962 m 14 X s 967 976 m 14 X s 967 991 m 14 X s 967 1006 m 14 X s 953 1021 m 28 X s 967 1036 m 14 X s 967 1050 m 14 X s 967 1065 m 14 X s 967 1080 m 14 X s 953 1095 m 28 X s 967 1109 m 14 X s 967 1124 m 14 X s 967 1139 m 14 X s 967 1154 m 14 X s 953
 1168 m 28 X s 967 1183 m 14 X s 967 1198 m 14 X s 967 1213 m 14 X s 967 1228 m 14 X s 953 1242 m 28 X s 953 651 m 28 X s 967 637 m 14 X s 967 622 m 14 X s 967 607 m 14 X s 967 592 m 14 X s 953 1242 m 28 X s 967 1257 m 14 X s 967 1272 m 14 X s 1 0 0
 c 266 1021 m -37 X s 229 1018 m 6 Y s 266 1021 m 38 X s 304 1018 m 6 Y s 266 1021 m 21 Y s 263 1042 m 6 X s 266 1021 m -21 Y s 263 1000 m 6 X s 341 1061 m -37 X s 304 1058 m 6 Y s 341 1061 m 38 X s 379 1058 m 6 Y s 341 1061 m 12 Y s 338 1073 m 6 X s
 341 1061 m -13 Y s 338 1048 m 6 X s 417 1045 m -38 X s 379 1043 m 5 Y s 417 1045 m 37 X s 454 1043 m 5 Y s 417 1045 m 11 Y s 414 1056 m 5 X s 417 1045 m -10 Y s 414 1035 m 5 X s 492 1052 m -38 X s 454 1049 m 6 Y s 492 1052 m 37 X s 529 1049 m 6 Y s
 492 1052 m 12 Y s 489 1064 m 6 X s 492 1052 m -12 Y s 489 1040 m 6 X s 567 1061 m -38 X s 529 1058 m 5 Y s 567 1061 m 38 X s 605 1058 m 5 Y s 567 1061 m 23 Y s 564 1084 m 6 X s 567 1061 m -25 Y s 564 1036 m 6 X s 642 1083 m -37 X s 605 1080 m 5 Y s
 642 1083 m 38 X s 680 1080 m 5 Y s 642 1083 m 33 Y s 639 1116 m 6 X s 642 1083 m -36 Y s 639 1047 m 6 X s 717 1075 m -37 X s 680 1073 m 5 Y s 717 1075 m 38 X s 755 1073 m 5 Y s 717 1075 m 56 Y s 715 1131 m 5 X s 717 1075 m -61 Y s 715 1014 m 5 X s
 793 969 m -38 X s 755 966 m 5 Y s 793 969 m 37 X s 830 966 m 5 Y s 793 969 m 105 Y s 790 1074 m 5 X s 793 969 m -109 Y s 790 860 m 5 X s 868 1039 m -38 X s 830 1036 m 6 Y s 868 1039 m 37 X s 905 1036 m 6 Y s 868 1039 m 145 Y s 865 1184 m 6 X s 868
 1039 m -173 Y s 865 866 m 6 X s 943 1048 m -38 X s 905 1045 m 5 Y s 943 1048 m 38 X s 981 1045 m 5 Y s 943 1048 m 121 Y s 940 1169 m 6 X s 943 1048 m -145 Y s 940 903 m 6 X s 0.95 0.95 0.95 c 1 0 0 c /w 12 def /w2 {w 2 div} def /w3 {w 3 div} def 266
 1021 341 1061 417 1045 492 1052 567 1061 642 1083 717 1075 793 969 868 1039 943 1048 10 { m24} R black 260 972 m -31 X s 229 969 m 5 Y s 272 972 m 32 X s 304 969 m 5 Y s 266 977 m 17 Y s 263 994 m 6 X s 266 966 m -16 Y s 263 950 m 6 X s 336 1068 m
 -32 X s 304 1065 m 5 Y s 347 1068 m 32 X s 379 1065 m 5 Y s 341 1073 m 7 Y s 338 1080 m 6 X s 341 1062 m -7 Y s 338 1055 m 6 X s 411 1035 m -32 X s 379 1032 m 6 Y s 422 1035 m 32 X s 454 1032 m 6 Y s 417 1041 m 4 Y s 414 1045 m 5 X s 417 1030 m -5 Y
 s 414 1025 m 5 X s 486 1051 m -32 X s 454 1048 m 6 Y s 497 1051 m 32 X s 529 1048 m 6 Y s 492 1057 m 5 Y s 489 1062 m 6 X s 492 1045 m -6 Y s 489 1039 m 6 X s 561 1065 m -32 X s 529 1063 m 5 Y s 573 1065 m 32 X s 605 1063 m 5 Y s 567 1071 m 17 Y s
 564 1088 m 6 X s 567 1060 m -18 Y s 564 1042 m 6 X s 636 1035 m -31 X s 605 1032 m 6 Y s 648 1035 m 32 X s 680 1032 m 6 Y s 642 1040 m 37 Y s 639 1077 m 6 X s 642 1029 m -39 Y s 639 990 m 6 X s 712 1057 m -32 X s 680 1054 m 6 Y s 723 1057 m 32 X s
 755 1054 m 6 Y s 717 1062 m 58 Y s 715 1120 m 5 X s 717 1051 m -65 Y s 715 986 m 5 X s 787 1211 m -32 X s 755 1208 m 6 Y s 798 1211 m 32 X s 830 1208 m 6 Y s 793 1216 m 62 Y s 790 1278 m 5 X s 793 1205 m -111 Y s 790 1094 m 5 X s 862 1021 m -32 X s
 830 1018 m 6 Y s 873 1021 m 32 X s 905 1018 m 6 Y s 868 1026 m 102 Y s 865 1128 m 6 X s 868 1015 m -114 Y s 865 901 m 6 X s 937 1021 m -32 X s 905 1018 m 6 Y s 949 1021 m 32 X s 981 1018 m 6 Y s 943 1026 m 182 Y s 940 1208 m 6 X s 943 1015 m -218 Y
 s 940 797 m 6 X s 0.95 0.95 0.95 c black 266 972 341 1068 417 1035 492 1051 567 1065 642 1035 717 1057 793 1211 868 1021 943 1021 10 { m20} R 1 1 1 c 218 166 240 737 bf black
 gsave  1088 834 23 570 C 337.745 842.943 t 0 r /Helvetica findfont 46.8631 sf 0 0 m ( data) show NC gr 
 gsave  1088 834 23 570 C 320.716 859.973 t 0 r /Helvetica findfont 31.242 sf 0 0 m (+) show NC gr 
 gsave  1088 834 23 570 C 293.753 842.943 t 0 r /Symbol findfont 46.8631 sf 0 0 m (m) show NC gr  268 862 m20
 gsave  1088 834 23 570 C 330.65 760.636 t 0 r /Helvetica findfont 46.8631 sf 0 0 m ( data) show NC gr 
 gsave  1088 834 23 570 C 320.716 783.341 t 0 r /Helvetica findfont 31.242 sf 0 0 m (\255) show NC gr 
 gsave  1088 834 23 570 C 293.753 760.636 t 0 r /Symbol findfont 46.8631 sf 0 0 m (m) show NC gr  1 0 0 c 268 778 m24 black
 gsave  1088 834 23 570 C 808.885 682.586 t 0 r /Helvetica-Bold findfont 41.1827 sf 0 0 m (\2551) show NC gr 
 gsave  1088 834 23 570 C 305.106 654.204 t 0 r /Helvetica-Bold findfont 62.4841 sf 0 0 m ( = 13 TeV, 22.1 fb) show NC gr 
 gsave  1088 834 23 570 C 272.467 654.204 t 0 r /Helvetica-Bold findfont 62.4841 sf 0 0 m (s) show NC gr  6 lw 253 690 m 5 -39 d s 3 lw 258 651 m 7 56 d s 265 707 m 40 X s 1 1 1 c black 1 1 1 c 828 376 153 200 bf black 828 376 153 200 bl 1 1 1 c 828
 376 153 200 bf black 828 376 153 200 bl 1 1 1 c black 266 221 m 56 Y s 266 288 m 57 Y s 229 283 m 31 X s 272 283 m 32 X s 263 221 m 6 X s 263 345 m 6 X s 229 280 m 6 Y s 304 280 m 6 Y s /w 11 def /w2 {w 2 div} def /w3 {w 3 div} def 266 283 m20 341
 366 m 30 Y s 341 407 m 30 Y s 304 401 m 32 X s 347 401 m 32 X s 338 366 m 6 X s 338 437 m 6 X s 304 398 m 6 Y s 379 398 m 6 Y s 341 401 m20 417 339 m 23 Y s 417 373 m 23 Y s 379 367 m 32 X s 422 367 m 32 X s 414 339 m 5 X s 414 396 m 5 X s 379 365 m
 5 Y s 454 365 m 5 Y s 417 367 m20 492 353 m 27 Y s 492 391 m 28 Y s 454 386 m 32 X s 497 386 m 32 X s 489 353 m 6 X s 489 419 m 6 X s 454 383 m 6 Y s 529 383 m 6 Y s 492 386 m20 567 331 m 61 Y s 567 403 m 60 Y s 529 397 m 32 X s 573 397 m 32 X s 564
 331 m 6 X s 564 463 m 6 X s 529 394 m 6 Y s 605 394 m 6 Y s 567 397 m20 642 200 m 93 Y s 642 305 m 96 Y s 605 299 m 31 X s 648 299 m 32 X s 639 200 m 6 X s 639 401 m 6 X s 605 296 m 6 Y s 680 296 m 6 Y s 642 299 m20 717 200 m 147 Y s 717 358 m 168 Y
 s 680 353 m 32 X s 723 353 m 32 X s 715 200 m 5 X s 715 526 m 5 X s 680 350 m 5 Y s 755 350 m 5 Y s 717 353 m20 868 200 m 145 Y s 868 356 m 220 Y s 830 350 m 32 X s 873 350 m 32 X s 865 200 m 6 X s 865 576 m 6 X s 830 347 m 6 Y s 905 347 m 6 Y s 868
 350 m20 943 200 m 128 Y s 943 340 m 236 Y s 905 334 m 32 X s 949 334 m 32 X s 940 200 m 6 X s 940 576 m 6 X s 905 331 m 6 Y s 981 331 m 6 Y s 943 334 m20 153 200 m 828 X s 153 213 m -13 Y s 172 206 m -6 Y s 190 206 m -6 Y s 208 206 m -6 Y s 227 206
 m -6 Y s 245 213 m -13 Y s 264 206 m -6 Y s 282 206 m -6 Y s 300 206 m -6 Y s 319 206 m -6 Y s 337 213 m -13 Y s 356 206 m -6 Y s 374 206 m -6 Y s 392 206 m -6 Y s 411 206 m -6 Y s 429 213 m -13 Y s 447 206 m -6 Y s 466 206 m -6 Y s 484 206 m -6 Y s
 503 206 m -6 Y s 521 213 m -13 Y s 539 206 m -6 Y s 558 206 m -6 Y s 576 206 m -6 Y s 595 206 m -6 Y s 613 213 m -13 Y s 631 206 m -6 Y s 650 206 m -6 Y s 668 206 m -6 Y s 686 206 m -6 Y s 705 213 m -13 Y s 723 206 m -6 Y s 742 206 m -6 Y s 760 206
 m -6 Y s 778 206 m -6 Y s 797 213 m -13 Y s 815 206 m -6 Y s 833 206 m -6 Y s 852 206 m -6 Y s 870 206 m -6 Y s 889 213 m -13 Y s 907 206 m -6 Y s 925 206 m -6 Y s 944 206 m -6 Y s 962 206 m -6 Y s 981 213 m -13 Y s
 gsave  1088 572 23 28 C 134.814 166.034 t 0 r /Helvetica findfont 32.6681 sf 0 0 m (10) show NC gr 
 gsave  1088 572 23 28 C 225.636 166.034 t 0 r /Helvetica findfont 32.6681 sf 0 0 m (20) show NC gr 
 gsave  1088 572 23 28 C 317.878 166.034 t 0 r /Helvetica findfont 32.6681 sf 0 0 m (30) show NC gr 
 gsave  1088 572 23 28 C 410.119 166.034 t 0 r /Helvetica findfont 32.6681 sf 0 0 m (40) show NC gr 
 gsave  1088 572 23 28 C 502.36 166.034 t 0 r /Helvetica findfont 32.6681 sf 0 0 m (50) show NC gr 
 gsave  1088 572 23 28 C 593.182 166.034 t 0 r /Helvetica findfont 32.6681 sf 0 0 m (60) show NC gr 
 gsave  1088 572 23 28 C 685.424 166.034 t 0 r /Helvetica findfont 32.6681 sf 0 0 m (70) show NC gr 
 gsave  1088 572 23 28 C 777.665 166.034 t 0 r /Helvetica findfont 32.6681 sf 0 0 m (80) show NC gr 
 gsave  1088 572 23 28 C 869.906 166.034 t 0 r /Helvetica findfont 32.6681 sf 0 0 m (90) show NC gr 
 gsave  1088 572 23 28 C 952.214 166.034 t 0 r /Helvetica findfont 32.6681 sf 0 0 m (100) show NC gr 
 gsave  1088 572 23 28 C 861.392 83.7267 t 0 r /Helvetica findfont 42.6105 sf 0 0 m ( [GeV]) show NC gr 
 gsave  1088 572 23 28 C 844.363 105.013 t 0 r /Symbol findfont 28.407 sf 0 0 m (m) show NC gr 
 gsave  1088 572 23 28 C 844.363 61.0212 t 0 r /Helvetica findfont 28.407 sf 0 0 m (T) show NC gr 
 gsave  1088 572 23 28 C 821.657 83.7267 t 0 r /Helvetica findfont 42.6105 sf 0 0 m (p) show NC gr  153 576 m 828 X s 153 563 m 13 Y s 172 569 m 7 Y s 190 569 m 7 Y s 208 569 m 7 Y s 227 569 m 7 Y s 245 563 m 13 Y s 264 569 m 7 Y s 282 569 m 7 Y s
 300 569 m 7 Y s 319 569 m 7 Y s 337 563 m 13 Y s 356 569 m 7 Y s 374 569 m 7 Y s 392 569 m 7 Y s 411 569 m 7 Y s 429 563 m 13 Y s 447 569 m 7 Y s 466 569 m 7 Y s 484 569 m 7 Y s 503 569 m 7 Y s 521 563 m 13 Y s 539 569 m 7 Y s 558 569 m 7 Y s 576
 569 m 7 Y s 595 569 m 7 Y s 613 563 m 13 Y s 631 569 m 7 Y s 650 569 m 7 Y s 668 569 m 7 Y s 686 569 m 7 Y s 705 563 m 13 Y s 723 569 m 7 Y s 742 569 m 7 Y s 760 569 m 7 Y s 778 569 m 7 Y s 797 563 m 13 Y s 815 569 m 7 Y s 833 569 m 7 Y s 852 569 m
 7 Y s 870 569 m 7 Y s 889 563 m 13 Y s 907 569 m 7 Y s 925 569 m 7 Y s 944 569 m 7 Y s 962 569 m 7 Y s 981 563 m 13 Y s 153 200 m 376 Y s 175 200 m -22 X s 164 219 m -11 X s 164 237 m -11 X s 164 256 m -11 X s 164 275 m -11 X s 175 294 m -22 X s 164
 313 m -11 X s 164 331 m -11 X s 164 350 m -11 X s 164 369 m -11 X s 175 388 m -22 X s 164 407 m -11 X s 164 425 m -11 X s 164 444 m -11 X s 164 463 m -11 X s 175 482 m -22 X s 164 501 m -11 X s 164 519 m -11 X s 164 538 m -11 X s 164 557 m -11 X s
 175 576 m -22 X s
 gsave  1088 572 23 28 C 96.4986 187.321 t 0 r /Helvetica findfont 32.6681 sf 0 0 m (0.8) show NC gr 
 gsave  1088 572 23 28 C 97.9177 282.4 t 0 r /Helvetica findfont 32.6681 sf 0 0 m (0.9) show NC gr 
 gsave  1088 572 23 28 C 129.138 376.061 t 0 r /Helvetica findfont 32.6681 sf 0 0 m (1) show NC gr 
 gsave  1088 572 23 28 C 102.175 469.721 t 0 r /Helvetica findfont 32.6681 sf 0 0 m (1.1) show NC gr 
 gsave  1088 572 23 28 C 97.9177 563.381 t 0 r /Helvetica findfont 32.6681 sf 0 0 m (1.2) show NC gr 
 gsave  1088 572 23 28 C 56.7639 266.79 t 90 r /Helvetica findfont 42.6105 sf 0 0 m (Data+ / Data\255    ) show NC gr  981 200 m 376 Y s 959 200 m 22 X s 970 219 m 11 X s 970 237 m 11 X s 970 256 m 11 X s 970 275 m 11 X s 959 294 m 22 X s 970 313 m
 11 X s 970 331 m 11 X s 970 350 m 11 X s 970 369 m 11 X s 959 388 m 22 X s 970 407 m 11 X s 970 425 m 11 X s 970 444 m 11 X s 970 463 m 11 X s 959 482 m 22 X s 970 501 m 11 X s 970 519 m 11 X s 970 538 m 11 X s 970 557 m 11 X s 959 576 m 22 X s 0 0
 1 c[ 12 12] 0 sd 6 lw 153 388 m 828 X s 153 388 m 828 X s black[  ] 0 sd 3 lw 1 1 1 c black 266 221 m 56 Y s 266 288 m 57 Y s 229 283 m 31 X s 272 283 m 32 X s 263 221 m 6 X s 263 345 m 6 X s 229 280 m 6 Y s 304 280 m 6 Y s 266 283 m20 341 366 m 30
 Y s 341 407 m 30 Y s 304 401 m 32 X s 347 401 m 32 X s 338 366 m 6 X s 338 437 m 6 X s 304 398 m 6 Y s 379 398 m 6 Y s 341 401 m20 417 339 m 23 Y s 417 373 m 23 Y s 379 367 m 32 X s 422 367 m 32 X s 414 339 m 5 X s 414 396 m 5 X s 379 365 m 5 Y s
 454 365 m 5 Y s 417 367 m20 492 353 m 27 Y s 492 391 m 28 Y s 454 386 m 32 X s 497 386 m 32 X s 489 353 m 6 X s 489 419 m 6 X s 454 383 m 6 Y s 529 383 m 6 Y s 492 386 m20 567 331 m 61 Y s 567 403 m 60 Y s 529 397 m 32 X s 573 397 m 32 X s 564 331 m
 6 X s 564 463 m 6 X s 529 394 m 6 Y s 605 394 m 6 Y s 567 397 m20 642 200 m 93 Y s 642 305 m 96 Y s 605 299 m 31 X s 648 299 m 32 X s 639 200 m 6 X s 639 401 m 6 X s 605 296 m 6 Y s 680 296 m 6 Y s 642 299 m20 717 200 m 147 Y s 717 358 m 168 Y s 680
 353 m 32 X s 723 353 m 32 X s 715 200 m 5 X s 715 526 m 5 X s 680 350 m 5 Y s 755 350 m 5 Y s 717 353 m20 868 200 m 145 Y s 868 356 m 220 Y s 830 350 m 32 X s 873 350 m 32 X s 865 200 m 6 X s 865 576 m 6 X s 830 347 m 6 Y s 905 347 m 6 Y s 868 350
 m20 943 200 m 128 Y s 943 340 m 236 Y s 905 334 m 32 X s 949 334 m 32 X s 940 200 m 6 X s 940 576 m 6 X s 905 331 m 6 Y s 981 331 m 6 Y s 943 334 m20 1 1 1 c 1088 1390 1157 14 bf black 1 1 1 c black 1 1 1 c 827 700 1287 578 bf black 827 700 1287 578
 bl 1 1 1 c 827 700 1287 578 bf black 827 700 1287 578 bl 1287 578 m 827 X s 1287 597 m -19 Y s 1306 588 m -10 Y s 1324 588 m -10 Y s 1342 588 m -10 Y s 1361 588 m -10 Y s 1379 597 m -19 Y s 1397 588 m -10 Y s 1416 588 m -10 Y s 1434 588 m -10 Y s
 1453 588 m -10 Y s 1471 597 m -19 Y s 1489 588 m -10 Y s 1508 588 m -10 Y s 1526 588 m -10 Y s 1545 588 m -10 Y s 1563 597 m -19 Y s 1581 588 m -10 Y s 1600 588 m -10 Y s 1618 588 m -10 Y s 1636 588 m -10 Y s 1655 597 m -19 Y s 1673 588 m -10 Y s
 1692 588 m -10 Y s 1710 588 m -10 Y s 1728 588 m -10 Y s 1747 597 m -19 Y s 1765 588 m -10 Y s 1784 588 m -10 Y s 1802 588 m -10 Y s 1820 588 m -10 Y s 1839 597 m -19 Y s 1857 588 m -10 Y s 1875 588 m -10 Y s 1894 588 m -10 Y s 1912 588 m -10 Y s
 1931 597 m -19 Y s 1949 588 m -10 Y s 1967 588 m -10 Y s 1986 588 m -10 Y s 2004 588 m -10 Y s 2023 597 m -19 Y s 2041 588 m -10 Y s 2059 588 m -10 Y s 2078 588 m -10 Y s 2096 588 m -10 Y s 2114 597 m -19 Y s 2114 597 m -19 Y s
 gsave  1088 834 1157 570 C 1271.51 552.029 t 0 r /Helvetica findfont 26.9818 sf 0 0 m (10) show NC gr 
 gsave  1088 834 1157 570 C 1362.33 552.029 t 0 r /Helvetica findfont 26.9818 sf 0 0 m (20) show NC gr 
 gsave  1088 834 1157 570 C 1454.57 552.029 t 0 r /Helvetica findfont 26.9818 sf 0 0 m (30) show NC gr 
 gsave  1088 834 1157 570 C 1546.82 552.029 t 0 r /Helvetica findfont 26.9818 sf 0 0 m (40) show NC gr 
 gsave  1088 834 1157 570 C 1639.06 552.029 t 0 r /Helvetica findfont 26.9818 sf 0 0 m (50) show NC gr 
 gsave  1088 834 1157 570 C 1729.88 552.029 t 0 r /Helvetica findfont 26.9818 sf 0 0 m (60) show NC gr 
 gsave  1088 834 1157 570 C 1822.12 552.029 t 0 r /Helvetica findfont 26.9818 sf 0 0 m (70) show NC gr 
 gsave  1088 834 1157 570 C 1914.36 552.029 t 0 r /Helvetica findfont 26.9818 sf 0 0 m (80) show NC gr 
 gsave  1088 834 1157 570 C 2006.6 552.029 t 0 r /Helvetica findfont 26.9818 sf 0 0 m (90) show NC gr 
 gsave  1088 834 1157 570 C 2090.33 552.029 t 0 r /Helvetica findfont 26.9818 sf 0 0 m (100) show NC gr 
 gsave  1088 834 1157 570 C 2101.68 540.676 t 0 r /Symbol findfont 18.4612 sf 0 0 m (m) show NC gr 
 gsave  1088 834 1157 570 C 2101.68 512.294 t 0 r /Helvetica findfont 18.4612 sf 0 0 m (T) show NC gr 
 gsave  1088 834 1157 570 C 2086.07 527.904 t 0 r /Helvetica findfont 26.9818 sf 0 0 m (p) show NC gr  1287 1278 m 827 X s 1287 1259 m 19 Y s 1306 1269 m 9 Y s 1324 1269 m 9 Y s 1342 1269 m 9 Y s 1361 1269 m 9 Y s 1379 1259 m 19 Y s 1397 1269 m 9 Y s
 1416 1269 m 9 Y s 1434 1269 m 9 Y s 1453 1269 m 9 Y s 1471 1259 m 19 Y s 1489 1269 m 9 Y s 1508 1269 m 9 Y s 1526 1269 m 9 Y s 1545 1269 m 9 Y s 1563 1259 m 19 Y s 1581 1269 m 9 Y s 1600 1269 m 9 Y s 1618 1269 m 9 Y s 1636 1269 m 9 Y s 1655 1259 m
 19 Y s 1673 1269 m 9 Y s 1692 1269 m 9 Y s 1710 1269 m 9 Y s 1728 1269 m 9 Y s 1747 1259 m 19 Y s 1765 1269 m 9 Y s 1784 1269 m 9 Y s 1802 1269 m 9 Y s 1820 1269 m 9 Y s 1839 1259 m 19 Y s 1857 1269 m 9 Y s 1875 1269 m 9 Y s 1894 1269 m 9 Y s 1912
 1269 m 9 Y s 1931 1259 m 19 Y s 1949 1269 m 9 Y s 1967 1269 m 9 Y s 1986 1269 m 9 Y s 2004 1269 m 9 Y s 2023 1259 m 19 Y s 2041 1269 m 9 Y s 2059 1269 m 9 Y s 2078 1269 m 9 Y s 2096 1269 m 9 Y s 2114 1259 m 19 Y s 2114 1259 m 19 Y s 1287 578 m 700 Y
 s 1315 648 m -28 X s 1301 662 m -14 X s 1301 676 m -14 X s 1301 690 m -14 X s 1301 704 m -14 X s 1315 718 m -28 X s 1301 732 m -14 X s 1301 746 m -14 X s 1301 760 m -14 X s 1301 774 m -14 X s 1315 788 m -28 X s 1301 802 m -14 X s 1301 816 m -14 X s
 1301 830 m -14 X s 1301 844 m -14 X s 1315 858 m -28 X s 1301 872 m -14 X s 1301 886 m -14 X s 1301 900 m -14 X s 1301 914 m -14 X s 1315 928 m -28 X s 1301 942 m -14 X s 1301 956 m -14 X s 1301 970 m -14 X s 1301 984 m -14 X s 1315 998 m -28 X s
 1301 1012 m -14 X s 1301 1026 m -14 X s 1301 1040 m -14 X s 1301 1054 m -14 X s 1315 1068 m -28 X s 1301 1082 m -14 X s 1301 1096 m -14 X s 1301 1110 m -14 X s 1301 1124 m -14 X s 1315 1138 m -28 X s 1301 1152 m -14 X s 1301 1166 m -14 X s 1301 1180
 m -14 X s 1301 1194 m -14 X s 1315 1208 m -28 X s 1301 1222 m -14 X s 1301 1236 m -14 X s 1301 1250 m -14 X s 1301 1264 m -14 X s 1315 1278 m -28 X s 1315 648 m -28 X s 1301 634 m -14 X s 1301 620 m -14 X s 1301 606 m -14 X s 1301 592 m -14 X s
 gsave  1088 834 1157 570 C 1241.71 635.755 t 0 r /Helvetica findfont 32.6621 sf 0 0 m (0.1) show NC gr 
 gsave  1088 834 1157 570 C 1237.45 705.291 t 0 r /Helvetica findfont 32.6621 sf 0 0 m (0.2) show NC gr 
 gsave  1088 834 1157 570 C 1237.45 776.246 t 0 r /Helvetica findfont 32.6621 sf 0 0 m (0.3) show NC gr 
 gsave  1088 834 1157 570 C 1236.03 845.782 t 0 r /Helvetica findfont 32.6621 sf 0 0 m (0.4) show NC gr 
 gsave  1088 834 1157 570 C 1236.03 915.317 t 0 r /Helvetica findfont 32.6621 sf 0 0 m (0.5) show NC gr 
 gsave  1088 834 1157 570 C 1236.03 986.272 t 0 r /Helvetica findfont 32.6621 sf 0 0 m (0.6) show NC gr 
 gsave  1088 834 1157 570 C 1236.03 1055.81 t 0 r /Helvetica findfont 32.6621 sf 0 0 m (0.7) show NC gr 
 gsave  1088 834 1157 570 C 1236.03 1126.76 t 0 r /Helvetica findfont 32.6621 sf 0 0 m (0.8) show NC gr 
 gsave  1088 834 1157 570 C 1237.45 1196.3 t 0 r /Helvetica findfont 32.6621 sf 0 0 m (0.9) show NC gr 
 gsave  1088 834 1157 570 C 1268.67 1265.83 t 0 r /Helvetica findfont 32.6621 sf 0 0 m (1) show NC gr 
 gsave  1088 834 1157 570 C 1190.62 916.736 t 90 r /Helvetica findfont 46.8631 sf 0 0 m (Trigger Efficiency) show NC gr  2114 578 m 700 Y s 2087 648 m 27 X s 2101 662 m 13 X s 2101 676 m 13 X s 2101 690 m 13 X s 2101 704 m 13 X s 2087 718 m 27 X s
 2101 732 m 13 X s 2101 746 m 13 X s 2101 760 m 13 X s 2101 774 m 13 X s 2087 788 m 27 X s 2101 802 m 13 X s 2101 816 m 13 X s 2101 830 m 13 X s 2101 844 m 13 X s 2087 858 m 27 X s 2101 872 m 13 X s 2101 886 m 13 X s 2101 900 m 13 X s 2101 914 m 13 X
 s 2087 928 m 27 X s 2101 942 m 13 X s 2101 956 m 13 X s 2101 970 m 13 X s 2101 984 m 13 X s 2087 998 m 27 X s 2101 1012 m 13 X s 2101 1026 m 13 X s 2101 1040 m 13 X s 2101 1054 m 13 X s 2087 1068 m 27 X s 2101 1082 m 13 X s 2101 1096 m 13 X s 2101
 1110 m 13 X s 2101 1124 m 13 X s 2087 1138 m 27 X s 2101 1152 m 13 X s 2101 1166 m 13 X s 2101 1180 m 13 X s 2101 1194 m 13 X s 2087 1208 m 27 X s 2101 1222 m 13 X s 2101 1236 m 13 X s 2101 1250 m 13 X s 2101 1264 m 13 X s 2087 1278 m 27 X s 2087
 648 m 27 X s 2101 634 m 13 X s 2101 620 m 13 X s 2101 606 m 13 X s 2101 592 m 13 X s 1 0 0 c 1400 1126 m -38 X s 1362 1123 m 6 Y s 1400 1126 m 38 X s 1438 1123 m 6 Y s 1400 1126 m 18 Y s 1397 1144 m 6 X s 1400 1126 m -20 Y s 1397 1106 m 6 X s 1475
 1183 m -37 X s 1438 1180 m 6 Y s 1475 1183 m 38 X s 1513 1180 m 6 Y s 1475 1183 m 10 Y s 1472 1193 m 6 X s 1475 1183 m -10 Y s 1472 1173 m 6 X s 1550 1192 m -37 X s 1513 1189 m 6 Y s 1550 1192 m 38 X s 1588 1189 m 6 Y s 1550 1192 m 6 Y s 1548 1198 m
 5 X s 1550 1192 m -7 Y s 1548 1185 m 5 X s 1626 1176 m -38 X s 1588 1173 m 6 Y s 1626 1176 m 37 X s 1663 1173 m 6 Y s 1626 1176 m 8 Y s 1623 1184 m 5 X s 1626 1176 m -8 Y s 1623 1168 m 5 X s 1701 1197 m -38 X s 1663 1194 m 5 Y s 1701 1197 m 37 X s
 1738 1194 m 5 Y s 1701 1197 m 12 Y s 1698 1209 m 6 X s 1701 1197 m -15 Y s 1698 1182 m 6 X s 1776 1190 m -38 X s 1738 1187 m 6 Y s 1776 1190 m 38 X s 1814 1187 m 6 Y s 1776 1190 m 23 Y s 1773 1213 m 6 X s 1776 1190 m -28 Y s 1773 1162 m 6 X s 1851
 1232 m -37 X s 1814 1229 m 6 Y s 1851 1232 m 38 X s 1889 1229 m 6 Y s 1851 1232 m 25 Y s 1848 1257 m 6 X s 1851 1232 m -43 Y s 1848 1189 m 6 X s 1926 1138 m -37 X s 1889 1135 m 6 Y s 1926 1138 m 38 X s 1964 1135 m 6 Y s 1926 1138 m 54 Y s 1924 1192
 m 5 X s 1926 1138 m -70 Y s 1924 1068 m 5 X s 2002 1185 m -38 X s 1964 1182 m 6 Y s 2002 1185 m 37 X s 2039 1182 m 6 Y s 2002 1185 m 60 Y s 1999 1245 m 5 X s 2002 1185 m -105 Y s 1999 1080 m 5 X s 2077 1278 m -38 X s 2039 1276 m 2 Y s 2077 1278 m 37
 X s 2114 1276 m 2 Y s 2077 1278 m -321 Y s 2074 957 m 6 X s 0.95 0.95 0.95 c 1 0 0 c /w 12 def /w2 {w 2 div} def /w3 {w 3 div} def 1400 1126 1475 1183 1550 1192 1626 1176 1701 1197 1776 1190 1851 1232 1926 1138 2002 1185 2077 1278 10 { m24} R black
 1394 1106 m -32 X s 1362 1103 m 6 Y s 1406 1106 m 32 X s 1438 1103 m 6 Y s 1400 1111 m 13 Y s 1397 1124 m 6 X s 1400 1100 m -14 Y s 1397 1086 m 6 X s 1469 1201 m -31 X s 1438 1199 m 5 Y s 1481 1201 m 32 X s 1513 1199 m 5 Y s 1475 1207 m 3 Y s 1472
 1210 m 6 X s 1475 1196 m -4 Y s 1472 1192 m 6 X s 1545 1185 m -32 X s 1513 1182 m 6 Y s 1556 1185 m 32 X s 1588 1182 m 6 Y s 1550 1191 m 1 Y s 1548 1192 m 5 X s 1550 1179 m -1 Y s 1548 1178 m 5 X s 1620 1194 m -32 X s 1588 1191 m 6 Y s 1631 1194 m
 32 X s 1663 1191 m 6 Y s 1626 1200 m 1 Y s 1623 1201 m 5 X s 1626 1189 m -2 Y s 1623 1187 m 5 X s 1695 1185 m -32 X s 1663 1182 m 6 Y s 1706 1185 m 32 X s 1738 1182 m 6 Y s 1701 1190 m 8 Y s 1698 1198 m 6 X s 1701 1179 m -9 Y s 1698 1170 m 6 X s
 1770 1141 m -32 X s 1738 1138 m 6 Y s 1782 1141 m 32 X s 1814 1138 m 6 Y s 1776 1146 m 21 Y s 1773 1167 m 6 X s 1776 1135 m -25 Y s 1773 1110 m 6 X s 1846 1278 m -32 X s 1814 1276 m 2 Y s 1857 1278 m 32 X s 1889 1276 m 2 Y s 1851 1273 m -16 Y s 1848
 1257 m 6 X s 1921 1128 m -32 X s 1889 1125 m 6 Y s 1932 1128 m 32 X s 1964 1125 m 6 Y s 1926 1134 m 74 Y s 1924 1208 m 5 X s 1926 1123 m -111 Y s 1924 1012 m 5 X s 1996 1178 m -32 X s 1964 1175 m 6 Y s 2007 1178 m 32 X s 2039 1175 m 6 Y s 2002 1184
 m 59 Y s 1999 1243 m 5 X s 2002 1173 m -106 Y s 1999 1067 m 5 X s 2071 1103 m -32 X s 2039 1100 m 6 Y s 2082 1103 m 32 X s 2114 1100 m 6 Y s 2077 1109 m 106 Y s 2074 1215 m 6 X s 2077 1098 m -163 Y s 2074 935 m 6 X s 0.95 0.95 0.95 c black 1400 1106
 1475 1201 1550 1185 1626 1194 1701 1185 1776 1141 1851 1278 1926 1128 2002 1178 2077 1103 10 { m20} R 1 1 1 c 218 166 1374 737 bf black
 gsave  1088 834 1157 570 C 1471.6 842.943 t 0 r /Helvetica findfont 46.8631 sf 0 0 m ( data) show NC gr 
 gsave  1088 834 1157 570 C 1454.57 859.973 t 0 r /Helvetica findfont 31.242 sf 0 0 m (+) show NC gr 
 gsave  1088 834 1157 570 C 1427.61 842.943 t 0 r /Symbol findfont 46.8631 sf 0 0 m (m) show NC gr  1401 862 m20
 gsave  1088 834 1157 570 C 1464.51 760.636 t 0 r /Helvetica findfont 46.8631 sf 0 0 m ( data) show NC gr 
 gsave  1088 834 1157 570 C 1454.57 783.341 t 0 r /Helvetica findfont 31.242 sf 0 0 m (\255) show NC gr 
 gsave  1088 834 1157 570 C 1427.61 760.636 t 0 r /Symbol findfont 46.8631 sf 0 0 m (m) show NC gr  1 0 0 c 1401 778 m24 black
 gsave  1088 834 1157 570 C 1942.74 682.586 t 0 r /Helvetica-Bold findfont 41.1827 sf 0 0 m (\2551) show NC gr 
 gsave  1088 834 1157 570 C 1438.96 654.204 t 0 r /Helvetica-Bold findfont 62.4841 sf 0 0 m ( = 13 TeV, 22.1 fb) show NC gr 
 gsave  1088 834 1157 570 C 1406.32 654.204 t 0 r /Helvetica-Bold findfont 62.4841 sf 0 0 m (s) show NC gr  6 lw 1386 690 m 6 -39 d s 3 lw 1392 651 m 7 56 d s 1399 707 m 40 X s 1 1 1 c black 1 1 1 c 827 376 1287 200 bf black 827 376 1287 200 bl 1 1 1
 c 827 376 1287 200 bf black 827 376 1287 200 bl 1 1 1 c black 1400 306 m 41 Y s 1400 359 m 41 Y s 1362 353 m 32 X s 1406 353 m 32 X s 1397 306 m 6 X s 1397 400 m 6 X s 1362 350 m 6 Y s 1438 350 m 6 Y s /w 11 def /w2 {w 2 div} def /w3 {w 3 div} def
 1400 353 m20 1475 394 m 16 Y s 1475 422 m 16 Y s 1438 416 m 31 X s 1481 416 m 32 X s 1472 394 m 6 X s 1472 438 m 6 X s 1438 413 m 6 Y s 1513 413 m 6 Y s 1475 416 m20 1550 362 m 10 Y s 1550 383 m 10 Y s 1513 377 m 32 X s 1556 377 m 32 X s 1548 362 m
 5 X s 1548 393 m 5 X s 1513 375 m 5 Y s 1588 375 m 5 Y s 1550 377 m20 1626 399 m 12 Y s 1626 422 m 11 Y s 1588 416 m 32 X s 1631 416 m 32 X s 1623 399 m 5 X s 1623 433 m 5 X s 1588 413 m 6 Y s 1663 413 m 6 Y s 1626 416 m20 1701 339 m 25 Y s 1701 375
 m 26 Y s 1663 370 m 32 X s 1706 370 m 32 X s 1698 339 m 6 X s 1698 401 m 6 X s 1663 367 m 6 Y s 1738 367 m 6 Y s 1701 370 m20 1776 251 m 55 Y s 1776 318 m 55 Y s 1738 312 m 32 X s 1782 312 m 32 X s 1773 251 m 6 X s 1773 373 m 6 X s 1738 309 m 6 Y s
 1814 309 m 6 Y s 1776 312 m20 1851 383 m 66 Y s 1851 461 m 66 Y s 1814 455 m 32 X s 1857 455 m 32 X s 1848 383 m 6 X s 1848 527 m 6 X s 1814 452 m 6 Y s 1889 452 m 6 Y s 1851 455 m20 1926 200 m 165 Y s 1926 377 m 199 Y s 1889 371 m 32 X s 1932 371 m
 32 X s 1924 200 m 5 X s 1924 576 m 5 X s 1889 368 m 6 Y s 1964 368 m 6 Y s 1926 371 m20 2002 200 m 172 Y s 2002 383 m 193 Y s 1964 377 m 32 X s 2007 377 m 32 X s 1999 200 m 5 X s 1999 576 m 5 X s 1964 375 m 5 Y s 2039 375 m 5 Y s 2002 377 m20 1287
 200 m 827 X s 1287 213 m -13 Y s 1306 206 m -6 Y s 1324 206 m -6 Y s 1342 206 m -6 Y s 1361 206 m -6 Y s 1379 213 m -13 Y s 1397 206 m -6 Y s 1416 206 m -6 Y s 1434 206 m -6 Y s 1453 206 m -6 Y s 1471 213 m -13 Y s 1489 206 m -6 Y s 1508 206 m -6 Y
 s 1526 206 m -6 Y s 1545 206 m -6 Y s 1563 213 m -13 Y s 1581 206 m -6 Y s 1600 206 m -6 Y s 1618 206 m -6 Y s 1636 206 m -6 Y s 1655 213 m -13 Y s 1673 206 m -6 Y s 1692 206 m -6 Y s 1710 206 m -6 Y s 1728 206 m -6 Y s 1747 213 m -13 Y s 1765 206 m
 -6 Y s 1784 206 m -6 Y s 1802 206 m -6 Y s 1820 206 m -6 Y s 1839 213 m -13 Y s 1857 206 m -6 Y s 1875 206 m -6 Y s 1894 206 m -6 Y s 1912 206 m -6 Y s 1931 213 m -13 Y s 1949 206 m -6 Y s 1967 206 m -6 Y s 1986 206 m -6 Y s 2004 206 m -6 Y s 2023
 213 m -13 Y s 2041 206 m -6 Y s 2059 206 m -6 Y s 2078 206 m -6 Y s 2096 206 m -6 Y s 2114 213 m -13 Y s
 gsave  1088 572 1157 28 C 1268.67 166.034 t 0 r /Helvetica findfont 32.6681 sf 0 0 m (10) show NC gr 
 gsave  1088 572 1157 28 C 1359.49 166.034 t 0 r /Helvetica findfont 32.6681 sf 0 0 m (20) show NC gr 
 gsave  1088 572 1157 28 C 1451.74 166.034 t 0 r /Helvetica findfont 32.6681 sf 0 0 m (30) show NC gr 
 gsave  1088 572 1157 28 C 1543.98 166.034 t 0 r /Helvetica findfont 32.6681 sf 0 0 m (40) show NC gr 
 gsave  1088 572 1157 28 C 1636.22 166.034 t 0 r /Helvetica findfont 32.6681 sf 0 0 m (50) show NC gr 
 gsave  1088 572 1157 28 C 1727.04 166.034 t 0 r /Helvetica findfont 32.6681 sf 0 0 m (60) show NC gr 
 gsave  1088 572 1157 28 C 1819.28 166.034 t 0 r /Helvetica findfont 32.6681 sf 0 0 m (70) show NC gr 
 gsave  1088 572 1157 28 C 1911.52 166.034 t 0 r /Helvetica findfont 32.6681 sf 0 0 m (80) show NC gr 
 gsave  1088 572 1157 28 C 2003.76 166.034 t 0 r /Helvetica findfont 32.6681 sf 0 0 m (90) show NC gr 
 gsave  1088 572 1157 28 C 2086.07 166.034 t 0 r /Helvetica findfont 32.6681 sf 0 0 m (100) show NC gr 
 gsave  1088 572 1157 28 C 1995.25 83.7267 t 0 r /Helvetica findfont 42.6105 sf 0 0 m ( [GeV]) show NC gr 
 gsave  1088 572 1157 28 C 1978.22 105.013 t 0 r /Symbol findfont 28.407 sf 0 0 m (m) show NC gr 
 gsave  1088 572 1157 28 C 1978.22 61.0212 t 0 r /Helvetica findfont 28.407 sf 0 0 m (T) show NC gr 
 gsave  1088 572 1157 28 C 1955.52 83.7267 t 0 r /Helvetica findfont 42.6105 sf 0 0 m (p) show NC gr  1287 576 m 827 X s 1287 563 m 13 Y s 1306 569 m 7 Y s 1324 569 m 7 Y s 1342 569 m 7 Y s 1361 569 m 7 Y s 1379 563 m 13 Y s 1397 569 m 7 Y s 1416 569
 m 7 Y s 1434 569 m 7 Y s 1453 569 m 7 Y s 1471 563 m 13 Y s 1489 569 m 7 Y s 1508 569 m 7 Y s 1526 569 m 7 Y s 1545 569 m 7 Y s 1563 563 m 13 Y s 1581 569 m 7 Y s 1600 569 m 7 Y s 1618 569 m 7 Y s 1636 569 m 7 Y s 1655 563 m 13 Y s 1673 569 m 7 Y s
 1692 569 m 7 Y s 1710 569 m 7 Y s 1728 569 m 7 Y s 1747 563 m 13 Y s 1765 569 m 7 Y s 1784 569 m 7 Y s 1802 569 m 7 Y s 1820 569 m 7 Y s 1839 563 m 13 Y s 1857 569 m 7 Y s 1875 569 m 7 Y s 1894 569 m 7 Y s 1912 569 m 7 Y s 1931 563 m 13 Y s 1949 569
 m 7 Y s 1967 569 m 7 Y s 1986 569 m 7 Y s 2004 569 m 7 Y s 2023 563 m 13 Y s 2041 569 m 7 Y s 2059 569 m 7 Y s 2078 569 m 7 Y s 2096 569 m 7 Y s 2114 563 m 13 Y s 1287 200 m 376 Y s 1309 200 m -22 X s 1298 219 m -11 X s 1298 237 m -11 X s 1298 256 m
 -11 X s 1298 275 m -11 X s 1309 294 m -22 X s 1298 313 m -11 X s 1298 331 m -11 X s 1298 350 m -11 X s 1298 369 m -11 X s 1309 388 m -22 X s 1298 407 m -11 X s 1298 425 m -11 X s 1298 444 m -11 X s 1298 463 m -11 X s 1309 482 m -22 X s 1298 501 m
 -11 X s 1298 519 m -11 X s 1298 538 m -11 X s 1298 557 m -11 X s 1309 576 m -22 X s
 gsave  1088 572 1157 28 C 1230.36 187.321 t 0 r /Helvetica findfont 32.6681 sf 0 0 m (0.8) show NC gr 
 gsave  1088 572 1157 28 C 1231.78 282.4 t 0 r /Helvetica findfont 32.6681 sf 0 0 m (0.9) show NC gr 
 gsave  1088 572 1157 28 C 1263 376.061 t 0 r /Helvetica findfont 32.6681 sf 0 0 m (1) show NC gr 
 gsave  1088 572 1157 28 C 1236.03 469.721 t 0 r /Helvetica findfont 32.6681 sf 0 0 m (1.1) show NC gr 
 gsave  1088 572 1157 28 C 1231.78 563.381 t 0 r /Helvetica findfont 32.6681 sf 0 0 m (1.2) show NC gr 
 gsave  1088 572 1157 28 C 1190.62 266.79 t 90 r /Helvetica findfont 42.6105 sf 0 0 m (Data+ / Data\255    ) show NC gr  2114 200 m 376 Y s 2093 200 m 21 X s 2104 219 m 10 X s 2104 237 m 10 X s 2104 256 m 10 X s 2104 275 m 10 X s 2093 294 m 21 X s
 2104 313 m 10 X s 2104 331 m 10 X s 2104 350 m 10 X s 2104 369 m 10 X s 2093 388 m 21 X s 2104 407 m 10 X s 2104 425 m 10 X s 2104 444 m 10 X s 2104 463 m 10 X s 2093 482 m 21 X s 2104 501 m 10 X s 2104 519 m 10 X s 2104 538 m 10 X s 2104 557 m 10 X
 s 2093 576 m 21 X s 0 0 1 c[ 12 12] 0 sd 6 lw 1287 388 m 827 X s 1287 388 m 827 X s black[  ] 0 sd 3 lw 1 1 1 c black 1400 306 m 41 Y s 1400 359 m 41 Y s 1362 353 m 32 X s 1406 353 m 32 X s 1397 306 m 6 X s 1397 400 m 6 X s 1362 350 m 6 Y s 1438 350
 m 6 Y s 1400 353 m20 1475 394 m 16 Y s 1475 422 m 16 Y s 1438 416 m 31 X s 1481 416 m 32 X s 1472 394 m 6 X s 1472 438 m 6 X s 1438 413 m 6 Y s 1513 413 m 6 Y s 1475 416 m20 1550 362 m 10 Y s 1550 383 m 10 Y s 1513 377 m 32 X s 1556 377 m 32 X s
 1548 362 m 5 X s 1548 393 m 5 X s 1513 375 m 5 Y s 1588 375 m 5 Y s 1550 377 m20 1626 399 m 12 Y s 1626 422 m 11 Y s 1588 416 m 32 X s 1631 416 m 32 X s 1623 399 m 5 X s 1623 433 m 5 X s 1588 413 m 6 Y s 1663 413 m 6 Y s 1626 416 m20 1701 339 m 25 Y
 s 1701 375 m 26 Y s 1663 370 m 32 X s 1706 370 m 32 X s 1698 339 m 6 X s 1698 401 m 6 X s 1663 367 m 6 Y s 1738 367 m 6 Y s 1701 370 m20 1776 251 m 55 Y s 1776 318 m 55 Y s 1738 312 m 32 X s 1782 312 m 32 X s 1773 251 m 6 X s 1773 373 m 6 X s 1738
 309 m 6 Y s 1814 309 m 6 Y s 1776 312 m20 1851 383 m 66 Y s 1851 461 m 66 Y s 1814 455 m 32 X s 1857 455 m 32 X s 1848 383 m 6 X s 1848 527 m 6 X s 1814 452 m 6 Y s 1889 452 m 6 Y s 1851 455 m20 1926 200 m 165 Y s 1926 377 m 199 Y s 1889 371 m 32 X
 s 1932 371 m 32 X s 1924 200 m 5 X s 1924 576 m 5 X s 1889 368 m 6 Y s 1964 368 m 6 Y s 1926 371 m20 2002 200 m 172 Y s 2002 383 m 193 Y s 1964 377 m 32 X s 2007 377 m 32 X s 1999 200 m 5 X s 1999 576 m 5 X s 1964 375 m 5 Y s 2039 375 m 5 Y s 2002
 377 m20
 gr  gr showpage
end
%%EOF
