%!PS-Adobe-2.0 EPSF-2.0
%%BoundingBox:  0 0 567 274
%%Title: /home/petr/Analysis_iwona/SFAnalysis/eps/Zmass_mumu_MSTree.eps: Results
%%Creator: ROOT Version 6.16/00
%%CreationDate: Tue Apr 23 09:36:16 2019
%%DocumentNeededResources: ProcSet (FontSetInit)
%%EndComments
%%BeginProlog
80 dict begin
/s {stroke} def /l {lineto} def /m {moveto} def /t {translate} def
/r {rotate} def /rl {roll}  def /R {repeat} def
/d {rlineto} def /rm {rmoveto} def /gr {grestore} def /f {eofill} def
/c {setrgbcolor} def /black {0 setgray} def /sd {setdash} def
/cl {closepath} def /sf {scalefont setfont} def /lw {setlinewidth} def
/box {m dup 0 exch d exch 0 d 0 exch neg d cl} def
/NC{systemdict begin initclip end}def/C{NC box clip newpath}def
/bl {box s} def /bf {gsave box gsave f grestore 1 lw [] 0 sd s grestore} def /Y { 0 exch d} def /X { 0 d} def 
/K {{pop pop 0 moveto} exch kshow} bind def
/ita {/ang 15 def gsave [1 0 ang dup sin exch cos div 1 0 0] concat} def 
/mp {newpath /y exch def /x exch def} def
/side {[w .77 mul w .23 mul] .385 w mul sd w 0 l currentpoint t -144 r} def
/mr {mp x y w2 0 360 arc} def /m24 {mr s} def /m20 {mr f} def
/mb {mp x y w2 add m w2 neg 0 d 0 w neg d w 0 d 0 w d cl} def
/mt {mp x y w2 add m w2 neg w neg d w 0 d cl} def
/w4 {w 4 div} def
/w6 {w 6 div} def
/w8 {w 8 div} def
/m21 {mb f} def /m25 {mb s} def /m22 {mt f} def /m26{mt s} def
/m23 {mp x y w2 sub m w2 w d w neg 0 d cl f} def
/m27 {mp x y w2 add m w3 neg w2 neg d w3 w2 neg d w3 w2 d cl s} def
/m28 {mp x w2 sub y w2 sub w3 add m w3 0 d  0 w3 neg d w3 0 d 0 w3 d w3 0 d  0 w3 d w3 neg 0 d 0 w3 d w3 neg 0 d 0 w3 neg d w3 neg 0 d cl s } def
/m29 {mp gsave x w2 sub y w2 add w3 sub m currentpoint t 4 {side} repeat cl fill gr} def
/m30 {mp gsave x w2 sub y w2 add w3 sub m currentpoint t 4 {side} repeat cl s gr} def
/m31 {mp x y w2 sub m 0 w d x w2 sub y m w 0 d x w2 sub y w2 add m w w neg d x w2 sub y w2 sub m w w d s} def
/m32 {mp x y w2 sub m w2 w d w neg 0 d cl s} def
/m33 {mp x y w2 add m w3 neg w2 neg d w3 w2 neg d w3 w2 d cl f} def
/m34 {mp x w2 sub y w2 sub w3 add m w3 0 d  0 w3 neg d w3 0 d 0 w3 d w3 0 d  0 w3 d w3 neg 0 d 0 w3 d w3 neg 0 d 0 w3 neg d w3 neg 0 d cl f } def
/m35 {mp x y w2 add m w2 neg w2 neg d w2 w2 neg d w2 w2 d w2 neg w2 d x y w2 sub m 0 w d x w2 sub y m w 0 d s} def
/m36 {mb x w2 sub y w2 add m w w neg d x w2 sub y w2 sub m w w d s} def
/m37 {mp x y m w4 neg w2 d w4 neg w2 neg d w2 0 d  w4 neg w2 neg d w2 0 d w4 neg w2 d w2 0 d w4 neg w2 d w4 neg w2 neg d cl s} def
/m38 {mp x w4 sub y w2 add m w4 neg w4 neg d 0 w2 neg d w4 w4 neg d w2 0 d w4 w4 d 0 w2 d w4 neg w4 d w2 neg 0 d x y w2 sub m 0 w d x w2 sub y m w 0 d cl s} def
/m39 {mp x y m w4 neg w2 d w4 neg w2 neg d w2 0 d  w4 neg w2 neg d w2 0 d w4 neg w2 d w2 0 d w4 neg w2 d w4 neg w2 neg d cl f} def
/m40 {mp x y m w4 w2 d w4 w4 neg d w2 neg w4 neg d w2 w4 neg d w4 neg w4 neg d w4 neg w2 d w4 neg w2 neg d w4 neg w4 d w2 w4 d w2 neg w4 d w4 w4 d w4 w2 neg d cl s} def
/m41 {mp x y m w4 w2 d w4 w4 neg d w2 neg w4 neg d w2 w4 neg d w4 neg w4 neg d w4 neg w2 d w4 neg w2 neg d w4 neg w4 d w2 w4 d w2 neg w4 d w4 w4 d w4 w2 neg d cl f} def
/m42 {mp x y w2 add m w8 neg w2 -3 4 div mul d w2 -3 4 div mul w8 neg d w2 3 4 div mul w8 neg d w8 w2 -3 4 div mul d w8 w2 3 4 div mul d w2 3 4 div mul w8 d w2 -3 4 div mul w8 d w8 neg w2 3 4 div mul d cl s} def
/m43 {mp x y w2 add m w8 neg w2 -3 4 div mul d w2 -3 4 div mul w8 neg d w2 3 4 div mul w8 neg d w8 w2 -3 4 div mul d w8 w2 3 4 div mul d w2 3 4 div mul w8 d w2 -3 4 div mul w8 d w8 neg w2 3 4 div mul d cl f} def
/m44 {mp x y m w6 neg w2 d w2 2 3 div mul 0 d w6 neg w2 neg d w2 w6 d 0 w2 -2 3 div mul d w2 neg w6 d w6 w2 neg d w2 -2 3 div mul 0 d w6 w2 d w2 neg w6 neg d 0 w2 2 3 div mul d w2 w6 neg d cl s} def
/m45 {mp x y m w6 neg w2 d w2 2 3 div mul 0 d w6 neg w2 neg d w2 w6 d 0 w2 -2 3 div mul d w2 neg w6 d w6 w2 neg d w2 -2 3 div mul 0 d w6 w2 d w2 neg w6 neg d 0 w2 2 3 div mul d w2 w6 neg d cl f} def
/m46 {mp x y w4 add m w4 neg w4 d w4 neg w4 neg d  w4 w4 neg d w4 neg w4 neg d w4 w4 neg d w4 w4 d w4 w4 neg d w4 w4 d w4 neg w4 d w4 w4 d w4 neg w4 d w4 neg w4 neg d cl s} def
/m47 {mp x y w4 add m w4 neg w4 d w4 neg w4 neg d w4 w4 neg d w4 neg w4 neg d  w4 w4 neg d w4 w4 d w4 w4 neg d w4 w4 d w4 neg w4 d w4 w4 d w4 neg w4 d w4 neg w4 neg d cl f} def
/m48 {mp x y w4 add m w4 neg w4 d w4 neg w4 neg d w4 w4 neg d  w4 neg w4 neg d w4 w4 neg d w4 w4 d w4 w4 neg d w4 w4 d w4 neg w4 d w4 w4 d w4 neg w4 d w4 neg w4 neg d  w4 w4 neg d w4 neg w4 neg d w4 neg w4 d w4 w4 d cl f} def
/m49 {mp x w2 sub w3 add y w2 sub w3 add m  0 w3 neg d w3 0 d 0 w3 d w3 0 d 0 w3 d w3 neg 0 d 0 w3 d w3 neg 0 d 0 w3 neg d w3 neg 0 d 0 w3 neg d w3 0 d 0 w3 d w3 0 d 0 w3 neg d w3 neg 0 d cl f } def
/m2 {mp x y w2 sub m 0 w d x w2 sub y m w 0 d s} def
/m5 {mp x w2 sub y w2 sub m w w d x w2 sub y w2 add m w w neg d s} def
%%IncludeResource: ProcSet (FontSetInit)
%%IncludeResource: font Times-Roman
%%IncludeResource: font Times-Italic
%%IncludeResource: font Times-Bold
%%IncludeResource: font Times-BoldItalic
%%IncludeResource: font Helvetica
%%IncludeResource: font Helvetica-Oblique
%%IncludeResource: font Helvetica-Bold
%%IncludeResource: font Helvetica-BoldOblique
%%IncludeResource: font Courier
%%IncludeResource: font Courier-Oblique
%%IncludeResource: font Courier-Bold
%%IncludeResource: font Courier-BoldOblique
%%IncludeResource: font Symbol
%%IncludeResource: font ZapfDingbats
/reEncode {exch findfont dup length dict begin {1 index /FID eq  {pop pop} {def} ifelse } forall /Encoding exch def currentdict end dup /FontName get exch definefont pop } def [/Times-Bold /Times-Italic /Times-BoldItalic /Helvetica /Helvetica-Oblique
 /Helvetica-Bold /Helvetica-BoldOblique /Courier /Courier-Oblique /Courier-Bold /Courier-BoldOblique /Times-Roman /AvantGarde-Book /AvantGarde-BookOblique /AvantGarde-Demi /AvantGarde-DemiOblique /Bookman-Demi /Bookman-DemiItalic /Bookman-Light
 /Bookman-LightItalic /Helvetica-Narrow /Helvetica-Narrow-Bold /Helvetica-Narrow-BoldOblique /Helvetica-Narrow-Oblique /NewCenturySchlbk-Roman /NewCenturySchlbk-Bold /NewCenturySchlbk-BoldItalic /NewCenturySchlbk-Italic /Palatino-Bold
 /Palatino-BoldItalic /Palatino-Italic /Palatino-Roman ] {ISOLatin1Encoding reEncode } forall
%%EndProlog
%%BeginSetup
%%EndSetup
newpath  gsave  .25 .25 scale  gsave  0 0 t black[  ] 0 sd 3 lw 1 1 1 c 2268 1094 0 0 bf black 1 1 1 c 1088 1072 23 11 bf black 1 1 1 c 828 858 153 118 bf black 828 858 153 118 bl 1 1 1 c 828 858 153 118 bf black 828 858 153 118 bl 1 0 0 c 1 1 1 c 1
 0 0 c 174 415 m 3 Y s 174 430 m 1 Y s 167 424 m 1 X s 180 424 m 1 X s 171 415 m 6 X s 171 431 m 6 X s 167 421 m 6 Y s 181 421 m 6 Y s /w 12 def /w2 {w 2 div} def /w3 {w 3 div} def 174 424 m20 188 430 m 2 Y s 188 443 m 1 Y s 181 437 m 1 X s 193 437 m
 2 X s 185 430 m 6 X s 185 444 m 6 X s 181 435 m 5 Y s 195 435 m 5 Y s 188 437 m20 202 428 m 2 Y s 202 441 m 2 Y s 195 436 m 1 X s 207 436 m 1 X s 199 428 m 5 X s 199 443 m 5 X s 195 433 m 6 Y s 208 433 m 6 Y s 202 436 m20 215 432 m 2 Y s 215 445 m 1
 Y s 208 440 m 2 X s 221 440 m 1 X s 213 432 m 5 X s 213 446 m 5 X s 208 437 m 6 Y s 222 437 m 6 Y s 215 440 m20 229 428 m 2 Y s 229 441 m 2 Y s 222 436 m 1 X s 235 436 m 1 X s 226 428 m 6 X s 226 443 m 6 X s 222 433 m 6 Y s 236 433 m 6 Y s 229 436
 m20 243 443 m 1 Y s 243 456 m s 236 450 m 1 X s 249 450 m 1 X s 240 443 m 6 X s 240 456 m 6 X s 236 447 m 6 Y s 250 447 m 6 Y s 243 450 m20 257 450 m 1 Y s 257 462 m s 250 457 m 1 X s 262 457 m 2 X s 254 450 m 6 X s 254 462 m 6 X s 250 454 m 6 Y s
 264 454 m 6 Y s 257 457 m20 270 432 m 2 Y s 270 445 m 1 Y s 264 440 m 1 X s 276 440 m 1 X s 268 432 m 5 X s 268 446 m 5 X s 264 437 m 6 Y s 277 437 m 6 Y s 270 440 m20 284 447 m s 284 459 m s 277 453 m 2 X s 290 453 m 1 X s 281 447 m 6 X s 281 459 m
 6 X s 277 450 m 6 Y s 291 450 m 6 Y s 284 453 m20 298 447 m 1 Y s 298 459 m 1 Y s 291 454 m 1 X s 304 454 m 1 X s 295 447 m 6 X s 295 460 m 6 X s 291 451 m 6 Y s 305 451 m 6 Y s 298 454 m20 312 455 m 1 Y s 305 461 m 1 X s 318 461 m 1 X s 309 455 m 6
 X s 305 458 m 6 Y s 319 458 m 6 Y s 312 461 m20 326 463 m s 319 469 m 1 X s 331 469 m 2 X s 323 463 m 5 X s 319 466 m 5 Y s 333 466 m 5 Y s 326 469 m20 339 461 m s 333 467 m 1 X s 345 467 m 1 X s 337 461 m 5 X s 333 464 m 5 Y s 346 464 m 5 Y s 339
 467 m20 346 471 m 2 X s 359 471 m 1 X s 346 468 m 6 Y s 360 468 m 6 Y s 353 471 m20 360 480 m 1 X s 373 480 m 1 X s 360 477 m 5 Y s 374 477 m 5 Y s 367 480 m20 374 480 m 1 X s 386 480 m 2 X s 374 477 m 5 Y s 388 477 m 5 Y s 381 480 m20 388 496 m 1 X
 s 400 496 m 1 X s 388 493 m 6 Y s 401 493 m 6 Y s 395 496 m20 401 510 m 2 X s 414 510 m 1 X s 401 507 m 5 Y s 415 507 m 5 Y s 408 510 m20 415 511 m 1 X s 428 511 m 1 X s 415 509 m 5 Y s 429 509 m 5 Y s 422 511 m20 429 520 m 1 X s 442 520 m 1 X s 429
 517 m 6 Y s 443 517 m 6 Y s 436 520 m20 443 538 m 1 X s 455 538 m 2 X s 443 535 m 5 Y s 457 535 m 5 Y s 450 538 m20 457 551 m 1 X s 469 551 m 1 X s 457 548 m 6 Y s 470 548 m 6 Y s 464 551 m20 470 561 m 2 X s 483 561 m 1 X s 470 559 m 5 Y s 484 559 m
 5 Y s 477 561 m20 484 574 m 1 X s 497 574 m 1 X s 484 571 m 6 Y s 498 571 m 6 Y s 491 574 m20 498 599 m 1 X s 511 599 m 1 X s 498 596 m 5 Y s 512 596 m 5 Y s 505 599 m20 512 623 m 1 X s 524 623 m 2 X s 512 620 m 5 Y s 526 620 m 5 Y s 519 623 m20 526
 643 m 1 X s 538 643 m 1 X s 526 640 m 6 Y s 539 640 m 6 Y s 532 643 m20 539 666 m 2 X s 552 666 m 1 X s 539 663 m 6 Y s 553 663 m 6 Y s 546 666 m20 553 684 m 1 X s 566 684 m 1 X s 553 681 m 6 Y s 567 681 m 6 Y s 560 684 m20 567 693 m 1 X s 579 693 m
 2 X s 567 690 m 6 Y s 581 690 m 6 Y s 574 693 m20 581 690 m 1 X s 593 690 m 2 X s 581 687 m 6 Y s 595 687 m 6 Y s 588 690 m20 595 677 m 1 X s 607 677 m 1 X s 595 674 m 6 Y s 608 674 m 6 Y s 601 677 m20 608 657 m 2 X s 621 657 m 1 X s 608 654 m 6 Y s
 622 654 m 6 Y s 615 657 m20 622 629 m 1 X s 635 629 m 1 X s 622 626 m 6 Y s 636 626 m 6 Y s 629 629 m20 636 600 m 1 X s 648 600 m 2 X s 636 598 m 5 Y s 650 598 m 5 Y s 643 600 m20 650 571 m 1 X s 662 571 m 1 X s 650 568 m 6 Y s 663 568 m 6 Y s 657
 571 m20 663 546 m 2 X s 676 546 m 1 X s 663 543 m 6 Y s 677 543 m 6 Y s 670 546 m20 677 535 m 1 X s 690 535 m 1 X s 677 532 m 6 Y s 691 532 m 6 Y s 684 535 m20 691 516 m 1 X s 704 516 m 1 X s 691 513 m 6 Y s 705 513 m 6 Y s 698 516 m20 705 500 m 1 X
 s 717 500 m 2 X s 705 497 m 6 Y s 719 497 m 6 Y s 712 500 m20 719 482 m 1 X s 731 482 m 1 X s 719 479 m 5 Y s 732 479 m 5 Y s 725 482 m20 739 446 m 1 Y s 739 458 m s 732 452 m 2 X s 745 452 m 1 X s 736 446 m 6 X s 736 458 m 6 X s 732 450 m 5 Y s 746
 450 m 5 Y s 739 452 m20 753 462 m s 746 468 m 1 X s 759 468 m 1 X s 750 462 m 6 X s 746 465 m 5 Y s 760 465 m 5 Y s 753 468 m20 767 437 m 2 Y s 767 450 m 1 Y s 760 444 m 1 X s 773 444 m 1 X s 764 437 m 6 X s 764 451 m 6 X s 760 441 m 6 Y s 774 441 m
 6 Y s 767 444 m20 781 433 m 2 Y s 781 446 m 1 Y s 774 441 m 1 X s 786 441 m 2 X s 778 433 m 5 X s 778 447 m 5 X s 774 438 m 5 Y s 788 438 m 5 Y s 781 441 m20 794 439 m 1 Y s 794 451 m 1 Y s 788 446 m 1 X s 800 446 m 1 X s 792 439 m 5 X s 792 452 m 5
 X s 788 443 m 6 Y s 801 443 m 6 Y s 794 446 m20 808 417 m 2 Y s 808 431 m 1 Y s 801 425 m 2 X s 814 425 m 1 X s 805 417 m 6 X s 805 432 m 6 X s 801 422 m 6 Y s 815 422 m 6 Y s 808 425 m20 822 430 m 2 Y s 822 443 m 1 Y s 815 437 m 1 X s 828 437 m 1 X
 s 819 430 m 6 X s 819 444 m 6 X s 815 435 m 5 Y s 829 435 m 5 Y s 822 437 m20 836 407 m 4 Y s 836 422 m 2 Y s 829 416 m 1 X s 841 416 m 2 X s 833 407 m 6 X s 833 424 m 6 X s 829 414 m 5 Y s 843 414 m 5 Y s 836 416 m20 850 398 m 4 Y s 850 414 m 2 Y s
 843 408 m 1 X s 855 408 m 1 X s 847 398 m 5 X s 847 416 m 5 X s 843 405 m 6 Y s 856 405 m 6 Y s 850 408 m20 863 400 m 4 Y s 863 415 m 2 Y s 856 409 m 2 X s 869 409 m 1 X s 861 400 m 5 X s 861 417 m 5 X s 856 406 m 6 Y s 870 406 m 6 Y s 863 409 m20
 877 387 m 5 Y s 877 404 m 3 Y s 870 398 m 1 X s 883 398 m 1 X s 874 387 m 6 X s 874 407 m 6 X s 870 395 m 6 Y s 884 395 m 6 Y s 877 398 m20 891 386 m 5 Y s 891 402 m 4 Y s 884 396 m 1 X s 897 396 m 1 X s 888 386 m 6 X s 888 406 m 6 X s 884 394 m 5 Y
 s 898 394 m 5 Y s 891 396 m20 905 372 m 7 Y s 905 390 m 4 Y s 898 384 m 1 X s 910 384 m 2 X s 902 372 m 6 X s 902 394 m 6 X s 898 381 m 6 Y s 912 381 m 6 Y s 905 384 m20 919 366 m 7 Y s 919 384 m 5 Y s 912 378 m 1 X s 924 378 m 1 X s 916 366 m 5 X s
 916 389 m 5 X s 912 375 m 6 Y s 925 375 m 6 Y s 919 378 m20 932 391 m 4 Y s 932 407 m 3 Y s 925 401 m 2 X s 938 401 m 1 X s 929 391 m 6 X s 929 410 m 6 X s 925 398 m 6 Y s 939 398 m 6 Y s 932 401 m20 946 374 m 6 Y s 946 392 m 4 Y s 939 386 m 1 X s
 952 386 m 1 X s 943 374 m 6 X s 943 396 m 6 X s 939 383 m 6 Y s 953 383 m 6 Y s 946 386 m20 960 340 m 10 Y s 960 361 m 7 Y s 953 355 m 1 X s 966 355 m 1 X s 957 340 m 6 X s 957 368 m 6 X s 953 353 m 5 Y s 967 353 m 5 Y s 960 355 m20 974 363 m 7 Y s
 974 382 m 5 Y s 967 376 m 1 X s 979 376 m 2 X s 971 363 m 6 X s 971 387 m 6 X s 967 373 m 6 Y s 981 373 m 6 Y s 974 376 m20 black 153 118 m 828 X s 153 143 m -25 Y s 181 130 m -12 Y s 208 130 m -12 Y s 236 130 m -12 Y s 264 130 m -12 Y s 291 143 m
 -25 Y s 319 130 m -12 Y s 346 130 m -12 Y s 374 130 m -12 Y s 401 130 m -12 Y s 429 143 m -25 Y s 457 130 m -12 Y s 484 130 m -12 Y s 512 130 m -12 Y s 539 130 m -12 Y s 567 143 m -25 Y s 595 130 m -12 Y s 622 130 m -12 Y s 650 130 m -12 Y s 677 130
 m -12 Y s 705 143 m -25 Y s 732 130 m -12 Y s 760 130 m -12 Y s 788 130 m -12 Y s 815 130 m -12 Y s 843 143 m -25 Y s 870 130 m -12 Y s 898 130 m -12 Y s 925 130 m -12 Y s 953 130 m -12 Y s 981 143 m -25 Y s
 gsave  1088 1072 23 11 C 133.395 83.7267 t 0 r /Helvetica findfont 35.5047 sf 0 0 m (60) show NC gr 
 gsave  1088 1072 23 11 C 271.047 83.7267 t 0 r /Helvetica findfont 35.5047 sf 0 0 m (70) show NC gr 
 gsave  1088 1072 23 11 C 408.7 83.7267 t 0 r /Helvetica findfont 35.5047 sf 0 0 m (80) show NC gr 
 gsave  1088 1072 23 11 C 546.352 83.7267 t 0 r /Helvetica findfont 35.5047 sf 0 0 m (90) show NC gr 
 gsave  1088 1072 23 11 C 674.071 83.7267 t 0 r /Helvetica findfont 35.5047 sf 0 0 m (100) show NC gr 
 gsave  1088 1072 23 11 C 811.723 83.7267 t 0 r /Helvetica findfont 35.5047 sf 0 0 m (110) show NC gr 
 gsave  1088 1072 23 11 C 949.376 83.7267 t 0 r /Helvetica findfont 35.5047 sf 0 0 m (120) show NC gr 
 gsave  1088 1072 23 11 C 852.877 32.6392 t 0 r /Helvetica findfont 45.446 sf 0 0 m ( [GeV]) show NC gr 
 gsave  1088 1072 23 11 C 835.848 24.1246 t 0 r /Symbol findfont 29.8239 sf 0 0 m (m) show NC gr 
 gsave  1088 1072 23 11 C 818.819 24.1246 t 0 r /Symbol findfont 29.8239 sf 0 0 m (m) show NC gr 
 gsave  1088 1072 23 11 C 783.341 32.6392 t 0 r /Helvetica findfont 45.446 sf 0 0 m (M) show NC gr  153 118 m 858 Y s 166 118 m -13 X s 166 143 m -13 X s 166 161 m -13 X s 166 174 m -13 X s 166 186 m -13 X s 166 195 m -13 X s 166 203 m -13 X s 166
 211 m -13 X s 179 217 m -26 X s
 gsave  1088 1072 23 11 C 131.976 204.35 t 0 r /Helvetica findfont 32.6643 sf 0 0 m (1) show NC gr  166 260 m -13 X s 166 285 m -13 X s 166 302 m -13 X s 166 316 m -13 X s 166 327 m -13 X s 166 337 m -13 X s 166 345 m -13 X s 166 352 m -13 X s 179
 359 m -26 X s
 gsave  1088 1072 23 11 C 109.27 346.26 t 0 r /Helvetica findfont 32.6643 sf 0 0 m (10) show NC gr  166 401 m -13 X s 166 426 m -13 X s 166 444 m -13 X s 166 458 m -13 X s 166 469 m -13 X s 166 478 m -13 X s 166 486 m -13 X s 166 494 m -13 X s 179
 500 m -26 X s
 gsave  1088 1072 23 11 C 131.976 499.522 t 0 r /Helvetica findfont 22.723 sf 0 0 m (2) show NC gr 
 gsave  1088 1072 23 11 C 96.4986 485.331 t 0 r /Helvetica findfont 32.6643 sf 0 0 m (10) show NC gr  166 543 m -13 X s 166 568 m -13 X s 166 585 m -13 X s 166 599 m -13 X s 166 610 m -13 X s 166 620 m -13 X s 166 628 m -13 X s 166 635 m -13 X s 179
 642 m -26 X s
 gsave  1088 1072 23 11 C 131.976 642.851 t 0 r /Helvetica findfont 22.723 sf 0 0 m (3) show NC gr 
 gsave  1088 1072 23 11 C 96.4986 627.241 t 0 r /Helvetica findfont 32.6643 sf 0 0 m (10) show NC gr  166 684 m -13 X s 166 709 m -13 X s 166 727 m -13 X s 166 741 m -13 X s 166 752 m -13 X s 166 761 m -13 X s 166 770 m -13 X s 166 777 m -13 X s 179
 783 m -26 X s
 gsave  1088 1072 23 11 C 131.976 781.922 t 0 r /Helvetica findfont 22.723 sf 0 0 m (4) show NC gr 
 gsave  1088 1072 23 11 C 96.4986 767.731 t 0 r /Helvetica findfont 32.6643 sf 0 0 m (10) show NC gr  166 826 m -13 X s 166 851 m -13 X s 166 868 m -13 X s 166 882 m -13 X s 166 893 m -13 X s 166 903 m -13 X s 166 911 m -13 X s 166 918 m -13 X s 179
 925 m -26 X s
 gsave  1088 1072 23 11 C 131.976 925.251 t 0 r /Helvetica findfont 22.723 sf 0 0 m (5) show NC gr 
 gsave  1088 1072 23 11 C 96.4986 909.641 t 0 r /Helvetica findfont 32.6643 sf 0 0 m (10) show NC gr  166 967 m -13 X s
 gsave  1088 1072 23 11 C 69.5357 557.705 t 90 r /Helvetica findfont 45.446 sf 0 0 m (Entries / NormFactor) show NC gr  1 0 0 c 1 1 1 c 1 0 0 c 174 387 m 17 Y s 174 415 m 11 Y s 167 410 m 1 X s 180 410 m 1 X s 171 387 m 6 X s 171 426 m 6 X s 167 407
 m 5 Y s 181 407 m 5 Y s 174 410 m24 188 353 m 23 Y s 188 387 m 14 Y s 181 382 m 1 X s 193 382 m 2 X s 185 353 m 6 X s 185 401 m 6 X s 181 379 m 6 Y s 195 379 m 6 Y s 188 382 m24 202 394 m 15 Y s 202 421 m 9 Y s 195 415 m 1 X s 207 415 m 1 X s 199
 394 m 5 X s 199 430 m 5 X s 195 412 m 6 Y s 208 412 m 6 Y s 202 415 m24 215 387 m 17 Y s 215 415 m 11 Y s 208 410 m 2 X s 221 410 m 1 X s 213 387 m 5 X s 213 426 m 5 X s 208 407 m 5 Y s 222 407 m 5 Y s 215 410 m24 229 340 m 27 Y s 229 378 m 15 Y s
 222 372 m 1 X s 235 372 m 1 X s 226 340 m 6 X s 226 393 m 6 X s 222 369 m 6 Y s 236 369 m 6 Y s 229 372 m24 243 387 m 17 Y s 243 415 m 11 Y s 236 410 m 1 X s 249 410 m 1 X s 240 387 m 6 X s 240 426 m 6 X s 236 407 m 5 Y s 250 407 m 5 Y s 243 410 m24
 257 415 m 12 Y s 257 438 m 8 Y s 250 433 m 1 X s 262 433 m 2 X s 254 415 m 6 X s 254 446 m 6 X s 250 430 m 5 Y s 264 430 m 5 Y s 257 433 m24 270 353 m 23 Y s 270 387 m 14 Y s 264 382 m 1 X s 276 382 m 1 X s 268 353 m 5 X s 268 401 m 5 X s 264 379 m
 6 Y s 277 379 m 6 Y s 270 382 m24 284 394 m 15 Y s 284 421 m 9 Y s 277 415 m 2 X s 290 415 m 1 X s 281 394 m 6 X s 281 430 m 6 X s 277 412 m 6 Y s 291 412 m 6 Y s 284 415 m24 298 387 m 17 Y s 298 415 m 11 Y s 291 410 m 1 X s 304 410 m 1 X s 295 387
 m 6 X s 295 426 m 6 X s 291 407 m 5 Y s 305 407 m 5 Y s 298 410 m24 312 380 m 18 Y s 312 409 m 12 Y s 305 404 m 1 X s 318 404 m 1 X s 309 380 m 6 X s 309 421 m 6 X s 305 401 m 5 Y s 319 401 m 5 Y s 312 404 m24 326 305 m 37 Y s 326 353 m 19 Y s 319
 347 m 1 X s 331 347 m 2 X s 323 305 m 5 X s 323 372 m 5 X s 319 344 m 6 Y s 333 344 m 6 Y s 326 347 m24 339 340 m 27 Y s 339 378 m 15 Y s 333 372 m 1 X s 345 372 m 1 X s 337 340 m 5 X s 337 393 m 5 X s 333 369 m 6 Y s 346 369 m 6 Y s 339 372 m24 353
 394 m 15 Y s 353 421 m 9 Y s 346 415 m 2 X s 359 415 m 1 X s 350 394 m 6 X s 350 430 m 6 X s 346 412 m 6 Y s 360 412 m 6 Y s 353 415 m24 367 372 m 19 Y s 367 403 m 12 Y s 360 397 m 1 X s 373 397 m 1 X s 364 372 m 6 X s 364 415 m 6 X s 360 394 m 6 Y
 s 374 394 m 6 Y s 367 397 m24 381 372 m 19 Y s 381 403 m 12 Y s 374 397 m 1 X s 386 397 m 2 X s 378 372 m 6 X s 378 415 m 6 X s 374 394 m 6 Y s 388 394 m 6 Y s 381 397 m24 395 305 m 37 Y s 395 353 m 19 Y s 388 347 m 1 X s 400 347 m 1 X s 392 305 m 5
 X s 392 372 m 5 X s 388 344 m 6 Y s 401 344 m 6 Y s 395 347 m24 408 363 m 21 Y s 408 396 m 13 Y s 401 390 m 2 X s 414 390 m 1 X s 406 363 m 5 X s 406 409 m 5 X s 401 387 m 6 Y s 415 387 m 6 Y s 408 390 m24 422 325 m 30 Y s 422 367 m 17 Y s 415 361 m
 1 X s 428 361 m 1 X s 419 325 m 6 X s 419 384 m 6 X s 415 358 m 6 Y s 429 358 m 6 Y s 422 361 m24 436 229 m 70 Y s 436 310 m 28 Y s 429 305 m 1 X s 442 305 m 1 X s 433 229 m 6 X s 433 338 m 6 X s 429 302 m 6 Y s 443 302 m 6 Y s 436 305 m24 450 380 m
 18 Y s 450 409 m 12 Y s 443 404 m 1 X s 455 404 m 2 X s 447 380 m 6 X s 447 421 m 6 X s 443 401 m 5 Y s 457 401 m 5 Y s 450 404 m24 464 277 m 47 Y s 464 335 m 23 Y s 457 330 m 1 X s 469 330 m 1 X s 461 277 m 5 X s 461 358 m 5 X s 457 327 m 5 Y s 470
 327 m 5 Y s 464 330 m24 477 363 m 21 Y s 477 396 m 13 Y s 470 390 m 2 X s 483 390 m 1 X s 474 363 m 6 X s 474 409 m 6 X s 470 387 m 6 Y s 484 387 m 6 Y s 477 390 m24 491 353 m 23 Y s 491 387 m 14 Y s 484 382 m 1 X s 497 382 m 1 X s 488 353 m 6 X s
 488 401 m 6 X s 484 379 m 6 Y s 498 379 m 6 Y s 491 382 m24 505 380 m 18 Y s 505 409 m 12 Y s 498 404 m 1 X s 511 404 m 1 X s 502 380 m 6 X s 502 421 m 6 X s 498 401 m 5 Y s 512 401 m 5 Y s 505 404 m24 532 305 m 37 Y s 532 353 m 19 Y s 526 347 m 1 X
 s 538 347 m 1 X s 530 305 m 5 X s 530 372 m 5 X s 526 344 m 6 Y s 539 344 m 6 Y s 532 347 m24 546 229 m 70 Y s 546 310 m 28 Y s 539 305 m 2 X s 552 305 m 1 X s 543 229 m 6 X s 543 338 m 6 X s 539 302 m 6 Y s 553 302 m 6 Y s 546 305 m24 560 340 m 27
 Y s 560 378 m 15 Y s 553 372 m 1 X s 566 372 m 1 X s 557 340 m 6 X s 557 393 m 6 X s 553 369 m 6 Y s 567 369 m 6 Y s 560 372 m24 574 229 m 70 Y s 574 310 m 28 Y s 567 305 m 1 X s 579 305 m 2 X s 571 229 m 6 X s 571 338 m 6 X s 567 302 m 6 Y s 581
 302 m 6 Y s 574 305 m24 588 325 m 30 Y s 588 367 m 17 Y s 581 361 m 1 X s 593 361 m 2 X s 585 325 m 5 X s 585 384 m 5 X s 581 358 m 6 Y s 595 358 m 6 Y s 588 361 m24 601 305 m 37 Y s 601 353 m 19 Y s 595 347 m 1 X s 607 347 m 1 X s 599 305 m 5 X s
 599 372 m 5 X s 595 344 m 6 Y s 608 344 m 6 Y s 601 347 m24 615 305 m 37 Y s 615 353 m 19 Y s 608 347 m 2 X s 621 347 m 1 X s 612 305 m 6 X s 612 372 m 6 X s 608 344 m 6 Y s 622 344 m 6 Y s 615 347 m24 629 325 m 30 Y s 629 367 m 17 Y s 622 361 m 1 X
 s 635 361 m 1 X s 626 325 m 6 X s 626 384 m 6 X s 622 358 m 6 Y s 636 358 m 6 Y s 629 361 m24 643 325 m 30 Y s 643 367 m 17 Y s 636 361 m 1 X s 648 361 m 2 X s 640 325 m 6 X s 640 384 m 6 X s 636 358 m 6 Y s 650 358 m 6 Y s 643 361 m24 657 305 m 37
 Y s 657 353 m 19 Y s 650 347 m 1 X s 662 347 m 1 X s 654 305 m 5 X s 654 372 m 5 X s 650 344 m 6 Y s 663 344 m 6 Y s 657 347 m24 670 277 m 47 Y s 670 335 m 23 Y s 663 330 m 2 X s 676 330 m 1 X s 667 277 m 6 X s 667 358 m 6 X s 663 327 m 5 Y s 677
 327 m 5 Y s 670 330 m24 684 277 m 47 Y s 684 335 m 23 Y s 677 330 m 1 X s 690 330 m 1 X s 681 277 m 6 X s 681 358 m 6 X s 677 327 m 5 Y s 691 327 m 5 Y s 684 330 m24 698 229 m 70 Y s 698 310 m 28 Y s 691 305 m 1 X s 704 305 m 1 X s 695 229 m 6 X s
 695 338 m 6 X s 691 302 m 6 Y s 705 302 m 6 Y s 698 305 m24 712 305 m 37 Y s 712 353 m 19 Y s 705 347 m 1 X s 717 347 m 2 X s 709 305 m 6 X s 709 372 m 6 X s 705 344 m 6 Y s 719 344 m 6 Y s 712 347 m24 725 305 m 37 Y s 725 353 m 19 Y s 719 347 m 1 X
 s 731 347 m 1 X s 723 305 m 5 X s 723 372 m 5 X s 719 344 m 6 Y s 732 344 m 6 Y s 725 347 m24 739 229 m 70 Y s 739 310 m 28 Y s 732 305 m 2 X s 745 305 m 1 X s 736 229 m 6 X s 736 338 m 6 X s 732 302 m 6 Y s 746 302 m 6 Y s 739 305 m24 753 118 m 138
 Y s 753 268 m 37 Y s 746 262 m 1 X s 759 262 m 1 X s 750 118 m 6 X s 750 305 m 6 X s 746 259 m 6 Y s 760 259 m 6 Y s 753 262 m24 767 340 m 27 Y s 767 378 m 15 Y s 760 372 m 1 X s 773 372 m 1 X s 764 340 m 6 X s 764 393 m 6 X s 760 369 m 6 Y s 774
 369 m 6 Y s 767 372 m24 781 305 m 37 Y s 781 353 m 19 Y s 774 347 m 1 X s 786 347 m 2 X s 778 305 m 5 X s 778 372 m 5 X s 774 344 m 6 Y s 788 344 m 6 Y s 781 347 m24 794 118 m 138 Y s 794 268 m 37 Y s 788 262 m 1 X s 800 262 m 1 X s 792 118 m 5 X s
 792 305 m 5 X s 788 259 m 6 Y s 801 259 m 6 Y s 794 262 m24 808 340 m 27 Y s 808 378 m 15 Y s 801 372 m 2 X s 814 372 m 1 X s 805 340 m 6 X s 805 393 m 6 X s 801 369 m 6 Y s 815 369 m 6 Y s 808 372 m24 822 229 m 70 Y s 822 310 m 28 Y s 815 305 m 1 X
 s 828 305 m 1 X s 819 229 m 6 X s 819 338 m 6 X s 815 302 m 6 Y s 829 302 m 6 Y s 822 305 m24 836 229 m 70 Y s 836 310 m 28 Y s 829 305 m 1 X s 841 305 m 2 X s 833 229 m 6 X s 833 338 m 6 X s 829 302 m 6 Y s 843 302 m 6 Y s 836 305 m24 850 277 m 47
 Y s 850 335 m 23 Y s 843 330 m 1 X s 855 330 m 1 X s 847 277 m 5 X s 847 358 m 5 X s 843 327 m 5 Y s 856 327 m 5 Y s 850 330 m24 863 305 m 37 Y s 863 353 m 19 Y s 856 347 m 2 X s 869 347 m 1 X s 861 305 m 5 X s 861 372 m 5 X s 856 344 m 6 Y s 870
 344 m 6 Y s 863 347 m24 877 277 m 47 Y s 877 335 m 23 Y s 870 330 m 1 X s 883 330 m 1 X s 874 277 m 6 X s 874 358 m 6 X s 870 327 m 5 Y s 884 327 m 5 Y s 877 330 m24 905 305 m 37 Y s 905 353 m 19 Y s 898 347 m 1 X s 910 347 m 2 X s 902 305 m 6 X s
 902 372 m 6 X s 898 344 m 6 Y s 912 344 m 6 Y s 905 347 m24 919 277 m 47 Y s 919 335 m 23 Y s 912 330 m 1 X s 924 330 m 1 X s 916 277 m 5 X s 916 358 m 5 X s 912 327 m 5 Y s 925 327 m 5 Y s 919 330 m24 932 325 m 30 Y s 932 367 m 17 Y s 925 361 m 2 X
 s 938 361 m 1 X s 929 325 m 6 X s 929 384 m 6 X s 925 358 m 6 Y s 939 358 m 6 Y s 932 361 m24 946 229 m 70 Y s 946 310 m 28 Y s 939 305 m 1 X s 952 305 m 1 X s 943 229 m 6 X s 943 338 m 6 X s 939 302 m 6 Y s 953 302 m 6 Y s 946 305 m24 960 229 m 70
 Y s 960 310 m 28 Y s 953 305 m 1 X s 966 305 m 1 X s 957 229 m 6 X s 957 338 m 6 X s 953 302 m 6 Y s 967 302 m 6 Y s 960 305 m24 974 340 m 27 Y s 974 378 m 15 Y s 967 372 m 1 X s 979 372 m 2 X s 971 340 m 6 X s 971 393 m 6 X s 967 369 m 6 Y s 981
 369 m 6 Y s 974 372 m24 black 1 1 1 c black 174 444 m 4 Y s 174 459 m 3 Y s 167 454 m 1 X s 180 454 m 1 X s 171 444 m 6 X s 171 462 m 6 X s 167 451 m 6 Y s 181 451 m 6 Y s 174 454 m20 188 447 m 4 Y s 188 462 m 3 Y s 181 456 m 1 X s 193 456 m 2 X s
 185 447 m 6 X s 185 465 m 6 X s 181 453 m 6 Y s 195 453 m 6 Y s 188 456 m20 202 466 m 2 Y s 202 479 m 2 Y s 195 474 m 1 X s 207 474 m 1 X s 199 466 m 5 X s 199 481 m 5 X s 195 471 m 6 Y s 208 471 m 6 Y s 202 474 m20 215 457 m 3 Y s 215 471 m 2 Y s
 208 466 m 2 X s 221 466 m 1 X s 213 457 m 5 X s 213 473 m 5 X s 208 463 m 5 Y s 222 463 m 5 Y s 215 466 m20 229 451 m 3 Y s 229 466 m 2 Y s 222 460 m 1 X s 235 460 m 1 X s 226 451 m 6 X s 226 468 m 6 X s 222 457 m 6 Y s 236 457 m 6 Y s 229 460 m20
 243 465 m 2 Y s 243 478 m 2 Y s 236 473 m 1 X s 249 473 m 1 X s 240 465 m 6 X s 240 480 m 6 X s 236 470 m 6 Y s 250 470 m 6 Y s 243 473 m20 257 462 m 3 Y s 257 476 m 2 Y s 250 471 m 1 X s 262 471 m 2 X s 254 462 m 6 X s 254 478 m 6 X s 250 468 m 6 Y
 s 264 468 m 6 Y s 257 471 m20 270 459 m 3 Y s 270 473 m 2 Y s 264 468 m 1 X s 276 468 m 1 X s 268 459 m 5 X s 268 475 m 5 X s 264 465 m 6 Y s 277 465 m 6 Y s 270 468 m20 284 472 m 2 Y s 284 486 m 1 Y s 277 480 m 2 X s 290 480 m 1 X s 281 472 m 6 X s
 281 487 m 6 X s 277 477 m 6 Y s 291 477 m 6 Y s 284 480 m20 298 444 m 4 Y s 298 459 m 3 Y s 291 454 m 1 X s 304 454 m 1 X s 295 444 m 6 X s 295 462 m 6 X s 291 451 m 6 Y s 305 451 m 6 Y s 298 454 m20 312 474 m 2 Y s 312 487 m 1 Y s 305 482 m 1 X s
 318 482 m 1 X s 309 474 m 6 X s 309 488 m 6 X s 305 479 m 5 Y s 319 479 m 5 Y s 312 482 m20 326 479 m 2 Y s 326 492 m 1 Y s 319 486 m 1 X s 331 486 m 2 X s 323 479 m 5 X s 323 493 m 5 X s 319 484 m 5 Y s 333 484 m 5 Y s 326 486 m20 339 496 m s 339
 508 m s 333 502 m 1 X s 345 502 m 1 X s 337 496 m 5 X s 337 508 m 5 X s 333 499 m 6 Y s 346 499 m 6 Y s 339 502 m20 353 490 m 1 Y s 353 503 m s 346 497 m 2 X s 359 497 m 1 X s 350 490 m 6 X s 350 503 m 6 X s 346 494 m 6 Y s 360 494 m 6 Y s 353 497
 m20 367 480 m 2 Y s 367 493 m 1 Y s 360 487 m 1 X s 373 487 m 1 X s 364 480 m 6 X s 364 494 m 6 X s 360 484 m 6 Y s 374 484 m 6 Y s 367 487 m20 381 485 m 1 Y s 381 497 m 1 Y s 374 492 m 1 X s 386 492 m 2 X s 378 485 m 6 X s 378 498 m 6 X s 374 489 m
 5 Y s 388 489 m 5 Y s 381 492 m20 395 505 m 1 Y s 388 511 m 1 X s 400 511 m 1 X s 392 505 m 5 X s 388 509 m 5 Y s 401 509 m 5 Y s 395 511 m20 408 509 m s 401 515 m 2 X s 414 515 m 1 X s 406 509 m 5 X s 401 512 m 6 Y s 415 512 m 6 Y s 408 515 m20 415
 518 m 1 X s 428 518 m 1 X s 415 515 m 6 Y s 429 515 m 6 Y s 422 518 m20 429 523 m 1 X s 442 523 m 1 X s 429 520 m 5 Y s 443 520 m 5 Y s 436 523 m20 443 536 m 1 X s 455 536 m 2 X s 443 533 m 6 Y s 457 533 m 6 Y s 450 536 m20 457 544 m 1 X s 469 544 m
 1 X s 457 541 m 6 Y s 470 541 m 6 Y s 464 544 m20 470 570 m 2 X s 483 570 m 1 X s 470 567 m 6 Y s 484 567 m 6 Y s 477 570 m20 484 576 m 1 X s 497 576 m 1 X s 484 573 m 6 Y s 498 573 m 6 Y s 491 576 m20 498 602 m 1 X s 511 602 m 1 X s 498 599 m 6 Y s
 512 599 m 6 Y s 505 602 m20 512 617 m 1 X s 524 617 m 2 X s 512 615 m 5 Y s 526 615 m 5 Y s 519 617 m20 526 644 m 1 X s 538 644 m 1 X s 526 641 m 6 Y s 539 641 m 6 Y s 532 644 m20 539 660 m 2 X s 552 660 m 1 X s 539 658 m 5 Y s 553 658 m 5 Y s 546
 660 m20 553 680 m 1 X s 566 680 m 1 X s 553 677 m 6 Y s 567 677 m 6 Y s 560 680 m20 567 690 m 1 X s 579 690 m 2 X s 567 687 m 6 Y s 581 687 m 6 Y s 574 690 m20 581 691 m 1 X s 593 691 m 2 X s 581 688 m 6 Y s 595 688 m 6 Y s 588 691 m20 595 674 m 1 X
 s 607 674 m 1 X s 595 671 m 5 Y s 608 671 m 5 Y s 601 674 m20 608 651 m 2 X s 621 651 m 1 X s 608 648 m 6 Y s 622 648 m 6 Y s 615 651 m20 622 629 m 1 X s 635 629 m 1 X s 622 626 m 6 Y s 636 626 m 6 Y s 629 629 m20 636 598 m 1 X s 648 598 m 2 X s 636
 595 m 6 Y s 650 595 m 6 Y s 643 598 m20 650 570 m 1 X s 662 570 m 1 X s 650 567 m 5 Y s 663 567 m 5 Y s 657 570 m20 663 555 m 2 X s 676 555 m 1 X s 663 552 m 6 Y s 677 552 m 6 Y s 670 555 m20 677 536 m 1 X s 690 536 m 1 X s 677 533 m 6 Y s 691 533 m
 6 Y s 684 536 m20 691 521 m 1 X s 704 521 m 1 X s 691 518 m 6 Y s 705 518 m 6 Y s 698 521 m20 712 494 m 1 Y s 712 506 m 1 Y s 705 501 m 1 X s 717 501 m 2 X s 709 494 m 6 X s 709 507 m 6 X s 705 498 m 6 Y s 719 498 m 6 Y s 712 501 m20 725 485 m 1 Y s
 725 497 m 1 Y s 719 492 m 1 X s 731 492 m 1 X s 723 485 m 5 X s 723 498 m 5 X s 719 489 m 5 Y s 732 489 m 5 Y s 725 492 m20 739 475 m 2 Y s 739 488 m 1 Y s 732 482 m 2 X s 745 482 m 1 X s 736 475 m 6 X s 736 489 m 6 X s 732 480 m 5 Y s 746 480 m 5 Y
 s 739 482 m20 753 469 m 2 Y s 753 482 m 1 Y s 746 476 m 1 X s 759 476 m 1 X s 750 469 m 6 X s 750 483 m 6 X s 746 474 m 5 Y s 760 474 m 5 Y s 753 476 m20 767 460 m 3 Y s 767 474 m 2 Y s 760 469 m 1 X s 773 469 m 1 X s 764 460 m 6 X s 764 476 m 6 X s
 760 466 m 6 Y s 774 466 m 6 Y s 767 469 m20 781 450 m 3 Y s 781 464 m 3 Y s 774 459 m 1 X s 786 459 m 2 X s 778 450 m 5 X s 778 467 m 5 X s 774 456 m 6 Y s 788 456 m 6 Y s 781 459 m20 794 441 m 4 Y s 794 457 m 3 Y s 788 451 m 1 X s 800 451 m 1 X s
 792 441 m 5 X s 792 460 m 5 X s 788 448 m 6 Y s 801 448 m 6 Y s 794 451 m20 808 382 m 10 Y s 808 404 m 7 Y s 801 398 m 2 X s 814 398 m 1 X s 805 382 m 6 X s 805 411 m 6 X s 801 395 m 6 Y s 815 395 m 6 Y s 808 398 m20 822 424 m 6 Y s 822 441 m 4 Y s
 815 436 m 1 X s 828 436 m 1 X s 819 424 m 6 X s 819 445 m 6 X s 815 433 m 5 Y s 829 433 m 5 Y s 822 436 m20 836 411 m 7 Y s 836 430 m 5 Y s 829 424 m 1 X s 841 424 m 2 X s 833 411 m 6 X s 833 435 m 6 X s 829 421 m 6 Y s 843 421 m 6 Y s 836 424 m20
 850 418 m 6 Y s 850 436 m 4 Y s 843 430 m 1 X s 855 430 m 1 X s 847 418 m 5 X s 847 440 m 5 X s 843 427 m 6 Y s 856 427 m 6 Y s 850 430 m20 863 409 m 7 Y s 863 428 m 5 Y s 856 422 m 2 X s 869 422 m 1 X s 861 409 m 5 X s 861 433 m 5 X s 856 419 m 6 Y
 s 870 419 m 6 Y s 863 422 m20 877 382 m 10 Y s 877 404 m 7 Y s 870 398 m 1 X s 883 398 m 1 X s 874 382 m 6 X s 874 411 m 6 X s 870 395 m 6 Y s 884 395 m 6 Y s 877 398 m20 891 398 m 9 Y s 891 418 m 6 Y s 884 412 m 1 X s 897 412 m 1 X s 888 398 m 6 X
 s 888 424 m 6 X s 884 410 m 5 Y s 898 410 m 5 Y s 891 412 m20 905 414 m 6 Y s 905 432 m 4 Y s 898 426 m 1 X s 910 426 m 2 X s 902 414 m 6 X s 902 436 m 6 X s 898 423 m 6 Y s 912 423 m 6 Y s 905 426 m20 919 389 m 10 Y s 919 410 m 6 Y s 912 404 m 1 X
 s 924 404 m 1 X s 916 389 m 5 X s 916 416 m 5 X s 912 401 m 6 Y s 925 401 m 6 Y s 919 404 m20 932 360 m 14 Y s 932 385 m 9 Y s 925 379 m 2 X s 938 379 m 1 X s 929 360 m 6 X s 929 394 m 6 X s 925 376 m 6 Y s 939 376 m 6 Y s 932 379 m20 946 398 m 9 Y
 s 946 418 m 6 Y s 939 412 m 1 X s 952 412 m 1 X s 943 398 m 6 X s 943 424 m 6 X s 939 410 m 5 Y s 953 410 m 5 Y s 946 412 m20 960 386 m 10 Y s 960 407 m 7 Y s 953 401 m 1 X s 966 401 m 1 X s 957 386 m 6 X s 957 414 m 6 X s 953 398 m 6 Y s 967 398 m
 6 Y s 960 401 m20 974 386 m 10 Y s 974 407 m 7 Y s 967 401 m 1 X s 979 401 m 2 X s 971 386 m 6 X s 971 414 m 6 X s 967 398 m 6 Y s 981 398 m 6 Y s 974 401 m20 1 1 1 c black 174 426 m 6 Y s 174 443 m 4 Y s 167 437 m 1 X s 180 437 m 1 X s 171 426 m 6
 X s 171 447 m 6 X s 167 435 m 5 Y s 181 435 m 5 Y s 174 437 m24 188 392 m 9 Y s 188 413 m 6 Y s 181 407 m 1 X s 193 407 m 2 X s 185 392 m 6 X s 185 419 m 6 X s 181 404 m 6 Y s 195 404 m 6 Y s 188 407 m24 202 370 m 12 Y s 202 393 m 8 Y s 195 388 m 1
 X s 207 388 m 1 X s 199 370 m 5 X s 199 401 m 5 X s 195 385 m 5 Y s 208 385 m 5 Y s 202 388 m24 215 389 m 10 Y s 215 410 m 6 Y s 208 404 m 2 X s 221 404 m 1 X s 213 389 m 5 X s 213 416 m 5 X s 208 401 m 6 Y s 222 401 m 6 Y s 215 404 m24 229 370 m 12
 Y s 229 393 m 8 Y s 222 388 m 1 X s 235 388 m 1 X s 226 370 m 6 X s 226 401 m 6 X s 222 385 m 5 Y s 236 385 m 5 Y s 229 388 m24 243 382 m 10 Y s 243 404 m 7 Y s 236 398 m 1 X s 249 398 m 1 X s 240 382 m 6 X s 240 411 m 6 X s 236 395 m 6 Y s 250 395
 m 6 Y s 243 398 m24 257 398 m 9 Y s 257 418 m 6 Y s 250 412 m 1 X s 262 412 m 2 X s 254 398 m 6 X s 254 424 m 6 X s 250 410 m 5 Y s 264 410 m 5 Y s 257 412 m24 270 342 m 17 Y s 270 370 m 11 Y s 264 364 m 1 X s 276 364 m 1 X s 268 342 m 5 X s 268 381
 m 5 X s 264 362 m 5 Y s 277 362 m 5 Y s 270 364 m24 284 349 m 15 Y s 284 376 m 9 Y s 277 370 m 2 X s 290 370 m 1 X s 281 349 m 6 X s 281 385 m 6 X s 277 367 m 6 Y s 291 367 m 6 Y s 284 370 m24 298 360 m 14 Y s 298 385 m 9 Y s 291 379 m 1 X s 304 379
 m 1 X s 295 360 m 6 X s 295 394 m 6 X s 291 376 m 6 Y s 305 376 m 6 Y s 298 379 m24 312 386 m 10 Y s 312 407 m 7 Y s 305 401 m 1 X s 318 401 m 1 X s 309 386 m 6 X s 309 414 m 6 X s 305 398 m 6 Y s 319 398 m 6 Y s 312 401 m24 326 370 m 12 Y s 326 393
 m 8 Y s 319 388 m 1 X s 331 388 m 2 X s 323 370 m 5 X s 323 401 m 5 X s 319 385 m 5 Y s 333 385 m 5 Y s 326 388 m24 339 382 m 10 Y s 339 404 m 7 Y s 333 398 m 1 X s 345 398 m 1 X s 337 382 m 5 X s 337 411 m 5 X s 333 395 m 6 Y s 346 395 m 6 Y s 339
 398 m24 353 378 m 11 Y s 353 400 m 8 Y s 346 395 m 2 X s 359 395 m 1 X s 350 378 m 6 X s 350 408 m 6 X s 346 392 m 6 Y s 360 392 m 6 Y s 353 395 m24 367 349 m 15 Y s 367 376 m 9 Y s 360 370 m 1 X s 373 370 m 1 X s 364 349 m 6 X s 364 385 m 6 X s 360
 367 m 6 Y s 374 367 m 6 Y s 367 370 m24 381 370 m 12 Y s 381 393 m 8 Y s 374 388 m 1 X s 386 388 m 2 X s 378 370 m 6 X s 378 401 m 6 X s 374 385 m 5 Y s 388 385 m 5 Y s 381 388 m24 395 355 m 14 Y s 395 380 m 10 Y s 388 375 m 1 X s 400 375 m 1 X s
 392 355 m 5 X s 392 390 m 5 X s 388 372 m 6 Y s 401 372 m 6 Y s 395 375 m24 408 382 m 10 Y s 408 404 m 7 Y s 401 398 m 2 X s 414 398 m 1 X s 406 382 m 5 X s 406 411 m 5 X s 401 395 m 6 Y s 415 395 m 6 Y s 408 398 m24 422 355 m 14 Y s 422 380 m 10 Y
 s 415 375 m 1 X s 428 375 m 1 X s 419 355 m 6 X s 419 390 m 6 X s 415 372 m 6 Y s 429 372 m 6 Y s 422 375 m24 436 378 m 11 Y s 436 400 m 8 Y s 429 395 m 1 X s 442 395 m 1 X s 433 378 m 6 X s 433 408 m 6 X s 429 392 m 6 Y s 443 392 m 6 Y s 436 395
 m24 450 318 m 21 Y s 450 351 m 13 Y s 443 345 m 1 X s 455 345 m 2 X s 447 318 m 6 X s 447 364 m 6 X s 443 342 m 6 Y s 457 342 m 6 Y s 450 345 m24 464 349 m 15 Y s 464 376 m 9 Y s 457 370 m 1 X s 469 370 m 1 X s 461 349 m 5 X s 461 385 m 5 X s 457
 367 m 6 Y s 470 367 m 6 Y s 464 370 m24 477 378 m 11 Y s 477 400 m 8 Y s 470 395 m 2 X s 483 395 m 1 X s 474 378 m 6 X s 474 408 m 6 X s 470 392 m 6 Y s 484 392 m 6 Y s 477 395 m24 491 355 m 14 Y s 491 380 m 10 Y s 484 375 m 1 X s 497 375 m 1 X s
 488 355 m 6 X s 488 390 m 6 X s 484 372 m 6 Y s 498 372 m 6 Y s 491 375 m24 505 335 m 18 Y s 505 364 m 12 Y s 498 359 m 1 X s 511 359 m 1 X s 502 335 m 6 X s 502 376 m 6 X s 498 356 m 5 Y s 512 356 m 5 Y s 505 359 m24 519 342 m 17 Y s 519 370 m 11 Y
 s 512 364 m 1 X s 524 364 m 2 X s 516 342 m 6 X s 516 381 m 6 X s 512 362 m 5 Y s 526 362 m 5 Y s 519 364 m24 532 308 m 23 Y s 532 342 m 14 Y s 526 337 m 1 X s 538 337 m 1 X s 530 308 m 5 X s 530 356 m 5 X s 526 334 m 6 Y s 539 334 m 6 Y s 532 337
 m24 546 308 m 23 Y s 546 342 m 14 Y s 539 337 m 2 X s 552 337 m 1 X s 543 308 m 6 X s 543 356 m 6 X s 539 334 m 6 Y s 553 334 m 6 Y s 546 337 m24 560 342 m 17 Y s 560 370 m 11 Y s 553 364 m 1 X s 566 364 m 1 X s 557 342 m 6 X s 557 381 m 6 X s 553
 362 m 5 Y s 567 362 m 5 Y s 560 364 m24 574 342 m 17 Y s 574 370 m 11 Y s 567 364 m 1 X s 579 364 m 2 X s 571 342 m 6 X s 571 381 m 6 X s 567 362 m 5 Y s 581 362 m 5 Y s 574 364 m24 588 308 m 23 Y s 588 342 m 14 Y s 581 337 m 1 X s 593 337 m 2 X s
 585 308 m 5 X s 585 356 m 5 X s 581 334 m 6 Y s 595 334 m 6 Y s 588 337 m24 601 335 m 18 Y s 601 364 m 12 Y s 595 359 m 1 X s 607 359 m 1 X s 599 335 m 5 X s 599 376 m 5 X s 595 356 m 5 Y s 608 356 m 5 Y s 601 359 m24 615 335 m 18 Y s 615 364 m 12 Y
 s 608 359 m 2 X s 621 359 m 1 X s 612 335 m 6 X s 612 376 m 6 X s 608 356 m 5 Y s 622 356 m 5 Y s 615 359 m24 629 360 m 14 Y s 629 385 m 9 Y s 622 379 m 1 X s 635 379 m 1 X s 626 360 m 6 X s 626 394 m 6 X s 622 376 m 6 Y s 636 376 m 6 Y s 629 379
 m24 643 308 m 23 Y s 643 342 m 14 Y s 636 337 m 1 X s 648 337 m 2 X s 640 308 m 6 X s 640 356 m 6 X s 636 334 m 6 Y s 650 334 m 6 Y s 643 337 m24 657 318 m 21 Y s 657 351 m 13 Y s 650 345 m 1 X s 662 345 m 1 X s 654 318 m 5 X s 654 364 m 5 X s 650
 342 m 6 Y s 663 342 m 6 Y s 657 345 m24 670 327 m 19 Y s 670 358 m 12 Y s 663 352 m 2 X s 676 352 m 1 X s 667 327 m 6 X s 667 370 m 6 X s 663 349 m 6 Y s 677 349 m 6 Y s 670 352 m24 684 280 m 30 Y s 684 322 m 17 Y s 677 316 m 1 X s 690 316 m 1 X s
 681 280 m 6 X s 681 339 m 6 X s 677 313 m 6 Y s 691 313 m 6 Y s 684 316 m24 698 318 m 21 Y s 698 351 m 13 Y s 691 345 m 1 X s 704 345 m 1 X s 695 318 m 6 X s 695 364 m 6 X s 691 342 m 6 Y s 705 342 m 6 Y s 698 345 m24 712 295 m 27 Y s 712 333 m 15 Y
 s 705 327 m 1 X s 717 327 m 2 X s 709 295 m 6 X s 709 348 m 6 X s 705 324 m 6 Y s 719 324 m 6 Y s 712 327 m24 725 260 m 37 Y s 725 308 m 19 Y s 719 302 m 1 X s 731 302 m 1 X s 723 260 m 5 X s 723 327 m 5 X s 719 299 m 6 Y s 732 299 m 6 Y s 725 302
 m24 739 308 m 23 Y s 739 342 m 14 Y s 732 337 m 2 X s 745 337 m 1 X s 736 308 m 6 X s 736 356 m 6 X s 732 334 m 6 Y s 746 334 m 6 Y s 739 337 m24 753 327 m 19 Y s 753 358 m 12 Y s 746 352 m 1 X s 759 352 m 1 X s 750 327 m 6 X s 750 370 m 6 X s 746
 349 m 6 Y s 760 349 m 6 Y s 753 352 m24 767 342 m 17 Y s 767 370 m 11 Y s 760 364 m 1 X s 773 364 m 1 X s 764 342 m 6 X s 764 381 m 6 X s 760 362 m 5 Y s 774 362 m 5 Y s 767 364 m24 781 184 m 70 Y s 781 265 m 28 Y s 774 260 m 1 X s 786 260 m 2 X s
 778 184 m 5 X s 778 293 m 5 X s 774 257 m 6 Y s 788 257 m 6 Y s 781 260 m24 794 318 m 21 Y s 794 351 m 13 Y s 788 345 m 1 X s 800 345 m 1 X s 792 318 m 5 X s 792 364 m 5 X s 788 342 m 6 Y s 801 342 m 6 Y s 794 345 m24 808 295 m 27 Y s 808 333 m 15 Y
 s 801 327 m 2 X s 814 327 m 1 X s 805 295 m 6 X s 805 348 m 6 X s 801 324 m 6 Y s 815 324 m 6 Y s 808 327 m24 822 335 m 18 Y s 822 364 m 12 Y s 815 359 m 1 X s 828 359 m 1 X s 819 335 m 6 X s 819 376 m 6 X s 815 356 m 5 Y s 829 356 m 5 Y s 822 359
 m24 836 184 m 70 Y s 836 265 m 28 Y s 829 260 m 1 X s 841 260 m 2 X s 833 184 m 6 X s 833 293 m 6 X s 829 257 m 6 Y s 843 257 m 6 Y s 836 260 m24 850 295 m 27 Y s 850 333 m 15 Y s 843 327 m 1 X s 855 327 m 1 X s 847 295 m 5 X s 847 348 m 5 X s 843
 324 m 6 Y s 856 324 m 6 Y s 850 327 m24 863 318 m 21 Y s 863 351 m 13 Y s 856 345 m 2 X s 869 345 m 1 X s 861 318 m 5 X s 861 364 m 5 X s 856 342 m 6 Y s 870 342 m 6 Y s 863 345 m24 877 295 m 27 Y s 877 333 m 15 Y s 870 327 m 1 X s 883 327 m 1 X s
 874 295 m 6 X s 874 348 m 6 X s 870 324 m 6 Y s 884 324 m 6 Y s 877 327 m24 891 184 m 70 Y s 891 265 m 28 Y s 884 260 m 1 X s 897 260 m 1 X s 888 184 m 6 X s 888 293 m 6 X s 884 257 m 6 Y s 898 257 m 6 Y s 891 260 m24 905 295 m 27 Y s 905 333 m 15 Y
 s 898 327 m 1 X s 910 327 m 2 X s 902 295 m 6 X s 902 348 m 6 X s 898 324 m 6 Y s 912 324 m 6 Y s 905 327 m24 919 308 m 23 Y s 919 342 m 14 Y s 912 337 m 1 X s 924 337 m 1 X s 916 308 m 5 X s 916 356 m 5 X s 912 334 m 6 Y s 925 334 m 6 Y s 919 337
 m24 932 360 m 14 Y s 932 385 m 9 Y s 925 379 m 2 X s 938 379 m 1 X s 929 360 m 6 X s 929 394 m 6 X s 925 376 m 6 Y s 939 376 m 6 Y s 932 379 m24 946 260 m 37 Y s 946 308 m 19 Y s 939 302 m 1 X s 952 302 m 1 X s 943 260 m 6 X s 943 327 m 6 X s 939
 299 m 6 Y s 953 299 m 6 Y s 946 302 m24 960 295 m 27 Y s 960 333 m 15 Y s 953 327 m 1 X s 966 327 m 1 X s 957 295 m 6 X s 957 348 m 6 X s 953 324 m 6 Y s 967 324 m 6 Y s 960 327 m24 974 327 m 19 Y s 974 358 m 12 Y s 967 352 m 1 X s 979 352 m 2 X s
 971 327 m 6 X s 971 370 m 6 X s 967 349 m 6 Y s 981 349 m 6 Y s 974 352 m24 0 0 1 c[ 12 12] 0 sd 6 lw 443 118 m 532 Y s 719 118 m 532 Y s black[  ] 0 sd 3 lw 1 1 1 c 272 268 186 654 bf black
 gsave  1088 1072 23 11 C 252.599 874.164 t 0 r /Helvetica findfont 39.7652 sf 0 0 m (OC data: 18357) show NC gr  220 889 m20
 gsave  1088 1072 23 11 C 252.599 807.466 t 0 r /Helvetica findfont 39.7652 sf 0 0 m (SC data: 679) show NC gr  220 822 m24
 gsave  1088 1072 23 11 C 252.599 740.768 t 0 r /Helvetica findfont 39.7652 sf 0 0 m (OC MC: 38701) show NC gr  1 0 0 c 220 755 m20 black
 gsave  1088 1072 23 11 C 252.599 674.071 t 0 r /Helvetica findfont 39.7652 sf 0 0 m (SC MC: 327) show NC gr  1 0 0 c 220 688 m24 black
 gsave  1088 1072 23 11 C 566.22 901.126 t 0 r /Helvetica-Bold findfont 59.6478 sf 0 0 m (pp collisions) show NC gr  1 1 1 c 1088 1072 1157 11 bf black 1 1 1 c 827 858 1287 118 bf black 827 858 1287 118 bl 1 1 1 c 827 858 1287 118 bf black 827 858
 1287 118 bl 1 0 0 c 1 1 1 c 1 0 0 c 1308 415 m 3 Y s 1308 430 m 1 Y s 1301 424 m 1 X s 1314 424 m 1 X s 1305 415 m 6 X s 1305 431 m 6 X s 1301 421 m 6 Y s 1315 421 m 6 Y s 1308 424 m20 1322 430 m 2 Y s 1322 443 m 1 Y s 1315 437 m 1 X s 1327 437 m 2
 X s 1319 430 m 5 X s 1319 444 m 5 X s 1315 435 m 5 Y s 1329 435 m 5 Y s 1322 437 m20 1335 428 m 2 Y s 1335 441 m 2 Y s 1329 436 m 1 X s 1341 436 m 1 X s 1333 428 m 5 X s 1333 443 m 5 X s 1329 433 m 6 Y s 1342 433 m 6 Y s 1335 436 m20 1349 432 m 2 Y
 s 1349 445 m 1 Y s 1342 440 m 2 X s 1355 440 m 1 X s 1346 432 m 6 X s 1346 446 m 6 X s 1342 437 m 6 Y s 1356 437 m 6 Y s 1349 440 m20 1363 428 m 2 Y s 1363 441 m 2 Y s 1356 436 m 1 X s 1369 436 m 1 X s 1360 428 m 6 X s 1360 443 m 6 X s 1356 433 m 6
 Y s 1370 433 m 6 Y s 1363 436 m20 1377 443 m 1 Y s 1377 456 m s 1370 450 m 1 X s 1382 450 m 2 X s 1374 443 m 6 X s 1374 456 m 6 X s 1370 447 m 6 Y s 1384 447 m 6 Y s 1377 450 m20 1391 450 m 1 Y s 1391 462 m s 1384 457 m 1 X s 1396 457 m 1 X s 1388
 450 m 5 X s 1388 462 m 5 X s 1384 454 m 6 Y s 1397 454 m 6 Y s 1391 457 m20 1404 432 m 2 Y s 1404 445 m 1 Y s 1397 440 m 2 X s 1410 440 m 1 X s 1402 432 m 5 X s 1402 446 m 5 X s 1397 437 m 6 Y s 1411 437 m 6 Y s 1404 440 m20 1418 447 m s 1418 459 m
 s 1411 453 m 1 X s 1424 453 m 1 X s 1415 447 m 6 X s 1415 459 m 6 X s 1411 450 m 6 Y s 1425 450 m 6 Y s 1418 453 m20 1432 447 m 1 Y s 1432 459 m 1 Y s 1425 454 m 1 X s 1438 454 m 1 X s 1429 447 m 6 X s 1429 460 m 6 X s 1425 451 m 6 Y s 1439 451 m 6
 Y s 1432 454 m20 1446 455 m 1 Y s 1439 461 m 1 X s 1451 461 m 2 X s 1443 455 m 6 X s 1439 458 m 6 Y s 1453 458 m 6 Y s 1446 461 m20 1460 463 m s 1453 469 m 1 X s 1465 469 m 1 X s 1457 463 m 5 X s 1453 466 m 5 Y s 1466 466 m 5 Y s 1460 469 m20 1473
 461 m s 1466 467 m 2 X s 1479 467 m 1 X s 1470 461 m 6 X s 1466 464 m 5 Y s 1480 464 m 5 Y s 1473 467 m20 1480 471 m 1 X s 1493 471 m 1 X s 1480 468 m 6 Y s 1494 468 m 6 Y s 1487 471 m20 1494 480 m 1 X s 1507 480 m 1 X s 1494 477 m 5 Y s 1508 477 m
 5 Y s 1501 480 m20 1508 480 m 1 X s 1520 480 m 2 X s 1508 477 m 5 Y s 1522 477 m 5 Y s 1515 480 m20 1522 496 m 1 X s 1534 496 m 1 X s 1522 493 m 6 Y s 1535 493 m 6 Y s 1528 496 m20 1535 510 m 2 X s 1548 510 m 1 X s 1535 507 m 5 Y s 1549 507 m 5 Y s
 1542 510 m20 1549 511 m 1 X s 1562 511 m 1 X s 1549 509 m 5 Y s 1563 509 m 5 Y s 1556 511 m20 1563 520 m 1 X s 1575 520 m 2 X s 1563 517 m 6 Y s 1577 517 m 6 Y s 1570 520 m20 1577 538 m 1 X s 1589 538 m 1 X s 1577 535 m 5 Y s 1590 535 m 5 Y s 1584
 538 m20 1590 551 m 2 X s 1603 551 m 1 X s 1590 548 m 6 Y s 1604 548 m 6 Y s 1597 551 m20 1604 561 m 1 X s 1617 561 m 1 X s 1604 559 m 5 Y s 1618 559 m 5 Y s 1611 561 m20 1618 574 m 1 X s 1631 574 m 1 X s 1618 571 m 6 Y s 1632 571 m 6 Y s 1625 574
 m20 1632 599 m 1 X s 1644 599 m 2 X s 1632 596 m 5 Y s 1646 596 m 5 Y s 1639 599 m20 1646 623 m 1 X s 1658 623 m 1 X s 1646 620 m 5 Y s 1659 620 m 5 Y s 1653 623 m20 1659 643 m 2 X s 1672 643 m 1 X s 1659 640 m 6 Y s 1673 640 m 6 Y s 1666 643 m20
 1673 666 m 1 X s 1686 666 m 1 X s 1673 663 m 6 Y s 1687 663 m 6 Y s 1680 666 m20 1687 684 m 1 X s 1700 684 m 1 X s 1687 681 m 6 Y s 1701 681 m 6 Y s 1694 684 m20 1701 693 m 1 X s 1713 693 m 2 X s 1701 690 m 6 Y s 1715 690 m 6 Y s 1708 693 m20 1715
 690 m 1 X s 1727 690 m 1 X s 1715 687 m 6 Y s 1728 687 m 6 Y s 1721 690 m20 1728 677 m 2 X s 1741 677 m 1 X s 1728 674 m 6 Y s 1742 674 m 6 Y s 1735 677 m20 1742 657 m 1 X s 1755 657 m 1 X s 1742 654 m 6 Y s 1756 654 m 6 Y s 1749 657 m20 1756 629 m
 1 X s 1769 629 m 1 X s 1756 626 m 6 Y s 1770 626 m 6 Y s 1763 629 m20 1770 600 m 1 X s 1782 600 m 2 X s 1770 598 m 5 Y s 1784 598 m 5 Y s 1777 600 m20 1784 571 m 1 X s 1796 571 m 1 X s 1784 568 m 6 Y s 1797 568 m 6 Y s 1790 571 m20 1797 546 m 2 X s
 1810 546 m 1 X s 1797 543 m 6 Y s 1811 543 m 6 Y s 1804 546 m20 1811 535 m 1 X s 1824 535 m 1 X s 1811 532 m 6 Y s 1825 532 m 6 Y s 1818 535 m20 1825 516 m 1 X s 1837 516 m 2 X s 1825 513 m 6 Y s 1839 513 m 6 Y s 1832 516 m20 1839 500 m 1 X s 1851
 500 m 1 X s 1839 497 m 6 Y s 1852 497 m 6 Y s 1846 500 m20 1852 482 m 2 X s 1865 482 m 1 X s 1852 479 m 5 Y s 1866 479 m 5 Y s 1859 482 m20 1873 446 m 1 Y s 1873 458 m s 1866 452 m 1 X s 1879 452 m 1 X s 1870 446 m 6 X s 1870 458 m 6 X s 1866 450 m
 5 Y s 1880 450 m 5 Y s 1873 452 m20 1887 462 m s 1880 468 m 1 X s 1893 468 m 1 X s 1884 462 m 6 X s 1880 465 m 5 Y s 1894 465 m 5 Y s 1887 468 m20 1901 437 m 2 Y s 1901 450 m 1 Y s 1894 444 m 1 X s 1906 444 m 2 X s 1898 437 m 6 X s 1898 451 m 6 X s
 1894 441 m 6 Y s 1908 441 m 6 Y s 1901 444 m20 1914 433 m 2 Y s 1914 446 m 1 Y s 1908 441 m 1 X s 1920 441 m 1 X s 1912 433 m 5 X s 1912 447 m 5 X s 1908 438 m 5 Y s 1921 438 m 5 Y s 1914 441 m20 1928 439 m 1 Y s 1928 451 m 1 Y s 1921 446 m 2 X s
 1934 446 m 1 X s 1925 439 m 6 X s 1925 452 m 6 X s 1921 443 m 6 Y s 1935 443 m 6 Y s 1928 446 m20 1942 417 m 2 Y s 1942 431 m 1 Y s 1935 425 m 1 X s 1948 425 m 1 X s 1939 417 m 6 X s 1939 432 m 6 X s 1935 422 m 6 Y s 1949 422 m 6 Y s 1942 425 m20
 1956 430 m 2 Y s 1956 443 m 1 Y s 1949 437 m 1 X s 1962 437 m 1 X s 1953 430 m 6 X s 1953 444 m 6 X s 1949 435 m 5 Y s 1963 435 m 5 Y s 1956 437 m20 1970 407 m 4 Y s 1970 422 m 2 Y s 1963 416 m 1 X s 1975 416 m 2 X s 1967 407 m 5 X s 1967 424 m 5 X
 s 1963 414 m 5 Y s 1977 414 m 5 Y s 1970 416 m20 1983 398 m 4 Y s 1983 414 m 2 Y s 1977 408 m 1 X s 1989 408 m 1 X s 1981 398 m 5 X s 1981 416 m 5 X s 1977 405 m 6 Y s 1990 405 m 6 Y s 1983 408 m20 1997 400 m 4 Y s 1997 415 m 2 Y s 1990 409 m 2 X s
 2003 409 m 1 X s 1994 400 m 6 X s 1994 417 m 6 X s 1990 406 m 6 Y s 2004 406 m 6 Y s 1997 409 m20 2011 387 m 5 Y s 2011 404 m 3 Y s 2004 398 m 1 X s 2017 398 m 1 X s 2008 387 m 6 X s 2008 407 m 6 X s 2004 395 m 6 Y s 2018 395 m 6 Y s 2011 398 m20
 2025 386 m 5 Y s 2025 402 m 4 Y s 2018 396 m 1 X s 2030 396 m 2 X s 2022 386 m 6 X s 2022 406 m 6 X s 2018 394 m 5 Y s 2032 394 m 5 Y s 2025 396 m20 2039 372 m 7 Y s 2039 390 m 4 Y s 2032 384 m 1 X s 2044 384 m 1 X s 2036 372 m 5 X s 2036 394 m 5 X
 s 2032 381 m 6 Y s 2045 381 m 6 Y s 2039 384 m20 2052 366 m 7 Y s 2052 384 m 5 Y s 2045 378 m 2 X s 2058 378 m 1 X s 2050 366 m 5 X s 2050 389 m 5 X s 2045 375 m 6 Y s 2059 375 m 6 Y s 2052 378 m20 2066 391 m 4 Y s 2066 407 m 3 Y s 2059 401 m 1 X s
 2072 401 m 1 X s 2063 391 m 6 X s 2063 410 m 6 X s 2059 398 m 6 Y s 2073 398 m 6 Y s 2066 401 m20 2080 374 m 6 Y s 2080 392 m 4 Y s 2073 386 m 1 X s 2086 386 m 1 X s 2077 374 m 6 X s 2077 396 m 6 X s 2073 383 m 6 Y s 2087 383 m 6 Y s 2080 386 m20
 2094 340 m 10 Y s 2094 361 m 7 Y s 2087 355 m 1 X s 2099 355 m 2 X s 2091 340 m 6 X s 2091 368 m 6 X s 2087 353 m 5 Y s 2101 353 m 5 Y s 2094 355 m20 2108 363 m 7 Y s 2108 382 m 5 Y s 2101 376 m 1 X s 2113 376 m 1 X s 2105 363 m 5 X s 2105 387 m 5 X
 s 2101 373 m 6 Y s 2114 373 m 6 Y s 2108 376 m20 black 1287 118 m 827 X s 1287 143 m -25 Y s 1315 130 m -12 Y s 1342 130 m -12 Y s 1370 130 m -12 Y s 1397 130 m -12 Y s 1425 143 m -25 Y s 1453 130 m -12 Y s 1480 130 m -12 Y s 1508 130 m -12 Y s 1535
 130 m -12 Y s 1563 143 m -25 Y s 1590 130 m -12 Y s 1618 130 m -12 Y s 1646 130 m -12 Y s 1673 130 m -12 Y s 1701 143 m -25 Y s 1728 130 m -12 Y s 1756 130 m -12 Y s 1784 130 m -12 Y s 1811 130 m -12 Y s 1839 143 m -25 Y s 1866 130 m -12 Y s 1894
 130 m -12 Y s 1921 130 m -12 Y s 1949 130 m -12 Y s 1977 143 m -25 Y s 2004 130 m -12 Y s 2032 130 m -12 Y s 2059 130 m -12 Y s 2087 130 m -12 Y s 2114 143 m -25 Y s
 gsave  1088 1072 1157 11 C 1267.25 83.7267 t 0 r /Helvetica findfont 35.5047 sf 0 0 m (60) show NC gr 
 gsave  1088 1072 1157 11 C 1404.91 83.7267 t 0 r /Helvetica findfont 35.5047 sf 0 0 m (70) show NC gr 
 gsave  1088 1072 1157 11 C 1542.56 83.7267 t 0 r /Helvetica findfont 35.5047 sf 0 0 m (80) show NC gr 
 gsave  1088 1072 1157 11 C 1680.21 83.7267 t 0 r /Helvetica findfont 35.5047 sf 0 0 m (90) show NC gr 
 gsave  1088 1072 1157 11 C 1807.93 83.7267 t 0 r /Helvetica findfont 35.5047 sf 0 0 m (100) show NC gr 
 gsave  1088 1072 1157 11 C 1945.58 83.7267 t 0 r /Helvetica findfont 35.5047 sf 0 0 m (110) show NC gr 
 gsave  1088 1072 1157 11 C 2083.23 83.7267 t 0 r /Helvetica findfont 35.5047 sf 0 0 m (120) show NC gr 
 gsave  1088 1072 1157 11 C 1986.74 32.6392 t 0 r /Helvetica findfont 45.446 sf 0 0 m ( [GeV]) show NC gr 
 gsave  1088 1072 1157 11 C 1969.71 24.1246 t 0 r /Symbol findfont 29.8239 sf 0 0 m (m) show NC gr 
 gsave  1088 1072 1157 11 C 1952.68 24.1246 t 0 r /Symbol findfont 29.8239 sf 0 0 m (m) show NC gr 
 gsave  1088 1072 1157 11 C 1917.2 32.6392 t 0 r /Helvetica findfont 45.446 sf 0 0 m (M) show NC gr  1287 118 m 858 Y s 1300 118 m -13 X s 1300 143 m -13 X s 1300 161 m -13 X s 1300 174 m -13 X s 1300 186 m -13 X s 1300 195 m -13 X s 1300 203 m -13 X
 s 1300 211 m -13 X s 1313 217 m -26 X s
 gsave  1088 1072 1157 11 C 1265.83 204.35 t 0 r /Helvetica findfont 32.6643 sf 0 0 m (1) show NC gr  1300 260 m -13 X s 1300 285 m -13 X s 1300 302 m -13 X s 1300 316 m -13 X s 1300 327 m -13 X s 1300 337 m -13 X s 1300 345 m -13 X s 1300 352 m -13
 X s 1313 359 m -26 X s
 gsave  1088 1072 1157 11 C 1243.13 346.26 t 0 r /Helvetica findfont 32.6643 sf 0 0 m (10) show NC gr  1300 401 m -13 X s 1300 426 m -13 X s 1300 444 m -13 X s 1300 458 m -13 X s 1300 469 m -13 X s 1300 478 m -13 X s 1300 486 m -13 X s 1300 494 m -13
 X s 1313 500 m -26 X s
 gsave  1088 1072 1157 11 C 1265.83 499.522 t 0 r /Helvetica findfont 22.723 sf 0 0 m (2) show NC gr 
 gsave  1088 1072 1157 11 C 1230.36 485.331 t 0 r /Helvetica findfont 32.6643 sf 0 0 m (10) show NC gr  1300 543 m -13 X s 1300 568 m -13 X s 1300 585 m -13 X s 1300 599 m -13 X s 1300 610 m -13 X s 1300 620 m -13 X s 1300 628 m -13 X s 1300 635 m
 -13 X s 1313 642 m -26 X s
 gsave  1088 1072 1157 11 C 1265.83 642.851 t 0 r /Helvetica findfont 22.723 sf 0 0 m (3) show NC gr 
 gsave  1088 1072 1157 11 C 1230.36 627.241 t 0 r /Helvetica findfont 32.6643 sf 0 0 m (10) show NC gr  1300 684 m -13 X s 1300 709 m -13 X s 1300 727 m -13 X s 1300 741 m -13 X s 1300 752 m -13 X s 1300 761 m -13 X s 1300 770 m -13 X s 1300 777 m
 -13 X s 1313 783 m -26 X s
 gsave  1088 1072 1157 11 C 1265.83 781.922 t 0 r /Helvetica findfont 22.723 sf 0 0 m (4) show NC gr 
 gsave  1088 1072 1157 11 C 1230.36 767.731 t 0 r /Helvetica findfont 32.6643 sf 0 0 m (10) show NC gr  1300 826 m -13 X s 1300 851 m -13 X s 1300 868 m -13 X s 1300 882 m -13 X s 1300 893 m -13 X s 1300 903 m -13 X s 1300 911 m -13 X s 1300 918 m
 -13 X s 1313 925 m -26 X s
 gsave  1088 1072 1157 11 C 1265.83 925.251 t 0 r /Helvetica findfont 22.723 sf 0 0 m (5) show NC gr 
 gsave  1088 1072 1157 11 C 1230.36 909.641 t 0 r /Helvetica findfont 32.6643 sf 0 0 m (10) show NC gr  1300 967 m -13 X s
 gsave  1088 1072 1157 11 C 1203.39 557.705 t 90 r /Helvetica findfont 45.446 sf 0 0 m (Entries / NormFactor) show NC gr  1 0 0 c 1 1 1 c 1 0 0 c 1308 387 m 17 Y s 1308 415 m 11 Y s 1301 410 m 1 X s 1314 410 m 1 X s 1305 387 m 6 X s 1305 426 m 6 X s
 1301 407 m 5 Y s 1315 407 m 5 Y s 1308 410 m24 1322 353 m 23 Y s 1322 387 m 14 Y s 1315 382 m 1 X s 1327 382 m 2 X s 1319 353 m 5 X s 1319 401 m 5 X s 1315 379 m 6 Y s 1329 379 m 6 Y s 1322 382 m24 1335 394 m 15 Y s 1335 421 m 9 Y s 1329 415 m 1 X s
 1341 415 m 1 X s 1333 394 m 5 X s 1333 430 m 5 X s 1329 412 m 6 Y s 1342 412 m 6 Y s 1335 415 m24 1349 387 m 17 Y s 1349 415 m 11 Y s 1342 410 m 2 X s 1355 410 m 1 X s 1346 387 m 6 X s 1346 426 m 6 X s 1342 407 m 5 Y s 1356 407 m 5 Y s 1349 410 m24
 1363 340 m 27 Y s 1363 378 m 15 Y s 1356 372 m 1 X s 1369 372 m 1 X s 1360 340 m 6 X s 1360 393 m 6 X s 1356 369 m 6 Y s 1370 369 m 6 Y s 1363 372 m24 1377 387 m 17 Y s 1377 415 m 11 Y s 1370 410 m 1 X s 1382 410 m 2 X s 1374 387 m 6 X s 1374 426 m
 6 X s 1370 407 m 5 Y s 1384 407 m 5 Y s 1377 410 m24 1391 415 m 12 Y s 1391 438 m 8 Y s 1384 433 m 1 X s 1396 433 m 1 X s 1388 415 m 5 X s 1388 446 m 5 X s 1384 430 m 5 Y s 1397 430 m 5 Y s 1391 433 m24 1404 353 m 23 Y s 1404 387 m 14 Y s 1397 382 m
 2 X s 1410 382 m 1 X s 1402 353 m 5 X s 1402 401 m 5 X s 1397 379 m 6 Y s 1411 379 m 6 Y s 1404 382 m24 1418 394 m 15 Y s 1418 421 m 9 Y s 1411 415 m 1 X s 1424 415 m 1 X s 1415 394 m 6 X s 1415 430 m 6 X s 1411 412 m 6 Y s 1425 412 m 6 Y s 1418 415
 m24 1432 387 m 17 Y s 1432 415 m 11 Y s 1425 410 m 1 X s 1438 410 m 1 X s 1429 387 m 6 X s 1429 426 m 6 X s 1425 407 m 5 Y s 1439 407 m 5 Y s 1432 410 m24 1446 380 m 18 Y s 1446 409 m 12 Y s 1439 404 m 1 X s 1451 404 m 2 X s 1443 380 m 6 X s 1443
 421 m 6 X s 1439 401 m 5 Y s 1453 401 m 5 Y s 1446 404 m24 1460 305 m 37 Y s 1460 353 m 19 Y s 1453 347 m 1 X s 1465 347 m 1 X s 1457 305 m 5 X s 1457 372 m 5 X s 1453 344 m 6 Y s 1466 344 m 6 Y s 1460 347 m24 1473 340 m 27 Y s 1473 378 m 15 Y s
 1466 372 m 2 X s 1479 372 m 1 X s 1470 340 m 6 X s 1470 393 m 6 X s 1466 369 m 6 Y s 1480 369 m 6 Y s 1473 372 m24 1487 394 m 15 Y s 1487 421 m 9 Y s 1480 415 m 1 X s 1493 415 m 1 X s 1484 394 m 6 X s 1484 430 m 6 X s 1480 412 m 6 Y s 1494 412 m 6 Y
 s 1487 415 m24 1501 372 m 19 Y s 1501 403 m 12 Y s 1494 397 m 1 X s 1507 397 m 1 X s 1498 372 m 6 X s 1498 415 m 6 X s 1494 394 m 6 Y s 1508 394 m 6 Y s 1501 397 m24 1515 372 m 19 Y s 1515 403 m 12 Y s 1508 397 m 1 X s 1520 397 m 2 X s 1512 372 m 5
 X s 1512 415 m 5 X s 1508 394 m 6 Y s 1522 394 m 6 Y s 1515 397 m24 1528 305 m 37 Y s 1528 353 m 19 Y s 1522 347 m 1 X s 1534 347 m 1 X s 1526 305 m 5 X s 1526 372 m 5 X s 1522 344 m 6 Y s 1535 344 m 6 Y s 1528 347 m24 1542 363 m 21 Y s 1542 396 m
 13 Y s 1535 390 m 2 X s 1548 390 m 1 X s 1539 363 m 6 X s 1539 409 m 6 X s 1535 387 m 6 Y s 1549 387 m 6 Y s 1542 390 m24 1556 325 m 30 Y s 1556 367 m 17 Y s 1549 361 m 1 X s 1562 361 m 1 X s 1553 325 m 6 X s 1553 384 m 6 X s 1549 358 m 6 Y s 1563
 358 m 6 Y s 1556 361 m24 1570 229 m 70 Y s 1570 310 m 28 Y s 1563 305 m 1 X s 1575 305 m 2 X s 1567 229 m 6 X s 1567 338 m 6 X s 1563 302 m 6 Y s 1577 302 m 6 Y s 1570 305 m24 1584 380 m 18 Y s 1584 409 m 12 Y s 1577 404 m 1 X s 1589 404 m 1 X s
 1581 380 m 5 X s 1581 421 m 5 X s 1577 401 m 5 Y s 1590 401 m 5 Y s 1584 404 m24 1597 277 m 47 Y s 1597 335 m 23 Y s 1590 330 m 2 X s 1603 330 m 1 X s 1595 277 m 5 X s 1595 358 m 5 X s 1590 327 m 5 Y s 1604 327 m 5 Y s 1597 330 m24 1611 363 m 21 Y s
 1611 396 m 13 Y s 1604 390 m 1 X s 1617 390 m 1 X s 1608 363 m 6 X s 1608 409 m 6 X s 1604 387 m 6 Y s 1618 387 m 6 Y s 1611 390 m24 1625 353 m 23 Y s 1625 387 m 14 Y s 1618 382 m 1 X s 1631 382 m 1 X s 1622 353 m 6 X s 1622 401 m 6 X s 1618 379 m 6
 Y s 1632 379 m 6 Y s 1625 382 m24 1639 380 m 18 Y s 1639 409 m 12 Y s 1632 404 m 1 X s 1644 404 m 2 X s 1636 380 m 6 X s 1636 421 m 6 X s 1632 401 m 5 Y s 1646 401 m 5 Y s 1639 404 m24 1666 305 m 37 Y s 1666 353 m 19 Y s 1659 347 m 2 X s 1672 347 m
 1 X s 1663 305 m 6 X s 1663 372 m 6 X s 1659 344 m 6 Y s 1673 344 m 6 Y s 1666 347 m24 1680 229 m 70 Y s 1680 310 m 28 Y s 1673 305 m 1 X s 1686 305 m 1 X s 1677 229 m 6 X s 1677 338 m 6 X s 1673 302 m 6 Y s 1687 302 m 6 Y s 1680 305 m24 1694 340 m
 27 Y s 1694 378 m 15 Y s 1687 372 m 1 X s 1700 372 m 1 X s 1691 340 m 6 X s 1691 393 m 6 X s 1687 369 m 6 Y s 1701 369 m 6 Y s 1694 372 m24 1708 229 m 70 Y s 1708 310 m 28 Y s 1701 305 m 1 X s 1713 305 m 2 X s 1705 229 m 6 X s 1705 338 m 6 X s 1701
 302 m 6 Y s 1715 302 m 6 Y s 1708 305 m24 1721 325 m 30 Y s 1721 367 m 17 Y s 1715 361 m 1 X s 1727 361 m 1 X s 1719 325 m 5 X s 1719 384 m 5 X s 1715 358 m 6 Y s 1728 358 m 6 Y s 1721 361 m24 1735 305 m 37 Y s 1735 353 m 19 Y s 1728 347 m 2 X s
 1741 347 m 1 X s 1732 305 m 6 X s 1732 372 m 6 X s 1728 344 m 6 Y s 1742 344 m 6 Y s 1735 347 m24 1749 305 m 37 Y s 1749 353 m 19 Y s 1742 347 m 1 X s 1755 347 m 1 X s 1746 305 m 6 X s 1746 372 m 6 X s 1742 344 m 6 Y s 1756 344 m 6 Y s 1749 347 m24
 1763 325 m 30 Y s 1763 367 m 17 Y s 1756 361 m 1 X s 1769 361 m 1 X s 1760 325 m 6 X s 1760 384 m 6 X s 1756 358 m 6 Y s 1770 358 m 6 Y s 1763 361 m24 1777 325 m 30 Y s 1777 367 m 17 Y s 1770 361 m 1 X s 1782 361 m 2 X s 1774 325 m 5 X s 1774 384 m
 5 X s 1770 358 m 6 Y s 1784 358 m 6 Y s 1777 361 m24 1790 305 m 37 Y s 1790 353 m 19 Y s 1784 347 m 1 X s 1796 347 m 1 X s 1788 305 m 5 X s 1788 372 m 5 X s 1784 344 m 6 Y s 1797 344 m 6 Y s 1790 347 m24 1804 277 m 47 Y s 1804 335 m 23 Y s 1797 330
 m 2 X s 1810 330 m 1 X s 1801 277 m 6 X s 1801 358 m 6 X s 1797 327 m 5 Y s 1811 327 m 5 Y s 1804 330 m24 1818 277 m 47 Y s 1818 335 m 23 Y s 1811 330 m 1 X s 1824 330 m 1 X s 1815 277 m 6 X s 1815 358 m 6 X s 1811 327 m 5 Y s 1825 327 m 5 Y s 1818
 330 m24 1832 229 m 70 Y s 1832 310 m 28 Y s 1825 305 m 1 X s 1837 305 m 2 X s 1829 229 m 6 X s 1829 338 m 6 X s 1825 302 m 6 Y s 1839 302 m 6 Y s 1832 305 m24 1846 305 m 37 Y s 1846 353 m 19 Y s 1839 347 m 1 X s 1851 347 m 1 X s 1843 305 m 5 X s
 1843 372 m 5 X s 1839 344 m 6 Y s 1852 344 m 6 Y s 1846 347 m24 1859 305 m 37 Y s 1859 353 m 19 Y s 1852 347 m 2 X s 1865 347 m 1 X s 1857 305 m 5 X s 1857 372 m 5 X s 1852 344 m 6 Y s 1866 344 m 6 Y s 1859 347 m24 1873 229 m 70 Y s 1873 310 m 28 Y
 s 1866 305 m 1 X s 1879 305 m 1 X s 1870 229 m 6 X s 1870 338 m 6 X s 1866 302 m 6 Y s 1880 302 m 6 Y s 1873 305 m24 1887 118 m 138 Y s 1887 268 m 37 Y s 1880 262 m 1 X s 1893 262 m 1 X s 1884 118 m 6 X s 1884 305 m 6 X s 1880 259 m 6 Y s 1894 259 m
 6 Y s 1887 262 m24 1901 340 m 27 Y s 1901 378 m 15 Y s 1894 372 m 1 X s 1906 372 m 2 X s 1898 340 m 6 X s 1898 393 m 6 X s 1894 369 m 6 Y s 1908 369 m 6 Y s 1901 372 m24 1914 305 m 37 Y s 1914 353 m 19 Y s 1908 347 m 1 X s 1920 347 m 1 X s 1912 305
 m 5 X s 1912 372 m 5 X s 1908 344 m 6 Y s 1921 344 m 6 Y s 1914 347 m24 1928 118 m 138 Y s 1928 268 m 37 Y s 1921 262 m 2 X s 1934 262 m 1 X s 1925 118 m 6 X s 1925 305 m 6 X s 1921 259 m 6 Y s 1935 259 m 6 Y s 1928 262 m24 1942 340 m 27 Y s 1942
 378 m 15 Y s 1935 372 m 1 X s 1948 372 m 1 X s 1939 340 m 6 X s 1939 393 m 6 X s 1935 369 m 6 Y s 1949 369 m 6 Y s 1942 372 m24 1956 229 m 70 Y s 1956 310 m 28 Y s 1949 305 m 1 X s 1962 305 m 1 X s 1953 229 m 6 X s 1953 338 m 6 X s 1949 302 m 6 Y s
 1963 302 m 6 Y s 1956 305 m24 1970 229 m 70 Y s 1970 310 m 28 Y s 1963 305 m 1 X s 1975 305 m 2 X s 1967 229 m 5 X s 1967 338 m 5 X s 1963 302 m 6 Y s 1977 302 m 6 Y s 1970 305 m24 1983 277 m 47 Y s 1983 335 m 23 Y s 1977 330 m 1 X s 1989 330 m 1 X
 s 1981 277 m 5 X s 1981 358 m 5 X s 1977 327 m 5 Y s 1990 327 m 5 Y s 1983 330 m24 1997 305 m 37 Y s 1997 353 m 19 Y s 1990 347 m 2 X s 2003 347 m 1 X s 1994 305 m 6 X s 1994 372 m 6 X s 1990 344 m 6 Y s 2004 344 m 6 Y s 1997 347 m24 2011 277 m 47 Y
 s 2011 335 m 23 Y s 2004 330 m 1 X s 2017 330 m 1 X s 2008 277 m 6 X s 2008 358 m 6 X s 2004 327 m 5 Y s 2018 327 m 5 Y s 2011 330 m24 2039 305 m 37 Y s 2039 353 m 19 Y s 2032 347 m 1 X s 2044 347 m 1 X s 2036 305 m 5 X s 2036 372 m 5 X s 2032 344 m
 6 Y s 2045 344 m 6 Y s 2039 347 m24 2052 277 m 47 Y s 2052 335 m 23 Y s 2045 330 m 2 X s 2058 330 m 1 X s 2050 277 m 5 X s 2050 358 m 5 X s 2045 327 m 5 Y s 2059 327 m 5 Y s 2052 330 m24 2066 325 m 30 Y s 2066 367 m 17 Y s 2059 361 m 1 X s 2072 361
 m 1 X s 2063 325 m 6 X s 2063 384 m 6 X s 2059 358 m 6 Y s 2073 358 m 6 Y s 2066 361 m24 2080 229 m 70 Y s 2080 310 m 28 Y s 2073 305 m 1 X s 2086 305 m 1 X s 2077 229 m 6 X s 2077 338 m 6 X s 2073 302 m 6 Y s 2087 302 m 6 Y s 2080 305 m24 2094 229
 m 70 Y s 2094 310 m 28 Y s 2087 305 m 1 X s 2099 305 m 2 X s 2091 229 m 6 X s 2091 338 m 6 X s 2087 302 m 6 Y s 2101 302 m 6 Y s 2094 305 m24 2108 340 m 27 Y s 2108 378 m 15 Y s 2101 372 m 1 X s 2113 372 m 1 X s 2105 340 m 5 X s 2105 393 m 5 X s
 2101 369 m 6 Y s 2114 369 m 6 Y s 2108 372 m24 black 1 1 1 c black 1308 444 m 4 Y s 1308 459 m 3 Y s 1301 454 m 1 X s 1314 454 m 1 X s 1305 444 m 6 X s 1305 462 m 6 X s 1301 451 m 6 Y s 1315 451 m 6 Y s 1308 454 m20 1322 447 m 4 Y s 1322 462 m 3 Y s
 1315 456 m 1 X s 1327 456 m 2 X s 1319 447 m 5 X s 1319 465 m 5 X s 1315 453 m 6 Y s 1329 453 m 6 Y s 1322 456 m20 1335 466 m 2 Y s 1335 479 m 2 Y s 1329 474 m 1 X s 1341 474 m 1 X s 1333 466 m 5 X s 1333 481 m 5 X s 1329 471 m 6 Y s 1342 471 m 6 Y
 s 1335 474 m20 1349 457 m 3 Y s 1349 471 m 2 Y s 1342 466 m 2 X s 1355 466 m 1 X s 1346 457 m 6 X s 1346 473 m 6 X s 1342 463 m 5 Y s 1356 463 m 5 Y s 1349 466 m20 1363 451 m 3 Y s 1363 466 m 2 Y s 1356 460 m 1 X s 1369 460 m 1 X s 1360 451 m 6 X s
 1360 468 m 6 X s 1356 457 m 6 Y s 1370 457 m 6 Y s 1363 460 m20 1377 465 m 2 Y s 1377 478 m 2 Y s 1370 473 m 1 X s 1382 473 m 2 X s 1374 465 m 6 X s 1374 480 m 6 X s 1370 470 m 6 Y s 1384 470 m 6 Y s 1377 473 m20 1391 462 m 3 Y s 1391 476 m 2 Y s
 1384 471 m 1 X s 1396 471 m 1 X s 1388 462 m 5 X s 1388 478 m 5 X s 1384 468 m 6 Y s 1397 468 m 6 Y s 1391 471 m20 1404 459 m 3 Y s 1404 473 m 2 Y s 1397 468 m 2 X s 1410 468 m 1 X s 1402 459 m 5 X s 1402 475 m 5 X s 1397 465 m 6 Y s 1411 465 m 6 Y
 s 1404 468 m20 1418 472 m 2 Y s 1418 486 m 1 Y s 1411 480 m 1 X s 1424 480 m 1 X s 1415 472 m 6 X s 1415 487 m 6 X s 1411 477 m 6 Y s 1425 477 m 6 Y s 1418 480 m20 1432 444 m 4 Y s 1432 459 m 3 Y s 1425 454 m 1 X s 1438 454 m 1 X s 1429 444 m 6 X s
 1429 462 m 6 X s 1425 451 m 6 Y s 1439 451 m 6 Y s 1432 454 m20 1446 474 m 2 Y s 1446 487 m 1 Y s 1439 482 m 1 X s 1451 482 m 2 X s 1443 474 m 6 X s 1443 488 m 6 X s 1439 479 m 5 Y s 1453 479 m 5 Y s 1446 482 m20 1460 479 m 2 Y s 1460 492 m 1 Y s
 1453 486 m 1 X s 1465 486 m 1 X s 1457 479 m 5 X s 1457 493 m 5 X s 1453 484 m 5 Y s 1466 484 m 5 Y s 1460 486 m20 1473 496 m s 1473 508 m s 1466 502 m 2 X s 1479 502 m 1 X s 1470 496 m 6 X s 1470 508 m 6 X s 1466 499 m 6 Y s 1480 499 m 6 Y s 1473
 502 m20 1487 490 m 1 Y s 1487 503 m s 1480 497 m 1 X s 1493 497 m 1 X s 1484 490 m 6 X s 1484 503 m 6 X s 1480 494 m 6 Y s 1494 494 m 6 Y s 1487 497 m20 1501 480 m 2 Y s 1501 493 m 1 Y s 1494 487 m 1 X s 1507 487 m 1 X s 1498 480 m 6 X s 1498 494 m
 6 X s 1494 484 m 6 Y s 1508 484 m 6 Y s 1501 487 m20 1515 485 m 1 Y s 1515 497 m 1 Y s 1508 492 m 1 X s 1520 492 m 2 X s 1512 485 m 5 X s 1512 498 m 5 X s 1508 489 m 5 Y s 1522 489 m 5 Y s 1515 492 m20 1528 505 m 1 Y s 1522 511 m 1 X s 1534 511 m 1
 X s 1526 505 m 5 X s 1522 509 m 5 Y s 1535 509 m 5 Y s 1528 511 m20 1542 509 m s 1535 515 m 2 X s 1548 515 m 1 X s 1539 509 m 6 X s 1535 512 m 6 Y s 1549 512 m 6 Y s 1542 515 m20 1549 518 m 1 X s 1562 518 m 1 X s 1549 515 m 6 Y s 1563 515 m 6 Y s
 1556 518 m20 1563 523 m 1 X s 1575 523 m 2 X s 1563 520 m 5 Y s 1577 520 m 5 Y s 1570 523 m20 1577 536 m 1 X s 1589 536 m 1 X s 1577 533 m 6 Y s 1590 533 m 6 Y s 1584 536 m20 1590 544 m 2 X s 1603 544 m 1 X s 1590 541 m 6 Y s 1604 541 m 6 Y s 1597
 544 m20 1604 570 m 1 X s 1617 570 m 1 X s 1604 567 m 6 Y s 1618 567 m 6 Y s 1611 570 m20 1618 576 m 1 X s 1631 576 m 1 X s 1618 573 m 6 Y s 1632 573 m 6 Y s 1625 576 m20 1632 602 m 1 X s 1644 602 m 2 X s 1632 599 m 6 Y s 1646 599 m 6 Y s 1639 602
 m20 1646 617 m 1 X s 1658 617 m 1 X s 1646 615 m 5 Y s 1659 615 m 5 Y s 1653 617 m20 1659 644 m 2 X s 1672 644 m 1 X s 1659 641 m 6 Y s 1673 641 m 6 Y s 1666 644 m20 1673 660 m 1 X s 1686 660 m 1 X s 1673 658 m 5 Y s 1687 658 m 5 Y s 1680 660 m20
 1687 680 m 1 X s 1700 680 m 1 X s 1687 677 m 6 Y s 1701 677 m 6 Y s 1694 680 m20 1701 690 m 1 X s 1713 690 m 2 X s 1701 687 m 6 Y s 1715 687 m 6 Y s 1708 690 m20 1715 691 m 1 X s 1727 691 m 1 X s 1715 688 m 6 Y s 1728 688 m 6 Y s 1721 691 m20 1728
 674 m 2 X s 1741 674 m 1 X s 1728 671 m 5 Y s 1742 671 m 5 Y s 1735 674 m20 1742 651 m 1 X s 1755 651 m 1 X s 1742 648 m 6 Y s 1756 648 m 6 Y s 1749 651 m20 1756 629 m 1 X s 1769 629 m 1 X s 1756 626 m 6 Y s 1770 626 m 6 Y s 1763 629 m20 1770 598 m
 1 X s 1782 598 m 2 X s 1770 595 m 6 Y s 1784 595 m 6 Y s 1777 598 m20 1784 570 m 1 X s 1796 570 m 1 X s 1784 567 m 5 Y s 1797 567 m 5 Y s 1790 570 m20 1797 555 m 2 X s 1810 555 m 1 X s 1797 552 m 6 Y s 1811 552 m 6 Y s 1804 555 m20 1811 536 m 1 X s
 1824 536 m 1 X s 1811 533 m 6 Y s 1825 533 m 6 Y s 1818 536 m20 1825 521 m 1 X s 1837 521 m 2 X s 1825 518 m 6 Y s 1839 518 m 6 Y s 1832 521 m20 1846 494 m 1 Y s 1846 506 m 1 Y s 1839 501 m 1 X s 1851 501 m 1 X s 1843 494 m 5 X s 1843 507 m 5 X s
 1839 498 m 6 Y s 1852 498 m 6 Y s 1846 501 m20 1859 485 m 1 Y s 1859 497 m 1 Y s 1852 492 m 2 X s 1865 492 m 1 X s 1857 485 m 5 X s 1857 498 m 5 X s 1852 489 m 5 Y s 1866 489 m 5 Y s 1859 492 m20 1873 475 m 2 Y s 1873 488 m 1 Y s 1866 482 m 1 X s
 1879 482 m 1 X s 1870 475 m 6 X s 1870 489 m 6 X s 1866 480 m 5 Y s 1880 480 m 5 Y s 1873 482 m20 1887 469 m 2 Y s 1887 482 m 1 Y s 1880 476 m 1 X s 1893 476 m 1 X s 1884 469 m 6 X s 1884 483 m 6 X s 1880 474 m 5 Y s 1894 474 m 5 Y s 1887 476 m20
 1901 460 m 3 Y s 1901 474 m 2 Y s 1894 469 m 1 X s 1906 469 m 2 X s 1898 460 m 6 X s 1898 476 m 6 X s 1894 466 m 6 Y s 1908 466 m 6 Y s 1901 469 m20 1914 450 m 3 Y s 1914 464 m 3 Y s 1908 459 m 1 X s 1920 459 m 1 X s 1912 450 m 5 X s 1912 467 m 5 X
 s 1908 456 m 6 Y s 1921 456 m 6 Y s 1914 459 m20 1928 441 m 4 Y s 1928 457 m 3 Y s 1921 451 m 2 X s 1934 451 m 1 X s 1925 441 m 6 X s 1925 460 m 6 X s 1921 448 m 6 Y s 1935 448 m 6 Y s 1928 451 m20 1942 382 m 10 Y s 1942 404 m 7 Y s 1935 398 m 1 X s
 1948 398 m 1 X s 1939 382 m 6 X s 1939 411 m 6 X s 1935 395 m 6 Y s 1949 395 m 6 Y s 1942 398 m20 1956 424 m 6 Y s 1956 441 m 4 Y s 1949 436 m 1 X s 1962 436 m 1 X s 1953 424 m 6 X s 1953 445 m 6 X s 1949 433 m 5 Y s 1963 433 m 5 Y s 1956 436 m20
 1970 411 m 7 Y s 1970 430 m 5 Y s 1963 424 m 1 X s 1975 424 m 2 X s 1967 411 m 5 X s 1967 435 m 5 X s 1963 421 m 6 Y s 1977 421 m 6 Y s 1970 424 m20 1983 418 m 6 Y s 1983 436 m 4 Y s 1977 430 m 1 X s 1989 430 m 1 X s 1981 418 m 5 X s 1981 440 m 5 X
 s 1977 427 m 6 Y s 1990 427 m 6 Y s 1983 430 m20 1997 409 m 7 Y s 1997 428 m 5 Y s 1990 422 m 2 X s 2003 422 m 1 X s 1994 409 m 6 X s 1994 433 m 6 X s 1990 419 m 6 Y s 2004 419 m 6 Y s 1997 422 m20 2011 382 m 10 Y s 2011 404 m 7 Y s 2004 398 m 1 X s
 2017 398 m 1 X s 2008 382 m 6 X s 2008 411 m 6 X s 2004 395 m 6 Y s 2018 395 m 6 Y s 2011 398 m20 2025 398 m 9 Y s 2025 418 m 6 Y s 2018 412 m 1 X s 2030 412 m 2 X s 2022 398 m 6 X s 2022 424 m 6 X s 2018 410 m 5 Y s 2032 410 m 5 Y s 2025 412 m20
 2039 414 m 6 Y s 2039 432 m 4 Y s 2032 426 m 1 X s 2044 426 m 1 X s 2036 414 m 5 X s 2036 436 m 5 X s 2032 423 m 6 Y s 2045 423 m 6 Y s 2039 426 m20 2052 389 m 10 Y s 2052 410 m 6 Y s 2045 404 m 2 X s 2058 404 m 1 X s 2050 389 m 5 X s 2050 416 m 5 X
 s 2045 401 m 6 Y s 2059 401 m 6 Y s 2052 404 m20 2066 360 m 14 Y s 2066 385 m 9 Y s 2059 379 m 1 X s 2072 379 m 1 X s 2063 360 m 6 X s 2063 394 m 6 X s 2059 376 m 6 Y s 2073 376 m 6 Y s 2066 379 m20 2080 398 m 9 Y s 2080 418 m 6 Y s 2073 412 m 1 X s
 2086 412 m 1 X s 2077 398 m 6 X s 2077 424 m 6 X s 2073 410 m 5 Y s 2087 410 m 5 Y s 2080 412 m20 2094 386 m 10 Y s 2094 407 m 7 Y s 2087 401 m 1 X s 2099 401 m 2 X s 2091 386 m 6 X s 2091 414 m 6 X s 2087 398 m 6 Y s 2101 398 m 6 Y s 2094 401 m20
 2108 386 m 10 Y s 2108 407 m 7 Y s 2101 401 m 1 X s 2113 401 m 1 X s 2105 386 m 5 X s 2105 414 m 5 X s 2101 398 m 6 Y s 2114 398 m 6 Y s 2108 401 m20 1 1 1 c black 1308 426 m 6 Y s 1308 443 m 4 Y s 1301 437 m 1 X s 1314 437 m 1 X s 1305 426 m 6 X s
 1305 447 m 6 X s 1301 435 m 5 Y s 1315 435 m 5 Y s 1308 437 m24 1322 392 m 9 Y s 1322 413 m 6 Y s 1315 407 m 1 X s 1327 407 m 2 X s 1319 392 m 5 X s 1319 419 m 5 X s 1315 404 m 6 Y s 1329 404 m 6 Y s 1322 407 m24 1335 370 m 12 Y s 1335 393 m 8 Y s
 1329 388 m 1 X s 1341 388 m 1 X s 1333 370 m 5 X s 1333 401 m 5 X s 1329 385 m 5 Y s 1342 385 m 5 Y s 1335 388 m24 1349 389 m 10 Y s 1349 410 m 6 Y s 1342 404 m 2 X s 1355 404 m 1 X s 1346 389 m 6 X s 1346 416 m 6 X s 1342 401 m 6 Y s 1356 401 m 6 Y
 s 1349 404 m24 1363 370 m 12 Y s 1363 393 m 8 Y s 1356 388 m 1 X s 1369 388 m 1 X s 1360 370 m 6 X s 1360 401 m 6 X s 1356 385 m 5 Y s 1370 385 m 5 Y s 1363 388 m24 1377 382 m 10 Y s 1377 404 m 7 Y s 1370 398 m 1 X s 1382 398 m 2 X s 1374 382 m 6 X
 s 1374 411 m 6 X s 1370 395 m 6 Y s 1384 395 m 6 Y s 1377 398 m24 1391 398 m 9 Y s 1391 418 m 6 Y s 1384 412 m 1 X s 1396 412 m 1 X s 1388 398 m 5 X s 1388 424 m 5 X s 1384 410 m 5 Y s 1397 410 m 5 Y s 1391 412 m24 1404 342 m 17 Y s 1404 370 m 11 Y
 s 1397 364 m 2 X s 1410 364 m 1 X s 1402 342 m 5 X s 1402 381 m 5 X s 1397 362 m 5 Y s 1411 362 m 5 Y s 1404 364 m24 1418 349 m 15 Y s 1418 376 m 9 Y s 1411 370 m 1 X s 1424 370 m 1 X s 1415 349 m 6 X s 1415 385 m 6 X s 1411 367 m 6 Y s 1425 367 m 6
 Y s 1418 370 m24 1432 360 m 14 Y s 1432 385 m 9 Y s 1425 379 m 1 X s 1438 379 m 1 X s 1429 360 m 6 X s 1429 394 m 6 X s 1425 376 m 6 Y s 1439 376 m 6 Y s 1432 379 m24 1446 386 m 10 Y s 1446 407 m 7 Y s 1439 401 m 1 X s 1451 401 m 2 X s 1443 386 m 6
 X s 1443 414 m 6 X s 1439 398 m 6 Y s 1453 398 m 6 Y s 1446 401 m24 1460 370 m 12 Y s 1460 393 m 8 Y s 1453 388 m 1 X s 1465 388 m 1 X s 1457 370 m 5 X s 1457 401 m 5 X s 1453 385 m 5 Y s 1466 385 m 5 Y s 1460 388 m24 1473 382 m 10 Y s 1473 404 m 7
 Y s 1466 398 m 2 X s 1479 398 m 1 X s 1470 382 m 6 X s 1470 411 m 6 X s 1466 395 m 6 Y s 1480 395 m 6 Y s 1473 398 m24 1487 378 m 11 Y s 1487 400 m 8 Y s 1480 395 m 1 X s 1493 395 m 1 X s 1484 378 m 6 X s 1484 408 m 6 X s 1480 392 m 6 Y s 1494 392 m
 6 Y s 1487 395 m24 1501 349 m 15 Y s 1501 376 m 9 Y s 1494 370 m 1 X s 1507 370 m 1 X s 1498 349 m 6 X s 1498 385 m 6 X s 1494 367 m 6 Y s 1508 367 m 6 Y s 1501 370 m24 1515 370 m 12 Y s 1515 393 m 8 Y s 1508 388 m 1 X s 1520 388 m 2 X s 1512 370 m
 5 X s 1512 401 m 5 X s 1508 385 m 5 Y s 1522 385 m 5 Y s 1515 388 m24 1528 355 m 14 Y s 1528 380 m 10 Y s 1522 375 m 1 X s 1534 375 m 1 X s 1526 355 m 5 X s 1526 390 m 5 X s 1522 372 m 6 Y s 1535 372 m 6 Y s 1528 375 m24 1542 382 m 10 Y s 1542 404 m
 7 Y s 1535 398 m 2 X s 1548 398 m 1 X s 1539 382 m 6 X s 1539 411 m 6 X s 1535 395 m 6 Y s 1549 395 m 6 Y s 1542 398 m24 1556 355 m 14 Y s 1556 380 m 10 Y s 1549 375 m 1 X s 1562 375 m 1 X s 1553 355 m 6 X s 1553 390 m 6 X s 1549 372 m 6 Y s 1563
 372 m 6 Y s 1556 375 m24 1570 378 m 11 Y s 1570 400 m 8 Y s 1563 395 m 1 X s 1575 395 m 2 X s 1567 378 m 6 X s 1567 408 m 6 X s 1563 392 m 6 Y s 1577 392 m 6 Y s 1570 395 m24 1584 318 m 21 Y s 1584 351 m 13 Y s 1577 345 m 1 X s 1589 345 m 1 X s 1581
 318 m 5 X s 1581 364 m 5 X s 1577 342 m 6 Y s 1590 342 m 6 Y s 1584 345 m24 1597 349 m 15 Y s 1597 376 m 9 Y s 1590 370 m 2 X s 1603 370 m 1 X s 1595 349 m 5 X s 1595 385 m 5 X s 1590 367 m 6 Y s 1604 367 m 6 Y s 1597 370 m24 1611 378 m 11 Y s 1611
 400 m 8 Y s 1604 395 m 1 X s 1617 395 m 1 X s 1608 378 m 6 X s 1608 408 m 6 X s 1604 392 m 6 Y s 1618 392 m 6 Y s 1611 395 m24 1625 355 m 14 Y s 1625 380 m 10 Y s 1618 375 m 1 X s 1631 375 m 1 X s 1622 355 m 6 X s 1622 390 m 6 X s 1618 372 m 6 Y s
 1632 372 m 6 Y s 1625 375 m24 1639 335 m 18 Y s 1639 364 m 12 Y s 1632 359 m 1 X s 1644 359 m 2 X s 1636 335 m 6 X s 1636 376 m 6 X s 1632 356 m 5 Y s 1646 356 m 5 Y s 1639 359 m24 1653 342 m 17 Y s 1653 370 m 11 Y s 1646 364 m 1 X s 1658 364 m 1 X
 s 1650 342 m 5 X s 1650 381 m 5 X s 1646 362 m 5 Y s 1659 362 m 5 Y s 1653 364 m24 1666 308 m 23 Y s 1666 342 m 14 Y s 1659 337 m 2 X s 1672 337 m 1 X s 1663 308 m 6 X s 1663 356 m 6 X s 1659 334 m 6 Y s 1673 334 m 6 Y s 1666 337 m24 1680 308 m 23 Y
 s 1680 342 m 14 Y s 1673 337 m 1 X s 1686 337 m 1 X s 1677 308 m 6 X s 1677 356 m 6 X s 1673 334 m 6 Y s 1687 334 m 6 Y s 1680 337 m24 1694 342 m 17 Y s 1694 370 m 11 Y s 1687 364 m 1 X s 1700 364 m 1 X s 1691 342 m 6 X s 1691 381 m 6 X s 1687 362 m
 5 Y s 1701 362 m 5 Y s 1694 364 m24 1708 342 m 17 Y s 1708 370 m 11 Y s 1701 364 m 1 X s 1713 364 m 2 X s 1705 342 m 6 X s 1705 381 m 6 X s 1701 362 m 5 Y s 1715 362 m 5 Y s 1708 364 m24 1721 308 m 23 Y s 1721 342 m 14 Y s 1715 337 m 1 X s 1727 337
 m 1 X s 1719 308 m 5 X s 1719 356 m 5 X s 1715 334 m 6 Y s 1728 334 m 6 Y s 1721 337 m24 1735 335 m 18 Y s 1735 364 m 12 Y s 1728 359 m 2 X s 1741 359 m 1 X s 1732 335 m 6 X s 1732 376 m 6 X s 1728 356 m 5 Y s 1742 356 m 5 Y s 1735 359 m24 1749 335
 m 18 Y s 1749 364 m 12 Y s 1742 359 m 1 X s 1755 359 m 1 X s 1746 335 m 6 X s 1746 376 m 6 X s 1742 356 m 5 Y s 1756 356 m 5 Y s 1749 359 m24 1763 360 m 14 Y s 1763 385 m 9 Y s 1756 379 m 1 X s 1769 379 m 1 X s 1760 360 m 6 X s 1760 394 m 6 X s 1756
 376 m 6 Y s 1770 376 m 6 Y s 1763 379 m24 1777 308 m 23 Y s 1777 342 m 14 Y s 1770 337 m 1 X s 1782 337 m 2 X s 1774 308 m 5 X s 1774 356 m 5 X s 1770 334 m 6 Y s 1784 334 m 6 Y s 1777 337 m24 1790 318 m 21 Y s 1790 351 m 13 Y s 1784 345 m 1 X s
 1796 345 m 1 X s 1788 318 m 5 X s 1788 364 m 5 X s 1784 342 m 6 Y s 1797 342 m 6 Y s 1790 345 m24 1804 327 m 19 Y s 1804 358 m 12 Y s 1797 352 m 2 X s 1810 352 m 1 X s 1801 327 m 6 X s 1801 370 m 6 X s 1797 349 m 6 Y s 1811 349 m 6 Y s 1804 352 m24
 1818 280 m 30 Y s 1818 322 m 17 Y s 1811 316 m 1 X s 1824 316 m 1 X s 1815 280 m 6 X s 1815 339 m 6 X s 1811 313 m 6 Y s 1825 313 m 6 Y s 1818 316 m24 1832 318 m 21 Y s 1832 351 m 13 Y s 1825 345 m 1 X s 1837 345 m 2 X s 1829 318 m 6 X s 1829 364 m
 6 X s 1825 342 m 6 Y s 1839 342 m 6 Y s 1832 345 m24 1846 295 m 27 Y s 1846 333 m 15 Y s 1839 327 m 1 X s 1851 327 m 1 X s 1843 295 m 5 X s 1843 348 m 5 X s 1839 324 m 6 Y s 1852 324 m 6 Y s 1846 327 m24 1859 260 m 37 Y s 1859 308 m 19 Y s 1852 302
 m 2 X s 1865 302 m 1 X s 1857 260 m 5 X s 1857 327 m 5 X s 1852 299 m 6 Y s 1866 299 m 6 Y s 1859 302 m24 1873 308 m 23 Y s 1873 342 m 14 Y s 1866 337 m 1 X s 1879 337 m 1 X s 1870 308 m 6 X s 1870 356 m 6 X s 1866 334 m 6 Y s 1880 334 m 6 Y s 1873
 337 m24 1887 327 m 19 Y s 1887 358 m 12 Y s 1880 352 m 1 X s 1893 352 m 1 X s 1884 327 m 6 X s 1884 370 m 6 X s 1880 349 m 6 Y s 1894 349 m 6 Y s 1887 352 m24 1901 342 m 17 Y s 1901 370 m 11 Y s 1894 364 m 1 X s 1906 364 m 2 X s 1898 342 m 6 X s
 1898 381 m 6 X s 1894 362 m 5 Y s 1908 362 m 5 Y s 1901 364 m24 1914 184 m 70 Y s 1914 265 m 28 Y s 1908 260 m 1 X s 1920 260 m 1 X s 1912 184 m 5 X s 1912 293 m 5 X s 1908 257 m 6 Y s 1921 257 m 6 Y s 1914 260 m24 1928 318 m 21 Y s 1928 351 m 13 Y
 s 1921 345 m 2 X s 1934 345 m 1 X s 1925 318 m 6 X s 1925 364 m 6 X s 1921 342 m 6 Y s 1935 342 m 6 Y s 1928 345 m24 1942 295 m 27 Y s 1942 333 m 15 Y s 1935 327 m 1 X s 1948 327 m 1 X s 1939 295 m 6 X s 1939 348 m 6 X s 1935 324 m 6 Y s 1949 324 m
 6 Y s 1942 327 m24 1956 335 m 18 Y s 1956 364 m 12 Y s 1949 359 m 1 X s 1962 359 m 1 X s 1953 335 m 6 X s 1953 376 m 6 X s 1949 356 m 5 Y s 1963 356 m 5 Y s 1956 359 m24 1970 184 m 70 Y s 1970 265 m 28 Y s 1963 260 m 1 X s 1975 260 m 2 X s 1967 184
 m 5 X s 1967 293 m 5 X s 1963 257 m 6 Y s 1977 257 m 6 Y s 1970 260 m24 1983 295 m 27 Y s 1983 333 m 15 Y s 1977 327 m 1 X s 1989 327 m 1 X s 1981 295 m 5 X s 1981 348 m 5 X s 1977 324 m 6 Y s 1990 324 m 6 Y s 1983 327 m24 1997 318 m 21 Y s 1997 351
 m 13 Y s 1990 345 m 2 X s 2003 345 m 1 X s 1994 318 m 6 X s 1994 364 m 6 X s 1990 342 m 6 Y s 2004 342 m 6 Y s 1997 345 m24 2011 295 m 27 Y s 2011 333 m 15 Y s 2004 327 m 1 X s 2017 327 m 1 X s 2008 295 m 6 X s 2008 348 m 6 X s 2004 324 m 6 Y s 2018
 324 m 6 Y s 2011 327 m24 2025 184 m 70 Y s 2025 265 m 28 Y s 2018 260 m 1 X s 2030 260 m 2 X s 2022 184 m 6 X s 2022 293 m 6 X s 2018 257 m 6 Y s 2032 257 m 6 Y s 2025 260 m24 2039 295 m 27 Y s 2039 333 m 15 Y s 2032 327 m 1 X s 2044 327 m 1 X s
 2036 295 m 5 X s 2036 348 m 5 X s 2032 324 m 6 Y s 2045 324 m 6 Y s 2039 327 m24 2052 308 m 23 Y s 2052 342 m 14 Y s 2045 337 m 2 X s 2058 337 m 1 X s 2050 308 m 5 X s 2050 356 m 5 X s 2045 334 m 6 Y s 2059 334 m 6 Y s 2052 337 m24 2066 360 m 14 Y s
 2066 385 m 9 Y s 2059 379 m 1 X s 2072 379 m 1 X s 2063 360 m 6 X s 2063 394 m 6 X s 2059 376 m 6 Y s 2073 376 m 6 Y s 2066 379 m24 2080 260 m 37 Y s 2080 308 m 19 Y s 2073 302 m 1 X s 2086 302 m 1 X s 2077 260 m 6 X s 2077 327 m 6 X s 2073 299 m 6
 Y s 2087 299 m 6 Y s 2080 302 m24 2094 295 m 27 Y s 2094 333 m 15 Y s 2087 327 m 1 X s 2099 327 m 2 X s 2091 295 m 6 X s 2091 348 m 6 X s 2087 324 m 6 Y s 2101 324 m 6 Y s 2094 327 m24 2108 327 m 19 Y s 2108 358 m 12 Y s 2101 352 m 1 X s 2113 352 m
 1 X s 2105 327 m 5 X s 2105 370 m 5 X s 2101 349 m 6 Y s 2114 349 m 6 Y s 2108 352 m24 0 0 1 c[ 12 12] 0 sd 6 lw 1577 118 m 532 Y s 1852 118 m 532 Y s black[  ] 0 sd 3 lw 1 1 1 c 272 268 1320 654 bf black
 gsave  1088 1072 1157 11 C 1386.46 874.164 t 0 r /Helvetica findfont 39.7652 sf 0 0 m (OC data: 18357) show NC gr  1354 889 m20
 gsave  1088 1072 1157 11 C 1386.46 807.466 t 0 r /Helvetica findfont 39.7652 sf 0 0 m (SC data: 679) show NC gr  1354 822 m24
 gsave  1088 1072 1157 11 C 1386.46 740.768 t 0 r /Helvetica findfont 39.7652 sf 0 0 m (OC MC: 38701) show NC gr  1 0 0 c 1354 755 m20 black
 gsave  1088 1072 1157 11 C 1386.46 674.071 t 0 r /Helvetica findfont 39.7652 sf 0 0 m (SC MC: 327) show NC gr  1 0 0 c 1354 688 m24 black
 gsave  1088 1072 1157 11 C 1700.08 901.126 t 0 r /Helvetica-Bold findfont 59.6478 sf 0 0 m (pp collisions) show NC gr 
 gr  gr showpage
end
%%EOF
