%!PS-Adobe-2.0 EPSF-2.0
%%BoundingBox:  0 0 567 274
%%Title: /home/petr/Analysis_iwona/SFAnalysis/eps/Zmass_mumu_CaloTree_.eps: Results
%%Creator: ROOT Version 6.16/00
%%CreationDate: Thu Apr  4 16:05:21 2019
%%DocumentNeededResources: ProcSet (FontSetInit)
%%EndComments
%%BeginProlog
80 dict begin
/s {stroke} def /l {lineto} def /m {moveto} def /t {translate} def
/r {rotate} def /rl {roll}  def /R {repeat} def
/d {rlineto} def /rm {rmoveto} def /gr {grestore} def /f {eofill} def
/c {setrgbcolor} def /black {0 setgray} def /sd {setdash} def
/cl {closepath} def /sf {scalefont setfont} def /lw {setlinewidth} def
/box {m dup 0 exch d exch 0 d 0 exch neg d cl} def
/NC{systemdict begin initclip end}def/C{NC box clip newpath}def
/bl {box s} def /bf {gsave box gsave f grestore 1 lw [] 0 sd s grestore} def /Y { 0 exch d} def /X { 0 d} def 
/K {{pop pop 0 moveto} exch kshow} bind def
/ita {/ang 15 def gsave [1 0 ang dup sin exch cos div 1 0 0] concat} def 
/mp {newpath /y exch def /x exch def} def
/side {[w .77 mul w .23 mul] .385 w mul sd w 0 l currentpoint t -144 r} def
/mr {mp x y w2 0 360 arc} def /m24 {mr s} def /m20 {mr f} def
/mb {mp x y w2 add m w2 neg 0 d 0 w neg d w 0 d 0 w d cl} def
/mt {mp x y w2 add m w2 neg w neg d w 0 d cl} def
/w4 {w 4 div} def
/w6 {w 6 div} def
/w8 {w 8 div} def
/m21 {mb f} def /m25 {mb s} def /m22 {mt f} def /m26{mt s} def
/m23 {mp x y w2 sub m w2 w d w neg 0 d cl f} def
/m27 {mp x y w2 add m w3 neg w2 neg d w3 w2 neg d w3 w2 d cl s} def
/m28 {mp x w2 sub y w2 sub w3 add m w3 0 d  0 w3 neg d w3 0 d 0 w3 d w3 0 d  0 w3 d w3 neg 0 d 0 w3 d w3 neg 0 d 0 w3 neg d w3 neg 0 d cl s } def
/m29 {mp gsave x w2 sub y w2 add w3 sub m currentpoint t 4 {side} repeat cl fill gr} def
/m30 {mp gsave x w2 sub y w2 add w3 sub m currentpoint t 4 {side} repeat cl s gr} def
/m31 {mp x y w2 sub m 0 w d x w2 sub y m w 0 d x w2 sub y w2 add m w w neg d x w2 sub y w2 sub m w w d s} def
/m32 {mp x y w2 sub m w2 w d w neg 0 d cl s} def
/m33 {mp x y w2 add m w3 neg w2 neg d w3 w2 neg d w3 w2 d cl f} def
/m34 {mp x w2 sub y w2 sub w3 add m w3 0 d  0 w3 neg d w3 0 d 0 w3 d w3 0 d  0 w3 d w3 neg 0 d 0 w3 d w3 neg 0 d 0 w3 neg d w3 neg 0 d cl f } def
/m35 {mp x y w2 add m w2 neg w2 neg d w2 w2 neg d w2 w2 d w2 neg w2 d x y w2 sub m 0 w d x w2 sub y m w 0 d s} def
/m36 {mb x w2 sub y w2 add m w w neg d x w2 sub y w2 sub m w w d s} def
/m37 {mp x y m w4 neg w2 d w4 neg w2 neg d w2 0 d  w4 neg w2 neg d w2 0 d w4 neg w2 d w2 0 d w4 neg w2 d w4 neg w2 neg d cl s} def
/m38 {mp x w4 sub y w2 add m w4 neg w4 neg d 0 w2 neg d w4 w4 neg d w2 0 d w4 w4 d 0 w2 d w4 neg w4 d w2 neg 0 d x y w2 sub m 0 w d x w2 sub y m w 0 d cl s} def
/m39 {mp x y m w4 neg w2 d w4 neg w2 neg d w2 0 d  w4 neg w2 neg d w2 0 d w4 neg w2 d w2 0 d w4 neg w2 d w4 neg w2 neg d cl f} def
/m40 {mp x y m w4 w2 d w4 w4 neg d w2 neg w4 neg d w2 w4 neg d w4 neg w4 neg d w4 neg w2 d w4 neg w2 neg d w4 neg w4 d w2 w4 d w2 neg w4 d w4 w4 d w4 w2 neg d cl s} def
/m41 {mp x y m w4 w2 d w4 w4 neg d w2 neg w4 neg d w2 w4 neg d w4 neg w4 neg d w4 neg w2 d w4 neg w2 neg d w4 neg w4 d w2 w4 d w2 neg w4 d w4 w4 d w4 w2 neg d cl f} def
/m42 {mp x y w2 add m w8 neg w2 -3 4 div mul d w2 -3 4 div mul w8 neg d w2 3 4 div mul w8 neg d w8 w2 -3 4 div mul d w8 w2 3 4 div mul d w2 3 4 div mul w8 d w2 -3 4 div mul w8 d w8 neg w2 3 4 div mul d cl s} def
/m43 {mp x y w2 add m w8 neg w2 -3 4 div mul d w2 -3 4 div mul w8 neg d w2 3 4 div mul w8 neg d w8 w2 -3 4 div mul d w8 w2 3 4 div mul d w2 3 4 div mul w8 d w2 -3 4 div mul w8 d w8 neg w2 3 4 div mul d cl f} def
/m44 {mp x y m w6 neg w2 d w2 2 3 div mul 0 d w6 neg w2 neg d w2 w6 d 0 w2 -2 3 div mul d w2 neg w6 d w6 w2 neg d w2 -2 3 div mul 0 d w6 w2 d w2 neg w6 neg d 0 w2 2 3 div mul d w2 w6 neg d cl s} def
/m45 {mp x y m w6 neg w2 d w2 2 3 div mul 0 d w6 neg w2 neg d w2 w6 d 0 w2 -2 3 div mul d w2 neg w6 d w6 w2 neg d w2 -2 3 div mul 0 d w6 w2 d w2 neg w6 neg d 0 w2 2 3 div mul d w2 w6 neg d cl f} def
/m46 {mp x y w4 add m w4 neg w4 d w4 neg w4 neg d  w4 w4 neg d w4 neg w4 neg d w4 w4 neg d w4 w4 d w4 w4 neg d w4 w4 d w4 neg w4 d w4 w4 d w4 neg w4 d w4 neg w4 neg d cl s} def
/m47 {mp x y w4 add m w4 neg w4 d w4 neg w4 neg d w4 w4 neg d w4 neg w4 neg d  w4 w4 neg d w4 w4 d w4 w4 neg d w4 w4 d w4 neg w4 d w4 w4 d w4 neg w4 d w4 neg w4 neg d cl f} def
/m48 {mp x y w4 add m w4 neg w4 d w4 neg w4 neg d w4 w4 neg d  w4 neg w4 neg d w4 w4 neg d w4 w4 d w4 w4 neg d w4 w4 d w4 neg w4 d w4 w4 d w4 neg w4 d w4 neg w4 neg d  w4 w4 neg d w4 neg w4 neg d w4 neg w4 d w4 w4 d cl f} def
/m49 {mp x w2 sub w3 add y w2 sub w3 add m  0 w3 neg d w3 0 d 0 w3 d w3 0 d 0 w3 d w3 neg 0 d 0 w3 d w3 neg 0 d 0 w3 neg d w3 neg 0 d 0 w3 neg d w3 0 d 0 w3 d w3 0 d 0 w3 neg d w3 neg 0 d cl f } def
/m2 {mp x y w2 sub m 0 w d x w2 sub y m w 0 d s} def
/m5 {mp x w2 sub y w2 sub m w w d x w2 sub y w2 add m w w neg d s} def
%%IncludeResource: ProcSet (FontSetInit)
%%IncludeResource: font Times-Roman
%%IncludeResource: font Times-Italic
%%IncludeResource: font Times-Bold
%%IncludeResource: font Times-BoldItalic
%%IncludeResource: font Helvetica
%%IncludeResource: font Helvetica-Oblique
%%IncludeResource: font Helvetica-Bold
%%IncludeResource: font Helvetica-BoldOblique
%%IncludeResource: font Courier
%%IncludeResource: font Courier-Oblique
%%IncludeResource: font Courier-Bold
%%IncludeResource: font Courier-BoldOblique
%%IncludeResource: font Symbol
%%IncludeResource: font ZapfDingbats
/reEncode {exch findfont dup length dict begin {1 index /FID eq  {pop pop} {def} ifelse } forall /Encoding exch def currentdict end dup /FontName get exch definefont pop } def [/Times-Bold /Times-Italic /Times-BoldItalic /Helvetica /Helvetica-Oblique
 /Helvetica-Bold /Helvetica-BoldOblique /Courier /Courier-Oblique /Courier-Bold /Courier-BoldOblique /Times-Roman /AvantGarde-Book /AvantGarde-BookOblique /AvantGarde-Demi /AvantGarde-DemiOblique /Bookman-Demi /Bookman-DemiItalic /Bookman-Light
 /Bookman-LightItalic /Helvetica-Narrow /Helvetica-Narrow-Bold /Helvetica-Narrow-BoldOblique /Helvetica-Narrow-Oblique /NewCenturySchlbk-Roman /NewCenturySchlbk-Bold /NewCenturySchlbk-BoldItalic /NewCenturySchlbk-Italic /Palatino-Bold
 /Palatino-BoldItalic /Palatino-Italic /Palatino-Roman ] {ISOLatin1Encoding reEncode } forall
%%EndProlog
%%BeginSetup
%%EndSetup
newpath  gsave  .25 .25 scale  gsave  0 0 t black[  ] 0 sd 3 lw 1 1 1 c 2268 1094 0 0 bf black 1 1 1 c 1088 1072 23 11 bf black 1 1 1 c 828 858 153 118 bf black 828 858 153 118 bl 1 1 1 c 828 858 153 118 bf black 828 858 153 118 bl 1 0 0 c 1 1 1 c 1
 0 0 c 174 240 m 7 Y s 174 259 m 6 Y s 167 253 m 1 X s 180 253 m 1 X s /w 12 def /w2 {w 2 div} def /w3 {w 3 div} def 174 253 m20 188 233 m 8 Y s 188 253 m 6 Y s 181 247 m 1 X s 193 247 m 2 X s 188 247 m20 202 262 m 6 Y s 202 280 m 4 Y s 195 274 m 1 X
 s 207 274 m 1 X s 202 274 m20 215 244 m 7 Y s 215 263 m 5 Y s 208 257 m 2 X s 221 257 m 1 X s 215 257 m20 229 264 m 6 Y s 229 281 m 5 Y s 222 276 m 1 X s 235 276 m 1 X s 229 276 m20 243 280 m 5 Y s 243 296 m 4 Y s 236 290 m 1 X s 249 290 m 1 X s 243
 290 m20 257 290 m 4 Y s 257 305 m 3 Y s 250 300 m 1 X s 262 300 m 2 X s 257 300 m20 270 270 m 6 Y s 270 287 m 4 Y s 264 281 m 1 X s 276 281 m 1 X s 270 281 m20 284 273 m 5 Y s 284 290 m 4 Y s 277 284 m 2 X s 290 284 m 1 X s 284 284 m20 298 288 m 4 Y
 s 298 303 m 3 Y s 291 298 m 1 X s 304 298 m 1 X s 298 298 m20 312 301 m 3 Y s 312 316 m 2 Y s 305 310 m 1 X s 318 310 m 1 X s 312 310 m20 326 306 m 3 Y s 326 320 m 3 Y s 319 315 m 1 X s 331 315 m 2 X s 326 315 m20 339 305 m 3 Y s 339 319 m 3 Y s 333
 314 m 1 X s 345 314 m 1 X s 339 314 m20 353 316 m 2 Y s 353 330 m 2 Y s 346 324 m 2 X s 359 324 m 1 X s 353 324 m20 367 324 m 2 Y s 367 337 m 2 Y s 360 332 m 1 X s 373 332 m 1 X s 367 332 m20 381 328 m 2 Y s 381 342 m 1 Y s 374 336 m 1 X s 386 336 m
 2 X s 381 336 m20 395 345 m 1 Y s 395 358 m s 388 352 m 1 X s 400 352 m 1 X s 395 352 m20 408 368 m s 401 374 m 2 X s 414 374 m 1 X s 408 374 m20 422 370 m 1 Y s 415 376 m 1 X s 428 376 m 1 X s 422 376 m20 429 386 m 1 X s 442 386 m 1 X s 436 386 m20
 443 413 m 1 X s 455 413 m 2 X s 450 413 m20 457 427 m 1 X s 469 427 m 1 X s 464 427 m20 470 443 m 2 X s 483 443 m 1 X s 477 443 m20 484 459 m 1 X s 497 459 m 1 X s 491 459 m20 498 491 m 1 X s 511 491 m 1 X s 505 491 m20 512 525 m 1 X s 524 525 m 2 X
 s 519 525 m20 526 551 m 1 X s 538 551 m 1 X s 532 551 m20 539 580 m 2 X s 552 580 m 1 X s 546 580 m20 553 605 m 1 X s 566 605 m 1 X s 560 605 m20 567 618 m 1 X s 579 618 m 2 X s 574 618 m20 581 614 m 1 X s 593 614 m 2 X s 588 614 m20 595 598 m 1 X s
 607 598 m 1 X s 601 598 m20 608 572 m 2 X s 621 572 m 1 X s 615 572 m20 622 536 m 1 X s 635 536 m 1 X s 629 536 m20 636 498 m 1 X s 648 498 m 2 X s 643 498 m20 650 461 m 1 X s 662 461 m 1 X s 657 461 m20 663 430 m 2 X s 676 430 m 1 X s 670 430 m20
 677 417 m 1 X s 690 417 m 1 X s 684 417 m20 691 390 m 1 X s 704 390 m 1 X s 698 390 m20 712 363 m s 712 375 m s 705 369 m 1 X s 717 369 m 2 X s 712 369 m20 725 335 m 2 Y s 725 348 m 1 Y s 719 342 m 1 X s 731 342 m 1 X s 725 342 m20 739 305 m 3 Y s
 739 319 m 3 Y s 732 314 m 2 X s 745 314 m 1 X s 739 314 m20 753 317 m 2 Y s 753 330 m 2 Y s 746 325 m 1 X s 759 325 m 1 X s 753 325 m20 767 288 m 4 Y s 767 303 m 3 Y s 760 298 m 1 X s 773 298 m 1 X s 767 298 m20 781 289 m 4 Y s 781 304 m 3 Y s 774
 299 m 1 X s 786 299 m 2 X s 781 299 m20 794 292 m 4 Y s 794 308 m 3 Y s 788 302 m 1 X s 800 302 m 1 X s 794 302 m20 808 255 m 7 Y s 808 273 m 5 Y s 801 268 m 2 X s 814 268 m 1 X s 808 268 m20 822 272 m 5 Y s 822 288 m 4 Y s 815 283 m 1 X s 828 283 m
 1 X s 822 283 m20 836 242 m 7 Y s 836 261 m 6 Y s 829 255 m 1 X s 841 255 m 2 X s 836 255 m20 850 242 m 7 Y s 850 261 m 6 Y s 843 255 m 1 X s 855 255 m 1 X s 850 255 m20 863 244 m 7 Y s 863 263 m 5 Y s 856 257 m 2 X s 869 257 m 1 X s 863 257 m20 877
 220 m 10 Y s 877 241 m 7 Y s 870 235 m 1 X s 883 235 m 1 X s 877 235 m20 891 230 m 9 Y s 891 250 m 7 Y s 884 245 m 1 X s 897 245 m 1 X s 891 245 m20 905 182 m 14 Y s 905 207 m 10 Y s 898 201 m 1 X s 910 201 m 2 X s 905 201 m20 919 194 m 12 Y s 919
 218 m 9 Y s 912 212 m 1 X s 924 212 m 1 X s 919 212 m20 932 223 m 9 Y s 932 243 m 7 Y s 925 238 m 2 X s 938 238 m 1 X s 932 238 m20 946 190 m 13 Y s 946 214 m 10 Y s 939 209 m 1 X s 952 209 m 1 X s 946 209 m20 960 172 m 15 Y s 960 199 m 10 Y s 953
 193 m 1 X s 966 193 m 1 X s 960 193 m20 974 186 m 13 Y s 974 211 m 9 Y s 967 205 m 1 X s 979 205 m 2 X s 974 205 m20 black 153 118 m 828 X s 153 143 m -25 Y s 181 130 m -12 Y s 208 130 m -12 Y s 236 130 m -12 Y s 264 130 m -12 Y s 291 143 m -25 Y s
 319 130 m -12 Y s 346 130 m -12 Y s 374 130 m -12 Y s 401 130 m -12 Y s 429 143 m -25 Y s 457 130 m -12 Y s 484 130 m -12 Y s 512 130 m -12 Y s 539 130 m -12 Y s 567 143 m -25 Y s 595 130 m -12 Y s 622 130 m -12 Y s 650 130 m -12 Y s 677 130 m -12 Y
 s 705 143 m -25 Y s 732 130 m -12 Y s 760 130 m -12 Y s 788 130 m -12 Y s 815 130 m -12 Y s 843 143 m -25 Y s 870 130 m -12 Y s 898 130 m -12 Y s 925 130 m -12 Y s 953 130 m -12 Y s 981 143 m -25 Y s
 gsave  1088 1072 23 11 C 133.395 83.7267 t 0 r /Helvetica findfont 35.5047 sf 0 0 m (60) show NC gr 
 gsave  1088 1072 23 11 C 271.047 83.7267 t 0 r /Helvetica findfont 35.5047 sf 0 0 m (70) show NC gr 
 gsave  1088 1072 23 11 C 408.7 83.7267 t 0 r /Helvetica findfont 35.5047 sf 0 0 m (80) show NC gr 
 gsave  1088 1072 23 11 C 546.352 83.7267 t 0 r /Helvetica findfont 35.5047 sf 0 0 m (90) show NC gr 
 gsave  1088 1072 23 11 C 674.071 83.7267 t 0 r /Helvetica findfont 35.5047 sf 0 0 m (100) show NC gr 
 gsave  1088 1072 23 11 C 811.723 83.7267 t 0 r /Helvetica findfont 35.5047 sf 0 0 m (110) show NC gr 
 gsave  1088 1072 23 11 C 949.376 83.7267 t 0 r /Helvetica findfont 35.5047 sf 0 0 m (120) show NC gr 
 gsave  1088 1072 23 11 C 852.877 32.6392 t 0 r /Helvetica findfont 45.446 sf 0 0 m ( [GeV]) show NC gr 
 gsave  1088 1072 23 11 C 835.848 24.1246 t 0 r /Symbol findfont 29.8239 sf 0 0 m (m) show NC gr 
 gsave  1088 1072 23 11 C 818.819 24.1246 t 0 r /Symbol findfont 29.8239 sf 0 0 m (m) show NC gr 
 gsave  1088 1072 23 11 C 783.341 32.6392 t 0 r /Helvetica findfont 45.446 sf 0 0 m (M) show NC gr  153 118 m 858 Y s 166 126 m -13 X s 166 157 m -13 X s 166 180 m -13 X s 166 197 m -13 X s 166 211 m -13 X s 166 223 m -13 X s 166 234 m -13 X s 166
 243 m -13 X s 179 251 m -26 X s
 gsave  1088 1072 23 11 C 131.976 238.408 t 0 r /Helvetica findfont 32.6643 sf 0 0 m (1) show NC gr  166 305 m -13 X s 166 336 m -13 X s 166 359 m -13 X s 166 376 m -13 X s 166 390 m -13 X s 166 402 m -13 X s 166 413 m -13 X s 166 422 m -13 X s 179
 430 m -26 X s
 gsave  1088 1072 23 11 C 109.27 418.634 t 0 r /Helvetica findfont 32.6643 sf 0 0 m (10) show NC gr  166 484 m -13 X s 166 515 m -13 X s 166 538 m -13 X s 166 555 m -13 X s 166 569 m -13 X s 166 581 m -13 X s 166 592 m -13 X s 166 601 m -13 X s 179
 609 m -26 X s
 gsave  1088 1072 23 11 C 131.976 608.792 t 0 r /Helvetica findfont 22.723 sf 0 0 m (2) show NC gr 
 gsave  1088 1072 23 11 C 96.4986 594.602 t 0 r /Helvetica findfont 32.6643 sf 0 0 m (10) show NC gr  166 663 m -13 X s 166 695 m -13 X s 166 717 m -13 X s 166 734 m -13 X s 166 748 m -13 X s 166 760 m -13 X s 166 771 m -13 X s 166 780 m -13 X s 179
 788 m -26 X s
 gsave  1088 1072 23 11 C 131.976 789.018 t 0 r /Helvetica findfont 22.723 sf 0 0 m (3) show NC gr 
 gsave  1088 1072 23 11 C 96.4986 773.408 t 0 r /Helvetica findfont 32.6643 sf 0 0 m (10) show NC gr  166 842 m -13 X s 166 874 m -13 X s 166 896 m -13 X s 166 913 m -13 X s 166 928 m -13 X s 166 940 m -13 X s 166 950 m -13 X s 166 959 m -13 X s 179
 967 m -26 X s
 gsave  1088 1072 23 11 C 131.976 966.405 t 0 r /Helvetica findfont 22.723 sf 0 0 m (4) show NC gr 
 gsave  1088 1072 23 11 C 96.4986 952.214 t 0 r /Helvetica findfont 32.6643 sf 0 0 m (10) show NC gr 
 gsave  1088 1072 23 11 C 69.5357 557.705 t 90 r /Helvetica findfont 45.446 sf 0 0 m (Entries / NormFactor) show NC gr  1 0 0 c 1 1 1 c 1 0 0 c 174 118 m 37 Y s 174 166 m 36 Y s 167 161 m 1 X s 180 161 m 1 X s 174 161 m24 188 125 m 62 Y s 188 198 m
 30 Y s 181 192 m 1 X s 193 192 m 2 X s 188 192 m24 202 125 m 62 Y s 202 198 m 30 Y s 195 192 m 1 X s 207 192 m 1 X s 202 192 m24 215 118 m 37 Y s 215 166 m 36 Y s 208 161 m 2 X s 221 161 m 1 X s 215 161 m24 243 161 m 48 Y s 243 220 m 26 Y s 236 215
 m 1 X s 249 215 m 1 X s 243 215 m24 284 118 m 37 Y s 284 166 m 36 Y s 277 161 m 2 X s 290 161 m 1 X s 284 161 m24 491 118 m 37 Y s 491 166 m 36 Y s 484 161 m 1 X s 497 161 m 1 X s 491 161 m24 546 118 m 37 Y s 546 166 m 36 Y s 539 161 m 2 X s 552 161
 m 1 X s 546 161 m24 560 125 m 62 Y s 560 198 m 30 Y s 553 192 m 1 X s 566 192 m 1 X s 560 192 m24 615 118 m 37 Y s 615 166 m 36 Y s 608 161 m 2 X s 621 161 m 1 X s 615 161 m24 643 118 m 37 Y s 643 166 m 36 Y s 636 161 m 1 X s 648 161 m 2 X s 643 161
 m24 black 1 1 1 c black 174 251 188 251 202 305 243 251 257 336 270 251 298 336 312 390 326 359 339 336 353 251 367 336 395 390 408 251 422 376 436 390 450 422 464 376 477 471 491 430 505 495 519 523 532 520 546 593 560 603 574 621 588 623 601 599
 615 580 629 491 643 491 657 467 670 437 684 376 698 430 712 305 725 376 753 305 767 376 781 305 822 305 850 251 891 251 905 305 919 305 960 359 46 { m20} R 1 1 1 c black 229 251 353 251 477 251 532 251 546 251 753 251 781 251 919 251 8 { m24} R 0 0
 1 c[ 12 12] 0 sd 6 lw 443 118 m 446 Y s 719 118 m 446 Y s black[  ] 0 sd 3 lw 1 1 1 c 272 268 186 654 bf black
 gsave  1088 1072 23 11 C 252.599 874.164 t 0 r /Helvetica findfont 39.7652 sf 0 0 m (OC data: 857) show NC gr  220 889 m20
 gsave  1088 1072 23 11 C 252.599 807.466 t 0 r /Helvetica findfont 39.7652 sf 0 0 m (SC data: 8) show NC gr  220 822 m24
 gsave  1088 1072 23 11 C 252.599 740.768 t 0 r /Helvetica findfont 39.7652 sf 0 0 m (OC MC: 32469) show NC gr  1 0 0 c 220 755 m20 black
 gsave  1088 1072 23 11 C 252.599 674.071 t 0 r /Helvetica findfont 39.7652 sf 0 0 m (SC MC: 51) show NC gr  1 0 0 c 220 688 m24 black
 gsave  1088 1072 23 11 C 566.22 901.126 t 0 r /Helvetica-Bold findfont 59.6478 sf 0 0 m (pp collisions) show NC gr  1 1 1 c 1088 1072 1157 11 bf black 1 1 1 c 827 858 1287 118 bf black 827 858 1287 118 bl 1 1 1 c 827 858 1287 118 bf black 827 858
 1287 118 bl 1 0 0 c 1 1 1 c 1 0 0 c 1308 240 m 7 Y s 1308 259 m 6 Y s 1301 253 m 1 X s 1314 253 m 1 X s 1308 253 m20 1322 233 m 8 Y s 1322 253 m 6 Y s 1315 247 m 1 X s 1327 247 m 2 X s 1322 247 m20 1335 262 m 6 Y s 1335 280 m 4 Y s 1329 274 m 1 X s
 1341 274 m 1 X s 1335 274 m20 1349 244 m 7 Y s 1349 263 m 5 Y s 1342 257 m 2 X s 1355 257 m 1 X s 1349 257 m20 1363 264 m 6 Y s 1363 281 m 5 Y s 1356 276 m 1 X s 1369 276 m 1 X s 1363 276 m20 1377 280 m 5 Y s 1377 296 m 4 Y s 1370 290 m 1 X s 1382
 290 m 2 X s 1377 290 m20 1391 290 m 4 Y s 1391 305 m 3 Y s 1384 300 m 1 X s 1396 300 m 1 X s 1391 300 m20 1404 270 m 6 Y s 1404 287 m 4 Y s 1397 281 m 2 X s 1410 281 m 1 X s 1404 281 m20 1418 273 m 5 Y s 1418 290 m 4 Y s 1411 284 m 1 X s 1424 284 m
 1 X s 1418 284 m20 1432 288 m 4 Y s 1432 303 m 3 Y s 1425 298 m 1 X s 1438 298 m 1 X s 1432 298 m20 1446 301 m 3 Y s 1446 316 m 2 Y s 1439 310 m 1 X s 1451 310 m 2 X s 1446 310 m20 1460 306 m 3 Y s 1460 320 m 3 Y s 1453 315 m 1 X s 1465 315 m 1 X s
 1460 315 m20 1473 305 m 3 Y s 1473 319 m 3 Y s 1466 314 m 2 X s 1479 314 m 1 X s 1473 314 m20 1487 316 m 2 Y s 1487 330 m 2 Y s 1480 324 m 1 X s 1493 324 m 1 X s 1487 324 m20 1501 324 m 2 Y s 1501 337 m 2 Y s 1494 332 m 1 X s 1507 332 m 1 X s 1501
 332 m20 1515 328 m 2 Y s 1515 342 m 1 Y s 1508 336 m 1 X s 1520 336 m 2 X s 1515 336 m20 1528 345 m 1 Y s 1528 358 m s 1522 352 m 1 X s 1534 352 m 1 X s 1528 352 m20 1542 368 m s 1535 374 m 2 X s 1548 374 m 1 X s 1542 374 m20 1556 370 m 1 Y s 1549
 376 m 1 X s 1562 376 m 1 X s 1556 376 m20 1563 386 m 1 X s 1575 386 m 2 X s 1570 386 m20 1577 413 m 1 X s 1589 413 m 1 X s 1584 413 m20 1590 427 m 2 X s 1603 427 m 1 X s 1597 427 m20 1604 443 m 1 X s 1617 443 m 1 X s 1611 443 m20 1618 459 m 1 X s
 1631 459 m 1 X s 1625 459 m20 1632 491 m 1 X s 1644 491 m 2 X s 1639 491 m20 1646 525 m 1 X s 1658 525 m 1 X s 1653 525 m20 1659 551 m 2 X s 1672 551 m 1 X s 1666 551 m20 1673 580 m 1 X s 1686 580 m 1 X s 1680 580 m20 1687 605 m 1 X s 1700 605 m 1 X
 s 1694 605 m20 1701 618 m 1 X s 1713 618 m 2 X s 1708 618 m20 1715 614 m 1 X s 1727 614 m 1 X s 1721 614 m20 1728 598 m 2 X s 1741 598 m 1 X s 1735 598 m20 1742 572 m 1 X s 1755 572 m 1 X s 1749 572 m20 1756 536 m 1 X s 1769 536 m 1 X s 1763 536 m20
 1770 498 m 1 X s 1782 498 m 2 X s 1777 498 m20 1784 461 m 1 X s 1796 461 m 1 X s 1790 461 m20 1797 430 m 2 X s 1810 430 m 1 X s 1804 430 m20 1811 417 m 1 X s 1824 417 m 1 X s 1818 417 m20 1825 390 m 1 X s 1837 390 m 2 X s 1832 390 m20 1846 363 m s
 1846 375 m s 1839 369 m 1 X s 1851 369 m 1 X s 1846 369 m20 1859 335 m 2 Y s 1859 348 m 1 Y s 1852 342 m 2 X s 1865 342 m 1 X s 1859 342 m20 1873 305 m 3 Y s 1873 319 m 3 Y s 1866 314 m 1 X s 1879 314 m 1 X s 1873 314 m20 1887 317 m 2 Y s 1887 330 m
 2 Y s 1880 325 m 1 X s 1893 325 m 1 X s 1887 325 m20 1901 288 m 4 Y s 1901 303 m 3 Y s 1894 298 m 1 X s 1906 298 m 2 X s 1901 298 m20 1914 289 m 4 Y s 1914 304 m 3 Y s 1908 299 m 1 X s 1920 299 m 1 X s 1914 299 m20 1928 292 m 4 Y s 1928 308 m 3 Y s
 1921 302 m 2 X s 1934 302 m 1 X s 1928 302 m20 1942 255 m 7 Y s 1942 273 m 5 Y s 1935 268 m 1 X s 1948 268 m 1 X s 1942 268 m20 1956 272 m 5 Y s 1956 288 m 4 Y s 1949 283 m 1 X s 1962 283 m 1 X s 1956 283 m20 1970 242 m 7 Y s 1970 261 m 6 Y s 1963
 255 m 1 X s 1975 255 m 2 X s 1970 255 m20 1983 242 m 7 Y s 1983 261 m 6 Y s 1977 255 m 1 X s 1989 255 m 1 X s 1983 255 m20 1997 244 m 7 Y s 1997 263 m 5 Y s 1990 257 m 2 X s 2003 257 m 1 X s 1997 257 m20 2011 220 m 10 Y s 2011 241 m 7 Y s 2004 235 m
 1 X s 2017 235 m 1 X s 2011 235 m20 2025 230 m 9 Y s 2025 250 m 7 Y s 2018 245 m 1 X s 2030 245 m 2 X s 2025 245 m20 2039 182 m 14 Y s 2039 207 m 10 Y s 2032 201 m 1 X s 2044 201 m 1 X s 2039 201 m20 2052 194 m 12 Y s 2052 218 m 9 Y s 2045 212 m 2 X
 s 2058 212 m 1 X s 2052 212 m20 2066 223 m 9 Y s 2066 243 m 7 Y s 2059 238 m 1 X s 2072 238 m 1 X s 2066 238 m20 2080 190 m 13 Y s 2080 214 m 10 Y s 2073 209 m 1 X s 2086 209 m 1 X s 2080 209 m20 2094 172 m 15 Y s 2094 199 m 10 Y s 2087 193 m 1 X s
 2099 193 m 2 X s 2094 193 m20 2108 186 m 13 Y s 2108 211 m 9 Y s 2101 205 m 1 X s 2113 205 m 1 X s 2108 205 m20 black 1287 118 m 827 X s 1287 143 m -25 Y s 1315 130 m -12 Y s 1342 130 m -12 Y s 1370 130 m -12 Y s 1397 130 m -12 Y s 1425 143 m -25 Y
 s 1453 130 m -12 Y s 1480 130 m -12 Y s 1508 130 m -12 Y s 1535 130 m -12 Y s 1563 143 m -25 Y s 1590 130 m -12 Y s 1618 130 m -12 Y s 1646 130 m -12 Y s 1673 130 m -12 Y s 1701 143 m -25 Y s 1728 130 m -12 Y s 1756 130 m -12 Y s 1784 130 m -12 Y s
 1811 130 m -12 Y s 1839 143 m -25 Y s 1866 130 m -12 Y s 1894 130 m -12 Y s 1921 130 m -12 Y s 1949 130 m -12 Y s 1977 143 m -25 Y s 2004 130 m -12 Y s 2032 130 m -12 Y s 2059 130 m -12 Y s 2087 130 m -12 Y s 2114 143 m -25 Y s
 gsave  1088 1072 1157 11 C 1267.25 83.7267 t 0 r /Helvetica findfont 35.5047 sf 0 0 m (60) show NC gr 
 gsave  1088 1072 1157 11 C 1404.91 83.7267 t 0 r /Helvetica findfont 35.5047 sf 0 0 m (70) show NC gr 
 gsave  1088 1072 1157 11 C 1542.56 83.7267 t 0 r /Helvetica findfont 35.5047 sf 0 0 m (80) show NC gr 
 gsave  1088 1072 1157 11 C 1680.21 83.7267 t 0 r /Helvetica findfont 35.5047 sf 0 0 m (90) show NC gr 
 gsave  1088 1072 1157 11 C 1807.93 83.7267 t 0 r /Helvetica findfont 35.5047 sf 0 0 m (100) show NC gr 
 gsave  1088 1072 1157 11 C 1945.58 83.7267 t 0 r /Helvetica findfont 35.5047 sf 0 0 m (110) show NC gr 
 gsave  1088 1072 1157 11 C 2083.23 83.7267 t 0 r /Helvetica findfont 35.5047 sf 0 0 m (120) show NC gr 
 gsave  1088 1072 1157 11 C 1986.74 32.6392 t 0 r /Helvetica findfont 45.446 sf 0 0 m ( [GeV]) show NC gr 
 gsave  1088 1072 1157 11 C 1969.71 24.1246 t 0 r /Symbol findfont 29.8239 sf 0 0 m (m) show NC gr 
 gsave  1088 1072 1157 11 C 1952.68 24.1246 t 0 r /Symbol findfont 29.8239 sf 0 0 m (m) show NC gr 
 gsave  1088 1072 1157 11 C 1917.2 32.6392 t 0 r /Helvetica findfont 45.446 sf 0 0 m (M) show NC gr  1287 118 m 858 Y s 1300 126 m -13 X s 1300 157 m -13 X s 1300 180 m -13 X s 1300 197 m -13 X s 1300 211 m -13 X s 1300 223 m -13 X s 1300 234 m -13 X
 s 1300 243 m -13 X s 1313 251 m -26 X s
 gsave  1088 1072 1157 11 C 1265.83 238.408 t 0 r /Helvetica findfont 32.6643 sf 0 0 m (1) show NC gr  1300 305 m -13 X s 1300 336 m -13 X s 1300 359 m -13 X s 1300 376 m -13 X s 1300 390 m -13 X s 1300 402 m -13 X s 1300 413 m -13 X s 1300 422 m -13
 X s 1313 430 m -26 X s
 gsave  1088 1072 1157 11 C 1243.13 418.634 t 0 r /Helvetica findfont 32.6643 sf 0 0 m (10) show NC gr  1300 484 m -13 X s 1300 515 m -13 X s 1300 538 m -13 X s 1300 555 m -13 X s 1300 569 m -13 X s 1300 581 m -13 X s 1300 592 m -13 X s 1300 601 m
 -13 X s 1313 609 m -26 X s
 gsave  1088 1072 1157 11 C 1265.83 608.792 t 0 r /Helvetica findfont 22.723 sf 0 0 m (2) show NC gr 
 gsave  1088 1072 1157 11 C 1230.36 594.602 t 0 r /Helvetica findfont 32.6643 sf 0 0 m (10) show NC gr  1300 663 m -13 X s 1300 695 m -13 X s 1300 717 m -13 X s 1300 734 m -13 X s 1300 748 m -13 X s 1300 760 m -13 X s 1300 771 m -13 X s 1300 780 m
 -13 X s 1313 788 m -26 X s
 gsave  1088 1072 1157 11 C 1265.83 789.018 t 0 r /Helvetica findfont 22.723 sf 0 0 m (3) show NC gr 
 gsave  1088 1072 1157 11 C 1230.36 773.408 t 0 r /Helvetica findfont 32.6643 sf 0 0 m (10) show NC gr  1300 842 m -13 X s 1300 874 m -13 X s 1300 896 m -13 X s 1300 913 m -13 X s 1300 928 m -13 X s 1300 940 m -13 X s 1300 950 m -13 X s 1300 959 m
 -13 X s 1313 967 m -26 X s
 gsave  1088 1072 1157 11 C 1265.83 966.405 t 0 r /Helvetica findfont 22.723 sf 0 0 m (4) show NC gr 
 gsave  1088 1072 1157 11 C 1230.36 952.214 t 0 r /Helvetica findfont 32.6643 sf 0 0 m (10) show NC gr 
 gsave  1088 1072 1157 11 C 1203.39 557.705 t 90 r /Helvetica findfont 45.446 sf 0 0 m (Entries / NormFactor) show NC gr  1 0 0 c 1 1 1 c 1 0 0 c 1308 118 m 37 Y s 1308 166 m 36 Y s 1301 161 m 1 X s 1314 161 m 1 X s 1308 161 m24 1322 125 m 62 Y s
 1322 198 m 30 Y s 1315 192 m 1 X s 1327 192 m 2 X s 1322 192 m24 1335 125 m 62 Y s 1335 198 m 30 Y s 1329 192 m 1 X s 1341 192 m 1 X s 1335 192 m24 1349 118 m 37 Y s 1349 166 m 36 Y s 1342 161 m 2 X s 1355 161 m 1 X s 1349 161 m24 1377 161 m 48 Y s
 1377 220 m 26 Y s 1370 215 m 1 X s 1382 215 m 2 X s 1377 215 m24 1418 118 m 37 Y s 1418 166 m 36 Y s 1411 161 m 1 X s 1424 161 m 1 X s 1418 161 m24 1625 118 m 37 Y s 1625 166 m 36 Y s 1618 161 m 1 X s 1631 161 m 1 X s 1625 161 m24 1680 118 m 37 Y s
 1680 166 m 36 Y s 1673 161 m 1 X s 1686 161 m 1 X s 1680 161 m24 1694 125 m 62 Y s 1694 198 m 30 Y s 1687 192 m 1 X s 1700 192 m 1 X s 1694 192 m24 1749 118 m 37 Y s 1749 166 m 36 Y s 1742 161 m 1 X s 1755 161 m 1 X s 1749 161 m24 1777 118 m 37 Y s
 1777 166 m 36 Y s 1770 161 m 1 X s 1782 161 m 2 X s 1777 161 m24 black 1 1 1 c black 1308 251 1322 251 1335 305 1377 251 1391 336 1404 251 1432 336 1446 390 1460 359 1473 336 1487 251 1501 336 1528 390 1542 251 1556 376 1570 390 1584 422 1597 376
 1611 471 1625 430 1639 495 1653 523 1666 520 1680 593 1694 603 1708 621 1721 623 1735 599 1749 580 1763 491 1777 491 1790 467 1804 437 1818 376 1832 430 1846 305 1859 376 1887 305 1901 376 1914 305 1956 305 1983 251 2025 251 2039 305 2052 305 2094
 359 46 { m20} R 1 1 1 c black 1363 251 1487 251 1611 251 1666 251 1680 251 1887 251 1914 251 2052 251 8 { m24} R 0 0 1 c[ 12 12] 0 sd 6 lw 1577 118 m 446 Y s 1852 118 m 446 Y s black[  ] 0 sd 3 lw 1 1 1 c 272 268 1320 654 bf black
 gsave  1088 1072 1157 11 C 1386.46 874.164 t 0 r /Helvetica findfont 39.7652 sf 0 0 m (OC data: 857) show NC gr  1354 889 m20
 gsave  1088 1072 1157 11 C 1386.46 807.466 t 0 r /Helvetica findfont 39.7652 sf 0 0 m (SC data: 8) show NC gr  1354 822 m24
 gsave  1088 1072 1157 11 C 1386.46 740.768 t 0 r /Helvetica findfont 39.7652 sf 0 0 m (OC MC: 32469) show NC gr  1 0 0 c 1354 755 m20 black
 gsave  1088 1072 1157 11 C 1386.46 674.071 t 0 r /Helvetica findfont 39.7652 sf 0 0 m (SC MC: 51) show NC gr  1 0 0 c 1354 688 m24 black
 gsave  1088 1072 1157 11 C 1700.08 901.126 t 0 r /Helvetica-Bold findfont 59.6478 sf 0 0 m (pp collisions) show NC gr 
 gr  gr showpage
end
%%EOF
