%!PS-Adobe-2.0 EPSF-2.0
%%BoundingBox:  0 0 567 274
%%Title: /home/petr/Analysis_iwona/SFAnalysis/eps/Zmass_mumu_MSTree_.eps: Results
%%Creator: ROOT Version 6.16/00
%%CreationDate: Thu Apr  4 16:05:27 2019
%%DocumentNeededResources: ProcSet (FontSetInit)
%%EndComments
%%BeginProlog
80 dict begin
/s {stroke} def /l {lineto} def /m {moveto} def /t {translate} def
/r {rotate} def /rl {roll}  def /R {repeat} def
/d {rlineto} def /rm {rmoveto} def /gr {grestore} def /f {eofill} def
/c {setrgbcolor} def /black {0 setgray} def /sd {setdash} def
/cl {closepath} def /sf {scalefont setfont} def /lw {setlinewidth} def
/box {m dup 0 exch d exch 0 d 0 exch neg d cl} def
/NC{systemdict begin initclip end}def/C{NC box clip newpath}def
/bl {box s} def /bf {gsave box gsave f grestore 1 lw [] 0 sd s grestore} def /Y { 0 exch d} def /X { 0 d} def 
/K {{pop pop 0 moveto} exch kshow} bind def
/ita {/ang 15 def gsave [1 0 ang dup sin exch cos div 1 0 0] concat} def 
/mp {newpath /y exch def /x exch def} def
/side {[w .77 mul w .23 mul] .385 w mul sd w 0 l currentpoint t -144 r} def
/mr {mp x y w2 0 360 arc} def /m24 {mr s} def /m20 {mr f} def
/mb {mp x y w2 add m w2 neg 0 d 0 w neg d w 0 d 0 w d cl} def
/mt {mp x y w2 add m w2 neg w neg d w 0 d cl} def
/w4 {w 4 div} def
/w6 {w 6 div} def
/w8 {w 8 div} def
/m21 {mb f} def /m25 {mb s} def /m22 {mt f} def /m26{mt s} def
/m23 {mp x y w2 sub m w2 w d w neg 0 d cl f} def
/m27 {mp x y w2 add m w3 neg w2 neg d w3 w2 neg d w3 w2 d cl s} def
/m28 {mp x w2 sub y w2 sub w3 add m w3 0 d  0 w3 neg d w3 0 d 0 w3 d w3 0 d  0 w3 d w3 neg 0 d 0 w3 d w3 neg 0 d 0 w3 neg d w3 neg 0 d cl s } def
/m29 {mp gsave x w2 sub y w2 add w3 sub m currentpoint t 4 {side} repeat cl fill gr} def
/m30 {mp gsave x w2 sub y w2 add w3 sub m currentpoint t 4 {side} repeat cl s gr} def
/m31 {mp x y w2 sub m 0 w d x w2 sub y m w 0 d x w2 sub y w2 add m w w neg d x w2 sub y w2 sub m w w d s} def
/m32 {mp x y w2 sub m w2 w d w neg 0 d cl s} def
/m33 {mp x y w2 add m w3 neg w2 neg d w3 w2 neg d w3 w2 d cl f} def
/m34 {mp x w2 sub y w2 sub w3 add m w3 0 d  0 w3 neg d w3 0 d 0 w3 d w3 0 d  0 w3 d w3 neg 0 d 0 w3 d w3 neg 0 d 0 w3 neg d w3 neg 0 d cl f } def
/m35 {mp x y w2 add m w2 neg w2 neg d w2 w2 neg d w2 w2 d w2 neg w2 d x y w2 sub m 0 w d x w2 sub y m w 0 d s} def
/m36 {mb x w2 sub y w2 add m w w neg d x w2 sub y w2 sub m w w d s} def
/m37 {mp x y m w4 neg w2 d w4 neg w2 neg d w2 0 d  w4 neg w2 neg d w2 0 d w4 neg w2 d w2 0 d w4 neg w2 d w4 neg w2 neg d cl s} def
/m38 {mp x w4 sub y w2 add m w4 neg w4 neg d 0 w2 neg d w4 w4 neg d w2 0 d w4 w4 d 0 w2 d w4 neg w4 d w2 neg 0 d x y w2 sub m 0 w d x w2 sub y m w 0 d cl s} def
/m39 {mp x y m w4 neg w2 d w4 neg w2 neg d w2 0 d  w4 neg w2 neg d w2 0 d w4 neg w2 d w2 0 d w4 neg w2 d w4 neg w2 neg d cl f} def
/m40 {mp x y m w4 w2 d w4 w4 neg d w2 neg w4 neg d w2 w4 neg d w4 neg w4 neg d w4 neg w2 d w4 neg w2 neg d w4 neg w4 d w2 w4 d w2 neg w4 d w4 w4 d w4 w2 neg d cl s} def
/m41 {mp x y m w4 w2 d w4 w4 neg d w2 neg w4 neg d w2 w4 neg d w4 neg w4 neg d w4 neg w2 d w4 neg w2 neg d w4 neg w4 d w2 w4 d w2 neg w4 d w4 w4 d w4 w2 neg d cl f} def
/m42 {mp x y w2 add m w8 neg w2 -3 4 div mul d w2 -3 4 div mul w8 neg d w2 3 4 div mul w8 neg d w8 w2 -3 4 div mul d w8 w2 3 4 div mul d w2 3 4 div mul w8 d w2 -3 4 div mul w8 d w8 neg w2 3 4 div mul d cl s} def
/m43 {mp x y w2 add m w8 neg w2 -3 4 div mul d w2 -3 4 div mul w8 neg d w2 3 4 div mul w8 neg d w8 w2 -3 4 div mul d w8 w2 3 4 div mul d w2 3 4 div mul w8 d w2 -3 4 div mul w8 d w8 neg w2 3 4 div mul d cl f} def
/m44 {mp x y m w6 neg w2 d w2 2 3 div mul 0 d w6 neg w2 neg d w2 w6 d 0 w2 -2 3 div mul d w2 neg w6 d w6 w2 neg d w2 -2 3 div mul 0 d w6 w2 d w2 neg w6 neg d 0 w2 2 3 div mul d w2 w6 neg d cl s} def
/m45 {mp x y m w6 neg w2 d w2 2 3 div mul 0 d w6 neg w2 neg d w2 w6 d 0 w2 -2 3 div mul d w2 neg w6 d w6 w2 neg d w2 -2 3 div mul 0 d w6 w2 d w2 neg w6 neg d 0 w2 2 3 div mul d w2 w6 neg d cl f} def
/m46 {mp x y w4 add m w4 neg w4 d w4 neg w4 neg d  w4 w4 neg d w4 neg w4 neg d w4 w4 neg d w4 w4 d w4 w4 neg d w4 w4 d w4 neg w4 d w4 w4 d w4 neg w4 d w4 neg w4 neg d cl s} def
/m47 {mp x y w4 add m w4 neg w4 d w4 neg w4 neg d w4 w4 neg d w4 neg w4 neg d  w4 w4 neg d w4 w4 d w4 w4 neg d w4 w4 d w4 neg w4 d w4 w4 d w4 neg w4 d w4 neg w4 neg d cl f} def
/m48 {mp x y w4 add m w4 neg w4 d w4 neg w4 neg d w4 w4 neg d  w4 neg w4 neg d w4 w4 neg d w4 w4 d w4 w4 neg d w4 w4 d w4 neg w4 d w4 w4 d w4 neg w4 d w4 neg w4 neg d  w4 w4 neg d w4 neg w4 neg d w4 neg w4 d w4 w4 d cl f} def
/m49 {mp x w2 sub w3 add y w2 sub w3 add m  0 w3 neg d w3 0 d 0 w3 d w3 0 d 0 w3 d w3 neg 0 d 0 w3 d w3 neg 0 d 0 w3 neg d w3 neg 0 d 0 w3 neg d w3 0 d 0 w3 d w3 0 d 0 w3 neg d w3 neg 0 d cl f } def
/m2 {mp x y w2 sub m 0 w d x w2 sub y m w 0 d s} def
/m5 {mp x w2 sub y w2 sub m w w d x w2 sub y w2 add m w w neg d s} def
%%IncludeResource: ProcSet (FontSetInit)
%%IncludeResource: font Times-Roman
%%IncludeResource: font Times-Italic
%%IncludeResource: font Times-Bold
%%IncludeResource: font Times-BoldItalic
%%IncludeResource: font Helvetica
%%IncludeResource: font Helvetica-Oblique
%%IncludeResource: font Helvetica-Bold
%%IncludeResource: font Helvetica-BoldOblique
%%IncludeResource: font Courier
%%IncludeResource: font Courier-Oblique
%%IncludeResource: font Courier-Bold
%%IncludeResource: font Courier-BoldOblique
%%IncludeResource: font Symbol
%%IncludeResource: font ZapfDingbats
/reEncode {exch findfont dup length dict begin {1 index /FID eq  {pop pop} {def} ifelse } forall /Encoding exch def currentdict end dup /FontName get exch definefont pop } def [/Times-Bold /Times-Italic /Times-BoldItalic /Helvetica /Helvetica-Oblique
 /Helvetica-Bold /Helvetica-BoldOblique /Courier /Courier-Oblique /Courier-Bold /Courier-BoldOblique /Times-Roman /AvantGarde-Book /AvantGarde-BookOblique /AvantGarde-Demi /AvantGarde-DemiOblique /Bookman-Demi /Bookman-DemiItalic /Bookman-Light
 /Bookman-LightItalic /Helvetica-Narrow /Helvetica-Narrow-Bold /Helvetica-Narrow-BoldOblique /Helvetica-Narrow-Oblique /NewCenturySchlbk-Roman /NewCenturySchlbk-Bold /NewCenturySchlbk-BoldItalic /NewCenturySchlbk-Italic /Palatino-Bold
 /Palatino-BoldItalic /Palatino-Italic /Palatino-Roman ] {ISOLatin1Encoding reEncode } forall
%%EndProlog
%%BeginSetup
%%EndSetup
newpath  gsave  .25 .25 scale  gsave  0 0 t black[  ] 0 sd 3 lw 1 1 1 c 2268 1094 0 0 bf black 1 1 1 c 1088 1072 23 11 bf black 1 1 1 c 828 858 153 118 bf black 828 858 153 118 bl 1 1 1 c 828 858 153 118 bf black 828 858 153 118 bl 1 0 0 c 1 1 1 c 1
 0 0 c 174 268 m 5 Y s 174 284 m 4 Y s 167 278 m 1 X s 180 278 m 1 X s /w 12 def /w2 {w 2 div} def /w3 {w 3 div} def 174 278 m20 188 286 m 4 Y s 188 301 m 3 Y s 181 295 m 1 X s 193 295 m 2 X s 188 295 m20 202 284 m 4 Y s 202 299 m 3 Y s 195 293 m 1 X
 s 207 293 m 1 X s 202 293 m20 215 289 m 4 Y s 215 304 m 3 Y s 208 298 m 2 X s 221 298 m 1 X s 215 298 m20 229 284 m 4 Y s 229 299 m 3 Y s 222 293 m 1 X s 235 293 m 1 X s 229 293 m20 243 303 m 2 Y s 243 317 m 2 Y s 236 311 m 1 X s 249 311 m 1 X s 243
 311 m20 257 312 m 2 Y s 257 325 m 2 Y s 250 320 m 1 X s 262 320 m 2 X s 257 320 m20 270 289 m 4 Y s 270 304 m 3 Y s 264 298 m 1 X s 276 298 m 1 X s 270 298 m20 284 307 m 2 Y s 284 321 m 2 Y s 277 315 m 2 X s 290 315 m 1 X s 284 315 m20 298 308 m 2 Y
 s 298 322 m 1 Y s 291 316 m 1 X s 304 316 m 1 X s 298 316 m20 312 318 m 2 Y s 312 331 m 2 Y s 305 325 m 1 X s 318 325 m 1 X s 312 325 m20 326 327 m 2 Y s 326 340 m 1 Y s 319 335 m 1 X s 331 335 m 2 X s 326 335 m20 339 325 m 1 Y s 339 338 m 1 Y s 333
 332 m 1 X s 345 332 m 1 X s 339 332 m20 353 331 m 1 Y s 353 343 m 1 Y s 346 338 m 2 X s 359 338 m 1 X s 353 338 m20 367 342 m 1 Y s 367 354 m 1 Y s 360 349 m 1 X s 373 349 m 1 X s 367 349 m20 381 342 m 1 Y s 381 354 m 1 Y s 374 349 m 1 X s 386 349 m
 2 X s 381 349 m20 395 364 m s 388 369 m 1 X s 400 369 m 1 X s 395 369 m20 401 387 m 2 X s 414 387 m 1 X s 408 387 m20 415 389 m 1 X s 428 389 m 1 X s 422 389 m20 429 399 m 1 X s 442 399 m 1 X s 436 399 m20 443 422 m 1 X s 455 422 m 2 X s 450 422 m20
 457 439 m 1 X s 469 439 m 1 X s 464 439 m20 470 452 m 2 X s 483 452 m 1 X s 477 452 m20 484 468 m 1 X s 497 468 m 1 X s 491 468 m20 498 499 m 1 X s 511 499 m 1 X s 505 499 m20 512 529 m 1 X s 524 529 m 2 X s 519 529 m20 526 555 m 1 X s 538 555 m 1 X
 s 532 555 m20 539 584 m 2 X s 552 584 m 1 X s 546 584 m20 553 607 m 1 X s 566 607 m 1 X s 560 607 m20 567 618 m 1 X s 579 618 m 2 X s 574 618 m20 581 614 m 1 X s 593 614 m 2 X s 588 614 m20 595 598 m 1 X s 607 598 m 1 X s 601 598 m20 608 573 m 2 X s
 621 573 m 1 X s 615 573 m20 622 538 m 1 X s 635 538 m 1 X s 629 538 m20 636 501 m 1 X s 648 501 m 2 X s 643 501 m20 650 464 m 1 X s 662 464 m 1 X s 657 464 m20 663 432 m 2 X s 676 432 m 1 X s 670 432 m20 677 418 m 1 X s 690 418 m 1 X s 684 418 m20
 691 395 m 1 X s 704 395 m 1 X s 698 395 m20 705 375 m 1 X s 717 375 m 2 X s 712 375 m20 725 345 m 1 Y s 725 357 m s 719 351 m 1 X s 731 351 m 1 X s 725 351 m20 739 306 m 3 Y s 739 320 m 2 Y s 732 314 m 2 X s 745 314 m 1 X s 739 314 m20 753 326 m 2 Y
 s 753 339 m 1 Y s 746 333 m 1 X s 759 333 m 1 X s 753 333 m20 767 295 m 3 Y s 767 310 m 2 Y s 760 304 m 1 X s 773 304 m 1 X s 767 304 m20 781 290 m 4 Y s 781 305 m 3 Y s 774 299 m 1 X s 786 299 m 2 X s 781 299 m20 794 297 m 3 Y s 794 312 m 2 Y s 788
 306 m 1 X s 800 306 m 1 X s 794 306 m20 808 269 m 5 Y s 808 285 m 4 Y s 801 280 m 2 X s 814 280 m 1 X s 808 280 m20 822 286 m 4 Y s 822 301 m 3 Y s 815 295 m 1 X s 828 295 m 1 X s 822 295 m20 836 257 m 6 Y s 836 275 m 4 Y s 829 269 m 1 X s 841 269 m
 2 X s 836 269 m20 850 246 m 6 Y s 850 264 m 5 Y s 843 258 m 1 X s 855 258 m 1 X s 850 258 m20 863 248 m 6 Y s 863 265 m 5 Y s 856 260 m 2 X s 869 260 m 1 X s 863 260 m20 877 232 m 8 Y s 877 251 m 6 Y s 870 246 m 1 X s 883 246 m 1 X s 877 246 m20 891
 230 m 8 Y s 891 249 m 6 Y s 884 244 m 1 X s 897 244 m 1 X s 891 244 m20 905 213 m 10 Y s 905 234 m 7 Y s 898 228 m 1 X s 910 228 m 2 X s 905 228 m20 919 205 m 10 Y s 919 226 m 8 Y s 912 221 m 1 X s 924 221 m 1 X s 919 221 m20 932 236 m 8 Y s 932 255
 m 5 Y s 925 249 m 2 X s 938 249 m 1 X s 932 249 m20 946 216 m 9 Y s 946 236 m 7 Y s 939 231 m 1 X s 952 231 m 1 X s 946 231 m20 960 172 m 14 Y s 960 197 m 10 Y s 953 192 m 1 X s 966 192 m 1 X s 960 192 m20 974 202 m 10 Y s 974 223 m 8 Y s 967 218 m
 1 X s 979 218 m 2 X s 974 218 m20 black 153 118 m 828 X s 153 143 m -25 Y s 181 130 m -12 Y s 208 130 m -12 Y s 236 130 m -12 Y s 264 130 m -12 Y s 291 143 m -25 Y s 319 130 m -12 Y s 346 130 m -12 Y s 374 130 m -12 Y s 401 130 m -12 Y s 429 143 m
 -25 Y s 457 130 m -12 Y s 484 130 m -12 Y s 512 130 m -12 Y s 539 130 m -12 Y s 567 143 m -25 Y s 595 130 m -12 Y s 622 130 m -12 Y s 650 130 m -12 Y s 677 130 m -12 Y s 705 143 m -25 Y s 732 130 m -12 Y s 760 130 m -12 Y s 788 130 m -12 Y s 815 130
 m -12 Y s 843 143 m -25 Y s 870 130 m -12 Y s 898 130 m -12 Y s 925 130 m -12 Y s 953 130 m -12 Y s 981 143 m -25 Y s
 gsave  1088 1072 23 11 C 133.395 83.7267 t 0 r /Helvetica findfont 35.5047 sf 0 0 m (60) show NC gr 
 gsave  1088 1072 23 11 C 271.047 83.7267 t 0 r /Helvetica findfont 35.5047 sf 0 0 m (70) show NC gr 
 gsave  1088 1072 23 11 C 408.7 83.7267 t 0 r /Helvetica findfont 35.5047 sf 0 0 m (80) show NC gr 
 gsave  1088 1072 23 11 C 546.352 83.7267 t 0 r /Helvetica findfont 35.5047 sf 0 0 m (90) show NC gr 
 gsave  1088 1072 23 11 C 674.071 83.7267 t 0 r /Helvetica findfont 35.5047 sf 0 0 m (100) show NC gr 
 gsave  1088 1072 23 11 C 811.723 83.7267 t 0 r /Helvetica findfont 35.5047 sf 0 0 m (110) show NC gr 
 gsave  1088 1072 23 11 C 949.376 83.7267 t 0 r /Helvetica findfont 35.5047 sf 0 0 m (120) show NC gr 
 gsave  1088 1072 23 11 C 852.877 32.6392 t 0 r /Helvetica findfont 45.446 sf 0 0 m ( [GeV]) show NC gr 
 gsave  1088 1072 23 11 C 835.848 24.1246 t 0 r /Symbol findfont 29.8239 sf 0 0 m (m) show NC gr 
 gsave  1088 1072 23 11 C 818.819 24.1246 t 0 r /Symbol findfont 29.8239 sf 0 0 m (m) show NC gr 
 gsave  1088 1072 23 11 C 783.341 32.6392 t 0 r /Helvetica findfont 45.446 sf 0 0 m (M) show NC gr  153 118 m 858 Y s 166 145 m -13 X s 166 167 m -13 X s 166 184 m -13 X s 166 199 m -13 X s 166 211 m -13 X s 166 221 m -13 X s 166 230 m -13 X s 179
 238 m -26 X s
 gsave  1088 1072 23 11 C 131.976 225.636 t 0 r /Helvetica findfont 32.6643 sf 0 0 m (1) show NC gr  166 292 m -13 X s 166 324 m -13 X s 166 346 m -13 X s 166 363 m -13 X s 166 378 m -13 X s 166 389 m -13 X s 166 400 m -13 X s 166 409 m -13 X s 179
 417 m -26 X s
 gsave  1088 1072 23 11 C 109.27 404.443 t 0 r /Helvetica findfont 32.6643 sf 0 0 m (10) show NC gr  166 471 m -13 X s 166 503 m -13 X s 166 525 m -13 X s 166 542 m -13 X s 166 556 m -13 X s 166 568 m -13 X s 166 579 m -13 X s 166 588 m -13 X s 179
 596 m -26 X s
 gsave  1088 1072 23 11 C 131.976 596.021 t 0 r /Helvetica findfont 22.723 sf 0 0 m (2) show NC gr 
 gsave  1088 1072 23 11 C 96.4986 581.83 t 0 r /Helvetica findfont 32.6643 sf 0 0 m (10) show NC gr  166 650 m -13 X s 166 681 m -13 X s 166 704 m -13 X s 166 721 m -13 X s 166 735 m -13 X s 166 747 m -13 X s 166 758 m -13 X s 166 767 m -13 X s 179
 775 m -26 X s
 gsave  1088 1072 23 11 C 131.976 776.246 t 0 r /Helvetica findfont 22.723 sf 0 0 m (3) show NC gr 
 gsave  1088 1072 23 11 C 96.4986 760.636 t 0 r /Helvetica findfont 32.6643 sf 0 0 m (10) show NC gr  166 829 m -13 X s 166 860 m -13 X s 166 883 m -13 X s 166 900 m -13 X s 166 914 m -13 X s 166 926 m -13 X s 166 936 m -13 X s 166 946 m -13 X s 179
 954 m -26 X s
 gsave  1088 1072 23 11 C 131.976 953.633 t 0 r /Helvetica findfont 22.723 sf 0 0 m (4) show NC gr 
 gsave  1088 1072 23 11 C 96.4986 939.442 t 0 r /Helvetica findfont 32.6643 sf 0 0 m (10) show NC gr 
 gsave  1088 1072 23 11 C 69.5357 557.705 t 90 r /Helvetica findfont 45.446 sf 0 0 m (Entries / NormFactor) show NC gr  1 0 0 c 1 1 1 c 1 0 0 c 174 228 m 22 Y s 174 262 m 15 Y s 167 256 m 1 X s 180 256 m 1 X s 174 256 m24 188 184 m 31 Y s 188 227 m
 19 Y s 181 221 m 1 X s 193 221 m 2 X s 188 221 m24 202 236 m 21 Y s 202 268 m 15 Y s 195 263 m 1 X s 207 263 m 1 X s 202 263 m24 215 228 m 22 Y s 215 262 m 15 Y s 208 256 m 2 X s 221 256 m 1 X s 215 256 m24 229 168 m 35 Y s 229 215 m 21 Y s 222 209
 m 1 X s 235 209 m 1 X s 229 209 m24 243 228 m 22 Y s 243 262 m 15 Y s 236 256 m 1 X s 249 256 m 1 X s 243 256 m24 257 263 m 16 Y s 257 291 m 11 Y s 250 285 m 1 X s 262 285 m 2 X s 257 285 m24 270 184 m 31 Y s 270 227 m 19 Y s 264 221 m 1 X s 276 221
 m 1 X s 270 221 m24 284 236 m 21 Y s 284 268 m 15 Y s 277 263 m 2 X s 290 263 m 1 X s 284 263 m24 298 228 m 22 Y s 298 262 m 15 Y s 291 256 m 1 X s 304 256 m 1 X s 298 256 m24 312 219 m 24 Y s 312 254 m 16 Y s 305 249 m 1 X s 318 249 m 1 X s 312 249
 m24 326 124 m 48 Y s 326 183 m 26 Y s 319 177 m 1 X s 331 177 m 2 X s 326 177 m24 339 168 m 35 Y s 339 215 m 21 Y s 333 209 m 1 X s 345 209 m 1 X s 339 209 m24 353 236 m 21 Y s 353 268 m 15 Y s 346 263 m 2 X s 359 263 m 1 X s 353 263 m24 367 209 m
 26 Y s 367 246 m 17 Y s 360 240 m 1 X s 373 240 m 1 X s 367 240 m24 381 209 m 26 Y s 381 246 m 17 Y s 374 240 m 1 X s 386 240 m 2 X s 381 240 m24 395 124 m 48 Y s 395 183 m 26 Y s 388 177 m 1 X s 400 177 m 1 X s 395 177 m24 408 197 m 29 Y s 408 237
 m 18 Y s 401 231 m 2 X s 414 231 m 1 X s 408 231 m24 422 149 m 40 Y s 422 200 m 24 Y s 415 195 m 1 X s 428 195 m 1 X s 422 195 m24 436 129 m 36 Y s 429 124 m 1 X s 442 124 m 1 X s 436 124 m24 450 219 m 24 Y s 450 254 m 16 Y s 443 249 m 1 X s 455 249
 m 2 X s 450 249 m24 464 118 m 31 Y s 464 161 m 30 Y s 457 155 m 1 X s 469 155 m 1 X s 464 155 m24 477 197 m 29 Y s 477 237 m 18 Y s 470 231 m 2 X s 483 231 m 1 X s 477 231 m24 491 184 m 31 Y s 491 227 m 19 Y s 484 221 m 1 X s 497 221 m 1 X s 491 221
 m24 505 219 m 24 Y s 505 254 m 16 Y s 498 249 m 1 X s 511 249 m 1 X s 505 249 m24 532 124 m 48 Y s 532 183 m 26 Y s 526 177 m 1 X s 538 177 m 1 X s 532 177 m24 546 129 m 36 Y s 539 124 m 2 X s 552 124 m 1 X s 546 124 m24 560 168 m 35 Y s 560 215 m
 21 Y s 553 209 m 1 X s 566 209 m 1 X s 560 209 m24 574 129 m 36 Y s 567 124 m 1 X s 579 124 m 2 X s 574 124 m24 588 149 m 40 Y s 588 200 m 24 Y s 581 195 m 1 X s 593 195 m 2 X s 588 195 m24 601 124 m 48 Y s 601 183 m 26 Y s 595 177 m 1 X s 607 177 m
 1 X s 601 177 m24 615 124 m 48 Y s 615 183 m 26 Y s 608 177 m 2 X s 621 177 m 1 X s 615 177 m24 629 149 m 40 Y s 629 200 m 24 Y s 622 195 m 1 X s 635 195 m 1 X s 629 195 m24 643 149 m 40 Y s 643 200 m 24 Y s 636 195 m 1 X s 648 195 m 2 X s 643 195
 m24 657 124 m 48 Y s 657 183 m 26 Y s 650 177 m 1 X s 662 177 m 1 X s 657 177 m24 670 118 m 31 Y s 670 161 m 30 Y s 663 155 m 2 X s 676 155 m 1 X s 670 155 m24 684 118 m 31 Y s 684 161 m 30 Y s 677 155 m 1 X s 690 155 m 1 X s 684 155 m24 698 129 m
 36 Y s 691 124 m 1 X s 704 124 m 1 X s 698 124 m24 712 124 m 48 Y s 712 183 m 26 Y s 705 177 m 1 X s 717 177 m 2 X s 712 177 m24 725 124 m 48 Y s 725 183 m 26 Y s 719 177 m 1 X s 731 177 m 1 X s 725 177 m24 739 129 m 36 Y s 732 124 m 2 X s 745 124 m
 1 X s 739 124 m24 767 168 m 35 Y s 767 215 m 21 Y s 760 209 m 1 X s 773 209 m 1 X s 767 209 m24 781 124 m 48 Y s 781 183 m 26 Y s 774 177 m 1 X s 786 177 m 2 X s 781 177 m24 808 168 m 35 Y s 808 215 m 21 Y s 801 209 m 2 X s 814 209 m 1 X s 808 209
 m24 822 129 m 36 Y s 815 124 m 1 X s 828 124 m 1 X s 822 124 m24 836 129 m 36 Y s 829 124 m 1 X s 841 124 m 2 X s 836 124 m24 850 118 m 31 Y s 850 161 m 30 Y s 843 155 m 1 X s 855 155 m 1 X s 850 155 m24 863 124 m 48 Y s 863 183 m 26 Y s 856 177 m 2
 X s 869 177 m 1 X s 863 177 m24 877 118 m 31 Y s 877 161 m 30 Y s 870 155 m 1 X s 883 155 m 1 X s 877 155 m24 905 124 m 48 Y s 905 183 m 26 Y s 898 177 m 1 X s 910 177 m 2 X s 905 177 m24 919 118 m 31 Y s 919 161 m 30 Y s 912 155 m 1 X s 924 155 m 1
 X s 919 155 m24 932 149 m 40 Y s 932 200 m 24 Y s 925 195 m 2 X s 938 195 m 1 X s 932 195 m24 946 129 m 36 Y s 939 124 m 1 X s 952 124 m 1 X s 946 124 m24 960 129 m 36 Y s 953 124 m 1 X s 966 124 m 1 X s 960 124 m24 974 168 m 35 Y s 974 215 m 21 Y s
 967 209 m 1 X s 979 209 m 2 X s 974 209 m24 black 1 1 1 c black 174 292 188 238 202 378 215 238 229 324 243 324 257 378 270 292 284 324 298 378 312 378 326 378 339 389 353 292 367 363 381 324 395 389 408 324 422 425 436 400 450 431 464 400 477 478
 491 449 505 491 519 521 532 531 546 597 560 596 574 624 588 618 601 599 615 582 629 508 643 488 657 454 670 417 684 363 698 431 712 292 725 389 739 292 753 324 767 346 781 346 822 292 836 292 850 238 891 292 905 324 50 { m20} R 919 292 932 238 946
 238 960 346 974 324 5 { m20} R 1 1 1 c black 174 238 215 238 243 238 270 292 284 292 312 238 339 238 353 292 367 292 381 238 408 238 422 238 436 324 464 292 477 238 519 292 532 238 560 238 615 238 629 292 670 292 753 292 767 238 781 238 794 238 822
 238 26 { m24} R 0 0 1 c[ 12 12] 0 sd 6 lw 443 118 m 446 Y s 719 118 m 446 Y s black[  ] 0 sd 3 lw 1 1 1 c 272 268 186 654 bf black
 gsave  1088 1072 23 11 C 252.599 874.164 t 0 r /Helvetica findfont 39.7652 sf 0 0 m (OC data: 1061) show NC gr  220 889 m20
 gsave  1088 1072 23 11 C 252.599 807.466 t 0 r /Helvetica findfont 39.7652 sf 0 0 m (SC data: 39) show NC gr  220 822 m24
 gsave  1088 1072 23 11 C 252.599 740.768 t 0 r /Helvetica findfont 39.7652 sf 0 0 m (OC MC: 38701) show NC gr  1 0 0 c 220 755 m20 black
 gsave  1088 1072 23 11 C 252.599 674.071 t 0 r /Helvetica findfont 39.7652 sf 0 0 m (SC MC: 327) show NC gr  1 0 0 c 220 688 m24 black
 gsave  1088 1072 23 11 C 566.22 901.126 t 0 r /Helvetica-Bold findfont 59.6478 sf 0 0 m (pp collisions) show NC gr  1 1 1 c 1088 1072 1157 11 bf black 1 1 1 c 827 858 1287 118 bf black 827 858 1287 118 bl 1 1 1 c 827 858 1287 118 bf black 827 858
 1287 118 bl 1 0 0 c 1 1 1 c 1 0 0 c 1308 268 m 5 Y s 1308 284 m 4 Y s 1301 278 m 1 X s 1314 278 m 1 X s 1308 278 m20 1322 286 m 4 Y s 1322 301 m 3 Y s 1315 295 m 1 X s 1327 295 m 2 X s 1322 295 m20 1335 284 m 4 Y s 1335 299 m 3 Y s 1329 293 m 1 X s
 1341 293 m 1 X s 1335 293 m20 1349 289 m 4 Y s 1349 304 m 3 Y s 1342 298 m 2 X s 1355 298 m 1 X s 1349 298 m20 1363 284 m 4 Y s 1363 299 m 3 Y s 1356 293 m 1 X s 1369 293 m 1 X s 1363 293 m20 1377 303 m 2 Y s 1377 317 m 2 Y s 1370 311 m 1 X s 1382
 311 m 2 X s 1377 311 m20 1391 312 m 2 Y s 1391 325 m 2 Y s 1384 320 m 1 X s 1396 320 m 1 X s 1391 320 m20 1404 289 m 4 Y s 1404 304 m 3 Y s 1397 298 m 2 X s 1410 298 m 1 X s 1404 298 m20 1418 307 m 2 Y s 1418 321 m 2 Y s 1411 315 m 1 X s 1424 315 m
 1 X s 1418 315 m20 1432 308 m 2 Y s 1432 322 m 1 Y s 1425 316 m 1 X s 1438 316 m 1 X s 1432 316 m20 1446 318 m 2 Y s 1446 331 m 2 Y s 1439 325 m 1 X s 1451 325 m 2 X s 1446 325 m20 1460 327 m 2 Y s 1460 340 m 1 Y s 1453 335 m 1 X s 1465 335 m 1 X s
 1460 335 m20 1473 325 m 1 Y s 1473 338 m 1 Y s 1466 332 m 2 X s 1479 332 m 1 X s 1473 332 m20 1487 331 m 1 Y s 1487 343 m 1 Y s 1480 338 m 1 X s 1493 338 m 1 X s 1487 338 m20 1501 342 m 1 Y s 1501 354 m 1 Y s 1494 349 m 1 X s 1507 349 m 1 X s 1501
 349 m20 1515 342 m 1 Y s 1515 354 m 1 Y s 1508 349 m 1 X s 1520 349 m 2 X s 1515 349 m20 1528 364 m s 1522 369 m 1 X s 1534 369 m 1 X s 1528 369 m20 1535 387 m 2 X s 1548 387 m 1 X s 1542 387 m20 1549 389 m 1 X s 1562 389 m 1 X s 1556 389 m20 1563
 399 m 1 X s 1575 399 m 2 X s 1570 399 m20 1577 422 m 1 X s 1589 422 m 1 X s 1584 422 m20 1590 439 m 2 X s 1603 439 m 1 X s 1597 439 m20 1604 452 m 1 X s 1617 452 m 1 X s 1611 452 m20 1618 468 m 1 X s 1631 468 m 1 X s 1625 468 m20 1632 499 m 1 X s
 1644 499 m 2 X s 1639 499 m20 1646 529 m 1 X s 1658 529 m 1 X s 1653 529 m20 1659 555 m 2 X s 1672 555 m 1 X s 1666 555 m20 1673 584 m 1 X s 1686 584 m 1 X s 1680 584 m20 1687 607 m 1 X s 1700 607 m 1 X s 1694 607 m20 1701 618 m 1 X s 1713 618 m 2 X
 s 1708 618 m20 1715 614 m 1 X s 1727 614 m 1 X s 1721 614 m20 1728 598 m 2 X s 1741 598 m 1 X s 1735 598 m20 1742 573 m 1 X s 1755 573 m 1 X s 1749 573 m20 1756 538 m 1 X s 1769 538 m 1 X s 1763 538 m20 1770 501 m 1 X s 1782 501 m 2 X s 1777 501 m20
 1784 464 m 1 X s 1796 464 m 1 X s 1790 464 m20 1797 432 m 2 X s 1810 432 m 1 X s 1804 432 m20 1811 418 m 1 X s 1824 418 m 1 X s 1818 418 m20 1825 395 m 1 X s 1837 395 m 2 X s 1832 395 m20 1839 375 m 1 X s 1851 375 m 1 X s 1846 375 m20 1859 345 m 1 Y
 s 1859 357 m s 1852 351 m 2 X s 1865 351 m 1 X s 1859 351 m20 1873 306 m 3 Y s 1873 320 m 2 Y s 1866 314 m 1 X s 1879 314 m 1 X s 1873 314 m20 1887 326 m 2 Y s 1887 339 m 1 Y s 1880 333 m 1 X s 1893 333 m 1 X s 1887 333 m20 1901 295 m 3 Y s 1901 310
 m 2 Y s 1894 304 m 1 X s 1906 304 m 2 X s 1901 304 m20 1914 290 m 4 Y s 1914 305 m 3 Y s 1908 299 m 1 X s 1920 299 m 1 X s 1914 299 m20 1928 297 m 3 Y s 1928 312 m 2 Y s 1921 306 m 2 X s 1934 306 m 1 X s 1928 306 m20 1942 269 m 5 Y s 1942 285 m 4 Y
 s 1935 280 m 1 X s 1948 280 m 1 X s 1942 280 m20 1956 286 m 4 Y s 1956 301 m 3 Y s 1949 295 m 1 X s 1962 295 m 1 X s 1956 295 m20 1970 257 m 6 Y s 1970 275 m 4 Y s 1963 269 m 1 X s 1975 269 m 2 X s 1970 269 m20 1983 246 m 6 Y s 1983 264 m 5 Y s 1977
 258 m 1 X s 1989 258 m 1 X s 1983 258 m20 1997 248 m 6 Y s 1997 265 m 5 Y s 1990 260 m 2 X s 2003 260 m 1 X s 1997 260 m20 2011 232 m 8 Y s 2011 251 m 6 Y s 2004 246 m 1 X s 2017 246 m 1 X s 2011 246 m20 2025 230 m 8 Y s 2025 249 m 6 Y s 2018 244 m
 1 X s 2030 244 m 2 X s 2025 244 m20 2039 213 m 10 Y s 2039 234 m 7 Y s 2032 228 m 1 X s 2044 228 m 1 X s 2039 228 m20 2052 205 m 10 Y s 2052 226 m 8 Y s 2045 221 m 2 X s 2058 221 m 1 X s 2052 221 m20 2066 236 m 8 Y s 2066 255 m 5 Y s 2059 249 m 1 X
 s 2072 249 m 1 X s 2066 249 m20 2080 216 m 9 Y s 2080 236 m 7 Y s 2073 231 m 1 X s 2086 231 m 1 X s 2080 231 m20 2094 172 m 14 Y s 2094 197 m 10 Y s 2087 192 m 1 X s 2099 192 m 2 X s 2094 192 m20 2108 202 m 10 Y s 2108 223 m 8 Y s 2101 218 m 1 X s
 2113 218 m 1 X s 2108 218 m20 black 1287 118 m 827 X s 1287 143 m -25 Y s 1315 130 m -12 Y s 1342 130 m -12 Y s 1370 130 m -12 Y s 1397 130 m -12 Y s 1425 143 m -25 Y s 1453 130 m -12 Y s 1480 130 m -12 Y s 1508 130 m -12 Y s 1535 130 m -12 Y s 1563
 143 m -25 Y s 1590 130 m -12 Y s 1618 130 m -12 Y s 1646 130 m -12 Y s 1673 130 m -12 Y s 1701 143 m -25 Y s 1728 130 m -12 Y s 1756 130 m -12 Y s 1784 130 m -12 Y s 1811 130 m -12 Y s 1839 143 m -25 Y s 1866 130 m -12 Y s 1894 130 m -12 Y s 1921
 130 m -12 Y s 1949 130 m -12 Y s 1977 143 m -25 Y s 2004 130 m -12 Y s 2032 130 m -12 Y s 2059 130 m -12 Y s 2087 130 m -12 Y s 2114 143 m -25 Y s
 gsave  1088 1072 1157 11 C 1267.25 83.7267 t 0 r /Helvetica findfont 35.5047 sf 0 0 m (60) show NC gr 
 gsave  1088 1072 1157 11 C 1404.91 83.7267 t 0 r /Helvetica findfont 35.5047 sf 0 0 m (70) show NC gr 
 gsave  1088 1072 1157 11 C 1542.56 83.7267 t 0 r /Helvetica findfont 35.5047 sf 0 0 m (80) show NC gr 
 gsave  1088 1072 1157 11 C 1680.21 83.7267 t 0 r /Helvetica findfont 35.5047 sf 0 0 m (90) show NC gr 
 gsave  1088 1072 1157 11 C 1807.93 83.7267 t 0 r /Helvetica findfont 35.5047 sf 0 0 m (100) show NC gr 
 gsave  1088 1072 1157 11 C 1945.58 83.7267 t 0 r /Helvetica findfont 35.5047 sf 0 0 m (110) show NC gr 
 gsave  1088 1072 1157 11 C 2083.23 83.7267 t 0 r /Helvetica findfont 35.5047 sf 0 0 m (120) show NC gr 
 gsave  1088 1072 1157 11 C 1986.74 32.6392 t 0 r /Helvetica findfont 45.446 sf 0 0 m ( [GeV]) show NC gr 
 gsave  1088 1072 1157 11 C 1969.71 24.1246 t 0 r /Symbol findfont 29.8239 sf 0 0 m (m) show NC gr 
 gsave  1088 1072 1157 11 C 1952.68 24.1246 t 0 r /Symbol findfont 29.8239 sf 0 0 m (m) show NC gr 
 gsave  1088 1072 1157 11 C 1917.2 32.6392 t 0 r /Helvetica findfont 45.446 sf 0 0 m (M) show NC gr  1287 118 m 858 Y s 1300 145 m -13 X s 1300 167 m -13 X s 1300 184 m -13 X s 1300 199 m -13 X s 1300 211 m -13 X s 1300 221 m -13 X s 1300 230 m -13 X
 s 1313 238 m -26 X s
 gsave  1088 1072 1157 11 C 1265.83 225.636 t 0 r /Helvetica findfont 32.6643 sf 0 0 m (1) show NC gr  1300 292 m -13 X s 1300 324 m -13 X s 1300 346 m -13 X s 1300 363 m -13 X s 1300 378 m -13 X s 1300 389 m -13 X s 1300 400 m -13 X s 1300 409 m -13
 X s 1313 417 m -26 X s
 gsave  1088 1072 1157 11 C 1243.13 404.443 t 0 r /Helvetica findfont 32.6643 sf 0 0 m (10) show NC gr  1300 471 m -13 X s 1300 503 m -13 X s 1300 525 m -13 X s 1300 542 m -13 X s 1300 556 m -13 X s 1300 568 m -13 X s 1300 579 m -13 X s 1300 588 m
 -13 X s 1313 596 m -26 X s
 gsave  1088 1072 1157 11 C 1265.83 596.021 t 0 r /Helvetica findfont 22.723 sf 0 0 m (2) show NC gr 
 gsave  1088 1072 1157 11 C 1230.36 581.83 t 0 r /Helvetica findfont 32.6643 sf 0 0 m (10) show NC gr  1300 650 m -13 X s 1300 681 m -13 X s 1300 704 m -13 X s 1300 721 m -13 X s 1300 735 m -13 X s 1300 747 m -13 X s 1300 758 m -13 X s 1300 767 m -13
 X s 1313 775 m -26 X s
 gsave  1088 1072 1157 11 C 1265.83 776.246 t 0 r /Helvetica findfont 22.723 sf 0 0 m (3) show NC gr 
 gsave  1088 1072 1157 11 C 1230.36 760.636 t 0 r /Helvetica findfont 32.6643 sf 0 0 m (10) show NC gr  1300 829 m -13 X s 1300 860 m -13 X s 1300 883 m -13 X s 1300 900 m -13 X s 1300 914 m -13 X s 1300 926 m -13 X s 1300 936 m -13 X s 1300 946 m
 -13 X s 1313 954 m -26 X s
 gsave  1088 1072 1157 11 C 1265.83 953.633 t 0 r /Helvetica findfont 22.723 sf 0 0 m (4) show NC gr 
 gsave  1088 1072 1157 11 C 1230.36 939.442 t 0 r /Helvetica findfont 32.6643 sf 0 0 m (10) show NC gr 
 gsave  1088 1072 1157 11 C 1203.39 557.705 t 90 r /Helvetica findfont 45.446 sf 0 0 m (Entries / NormFactor) show NC gr  1 0 0 c 1 1 1 c 1 0 0 c 1308 228 m 22 Y s 1308 262 m 15 Y s 1301 256 m 1 X s 1314 256 m 1 X s 1308 256 m24 1322 184 m 31 Y s
 1322 227 m 19 Y s 1315 221 m 1 X s 1327 221 m 2 X s 1322 221 m24 1335 236 m 21 Y s 1335 268 m 15 Y s 1329 263 m 1 X s 1341 263 m 1 X s 1335 263 m24 1349 228 m 22 Y s 1349 262 m 15 Y s 1342 256 m 2 X s 1355 256 m 1 X s 1349 256 m24 1363 168 m 35 Y s
 1363 215 m 21 Y s 1356 209 m 1 X s 1369 209 m 1 X s 1363 209 m24 1377 228 m 22 Y s 1377 262 m 15 Y s 1370 256 m 1 X s 1382 256 m 2 X s 1377 256 m24 1391 263 m 16 Y s 1391 291 m 11 Y s 1384 285 m 1 X s 1396 285 m 1 X s 1391 285 m24 1404 184 m 31 Y s
 1404 227 m 19 Y s 1397 221 m 2 X s 1410 221 m 1 X s 1404 221 m24 1418 236 m 21 Y s 1418 268 m 15 Y s 1411 263 m 1 X s 1424 263 m 1 X s 1418 263 m24 1432 228 m 22 Y s 1432 262 m 15 Y s 1425 256 m 1 X s 1438 256 m 1 X s 1432 256 m24 1446 219 m 24 Y s
 1446 254 m 16 Y s 1439 249 m 1 X s 1451 249 m 2 X s 1446 249 m24 1460 124 m 48 Y s 1460 183 m 26 Y s 1453 177 m 1 X s 1465 177 m 1 X s 1460 177 m24 1473 168 m 35 Y s 1473 215 m 21 Y s 1466 209 m 2 X s 1479 209 m 1 X s 1473 209 m24 1487 236 m 21 Y s
 1487 268 m 15 Y s 1480 263 m 1 X s 1493 263 m 1 X s 1487 263 m24 1501 209 m 26 Y s 1501 246 m 17 Y s 1494 240 m 1 X s 1507 240 m 1 X s 1501 240 m24 1515 209 m 26 Y s 1515 246 m 17 Y s 1508 240 m 1 X s 1520 240 m 2 X s 1515 240 m24 1528 124 m 48 Y s
 1528 183 m 26 Y s 1522 177 m 1 X s 1534 177 m 1 X s 1528 177 m24 1542 197 m 29 Y s 1542 237 m 18 Y s 1535 231 m 2 X s 1548 231 m 1 X s 1542 231 m24 1556 149 m 40 Y s 1556 200 m 24 Y s 1549 195 m 1 X s 1562 195 m 1 X s 1556 195 m24 1570 129 m 36 Y s
 1563 124 m 1 X s 1575 124 m 2 X s 1570 124 m24 1584 219 m 24 Y s 1584 254 m 16 Y s 1577 249 m 1 X s 1589 249 m 1 X s 1584 249 m24 1597 118 m 31 Y s 1597 161 m 30 Y s 1590 155 m 2 X s 1603 155 m 1 X s 1597 155 m24 1611 197 m 29 Y s 1611 237 m 18 Y s
 1604 231 m 1 X s 1617 231 m 1 X s 1611 231 m24 1625 184 m 31 Y s 1625 227 m 19 Y s 1618 221 m 1 X s 1631 221 m 1 X s 1625 221 m24 1639 219 m 24 Y s 1639 254 m 16 Y s 1632 249 m 1 X s 1644 249 m 2 X s 1639 249 m24 1666 124 m 48 Y s 1666 183 m 26 Y s
 1659 177 m 2 X s 1672 177 m 1 X s 1666 177 m24 1680 129 m 36 Y s 1673 124 m 1 X s 1686 124 m 1 X s 1680 124 m24 1694 168 m 35 Y s 1694 215 m 21 Y s 1687 209 m 1 X s 1700 209 m 1 X s 1694 209 m24 1708 129 m 36 Y s 1701 124 m 1 X s 1713 124 m 2 X s
 1708 124 m24 1721 149 m 40 Y s 1721 200 m 24 Y s 1715 195 m 1 X s 1727 195 m 1 X s 1721 195 m24 1735 124 m 48 Y s 1735 183 m 26 Y s 1728 177 m 2 X s 1741 177 m 1 X s 1735 177 m24 1749 124 m 48 Y s 1749 183 m 26 Y s 1742 177 m 1 X s 1755 177 m 1 X s
 1749 177 m24 1763 149 m 40 Y s 1763 200 m 24 Y s 1756 195 m 1 X s 1769 195 m 1 X s 1763 195 m24 1777 149 m 40 Y s 1777 200 m 24 Y s 1770 195 m 1 X s 1782 195 m 2 X s 1777 195 m24 1790 124 m 48 Y s 1790 183 m 26 Y s 1784 177 m 1 X s 1796 177 m 1 X s
 1790 177 m24 1804 118 m 31 Y s 1804 161 m 30 Y s 1797 155 m 2 X s 1810 155 m 1 X s 1804 155 m24 1818 118 m 31 Y s 1818 161 m 30 Y s 1811 155 m 1 X s 1824 155 m 1 X s 1818 155 m24 1832 129 m 36 Y s 1825 124 m 1 X s 1837 124 m 2 X s 1832 124 m24 1846
 124 m 48 Y s 1846 183 m 26 Y s 1839 177 m 1 X s 1851 177 m 1 X s 1846 177 m24 1859 124 m 48 Y s 1859 183 m 26 Y s 1852 177 m 2 X s 1865 177 m 1 X s 1859 177 m24 1873 129 m 36 Y s 1866 124 m 1 X s 1879 124 m 1 X s 1873 124 m24 1901 168 m 35 Y s 1901
 215 m 21 Y s 1894 209 m 1 X s 1906 209 m 2 X s 1901 209 m24 1914 124 m 48 Y s 1914 183 m 26 Y s 1908 177 m 1 X s 1920 177 m 1 X s 1914 177 m24 1942 168 m 35 Y s 1942 215 m 21 Y s 1935 209 m 1 X s 1948 209 m 1 X s 1942 209 m24 1956 129 m 36 Y s 1949
 124 m 1 X s 1962 124 m 1 X s 1956 124 m24 1970 129 m 36 Y s 1963 124 m 1 X s 1975 124 m 2 X s 1970 124 m24 1983 118 m 31 Y s 1983 161 m 30 Y s 1977 155 m 1 X s 1989 155 m 1 X s 1983 155 m24 1997 124 m 48 Y s 1997 183 m 26 Y s 1990 177 m 2 X s 2003
 177 m 1 X s 1997 177 m24 2011 118 m 31 Y s 2011 161 m 30 Y s 2004 155 m 1 X s 2017 155 m 1 X s 2011 155 m24 2039 124 m 48 Y s 2039 183 m 26 Y s 2032 177 m 1 X s 2044 177 m 1 X s 2039 177 m24 2052 118 m 31 Y s 2052 161 m 30 Y s 2045 155 m 2 X s 2058
 155 m 1 X s 2052 155 m24 2066 149 m 40 Y s 2066 200 m 24 Y s 2059 195 m 1 X s 2072 195 m 1 X s 2066 195 m24 2080 129 m 36 Y s 2073 124 m 1 X s 2086 124 m 1 X s 2080 124 m24 2094 129 m 36 Y s 2087 124 m 1 X s 2099 124 m 2 X s 2094 124 m24 2108 168 m
 35 Y s 2108 215 m 21 Y s 2101 209 m 1 X s 2113 209 m 1 X s 2108 209 m24 black 1 1 1 c black 1308 292 1322 238 1335 378 1349 238 1363 324 1377 324 1391 378 1404 292 1418 324 1432 378 1446 378 1460 378 1473 389 1487 292 1501 363 1515 324 1528 389 1542
 324 1556 425 1570 400 1584 431 1597 400 1611 478 1625 449 1639 491 1653 521 1666 531 1680 597 1694 596 1708 624 1721 618 1735 599 1749 582 1763 508 1777 488 1790 454 1804 417 1818 363 1832 431 1846 292 1859 389 1873 292 1887 324 1901 346 1914 346
 1956 292 1970 292 1983 238 2025 292 2039 324 50 { m20} R 2052 292 2066 238 2080 238 2094 346 2108 324 5 { m20} R 1 1 1 c black 1308 238 1349 238 1377 238 1404 292 1418 292 1446 238 1473 238 1487 292 1501 292 1515 238 1542 238 1556 238 1570 324 1597
 292 1611 238 1653 292 1666 238 1694 238 1749 238 1763 292 1804 292 1887 292 1901 238 1914 238 1928 238 1956 238 26 { m24} R 0 0 1 c[ 12 12] 0 sd 6 lw 1577 118 m 446 Y s 1852 118 m 446 Y s black[  ] 0 sd 3 lw 1 1 1 c 272 268 1320 654 bf black
 gsave  1088 1072 1157 11 C 1386.46 874.164 t 0 r /Helvetica findfont 39.7652 sf 0 0 m (OC data: 1061) show NC gr  1354 889 m20
 gsave  1088 1072 1157 11 C 1386.46 807.466 t 0 r /Helvetica findfont 39.7652 sf 0 0 m (SC data: 39) show NC gr  1354 822 m24
 gsave  1088 1072 1157 11 C 1386.46 740.768 t 0 r /Helvetica findfont 39.7652 sf 0 0 m (OC MC: 38701) show NC gr  1 0 0 c 1354 755 m20 black
 gsave  1088 1072 1157 11 C 1386.46 674.071 t 0 r /Helvetica findfont 39.7652 sf 0 0 m (SC MC: 327) show NC gr  1 0 0 c 1354 688 m24 black
 gsave  1088 1072 1157 11 C 1700.08 901.126 t 0 r /Helvetica-Bold findfont 59.6478 sf 0 0 m (pp collisions) show NC gr 
 gr  gr showpage
end
%%EOF
