%!PS-Adobe-2.0 EPSF-2.0
%%BoundingBox:  0 0 567 354
%%Title: : Results
%%Creator: ROOT Version 6.16/00
%%CreationDate: Tue Apr 23 09:57:57 2019
%%DocumentNeededResources: ProcSet (FontSetInit)
%%EndComments
%%BeginProlog
80 dict begin
/s {stroke} def /l {lineto} def /m {moveto} def /t {translate} def
/r {rotate} def /rl {roll}  def /R {repeat} def
/d {rlineto} def /rm {rmoveto} def /gr {grestore} def /f {eofill} def
/c {setrgbcolor} def /black {0 setgray} def /sd {setdash} def
/cl {closepath} def /sf {scalefont setfont} def /lw {setlinewidth} def
/box {m dup 0 exch d exch 0 d 0 exch neg d cl} def
/NC{systemdict begin initclip end}def/C{NC box clip newpath}def
/bl {box s} def /bf {gsave box gsave f grestore 1 lw [] 0 sd s grestore} def /Y { 0 exch d} def /X { 0 d} def 
/K {{pop pop 0 moveto} exch kshow} bind def
/ita {/ang 15 def gsave [1 0 ang dup sin exch cos div 1 0 0] concat} def 
/mp {newpath /y exch def /x exch def} def
/side {[w .77 mul w .23 mul] .385 w mul sd w 0 l currentpoint t -144 r} def
/mr {mp x y w2 0 360 arc} def /m24 {mr s} def /m20 {mr f} def
/mb {mp x y w2 add m w2 neg 0 d 0 w neg d w 0 d 0 w d cl} def
/mt {mp x y w2 add m w2 neg w neg d w 0 d cl} def
/w4 {w 4 div} def
/w6 {w 6 div} def
/w8 {w 8 div} def
/m21 {mb f} def /m25 {mb s} def /m22 {mt f} def /m26{mt s} def
/m23 {mp x y w2 sub m w2 w d w neg 0 d cl f} def
/m27 {mp x y w2 add m w3 neg w2 neg d w3 w2 neg d w3 w2 d cl s} def
/m28 {mp x w2 sub y w2 sub w3 add m w3 0 d  0 w3 neg d w3 0 d 0 w3 d w3 0 d  0 w3 d w3 neg 0 d 0 w3 d w3 neg 0 d 0 w3 neg d w3 neg 0 d cl s } def
/m29 {mp gsave x w2 sub y w2 add w3 sub m currentpoint t 4 {side} repeat cl fill gr} def
/m30 {mp gsave x w2 sub y w2 add w3 sub m currentpoint t 4 {side} repeat cl s gr} def
/m31 {mp x y w2 sub m 0 w d x w2 sub y m w 0 d x w2 sub y w2 add m w w neg d x w2 sub y w2 sub m w w d s} def
/m32 {mp x y w2 sub m w2 w d w neg 0 d cl s} def
/m33 {mp x y w2 add m w3 neg w2 neg d w3 w2 neg d w3 w2 d cl f} def
/m34 {mp x w2 sub y w2 sub w3 add m w3 0 d  0 w3 neg d w3 0 d 0 w3 d w3 0 d  0 w3 d w3 neg 0 d 0 w3 d w3 neg 0 d 0 w3 neg d w3 neg 0 d cl f } def
/m35 {mp x y w2 add m w2 neg w2 neg d w2 w2 neg d w2 w2 d w2 neg w2 d x y w2 sub m 0 w d x w2 sub y m w 0 d s} def
/m36 {mb x w2 sub y w2 add m w w neg d x w2 sub y w2 sub m w w d s} def
/m37 {mp x y m w4 neg w2 d w4 neg w2 neg d w2 0 d  w4 neg w2 neg d w2 0 d w4 neg w2 d w2 0 d w4 neg w2 d w4 neg w2 neg d cl s} def
/m38 {mp x w4 sub y w2 add m w4 neg w4 neg d 0 w2 neg d w4 w4 neg d w2 0 d w4 w4 d 0 w2 d w4 neg w4 d w2 neg 0 d x y w2 sub m 0 w d x w2 sub y m w 0 d cl s} def
/m39 {mp x y m w4 neg w2 d w4 neg w2 neg d w2 0 d  w4 neg w2 neg d w2 0 d w4 neg w2 d w2 0 d w4 neg w2 d w4 neg w2 neg d cl f} def
/m40 {mp x y m w4 w2 d w4 w4 neg d w2 neg w4 neg d w2 w4 neg d w4 neg w4 neg d w4 neg w2 d w4 neg w2 neg d w4 neg w4 d w2 w4 d w2 neg w4 d w4 w4 d w4 w2 neg d cl s} def
/m41 {mp x y m w4 w2 d w4 w4 neg d w2 neg w4 neg d w2 w4 neg d w4 neg w4 neg d w4 neg w2 d w4 neg w2 neg d w4 neg w4 d w2 w4 d w2 neg w4 d w4 w4 d w4 w2 neg d cl f} def
/m42 {mp x y w2 add m w8 neg w2 -3 4 div mul d w2 -3 4 div mul w8 neg d w2 3 4 div mul w8 neg d w8 w2 -3 4 div mul d w8 w2 3 4 div mul d w2 3 4 div mul w8 d w2 -3 4 div mul w8 d w8 neg w2 3 4 div mul d cl s} def
/m43 {mp x y w2 add m w8 neg w2 -3 4 div mul d w2 -3 4 div mul w8 neg d w2 3 4 div mul w8 neg d w8 w2 -3 4 div mul d w8 w2 3 4 div mul d w2 3 4 div mul w8 d w2 -3 4 div mul w8 d w8 neg w2 3 4 div mul d cl f} def
/m44 {mp x y m w6 neg w2 d w2 2 3 div mul 0 d w6 neg w2 neg d w2 w6 d 0 w2 -2 3 div mul d w2 neg w6 d w6 w2 neg d w2 -2 3 div mul 0 d w6 w2 d w2 neg w6 neg d 0 w2 2 3 div mul d w2 w6 neg d cl s} def
/m45 {mp x y m w6 neg w2 d w2 2 3 div mul 0 d w6 neg w2 neg d w2 w6 d 0 w2 -2 3 div mul d w2 neg w6 d w6 w2 neg d w2 -2 3 div mul 0 d w6 w2 d w2 neg w6 neg d 0 w2 2 3 div mul d w2 w6 neg d cl f} def
/m46 {mp x y w4 add m w4 neg w4 d w4 neg w4 neg d  w4 w4 neg d w4 neg w4 neg d w4 w4 neg d w4 w4 d w4 w4 neg d w4 w4 d w4 neg w4 d w4 w4 d w4 neg w4 d w4 neg w4 neg d cl s} def
/m47 {mp x y w4 add m w4 neg w4 d w4 neg w4 neg d w4 w4 neg d w4 neg w4 neg d  w4 w4 neg d w4 w4 d w4 w4 neg d w4 w4 d w4 neg w4 d w4 w4 d w4 neg w4 d w4 neg w4 neg d cl f} def
/m48 {mp x y w4 add m w4 neg w4 d w4 neg w4 neg d w4 w4 neg d  w4 neg w4 neg d w4 w4 neg d w4 w4 d w4 w4 neg d w4 w4 d w4 neg w4 d w4 w4 d w4 neg w4 d w4 neg w4 neg d  w4 w4 neg d w4 neg w4 neg d w4 neg w4 d w4 w4 d cl f} def
/m49 {mp x w2 sub w3 add y w2 sub w3 add m  0 w3 neg d w3 0 d 0 w3 d w3 0 d 0 w3 d w3 neg 0 d 0 w3 d w3 neg 0 d 0 w3 neg d w3 neg 0 d 0 w3 neg d w3 0 d 0 w3 d w3 0 d 0 w3 neg d w3 neg 0 d cl f } def
/m2 {mp x y w2 sub m 0 w d x w2 sub y m w 0 d s} def
/m5 {mp x w2 sub y w2 sub m w w d x w2 sub y w2 add m w w neg d s} def
%%IncludeResource: ProcSet (FontSetInit)
%%IncludeResource: font Times-Roman
%%IncludeResource: font Times-Italic
%%IncludeResource: font Times-Bold
%%IncludeResource: font Times-BoldItalic
%%IncludeResource: font Helvetica
%%IncludeResource: font Helvetica-Oblique
%%IncludeResource: font Helvetica-Bold
%%IncludeResource: font Helvetica-BoldOblique
%%IncludeResource: font Courier
%%IncludeResource: font Courier-Oblique
%%IncludeResource: font Courier-Bold
%%IncludeResource: font Courier-BoldOblique
%%IncludeResource: font Symbol
%%IncludeResource: font ZapfDingbats
/reEncode {exch findfont dup length dict begin {1 index /FID eq  {pop pop} {def} ifelse } forall /Encoding exch def currentdict end dup /FontName get exch definefont pop } def [/Times-Bold /Times-Italic /Times-BoldItalic /Helvetica /Helvetica-Oblique
 /Helvetica-Bold /Helvetica-BoldOblique /Courier /Courier-Oblique /Courier-Bold /Courier-BoldOblique /Times-Roman /AvantGarde-Book /AvantGarde-BookOblique /AvantGarde-Demi /AvantGarde-DemiOblique /Bookman-Demi /Bookman-DemiItalic /Bookman-Light
 /Bookman-LightItalic /Helvetica-Narrow /Helvetica-Narrow-Bold /Helvetica-Narrow-BoldOblique /Helvetica-Narrow-Oblique /NewCenturySchlbk-Roman /NewCenturySchlbk-Bold /NewCenturySchlbk-BoldItalic /NewCenturySchlbk-Italic /Palatino-Bold
 /Palatino-BoldItalic /Palatino-Italic /Palatino-Roman ] {ISOLatin1Encoding reEncode } forall
%%EndProlog
%%BeginSetup
%%EndSetup
newpath  gsave  .25 .25 scale  gsave  0 0 t black[  ] 0 sd 3 lw 1 1 1 c 2268 1418 0 0 bf black 1 1 1 c 1088 681 23 723 bf black 1 1 1 c black 1 1 1 c 828 343 153 999 bf black 828 343 153 999 bl 1 1 1 c 828 343 153 999 bf black 828 343 153 999 bl 153
 999 m 828 X s 153 1009 m -10 Y s 170 1004 m -5 Y s 186 1004 m -5 Y s 203 1004 m -5 Y s 219 1004 m -5 Y s 236 1009 m -10 Y s 253 1004 m -5 Y s 269 1004 m -5 Y s 286 1004 m -5 Y s 302 1004 m -5 Y s 319 1009 m -10 Y s 335 1004 m -5 Y s 352 1004 m -5 Y
 s 368 1004 m -5 Y s 385 1004 m -5 Y s 401 1009 m -10 Y s 418 1004 m -5 Y s 435 1004 m -5 Y s 451 1004 m -5 Y s 468 1004 m -5 Y s 484 1009 m -10 Y s 501 1004 m -5 Y s 517 1004 m -5 Y s 534 1004 m -5 Y s 550 1004 m -5 Y s 567 1009 m -10 Y s 583 1004 m
 -5 Y s 600 1004 m -5 Y s 617 1004 m -5 Y s 633 1004 m -5 Y s 650 1009 m -10 Y s 666 1004 m -5 Y s 683 1004 m -5 Y s 699 1004 m -5 Y s 716 1004 m -5 Y s 732 1009 m -10 Y s 749 1004 m -5 Y s 765 1004 m -5 Y s 782 1004 m -5 Y s 799 1004 m -5 Y s 815
 1009 m -10 Y s 832 1004 m -5 Y s 848 1004 m -5 Y s 865 1004 m -5 Y s 881 1004 m -5 Y s 898 1009 m -10 Y s 914 1004 m -5 Y s 931 1004 m -5 Y s 947 1004 m -5 Y s 964 1004 m -5 Y s 981 1009 m -10 Y s
 gsave  1088 409 23 995 C 147.586 986.272 t 0 r /Helvetica findfont 12.8036 sf 0 0 m (2.5) show NC gr 
 gsave  1088 409 23 995 C 139.071 986.272 t 0 r /Symbol findfont 12.8036 sf 0 0 m (-) show NC gr 
 gsave  1088 409 23 995 C 235.57 986.272 t 0 r /Helvetica findfont 12.8036 sf 0 0 m (2) show NC gr 
 gsave  1088 409 23 995 C 227.055 986.272 t 0 r /Symbol findfont 12.8036 sf 0 0 m (-) show NC gr 
 gsave  1088 409 23 995 C 312.201 986.272 t 0 r /Helvetica findfont 12.8036 sf 0 0 m (1.5) show NC gr 
 gsave  1088 409 23 995 C 303.687 986.272 t 0 r /Symbol findfont 12.8036 sf 0 0 m (-) show NC gr 
 gsave  1088 409 23 995 C 400.185 986.272 t 0 r /Helvetica findfont 12.8036 sf 0 0 m (1) show NC gr 
 gsave  1088 409 23 995 C 393.09 986.272 t 0 r /Symbol findfont 12.8036 sf 0 0 m (-) show NC gr 
 gsave  1088 409 23 995 C 478.236 986.272 t 0 r /Helvetica findfont 12.8036 sf 0 0 m (0.5) show NC gr 
 gsave  1088 409 23 995 C 469.721 986.272 t 0 r /Symbol findfont 12.8036 sf 0 0 m (-) show NC gr 
 gsave  1088 409 23 995 C 561.962 986.272 t 0 r /Helvetica findfont 12.8036 sf 0 0 m (0) show NC gr 
 gsave  1088 409 23 995 C 638.594 986.272 t 0 r /Helvetica findfont 12.8036 sf 0 0 m (0.5) show NC gr 
 gsave  1088 409 23 995 C 729.416 986.272 t 0 r /Helvetica findfont 12.8036 sf 0 0 m (1) show NC gr 
 gsave  1088 409 23 995 C 804.628 986.272 t 0 r /Helvetica findfont 12.8036 sf 0 0 m (1.5) show NC gr 
 gsave  1088 409 23 995 C 892.612 986.272 t 0 r /Helvetica findfont 12.8036 sf 0 0 m (2) show NC gr 
 gsave  1088 409 23 995 C 969.243 986.272 t 0 r /Helvetica findfont 12.8036 sf 0 0 m (2.5) show NC gr 
 gsave  1088 409 23 995 C 973.5 980.596 t 0 r /Symbol findfont 8.5357 sf 0 0 m (m) show NC gr 
 gsave  1088 409 23 995 C 966.405 973.5 t 0 r /Symbol findfont 12.8036 sf 0 0 m (h) show NC gr  153 1342 m 828 X s 153 1333 m 9 Y s 170 1338 m 4 Y s 186 1338 m 4 Y s 203 1338 m 4 Y s 219 1338 m 4 Y s 236 1333 m 9 Y s 253 1338 m 4 Y s 269 1338 m 4 Y s
 286 1338 m 4 Y s 302 1338 m 4 Y s 319 1333 m 9 Y s 335 1338 m 4 Y s 352 1338 m 4 Y s 368 1338 m 4 Y s 385 1338 m 4 Y s 401 1333 m 9 Y s 418 1338 m 4 Y s 435 1338 m 4 Y s 451 1338 m 4 Y s 468 1338 m 4 Y s 484 1333 m 9 Y s 501 1338 m 4 Y s 517 1338 m
 4 Y s 534 1338 m 4 Y s 550 1338 m 4 Y s 567 1333 m 9 Y s 583 1338 m 4 Y s 600 1338 m 4 Y s 617 1338 m 4 Y s 633 1338 m 4 Y s 650 1333 m 9 Y s 666 1338 m 4 Y s 683 1338 m 4 Y s 699 1338 m 4 Y s 716 1338 m 4 Y s 732 1333 m 9 Y s 749 1338 m 4 Y s 765
 1338 m 4 Y s 782 1338 m 4 Y s 799 1338 m 4 Y s 815 1333 m 9 Y s 832 1338 m 4 Y s 848 1338 m 4 Y s 865 1338 m 4 Y s 881 1338 m 4 Y s 898 1333 m 9 Y s 914 1338 m 4 Y s 931 1338 m 4 Y s 947 1338 m 4 Y s 964 1338 m 4 Y s 981 1333 m 9 Y s 153 999 m 343 Y
 s 181 1041 m -28 X s 167 1050 m -14 X s 167 1059 m -14 X s 167 1067 m -14 X s 167 1076 m -14 X s 181 1084 m -28 X s 167 1093 m -14 X s 167 1102 m -14 X s 167 1110 m -14 X s 167 1119 m -14 X s 181 1127 m -28 X s 167 1136 m -14 X s 167 1145 m -14 X s
 167 1153 m -14 X s 167 1162 m -14 X s 181 1170 m -28 X s 167 1179 m -14 X s 167 1188 m -14 X s 167 1196 m -14 X s 167 1205 m -14 X s 181 1213 m -28 X s 167 1222 m -14 X s 167 1231 m -14 X s 167 1239 m -14 X s 167 1248 m -14 X s 181 1256 m -28 X s
 167 1265 m -14 X s 167 1273 m -14 X s 167 1282 m -14 X s 167 1291 m -14 X s 181 1299 m -28 X s 167 1308 m -14 X s 167 1316 m -14 X s 167 1325 m -14 X s 167 1334 m -14 X s 181 1342 m -28 X s 181 1041 m -28 X s 167 1033 m -14 X s 167 1024 m -14 X s
 167 1016 m -14 X s 167 1007 m -14 X s 181 1342 m -28 X s
 gsave  1088 409 23 995 C 66.6975 1028.85 t 0 r /Helvetica findfont 32.7202 sf 0 0 m (0.965) show NC gr 
 gsave  1088 409 23 995 C 85.1458 1072.84 t 0 r /Helvetica findfont 32.7202 sf 0 0 m (0.97) show NC gr 
 gsave  1088 409 23 995 C 66.6975 1115.41 t 0 r /Helvetica findfont 32.7202 sf 0 0 m (0.975) show NC gr 
 gsave  1088 409 23 995 C 85.1458 1157.98 t 0 r /Helvetica findfont 32.7202 sf 0 0 m (0.98) show NC gr 
 gsave  1088 409 23 995 C 66.6975 1200.56 t 0 r /Helvetica findfont 32.7202 sf 0 0 m (0.985) show NC gr 
 gsave  1088 409 23 995 C 85.1458 1244.55 t 0 r /Helvetica findfont 32.7202 sf 0 0 m (0.99) show NC gr 
 gsave  1088 409 23 995 C 66.6975 1287.12 t 0 r /Helvetica findfont 32.7202 sf 0 0 m (0.995) show NC gr 
 gsave  1088 409 23 995 C 134.814 1329.69 t 0 r /Helvetica findfont 32.7202 sf 0 0 m (1) show NC gr 
 gsave  1088 409 23 995 C 49.6684 1149.47 t 90 r /Helvetica findfont 22.7619 sf 0 0 m (Efficiency \(ID | MS\)) show NC gr  981 999 m 343 Y s 953 1041 m 28 X s 967 1050 m 14 X s 967 1059 m 14 X s 967 1067 m 14 X s 967 1076 m 14 X s 953 1084 m 28 X s
 967 1093 m 14 X s 967 1102 m 14 X s 967 1110 m 14 X s 967 1119 m 14 X s 953 1127 m 28 X s 967 1136 m 14 X s 967 1145 m 14 X s 967 1153 m 14 X s 967 1162 m 14 X s 953 1170 m 28 X s 967 1179 m 14 X s 967 1188 m 14 X s 967 1196 m 14 X s 967 1205 m 14 X
 s 953 1213 m 28 X s 967 1222 m 14 X s 967 1231 m 14 X s 967 1239 m 14 X s 967 1248 m 14 X s 953 1256 m 28 X s 967 1265 m 14 X s 967 1273 m 14 X s 967 1282 m 14 X s 967 1291 m 14 X s 953 1299 m 28 X s 967 1308 m 14 X s 967 1316 m 14 X s 967 1325 m 14
 X s 967 1334 m 14 X s 953 1342 m 28 X s 953 1041 m 28 X s 967 1033 m 14 X s 967 1024 m 14 X s 967 1016 m 14 X s 967 1007 m 14 X s 953 1342 m 28 X s 1 0 0 c 174 1303 m -21 X s 153 1300 m 6 Y s 174 1303 m 21 X s 195 1300 m 6 Y s 174 1303 m 25 Y s 171
 1328 m 6 X s 174 1303 m -51 Y s 171 1252 m 6 X s 215 1325 m -20 X s 195 1322 m 6 Y s 215 1325 m 21 X s 236 1322 m 6 Y s 215 1325 m 14 Y s 213 1339 m 5 X s 215 1325 m -39 Y s 213 1286 m 5 X s 257 1342 m -21 X s 236 1339 m 3 Y s 257 1342 m 20 X s 277
 1339 m 3 Y s 257 1342 m -27 Y s 254 1315 m 6 X s 298 1342 m -21 X s 277 1339 m 3 Y s 298 1342 m 21 X s 319 1339 m 3 Y s 298 1342 m -23 Y s 295 1319 m 6 X s 339 1331 m -20 X s 319 1328 m 6 Y s 339 1331 m 21 X s 360 1328 m 6 Y s 339 1331 m 9 Y s 337
 1340 m 5 X s 339 1331 m -26 Y s 337 1305 m 5 X s 381 1297 m -21 X s 360 1294 m 6 Y s 381 1297 m 20 X s 401 1294 m 6 Y s 381 1297 m 21 Y s 378 1318 m 6 X s 381 1297 m -36 Y s 378 1261 m 6 X s 422 1342 m -21 X s 401 1339 m 3 Y s 422 1342 m 21 X s 443
 1339 m 3 Y s 422 1342 m -20 Y s 419 1322 m 6 X s 464 1342 m -21 X s 443 1339 m 3 Y s 464 1342 m 20 X s 484 1339 m 3 Y s 464 1342 m -18 Y s 461 1324 m 5 X s 505 1342 m -21 X s 484 1339 m 3 Y s 505 1342 m 21 X s 526 1339 m 3 Y s 505 1342 m -16 Y s 502
 1326 m 6 X s 546 1321 m -20 X s 526 1318 m 6 Y s 546 1321 m 21 X s 567 1318 m 6 Y s 546 1321 m 14 Y s 543 1335 m 6 X s 546 1321 m -28 Y s 543 1293 m 6 X s 588 1342 m -21 X s 567 1339 m 3 Y s 588 1342 m 20 X s 608 1339 m 3 Y s 588 1342 m -19 Y s 585
 1323 m 5 X s 629 1333 m -21 X s 608 1330 m 6 Y s 629 1333 m 21 X s 650 1330 m 6 Y s 629 1333 m 8 Y s 626 1341 m 6 X s 629 1333 m -21 Y s 626 1312 m 6 X s 670 1342 m -20 X s 650 1339 m 3 Y s 670 1342 m 21 X s 691 1339 m 3 Y s 670 1342 m -17 Y s 667
 1325 m 6 X s 712 1321 m -21 X s 691 1319 m 5 Y s 712 1321 m 20 X s 732 1319 m 5 Y s 712 1321 m 14 Y s 709 1335 m 6 X s 712 1321 m -27 Y s 709 1294 m 6 X s 753 1310 m -21 X s 732 1307 m 6 Y s 753 1310 m 21 X s 774 1307 m 6 Y s 753 1310 m 18 Y s 750
 1328 m 6 X s 753 1310 m -31 Y s 750 1279 m 6 X s 794 1329 m -20 X s 774 1327 m 5 Y s 794 1329 m 21 X s 815 1327 m 5 Y s 794 1329 m 11 Y s 792 1340 m 5 X s 794 1329 m -29 Y s 792 1300 m 5 X s 836 1329 m -21 X s 815 1326 m 6 Y s 836 1329 m 20 X s 856
 1326 m 6 Y s 836 1329 m 11 Y s 833 1340 m 6 X s 836 1329 m -31 Y s 833 1298 m 6 X s 877 1342 m -21 X s 856 1339 m 3 Y s 877 1342 m 21 X s 898 1339 m 3 Y s 877 1342 m -27 Y s 874 1315 m 6 X s 919 1342 m -21 X s 898 1339 m 3 Y s 919 1342 m 20 X s 939
 1339 m 3 Y s 919 1342 m -30 Y s 916 1312 m 5 X s 960 1304 m -21 X s 939 1301 m 6 Y s 960 1304 m 21 X s 981 1301 m 6 Y s 960 1304 m 25 Y s 957 1329 m 6 X s 960 1304 m -50 Y s 957 1254 m 6 X s 0.95 0.95 0.95 c 1 0 0 c /w 12 def /w2 {w 2 div} def /w3
 {w 3 div} def 174 1303 215 1325 257 1342 298 1342 339 1331 381 1297 422 1342 464 1342 505 1342 546 1321 588 1342 629 1333 670 1342 712 1321 753 1310 794 1329 836 1329 877 1342 919 1342 960 1304 20 { m24} R black 168 1304 m -15 X s 153 1301 m 5 Y s
 180 1304 m 15 X s 195 1301 m 5 Y s 174 1309 m 27 Y s 171 1336 m 6 X s 174 1298 m -83 Y s 171 1215 m 6 X s 210 1307 m -15 X s 195 1304 m 5 Y s 221 1307 m 15 X s 236 1304 m 5 Y s 215 1312 m 24 Y s 213 1336 m 5 X s 215 1301 m -76 Y s 213 1225 m 5 X s
 251 1282 m -15 X s 236 1279 m 5 Y s 262 1282 m 15 X s 277 1279 m 5 Y s 257 1287 m 34 Y s 254 1321 m 6 X s 257 1276 m -74 Y s 254 1202 m 6 X s 292 1342 m -15 X s 277 1339 m 3 Y s 304 1342 m 15 X s 319 1339 m 3 Y s 298 1337 m -47 Y s 295 1290 m 6 X s
 334 1342 m -15 X s 319 1339 m 3 Y s 345 1342 m 15 X s 360 1339 m 3 Y s 339 1337 m -41 Y s 337 1296 m 5 X s 375 1276 m -15 X s 360 1273 m 6 Y s 386 1276 m 15 X s 401 1273 m 6 Y s 381 1281 m 31 Y s 378 1312 m 6 X s 381 1270 m -58 Y s 378 1212 m 6 X s
 416 1321 m -15 X s 401 1318 m 6 Y s 428 1321 m 15 X s 443 1318 m 6 Y s 422 1327 m 12 Y s 419 1339 m 6 X s 422 1315 m -43 Y s 419 1272 m 6 X s 458 1342 m -15 X s 443 1339 m 3 Y s 469 1342 m 15 X s 484 1339 m 3 Y s 464 1337 m -38 Y s 461 1299 m 5 X s
 499 1342 m -15 X s 484 1339 m 3 Y s 511 1342 m 15 X s 526 1339 m 3 Y s 505 1337 m -34 Y s 502 1303 m 6 X s 541 1342 m -15 X s 526 1339 m 3 Y s 552 1342 m 15 X s 567 1339 m 3 Y s 546 1337 m -42 Y s 543 1295 m 6 X s 582 1342 m -15 X s 567 1339 m 3 Y s
 593 1342 m 15 X s 608 1339 m 3 Y s 588 1337 m -37 Y s 585 1300 m 5 X s 623 1322 m -15 X s 608 1319 m 6 Y s 635 1322 m 15 X s 650 1319 m 6 Y s 629 1328 m 11 Y s 626 1339 m 6 X s 629 1316 m -40 Y s 626 1276 m 6 X s 665 1321 m -15 X s 650 1318 m 6 Y s
 676 1321 m 15 X s 691 1318 m 6 Y s 670 1326 m 13 Y s 667 1339 m 6 X s 670 1315 m -44 Y s 667 1271 m 6 X s 706 1342 m -15 X s 691 1339 m 3 Y s 717 1342 m 15 X s 732 1339 m 3 Y s 712 1337 m -34 Y s 709 1303 m 6 X s 747 1342 m -15 X s 732 1339 m 3 Y s
 759 1342 m 15 X s 774 1339 m 3 Y s 753 1337 m -41 Y s 750 1296 m 6 X s 789 1290 m -15 X s 774 1288 m 5 Y s 800 1290 m 15 X s 815 1288 m 5 Y s 794 1296 m 28 Y s 792 1324 m 5 X s 794 1285 m -62 Y s 792 1223 m 5 X s 830 1342 m -15 X s 815 1339 m 3 Y s
 841 1342 m 15 X s 856 1339 m 3 Y s 836 1337 m -47 Y s 833 1290 m 6 X s 871 1342 m -15 X s 856 1339 m 3 Y s 883 1342 m 15 X s 898 1339 m 3 Y s 877 1337 m -55 Y s 874 1282 m 6 X s 913 1342 m -15 X s 898 1339 m 3 Y s 924 1342 m 15 X s 939 1339 m 3 Y s
 919 1337 m -60 Y s 916 1277 m 5 X s 954 1304 m -15 X s 939 1301 m 6 Y s 966 1304 m 15 X s 981 1301 m 6 Y s 960 1310 m 26 Y s 957 1336 m 6 X s 960 1298 m -81 Y s 957 1217 m 6 X s 0.95 0.95 0.95 c black 174 1304 215 1307 257 1282 298 1342 339 1342 381
 1276 422 1321 464 1342 505 1342 546 1342 588 1342 629 1322 670 1321 712 1342 753 1342 794 1290 836 1342 877 1342 919 1342 960 1304 20 { m20} R 1 1 1 c 218 82 240 1077 bf black
 gsave  1088 409 23 995 C 390.252 1140.95 t 0 r /Helvetica findfont 21.3393 sf 0 0 m (+) show NC gr 
 gsave  1088 409 23 995 C 371.803 1129.6 t 0 r /Symbol findfont 31.2976 sf 0 0 m (m) show NC gr 
 gsave  1088 409 23 995 C 293.753 1129.6 t 0 r /Helvetica findfont 31.2976 sf 0 0 m (data, ) show NC gr  268 1138 m20
 gsave  1088 409 23 995 C 377.48 1099.8 t 0 r /Helvetica findfont 21.3393 sf 0 0 m (+) show NC gr 
 gsave  1088 409 23 995 C 359.031 1088.45 t 0 r /Symbol findfont 31.2976 sf 0 0 m (m) show NC gr 
 gsave  1088 409 23 995 C 293.753 1088.45 t 0 r /Helvetica findfont 31.2976 sf 0 0 m (MC, ) show NC gr  1 0 0 c 268 1097 m24 black
 gsave  1088 409 23 995 C 590.344 1054.39 t 0 r /Helvetica-Bold findfont 25.6071 sf 0 0 m (\2551) show NC gr 
 gsave  1088 409 23 995 C 280.981 1037.36 t 0 r /Helvetica-Bold findfont 38.4107 sf 0 0 m ( = 13 TeV, 22.1 fb) show NC gr 
 gsave  1088 409 23 995 C 259.695 1037.36 t 0 r /Helvetica-Bold findfont 38.4107 sf 0 0 m (s) show NC gr  6 lw 247 1059 m 4 -23 d s 3 lw 251 1036 m 4 34 d s 255 1070 m 26 X s 1 1 1 c black 1 1 1 c 828 184 153 814 bf black 828 184 153 814 bl 1 1 1 c
 828 184 153 814 bf black 828 184 153 814 bl 1 1 1 c black 174 884 m 16 Y s 174 912 m 16 Y s 153 906 m 15 X s 180 906 m 15 X s 171 884 m 6 X s 171 928 m 6 X s 153 903 m 6 Y s 195 903 m 6 Y s /w 11 def /w2 {w 2 div} def /w3 {w 3 div} def 174 906 m20
 215 883 m 13 Y s 215 908 m 13 Y s 195 902 m 15 X s 221 902 m 15 X s 213 883 m 5 X s 213 921 m 5 X s 195 899 m 6 Y s 236 899 m 6 Y s 215 902 m20 257 875 m 12 Y s 257 899 m 12 Y s 236 893 m 15 X s 262 893 m 15 X s 254 875 m 6 X s 254 911 m 6 X s 236
 890 m 6 Y s 277 890 m 6 Y s 257 893 m20 298 894 m 6 Y s 298 912 m 6 Y s 277 906 m 15 X s 304 906 m 15 X s 295 894 m 6 X s 295 918 m 6 X s 277 903 m 6 Y s 319 903 m 6 Y s 298 906 m20 339 897 m 6 Y s 339 914 m 6 Y s 319 908 m 15 X s 345 908 m 15 X s
 337 897 m 5 X s 337 920 m 5 X s 319 906 m 5 Y s 360 906 m 5 Y s 339 908 m20 381 886 m 10 Y s 381 907 m 10 Y s 360 902 m 15 X s 386 902 m 15 X s 378 886 m 6 X s 378 917 m 6 X s 360 899 m 5 Y s 401 899 m 5 Y s 381 902 m20 422 890 m 6 Y s 422 907 m 6 Y
 s 401 901 m 15 X s 428 901 m 15 X s 419 890 m 6 X s 419 913 m 6 X s 401 899 m 5 Y s 443 899 m 5 Y s 422 901 m20 464 896 m 4 Y s 464 912 m 4 Y s 443 906 m 15 X s 469 906 m 15 X s 461 896 m 5 X s 461 916 m 5 X s 443 903 m 6 Y s 484 903 m 6 Y s 464 906
 m20 505 897 m 3 Y s 505 912 m 3 Y s 484 906 m 15 X s 511 906 m 15 X s 502 897 m 6 X s 502 915 m 6 X s 484 903 m 6 Y s 526 903 m 6 Y s 505 906 m20 546 899 m 6 Y s 546 916 m 6 Y s 526 911 m 15 X s 552 911 m 15 X s 543 899 m 6 X s 543 922 m 6 X s 526
 908 m 5 Y s 567 908 m 5 Y s 546 911 m20 588 896 m 4 Y s 588 912 m 4 Y s 567 906 m 15 X s 593 906 m 15 X s 585 896 m 5 X s 585 916 m 5 X s 567 903 m 6 Y s 608 903 m 6 Y s 588 906 m20 629 893 m 5 Y s 629 909 m 6 Y s 608 904 m 15 X s 635 904 m 15 X s
 626 893 m 6 X s 626 915 m 6 X s 608 901 m 6 Y s 650 901 m 6 Y s 629 904 m20 670 890 m 6 Y s 670 907 m 6 Y s 650 901 m 15 X s 676 901 m 15 X s 667 890 m 6 X s 667 913 m 6 X s 650 899 m 5 Y s 691 899 m 5 Y s 670 901 m20 712 900 m 5 Y s 712 916 m 5 Y s
 691 910 m 15 X s 717 910 m 15 X s 709 900 m 6 X s 709 921 m 6 X s 691 908 m 5 Y s 732 908 m 5 Y s 712 910 m20 753 901 m 6 Y s 753 919 m 6 Y s 732 913 m 15 X s 759 913 m 15 X s 750 901 m 6 X s 750 925 m 6 X s 732 910 m 6 Y s 774 910 m 6 Y s 753 913
 m20 794 882 m 10 Y s 794 903 m 11 Y s 774 898 m 15 X s 800 898 m 15 X s 792 882 m 5 X s 792 914 m 5 X s 774 895 m 6 Y s 815 895 m 6 Y s 794 898 m20 836 896 m 7 Y s 836 915 m 7 Y s 815 909 m 15 X s 841 909 m 15 X s 833 896 m 6 X s 833 922 m 6 X s 815
 906 m 6 Y s 856 906 m 6 Y s 836 909 m20 877 892 m 8 Y s 877 912 m 8 Y s 856 906 m 15 X s 883 906 m 15 X s 874 892 m 6 X s 874 920 m 6 X s 856 903 m 6 Y s 898 903 m 6 Y s 877 906 m20 919 891 m 9 Y s 919 912 m 9 Y s 898 906 m 15 X s 924 906 m 15 X s
 916 891 m 5 X s 916 921 m 5 X s 898 903 m 6 Y s 939 903 m 6 Y s 919 906 m20 960 814 m 86 Y s 960 912 m 86 Y s 939 906 m 15 X s 966 906 m 15 X s 957 814 m 6 X s 957 998 m 6 X s 939 903 m 6 Y s 981 903 m 6 Y s 960 906 m20 153 814 m 828 X s 153 820 m
 -6 Y s 170 817 m -3 Y s 186 817 m -3 Y s 203 817 m -3 Y s 219 817 m -3 Y s 236 820 m -6 Y s 253 817 m -3 Y s 269 817 m -3 Y s 286 817 m -3 Y s 302 817 m -3 Y s 319 820 m -6 Y s 335 817 m -3 Y s 352 817 m -3 Y s 368 817 m -3 Y s 385 817 m -3 Y s 401
 820 m -6 Y s 418 817 m -3 Y s 435 817 m -3 Y s 451 817 m -3 Y s 468 817 m -3 Y s 484 820 m -6 Y s 501 817 m -3 Y s 517 817 m -3 Y s 534 817 m -3 Y s 550 817 m -3 Y s 567 820 m -6 Y s 583 817 m -3 Y s 600 817 m -3 Y s 617 817 m -3 Y s 633 817 m -3 Y
 s 650 820 m -6 Y s 666 817 m -3 Y s 683 817 m -3 Y s 699 817 m -3 Y s 716 817 m -3 Y s 732 820 m -6 Y s 749 817 m -3 Y s 765 817 m -3 Y s 782 817 m -3 Y s 799 817 m -3 Y s 815 820 m -6 Y s 832 817 m -3 Y s 848 817 m -3 Y s 865 817 m -3 Y s 881 817 m
 -3 Y s 898 820 m -6 Y s 914 817 m -3 Y s 931 817 m -3 Y s 947 817 m -3 Y s 964 817 m -3 Y s 981 820 m -6 Y s
 gsave  1088 280 23 730 C 139.071 783.341 t 0 r /Helvetica findfont 32.7324 sf 0 0 m (2.5) show NC gr 
 gsave  1088 280 23 730 C 120.623 783.341 t 0 r /Symbol findfont 32.7324 sf 0 0 m (-) show NC gr 
 gsave  1088 280 23 730 C 235.57 783.341 t 0 r /Helvetica findfont 32.7324 sf 0 0 m (2) show NC gr 
 gsave  1088 280 23 730 C 217.122 783.341 t 0 r /Symbol findfont 32.7324 sf 0 0 m (-) show NC gr 
 gsave  1088 280 23 730 C 303.687 783.341 t 0 r /Helvetica findfont 32.7324 sf 0 0 m (1.5) show NC gr 
 gsave  1088 280 23 730 C 285.238 783.341 t 0 r /Symbol findfont 32.7324 sf 0 0 m (-) show NC gr 
 gsave  1088 280 23 730 C 401.604 783.341 t 0 r /Helvetica findfont 32.7324 sf 0 0 m (1) show NC gr 
 gsave  1088 280 23 730 C 384.575 783.341 t 0 r /Symbol findfont 32.7324 sf 0 0 m (-) show NC gr 
 gsave  1088 280 23 730 C 469.721 783.341 t 0 r /Helvetica findfont 32.7324 sf 0 0 m (0.5) show NC gr 
 gsave  1088 280 23 730 C 451.273 783.341 t 0 r /Symbol findfont 32.7324 sf 0 0 m (-) show NC gr 
 gsave  1088 280 23 730 C 557.705 783.341 t 0 r /Helvetica findfont 32.7324 sf 0 0 m (0) show NC gr 
 gsave  1088 280 23 730 C 625.822 783.341 t 0 r /Helvetica findfont 32.7324 sf 0 0 m (0.5) show NC gr 
 gsave  1088 280 23 730 C 725.158 783.341 t 0 r /Helvetica findfont 32.7324 sf 0 0 m (1) show NC gr 
 gsave  1088 280 23 730 C 791.856 783.341 t 0 r /Helvetica findfont 32.7324 sf 0 0 m (1.5) show NC gr 
 gsave  1088 280 23 730 C 888.355 783.341 t 0 r /Helvetica findfont 32.7324 sf 0 0 m (2) show NC gr 
 gsave  1088 280 23 730 C 956.471 783.341 t 0 r /Helvetica findfont 32.7324 sf 0 0 m (2.5) show NC gr 
 gsave  1088 280 23 730 C 970.662 766.312 t 0 r /Symbol findfont 14.2315 sf 0 0 m (m) show NC gr 
 gsave  1088 280 23 730 C 959.309 756.379 t 0 r /Symbol findfont 21.3472 sf 0 0 m (h) show NC gr  153 998 m 828 X s 153 992 m 6 Y s 170 995 m 3 Y s 186 995 m 3 Y s 203 995 m 3 Y s 219 995 m 3 Y s 236 992 m 6 Y s 253 995 m 3 Y s 269 995 m 3 Y s 286
 995 m 3 Y s 302 995 m 3 Y s 319 992 m 6 Y s 335 995 m 3 Y s 352 995 m 3 Y s 368 995 m 3 Y s 385 995 m 3 Y s 401 992 m 6 Y s 418 995 m 3 Y s 435 995 m 3 Y s 451 995 m 3 Y s 468 995 m 3 Y s 484 992 m 6 Y s 501 995 m 3 Y s 517 995 m 3 Y s 534 995 m 3 Y
 s 550 995 m 3 Y s 567 992 m 6 Y s 583 995 m 3 Y s 600 995 m 3 Y s 617 995 m 3 Y s 633 995 m 3 Y s 650 992 m 6 Y s 666 995 m 3 Y s 683 995 m 3 Y s 699 995 m 3 Y s 716 995 m 3 Y s 732 992 m 6 Y s 749 995 m 3 Y s 765 995 m 3 Y s 782 995 m 3 Y s 799 995
 m 3 Y s 815 992 m 6 Y s 832 995 m 3 Y s 848 995 m 3 Y s 865 995 m 3 Y s 881 995 m 3 Y s 898 992 m 6 Y s 914 995 m 3 Y s 931 995 m 3 Y s 947 995 m 3 Y s 964 995 m 3 Y s 981 992 m 6 Y s 153 814 m 184 Y s 175 832 m -22 X s 164 842 m -11 X s 164 851 m
 -11 X s 164 860 m -11 X s 175 869 m -22 X s 164 878 m -11 X s 164 888 m -11 X s 164 897 m -11 X s 175 906 m -22 X s 164 915 m -11 X s 164 924 m -11 X s 164 934 m -11 X s 175 943 m -22 X s 164 952 m -11 X s 164 961 m -11 X s 164 970 m -11 X s 175 980
 m -22 X s 175 832 m -22 X s 164 823 m -11 X s 164 814 m -11 X s 175 980 m -22 X s 164 989 m -11 X s 164 998 m -11 X s
 gsave  1088 280 23 730 C 79.4694 820.238 t 0 r /Helvetica findfont 32.7324 sf 0 0 m (0.96) show NC gr 
 gsave  1088 280 23 730 C 79.4694 857.134 t 0 r /Helvetica findfont 32.7324 sf 0 0 m (0.98) show NC gr 
 gsave  1088 280 23 730 C 129.138 894.031 t 0 r /Helvetica findfont 32.7324 sf 0 0 m (1) show NC gr 
 gsave  1088 280 23 730 C 79.4694 930.927 t 0 r /Helvetica findfont 32.7324 sf 0 0 m (1.02) show NC gr 
 gsave  1088 280 23 730 C 79.4694 967.824 t 0 r /Helvetica findfont 32.7324 sf 0 0 m (1.04) show NC gr 
 gsave  1088 280 23 730 C 49.6684 851.458 t 90 r /Helvetica findfont 21.3472 sf 0 0 m (Data/MC         ) show NC gr  981 814 m 184 Y s 959 832 m 22 X s 970 842 m 11 X s 970 851 m 11 X s 970 860 m 11 X s 959 869 m 22 X s 970 878 m 11 X s 970 888 m 11
 X s 970 897 m 11 X s 959 906 m 22 X s 970 915 m 11 X s 970 924 m 11 X s 970 934 m 11 X s 959 943 m 22 X s 970 952 m 11 X s 970 961 m 11 X s 970 970 m 11 X s 959 980 m 22 X s 959 832 m 22 X s 970 823 m 11 X s 970 814 m 11 X s 959 980 m 22 X s 970 989
 m 11 X s 970 998 m 11 X s 0 0 1 c[ 12 12] 0 sd 6 lw 153 906 m 828 X s 153 906 m 828 X s black[  ] 0 sd 3 lw 1 1 1 c black 174 884 m 16 Y s 174 912 m 16 Y s 153 906 m 15 X s 180 906 m 15 X s 171 884 m 6 X s 171 928 m 6 X s 153 903 m 6 Y s 195 903 m 6
 Y s 174 906 m20 215 883 m 13 Y s 215 908 m 13 Y s 195 902 m 15 X s 221 902 m 15 X s 213 883 m 5 X s 213 921 m 5 X s 195 899 m 6 Y s 236 899 m 6 Y s 215 902 m20 257 875 m 12 Y s 257 899 m 12 Y s 236 893 m 15 X s 262 893 m 15 X s 254 875 m 6 X s 254
 911 m 6 X s 236 890 m 6 Y s 277 890 m 6 Y s 257 893 m20 298 894 m 6 Y s 298 912 m 6 Y s 277 906 m 15 X s 304 906 m 15 X s 295 894 m 6 X s 295 918 m 6 X s 277 903 m 6 Y s 319 903 m 6 Y s 298 906 m20 339 897 m 6 Y s 339 914 m 6 Y s 319 908 m 15 X s
 345 908 m 15 X s 337 897 m 5 X s 337 920 m 5 X s 319 906 m 5 Y s 360 906 m 5 Y s 339 908 m20 381 886 m 10 Y s 381 907 m 10 Y s 360 902 m 15 X s 386 902 m 15 X s 378 886 m 6 X s 378 917 m 6 X s 360 899 m 5 Y s 401 899 m 5 Y s 381 902 m20 422 890 m 6
 Y s 422 907 m 6 Y s 401 901 m 15 X s 428 901 m 15 X s 419 890 m 6 X s 419 913 m 6 X s 401 899 m 5 Y s 443 899 m 5 Y s 422 901 m20 464 896 m 4 Y s 464 912 m 4 Y s 443 906 m 15 X s 469 906 m 15 X s 461 896 m 5 X s 461 916 m 5 X s 443 903 m 6 Y s 484
 903 m 6 Y s 464 906 m20 505 897 m 3 Y s 505 912 m 3 Y s 484 906 m 15 X s 511 906 m 15 X s 502 897 m 6 X s 502 915 m 6 X s 484 903 m 6 Y s 526 903 m 6 Y s 505 906 m20 546 899 m 6 Y s 546 916 m 6 Y s 526 911 m 15 X s 552 911 m 15 X s 543 899 m 6 X s
 543 922 m 6 X s 526 908 m 5 Y s 567 908 m 5 Y s 546 911 m20 588 896 m 4 Y s 588 912 m 4 Y s 567 906 m 15 X s 593 906 m 15 X s 585 896 m 5 X s 585 916 m 5 X s 567 903 m 6 Y s 608 903 m 6 Y s 588 906 m20 629 893 m 5 Y s 629 909 m 6 Y s 608 904 m 15 X
 s 635 904 m 15 X s 626 893 m 6 X s 626 915 m 6 X s 608 901 m 6 Y s 650 901 m 6 Y s 629 904 m20 670 890 m 6 Y s 670 907 m 6 Y s 650 901 m 15 X s 676 901 m 15 X s 667 890 m 6 X s 667 913 m 6 X s 650 899 m 5 Y s 691 899 m 5 Y s 670 901 m20 712 900 m 5
 Y s 712 916 m 5 Y s 691 910 m 15 X s 717 910 m 15 X s 709 900 m 6 X s 709 921 m 6 X s 691 908 m 5 Y s 732 908 m 5 Y s 712 910 m20 753 901 m 6 Y s 753 919 m 6 Y s 732 913 m 15 X s 759 913 m 15 X s 750 901 m 6 X s 750 925 m 6 X s 732 910 m 6 Y s 774
 910 m 6 Y s 753 913 m20 794 882 m 10 Y s 794 903 m 11 Y s 774 898 m 15 X s 800 898 m 15 X s 792 882 m 5 X s 792 914 m 5 X s 774 895 m 6 Y s 815 895 m 6 Y s 794 898 m20 836 896 m 7 Y s 836 915 m 7 Y s 815 909 m 15 X s 841 909 m 15 X s 833 896 m 6 X s
 833 922 m 6 X s 815 906 m 6 Y s 856 906 m 6 Y s 836 909 m20 877 892 m 8 Y s 877 912 m 8 Y s 856 906 m 15 X s 883 906 m 15 X s 874 892 m 6 X s 874 920 m 6 X s 856 903 m 6 Y s 898 903 m 6 Y s 877 906 m20 919 891 m 9 Y s 919 912 m 9 Y s 898 906 m 15 X
 s 924 906 m 15 X s 916 891 m 5 X s 916 921 m 5 X s 898 903 m 6 Y s 939 903 m 6 Y s 919 906 m20 960 814 m 86 Y s 960 912 m 86 Y s 939 906 m 15 X s 966 906 m 15 X s 957 814 m 6 X s 957 998 m 6 X s 939 903 m 6 Y s 981 903 m 6 Y s 960 906 m20 1 1 1 c
 1088 681 1157 723 bf black 1 1 1 c black 1 1 1 c 827 343 1287 999 bf black 827 343 1287 999 bl 1 1 1 c 827 343 1287 999 bf black 827 343 1287 999 bl 1287 999 m 827 X s 1287 1009 m -10 Y s 1304 1004 m -5 Y s 1320 1004 m -5 Y s 1337 1004 m -5 Y s 1353
 1004 m -5 Y s 1370 1009 m -10 Y s 1386 1004 m -5 Y s 1403 1004 m -5 Y s 1420 1004 m -5 Y s 1436 1004 m -5 Y s 1453 1009 m -10 Y s 1469 1004 m -5 Y s 1486 1004 m -5 Y s 1502 1004 m -5 Y s 1519 1004 m -5 Y s 1535 1009 m -10 Y s 1552 1004 m -5 Y s 1568
 1004 m -5 Y s 1585 1004 m -5 Y s 1602 1004 m -5 Y s 1618 1009 m -10 Y s 1635 1004 m -5 Y s 1651 1004 m -5 Y s 1668 1004 m -5 Y s 1684 1004 m -5 Y s 1701 1009 m -10 Y s 1717 1004 m -5 Y s 1734 1004 m -5 Y s 1750 1004 m -5 Y s 1767 1004 m -5 Y s 1784
 1009 m -10 Y s 1800 1004 m -5 Y s 1817 1004 m -5 Y s 1833 1004 m -5 Y s 1850 1004 m -5 Y s 1866 1009 m -10 Y s 1883 1004 m -5 Y s 1899 1004 m -5 Y s 1916 1004 m -5 Y s 1932 1004 m -5 Y s 1949 1009 m -10 Y s 1966 1004 m -5 Y s 1982 1004 m -5 Y s 1999
 1004 m -5 Y s 2015 1004 m -5 Y s 2032 1009 m -10 Y s 2048 1004 m -5 Y s 2065 1004 m -5 Y s 2081 1004 m -5 Y s 2098 1004 m -5 Y s 2114 1009 m -10 Y s
 gsave  1088 409 1157 995 C 1281.44 986.272 t 0 r /Helvetica findfont 12.8036 sf 0 0 m (2.5) show NC gr 
 gsave  1088 409 1157 995 C 1272.93 986.272 t 0 r /Symbol findfont 12.8036 sf 0 0 m (-) show NC gr 
 gsave  1088 409 1157 995 C 1369.43 986.272 t 0 r /Helvetica findfont 12.8036 sf 0 0 m (2) show NC gr 
 gsave  1088 409 1157 995 C 1360.91 986.272 t 0 r /Symbol findfont 12.8036 sf 0 0 m (-) show NC gr 
 gsave  1088 409 1157 995 C 1446.06 986.272 t 0 r /Helvetica findfont 12.8036 sf 0 0 m (1.5) show NC gr 
 gsave  1088 409 1157 995 C 1437.54 986.272 t 0 r /Symbol findfont 12.8036 sf 0 0 m (-) show NC gr 
 gsave  1088 409 1157 995 C 1534.04 986.272 t 0 r /Helvetica findfont 12.8036 sf 0 0 m (1) show NC gr 
 gsave  1088 409 1157 995 C 1526.95 986.272 t 0 r /Symbol findfont 12.8036 sf 0 0 m (-) show NC gr 
 gsave  1088 409 1157 995 C 1612.09 986.272 t 0 r /Helvetica findfont 12.8036 sf 0 0 m (0.5) show NC gr 
 gsave  1088 409 1157 995 C 1603.58 986.272 t 0 r /Symbol findfont 12.8036 sf 0 0 m (-) show NC gr 
 gsave  1088 409 1157 995 C 1695.82 986.272 t 0 r /Helvetica findfont 12.8036 sf 0 0 m (0) show NC gr 
 gsave  1088 409 1157 995 C 1772.45 986.272 t 0 r /Helvetica findfont 12.8036 sf 0 0 m (0.5) show NC gr 
 gsave  1088 409 1157 995 C 1863.27 986.272 t 0 r /Helvetica findfont 12.8036 sf 0 0 m (1) show NC gr 
 gsave  1088 409 1157 995 C 1938.49 986.272 t 0 r /Helvetica findfont 12.8036 sf 0 0 m (1.5) show NC gr 
 gsave  1088 409 1157 995 C 2026.47 986.272 t 0 r /Helvetica findfont 12.8036 sf 0 0 m (2) show NC gr 
 gsave  1088 409 1157 995 C 2103.1 986.272 t 0 r /Helvetica findfont 12.8036 sf 0 0 m (2.5) show NC gr 
 gsave  1088 409 1157 995 C 2107.36 980.596 t 0 r /Symbol findfont 8.5357 sf 0 0 m (m) show NC gr 
 gsave  1088 409 1157 995 C 2100.26 973.5 t 0 r /Symbol findfont 12.8036 sf 0 0 m (h) show NC gr  1287 1342 m 827 X s 1287 1333 m 9 Y s 1304 1338 m 4 Y s 1320 1338 m 4 Y s 1337 1338 m 4 Y s 1353 1338 m 4 Y s 1370 1333 m 9 Y s 1386 1338 m 4 Y s 1403
 1338 m 4 Y s 1420 1338 m 4 Y s 1436 1338 m 4 Y s 1453 1333 m 9 Y s 1469 1338 m 4 Y s 1486 1338 m 4 Y s 1502 1338 m 4 Y s 1519 1338 m 4 Y s 1535 1333 m 9 Y s 1552 1338 m 4 Y s 1568 1338 m 4 Y s 1585 1338 m 4 Y s 1602 1338 m 4 Y s 1618 1333 m 9 Y s
 1635 1338 m 4 Y s 1651 1338 m 4 Y s 1668 1338 m 4 Y s 1684 1338 m 4 Y s 1701 1333 m 9 Y s 1717 1338 m 4 Y s 1734 1338 m 4 Y s 1750 1338 m 4 Y s 1767 1338 m 4 Y s 1784 1333 m 9 Y s 1800 1338 m 4 Y s 1817 1338 m 4 Y s 1833 1338 m 4 Y s 1850 1338 m 4 Y
 s 1866 1333 m 9 Y s 1883 1338 m 4 Y s 1899 1338 m 4 Y s 1916 1338 m 4 Y s 1932 1338 m 4 Y s 1949 1333 m 9 Y s 1966 1338 m 4 Y s 1982 1338 m 4 Y s 1999 1338 m 4 Y s 2015 1338 m 4 Y s 2032 1333 m 9 Y s 2048 1338 m 4 Y s 2065 1338 m 4 Y s 2081 1338 m 4
 Y s 2098 1338 m 4 Y s 2114 1333 m 9 Y s 1287 999 m 343 Y s 1315 1041 m -28 X s 1301 1050 m -14 X s 1301 1059 m -14 X s 1301 1067 m -14 X s 1301 1076 m -14 X s 1315 1084 m -28 X s 1301 1093 m -14 X s 1301 1102 m -14 X s 1301 1110 m -14 X s 1301 1119
 m -14 X s 1315 1127 m -28 X s 1301 1136 m -14 X s 1301 1145 m -14 X s 1301 1153 m -14 X s 1301 1162 m -14 X s 1315 1170 m -28 X s 1301 1179 m -14 X s 1301 1188 m -14 X s 1301 1196 m -14 X s 1301 1205 m -14 X s 1315 1213 m -28 X s 1301 1222 m -14 X s
 1301 1231 m -14 X s 1301 1239 m -14 X s 1301 1248 m -14 X s 1315 1256 m -28 X s 1301 1265 m -14 X s 1301 1273 m -14 X s 1301 1282 m -14 X s 1301 1291 m -14 X s 1315 1299 m -28 X s 1301 1308 m -14 X s 1301 1316 m -14 X s 1301 1325 m -14 X s 1301 1334
 m -14 X s 1315 1342 m -28 X s 1315 1041 m -28 X s 1301 1033 m -14 X s 1301 1024 m -14 X s 1301 1016 m -14 X s 1301 1007 m -14 X s 1315 1342 m -28 X s
 gsave  1088 409 1157 995 C 1200.56 1028.85 t 0 r /Helvetica findfont 32.7202 sf 0 0 m (0.965) show NC gr 
 gsave  1088 409 1157 995 C 1219 1072.84 t 0 r /Helvetica findfont 32.7202 sf 0 0 m (0.97) show NC gr 
 gsave  1088 409 1157 995 C 1200.56 1115.41 t 0 r /Helvetica findfont 32.7202 sf 0 0 m (0.975) show NC gr 
 gsave  1088 409 1157 995 C 1219 1157.98 t 0 r /Helvetica findfont 32.7202 sf 0 0 m (0.98) show NC gr 
 gsave  1088 409 1157 995 C 1200.56 1200.56 t 0 r /Helvetica findfont 32.7202 sf 0 0 m (0.985) show NC gr 
 gsave  1088 409 1157 995 C 1219 1244.55 t 0 r /Helvetica findfont 32.7202 sf 0 0 m (0.99) show NC gr 
 gsave  1088 409 1157 995 C 1200.56 1287.12 t 0 r /Helvetica findfont 32.7202 sf 0 0 m (0.995) show NC gr 
 gsave  1088 409 1157 995 C 1268.67 1329.69 t 0 r /Helvetica findfont 32.7202 sf 0 0 m (1) show NC gr 
 gsave  1088 409 1157 995 C 1183.53 1149.47 t 90 r /Helvetica findfont 22.7619 sf 0 0 m (Efficiency \(ID | MS\)) show NC gr  2114 999 m 343 Y s 2087 1041 m 27 X s 2101 1050 m 13 X s 2101 1059 m 13 X s 2101 1067 m 13 X s 2101 1076 m 13 X s 2087 1084 m
 27 X s 2101 1093 m 13 X s 2101 1102 m 13 X s 2101 1110 m 13 X s 2101 1119 m 13 X s 2087 1127 m 27 X s 2101 1136 m 13 X s 2101 1145 m 13 X s 2101 1153 m 13 X s 2101 1162 m 13 X s 2087 1170 m 27 X s 2101 1179 m 13 X s 2101 1188 m 13 X s 2101 1196 m 13
 X s 2101 1205 m 13 X s 2087 1213 m 27 X s 2101 1222 m 13 X s 2101 1231 m 13 X s 2101 1239 m 13 X s 2101 1248 m 13 X s 2087 1256 m 27 X s 2101 1265 m 13 X s 2101 1273 m 13 X s 2101 1282 m 13 X s 2101 1291 m 13 X s 2087 1299 m 27 X s 2101 1308 m 13 X
 s 2101 1316 m 13 X s 2101 1325 m 13 X s 2101 1334 m 13 X s 2087 1342 m 27 X s 2087 1041 m 27 X s 2101 1033 m 13 X s 2101 1024 m 13 X s 2101 1016 m 13 X s 2101 1007 m 13 X s 2087 1342 m 27 X s 1 0 0 c 1308 1307 m -21 X s 1287 1304 m 5 Y s 1308 1307 m
 21 X s 1329 1304 m 5 Y s 1308 1307 m 23 Y s 1305 1330 m 6 X s 1308 1307 m -47 Y s 1305 1260 m 6 X s 1349 1342 m -20 X s 1329 1339 m 3 Y s 1349 1342 m 21 X s 1370 1339 m 3 Y s 1349 1342 m -31 Y s 1346 1311 m 6 X s 1391 1328 m -21 X s 1370 1326 m 5 Y
 s 1391 1328 m 20 X s 1411 1326 m 5 Y s 1391 1328 m 12 Y s 1388 1340 m 5 X s 1391 1328 m -32 Y s 1388 1296 m 5 X s 1432 1329 m -21 X s 1411 1327 m 5 Y s 1432 1329 m 21 X s 1453 1327 m 5 Y s 1432 1329 m 11 Y s 1429 1340 m 6 X s 1432 1329 m -29 Y s
 1429 1300 m 6 X s 1473 1331 m -20 X s 1453 1328 m 5 Y s 1473 1331 m 21 X s 1494 1328 m 5 Y s 1473 1331 m 9 Y s 1470 1340 m 6 X s 1473 1331 m -27 Y s 1470 1304 m 6 X s 1515 1331 m -21 X s 1494 1328 m 5 Y s 1515 1331 m 20 X s 1535 1328 m 5 Y s 1515
 1331 m 9 Y s 1512 1340 m 5 X s 1515 1331 m -27 Y s 1512 1304 m 5 X s 1556 1342 m -21 X s 1535 1339 m 3 Y s 1556 1342 m 21 X s 1577 1339 m 3 Y s 1556 1342 m -18 Y s 1553 1324 m 6 X s 1597 1332 m -20 X s 1577 1330 m 5 Y s 1597 1332 m 21 X s 1618 1330
 m 5 Y s 1597 1332 m 9 Y s 1595 1341 m 5 X s 1597 1332 m -22 Y s 1595 1310 m 5 X s 1639 1323 m -21 X s 1618 1320 m 5 Y s 1639 1323 m 20 X s 1659 1320 m 5 Y s 1639 1323 m 12 Y s 1636 1335 m 6 X s 1639 1323 m -26 Y s 1636 1297 m 6 X s 1680 1342 m -21 X
 s 1659 1339 m 3 Y s 1680 1342 m 21 X s 1701 1339 m 3 Y s 1680 1342 m -20 Y s 1677 1322 m 6 X s 1721 1319 m -20 X s 1701 1316 m 6 Y s 1721 1319 m 21 X s 1742 1316 m 6 Y s 1721 1319 m 15 Y s 1719 1334 m 5 X s 1721 1319 m -31 Y s 1719 1288 m 5 X s 1763
 1333 m -21 X s 1742 1330 m 6 Y s 1763 1333 m 21 X s 1784 1330 m 6 Y s 1763 1333 m 8 Y s 1760 1341 m 6 X s 1763 1333 m -21 Y s 1760 1312 m 6 X s 1804 1332 m -20 X s 1784 1330 m 5 Y s 1804 1332 m 21 X s 1825 1330 m 5 Y s 1804 1332 m 9 Y s 1801 1341 m
 6 X s 1804 1332 m -22 Y s 1801 1310 m 6 X s 1846 1342 m -21 X s 1825 1339 m 3 Y s 1846 1342 m 20 X s 1866 1339 m 3 Y s 1846 1342 m -19 Y s 1843 1323 m 5 X s 1887 1310 m -21 X s 1866 1308 m 5 Y s 1887 1310 m 21 X s 1908 1308 m 5 Y s 1887 1310 m 18 Y
 s 1884 1328 m 6 X s 1887 1310 m -30 Y s 1884 1280 m 6 X s 1928 1342 m -20 X s 1908 1339 m 3 Y s 1928 1342 m 21 X s 1949 1339 m 3 Y s 1928 1342 m -22 Y s 1925 1320 m 6 X s 1970 1342 m -21 X s 1949 1339 m 3 Y s 1970 1342 m 20 X s 1990 1339 m 3 Y s
 1970 1342 m -24 Y s 1967 1318 m 5 X s 2011 1311 m -21 X s 1990 1308 m 6 Y s 2011 1311 m 21 X s 2032 1308 m 6 Y s 2011 1311 m 20 Y s 2008 1331 m 6 X s 2011 1311 m -41 Y s 2008 1270 m 6 X s 2052 1342 m -20 X s 2032 1339 m 3 Y s 2052 1342 m 21 X s 2073
 1339 m 3 Y s 2052 1342 m -30 Y s 2050 1312 m 5 X s 2094 1322 m -21 X s 2073 1319 m 6 Y s 2094 1322 m 20 X s 2114 1319 m 6 Y s 2094 1322 m 17 Y s 2091 1339 m 6 X s 2094 1322 m -47 Y s 2091 1275 m 6 X s 0.95 0.95 0.95 c 1 0 0 c /w 12 def /w2 {w 2 div}
 def /w3 {w 3 div} def 1308 1307 1349 1342 1391 1328 1432 1329 1473 1331 1515 1331 1556 1342 1597 1332 1639 1323 1680 1342 1721 1319 1763 1333 1804 1332 1846 1342 1887 1310 1928 1342 1970 1342 2011 1311 2052 1342 2094 1322 20 { m24} R black 1302 1197
 m -15 X s 1287 1194 m 5 Y s 1314 1197 m 15 X s 1329 1194 m 5 Y s 1308 1202 m 64 Y s 1305 1266 m 6 X s 1308 1191 m -108 Y s 1305 1083 m 6 X s 1344 1306 m -15 X s 1329 1303 m 5 Y s 1355 1306 m 15 X s 1370 1303 m 5 Y s 1349 1311 m 25 Y s 1346 1336 m 6
 X s 1349 1300 m -78 Y s 1346 1222 m 6 X s 1385 1313 m -15 X s 1370 1310 m 6 Y s 1396 1313 m 15 X s 1411 1310 m 6 Y s 1391 1319 m 18 Y s 1388 1337 m 5 X s 1391 1307 m -61 Y s 1388 1246 m 5 X s 1426 1294 m -15 X s 1411 1291 m 6 Y s 1438 1294 m 15 X s
 1453 1291 m 6 Y s 1432 1299 m 26 Y s 1429 1325 m 6 X s 1432 1288 m -58 Y s 1429 1230 m 6 X s 1468 1317 m -15 X s 1453 1314 m 6 Y s 1479 1317 m 15 X s 1494 1314 m 6 Y s 1473 1323 m 15 Y s 1470 1338 m 6 X s 1473 1311 m -52 Y s 1470 1259 m 6 X s 1509
 1199 m -15 X s 1494 1196 m 5 Y s 1520 1199 m 15 X s 1535 1196 m 5 Y s 1515 1204 m 51 Y s 1512 1255 m 5 X s 1515 1193 m -79 Y s 1512 1114 m 5 X s 1550 1342 m -15 X s 1535 1339 m 3 Y s 1562 1342 m 15 X s 1577 1339 m 3 Y s 1556 1337 m -42 Y s 1553 1295
 m 6 X s 1592 1342 m -15 X s 1577 1339 m 3 Y s 1603 1342 m 15 X s 1618 1339 m 3 Y s 1597 1337 m -36 Y s 1595 1301 m 5 X s 1633 1342 m -15 X s 1618 1339 m 3 Y s 1644 1342 m 15 X s 1659 1339 m 3 Y s 1639 1337 m -33 Y s 1636 1304 m 6 X s 1674 1342 m -15
 X s 1659 1339 m 3 Y s 1686 1342 m 15 X s 1701 1339 m 3 Y s 1680 1337 m -37 Y s 1677 1300 m 6 X s 1716 1292 m -15 X s 1701 1289 m 5 Y s 1727 1292 m 15 X s 1742 1289 m 5 Y s 1721 1297 m 27 Y s 1719 1324 m 5 X s 1721 1286 m -61 Y s 1719 1225 m 5 X s
 1757 1342 m -15 X s 1742 1339 m 3 Y s 1769 1342 m 15 X s 1784 1339 m 3 Y s 1763 1337 m -33 Y s 1760 1304 m 6 X s 1799 1319 m -15 X s 1784 1316 m 6 Y s 1810 1319 m 15 X s 1825 1316 m 6 Y s 1804 1325 m 13 Y s 1801 1338 m 6 X s 1804 1313 m -47 Y s 1801
 1266 m 6 X s 1840 1342 m -15 X s 1825 1339 m 3 Y s 1851 1342 m 15 X s 1866 1339 m 3 Y s 1846 1337 m -39 Y s 1843 1298 m 5 X s 1881 1296 m -15 X s 1866 1293 m 6 Y s 1893 1296 m 15 X s 1908 1293 m 6 Y s 1887 1301 m 25 Y s 1884 1326 m 6 X s 1887 1290 m
 -55 Y s 1884 1235 m 6 X s 1923 1342 m -15 X s 1908 1339 m 3 Y s 1934 1342 m 15 X s 1949 1339 m 3 Y s 1928 1337 m -48 Y s 1925 1289 m 6 X s 1964 1317 m -15 X s 1949 1314 m 6 Y s 1975 1317 m 15 X s 1990 1314 m 6 Y s 1970 1322 m 16 Y s 1967 1338 m 5 X
 s 1970 1311 m -53 Y s 1967 1258 m 5 X s 2005 1342 m -15 X s 1990 1339 m 3 Y s 2017 1342 m 15 X s 2032 1339 m 3 Y s 2011 1337 m -55 Y s 2008 1282 m 6 X s 2047 1311 m -15 X s 2032 1308 m 6 Y s 2058 1311 m 15 X s 2073 1308 m 6 Y s 2052 1316 m 21 Y s
 2050 1337 m 5 X s 2052 1305 m -66 Y s 2050 1239 m 5 X s 2088 1150 m -15 X s 2073 1147 m 5 Y s 2099 1150 m 15 X s 2114 1147 m 5 Y s 2094 1155 m 77 Y s 2091 1232 m 6 X s 2094 1144 m -122 Y s 2091 1022 m 6 X s 0.95 0.95 0.95 c black 1308 1197 1349 1306
 1391 1313 1432 1294 1473 1317 1515 1199 1556 1342 1597 1342 1639 1342 1680 1342 1721 1292 1763 1342 1804 1319 1846 1342 1887 1296 1928 1342 1970 1317 2011 1342 2052 1311 2094 1150 20 { m20} R 1 1 1 c 218 82 1374 1077 bf black
 gsave  1088 409 1157 995 C 1524.11 1143.79 t 0 r /Helvetica findfont 21.3393 sf 0 0 m (\255) show NC gr 
 gsave  1088 409 1157 995 C 1505.66 1129.6 t 0 r /Symbol findfont 31.2976 sf 0 0 m (m) show NC gr 
 gsave  1088 409 1157 995 C 1427.61 1129.6 t 0 r /Helvetica findfont 31.2976 sf 0 0 m (data, ) show NC gr  1401 1138 m20
 gsave  1088 409 1157 995 C 1511.34 1102.64 t 0 r /Helvetica findfont 21.3393 sf 0 0 m (\255) show NC gr 
 gsave  1088 409 1157 995 C 1492.89 1088.45 t 0 r /Symbol findfont 31.2976 sf 0 0 m (m) show NC gr 
 gsave  1088 409 1157 995 C 1427.61 1088.45 t 0 r /Helvetica findfont 31.2976 sf 0 0 m (MC, ) show NC gr  1 0 0 c 1401 1097 m24 black
 gsave  1088 409 1157 995 C 1724.2 1054.39 t 0 r /Helvetica-Bold findfont 25.6071 sf 0 0 m (\2551) show NC gr 
 gsave  1088 409 1157 995 C 1414.84 1037.36 t 0 r /Helvetica-Bold findfont 38.4107 sf 0 0 m ( = 13 TeV, 22.1 fb) show NC gr 
 gsave  1088 409 1157 995 C 1393.55 1037.36 t 0 r /Helvetica-Bold findfont 38.4107 sf 0 0 m (s) show NC gr  6 lw 1381 1059 m 4 -23 d s 3 lw 1385 1036 m 4 34 d s 1389 1070 m 26 X s 1 1 1 c black 1 1 1 c 827 184 1287 814 bf black 827 184 1287 814 bl 1
 1 1 c 827 184 1287 814 bf black 827 184 1287 814 bl 1 1 1 c black 1308 856 m 21 Y s 1308 888 m 21 Y s 1287 882 m 15 X s 1314 882 m 15 X s 1305 856 m 6 X s 1305 909 m 6 X s 1287 880 m 5 Y s 1329 880 m 5 Y s /w 11 def /w2 {w 2 div} def /w3 {w 3 div}
 def 1308 882 m20 1349 879 m 13 Y s 1349 904 m 13 Y s 1329 898 m 15 X s 1355 898 m 15 X s 1346 879 m 6 X s 1346 917 m 6 X s 1329 895 m 6 Y s 1370 895 m 6 Y s 1349 898 m20 1391 887 m 10 Y s 1391 908 m 11 Y s 1370 903 m 15 X s 1396 903 m 15 X s 1388
 887 m 5 X s 1388 919 m 5 X s 1370 900 m 6 Y s 1411 900 m 6 Y s 1391 903 m20 1432 883 m 10 Y s 1432 904 m 9 Y s 1411 898 m 15 X s 1438 898 m 15 X s 1429 883 m 6 X s 1429 913 m 6 X s 1411 896 m 5 Y s 1453 896 m 5 Y s 1432 898 m20 1473 889 m 8 Y s 1473
 909 m 8 Y s 1453 903 m 15 X s 1479 903 m 15 X s 1470 889 m 6 X s 1470 917 m 6 X s 1453 900 m 6 Y s 1494 900 m 6 Y s 1473 903 m20 1515 859 m 13 Y s 1515 883 m 14 Y s 1494 878 m 15 X s 1520 878 m 15 X s 1512 859 m 5 X s 1512 897 m 5 X s 1494 875 m 6 Y
 s 1535 875 m 6 Y s 1515 878 m20 1556 895 m 5 Y s 1556 912 m 5 Y s 1535 906 m 15 X s 1562 906 m 15 X s 1553 895 m 6 X s 1553 917 m 6 X s 1535 903 m 6 Y s 1577 903 m 6 Y s 1556 906 m20 1597 898 m 4 Y s 1597 914 m 4 Y s 1577 908 m 15 X s 1603 908 m 15
 X s 1595 898 m 5 X s 1595 918 m 5 X s 1577 905 m 6 Y s 1618 905 m 6 Y s 1597 908 m20 1639 900 m 5 Y s 1639 916 m 4 Y s 1618 910 m 15 X s 1644 910 m 15 X s 1636 900 m 6 X s 1636 920 m 6 X s 1618 907 m 6 Y s 1659 907 m 6 Y s 1639 910 m20 1680 896 m 4
 Y s 1680 912 m 4 Y s 1659 906 m 15 X s 1686 906 m 15 X s 1677 896 m 6 X s 1677 916 m 6 X s 1659 903 m 6 Y s 1701 903 m 6 Y s 1680 906 m20 1721 884 m 10 Y s 1721 906 m 10 Y s 1701 900 m 15 X s 1727 900 m 15 X s 1719 884 m 5 X s 1719 916 m 5 X s 1701
 897 m 6 Y s 1742 897 m 6 Y s 1721 900 m20 1763 899 m 3 Y s 1763 914 m 3 Y s 1742 908 m 15 X s 1769 908 m 15 X s 1760 899 m 6 X s 1760 917 m 6 X s 1742 905 m 6 Y s 1784 905 m 6 Y s 1763 908 m20 1804 891 m 6 Y s 1804 909 m 7 Y s 1784 903 m 15 X s 1810
 903 m 15 X s 1801 891 m 6 X s 1801 916 m 6 X s 1784 900 m 6 Y s 1825 900 m 6 Y s 1804 903 m20 1846 896 m 4 Y s 1846 912 m 4 Y s 1825 906 m 15 X s 1851 906 m 15 X s 1843 896 m 5 X s 1843 916 m 5 X s 1825 903 m 6 Y s 1866 903 m 6 Y s 1846 906 m20 1887
 888 m 9 Y s 1887 909 m 9 Y s 1866 903 m 15 X s 1893 903 m 15 X s 1884 888 m 6 X s 1884 918 m 6 X s 1866 900 m 6 Y s 1908 900 m 6 Y s 1887 903 m20 1928 894 m 6 Y s 1928 912 m 6 Y s 1908 906 m 15 X s 1934 906 m 15 X s 1925 894 m 6 X s 1925 918 m 6 X s
 1908 903 m 6 Y s 1949 903 m 6 Y s 1928 906 m20 1970 887 m 8 Y s 1970 906 m 8 Y s 1949 901 m 15 X s 1975 901 m 15 X s 1967 887 m 5 X s 1967 914 m 5 X s 1949 898 m 5 Y s 1990 898 m 5 Y s 1970 901 m20 2011 897 m 10 Y s 2011 918 m 10 Y s 1990 913 m 15 X
 s 2017 913 m 15 X s 2008 897 m 6 X s 2008 928 m 6 X s 1990 910 m 6 Y s 2032 910 m 6 Y s 2011 913 m20 2052 883 m 11 Y s 2052 905 m 11 Y s 2032 899 m 15 X s 2058 899 m 15 X s 2050 883 m 5 X s 2050 916 m 5 X s 2032 896 m 6 Y s 2073 896 m 6 Y s 2052 899
 m20 2094 814 m 49 Y s 2094 875 m 123 Y s 2073 869 m 15 X s 2099 869 m 15 X s 2091 814 m 6 X s 2091 998 m 6 X s 2073 866 m 6 Y s 2114 866 m 6 Y s 2094 869 m20 1287 814 m 827 X s 1287 820 m -6 Y s 1304 817 m -3 Y s 1320 817 m -3 Y s 1337 817 m -3 Y s
 1353 817 m -3 Y s 1370 820 m -6 Y s 1386 817 m -3 Y s 1403 817 m -3 Y s 1420 817 m -3 Y s 1436 817 m -3 Y s 1453 820 m -6 Y s 1469 817 m -3 Y s 1486 817 m -3 Y s 1502 817 m -3 Y s 1519 817 m -3 Y s 1535 820 m -6 Y s 1552 817 m -3 Y s 1568 817 m -3 Y
 s 1585 817 m -3 Y s 1602 817 m -3 Y s 1618 820 m -6 Y s 1635 817 m -3 Y s 1651 817 m -3 Y s 1668 817 m -3 Y s 1684 817 m -3 Y s 1701 820 m -6 Y s 1717 817 m -3 Y s 1734 817 m -3 Y s 1750 817 m -3 Y s 1767 817 m -3 Y s 1784 820 m -6 Y s 1800 817 m -3
 Y s 1817 817 m -3 Y s 1833 817 m -3 Y s 1850 817 m -3 Y s 1866 820 m -6 Y s 1883 817 m -3 Y s 1899 817 m -3 Y s 1916 817 m -3 Y s 1932 817 m -3 Y s 1949 820 m -6 Y s 1966 817 m -3 Y s 1982 817 m -3 Y s 1999 817 m -3 Y s 2015 817 m -3 Y s 2032 820 m
 -6 Y s 2048 817 m -3 Y s 2065 817 m -3 Y s 2081 817 m -3 Y s 2098 817 m -3 Y s 2114 820 m -6 Y s
 gsave  1088 280 1157 730 C 1272.93 783.341 t 0 r /Helvetica findfont 32.7324 sf 0 0 m (2.5) show NC gr 
 gsave  1088 280 1157 730 C 1254.48 783.341 t 0 r /Symbol findfont 32.7324 sf 0 0 m (-) show NC gr 
 gsave  1088 280 1157 730 C 1369.43 783.341 t 0 r /Helvetica findfont 32.7324 sf 0 0 m (2) show NC gr 
 gsave  1088 280 1157 730 C 1350.98 783.341 t 0 r /Symbol findfont 32.7324 sf 0 0 m (-) show NC gr 
 gsave  1088 280 1157 730 C 1437.54 783.341 t 0 r /Helvetica findfont 32.7324 sf 0 0 m (1.5) show NC gr 
 gsave  1088 280 1157 730 C 1419.1 783.341 t 0 r /Symbol findfont 32.7324 sf 0 0 m (-) show NC gr 
 gsave  1088 280 1157 730 C 1535.46 783.341 t 0 r /Helvetica findfont 32.7324 sf 0 0 m (1) show NC gr 
 gsave  1088 280 1157 730 C 1518.43 783.341 t 0 r /Symbol findfont 32.7324 sf 0 0 m (-) show NC gr 
 gsave  1088 280 1157 730 C 1603.58 783.341 t 0 r /Helvetica findfont 32.7324 sf 0 0 m (0.5) show NC gr 
 gsave  1088 280 1157 730 C 1585.13 783.341 t 0 r /Symbol findfont 32.7324 sf 0 0 m (-) show NC gr 
 gsave  1088 280 1157 730 C 1691.56 783.341 t 0 r /Helvetica findfont 32.7324 sf 0 0 m (0) show NC gr 
 gsave  1088 280 1157 730 C 1759.68 783.341 t 0 r /Helvetica findfont 32.7324 sf 0 0 m (0.5) show NC gr 
 gsave  1088 280 1157 730 C 1859.02 783.341 t 0 r /Helvetica findfont 32.7324 sf 0 0 m (1) show NC gr 
 gsave  1088 280 1157 730 C 1925.71 783.341 t 0 r /Helvetica findfont 32.7324 sf 0 0 m (1.5) show NC gr 
 gsave  1088 280 1157 730 C 2022.21 783.341 t 0 r /Helvetica findfont 32.7324 sf 0 0 m (2) show NC gr 
 gsave  1088 280 1157 730 C 2090.33 783.341 t 0 r /Helvetica findfont 32.7324 sf 0 0 m (2.5) show NC gr 
 gsave  1088 280 1157 730 C 2104.52 766.312 t 0 r /Symbol findfont 14.2315 sf 0 0 m (m) show NC gr 
 gsave  1088 280 1157 730 C 2093.17 756.379 t 0 r /Symbol findfont 21.3472 sf 0 0 m (h) show NC gr  1287 998 m 827 X s 1287 992 m 6 Y s 1304 995 m 3 Y s 1320 995 m 3 Y s 1337 995 m 3 Y s 1353 995 m 3 Y s 1370 992 m 6 Y s 1386 995 m 3 Y s 1403 995 m 3
 Y s 1420 995 m 3 Y s 1436 995 m 3 Y s 1453 992 m 6 Y s 1469 995 m 3 Y s 1486 995 m 3 Y s 1502 995 m 3 Y s 1519 995 m 3 Y s 1535 992 m 6 Y s 1552 995 m 3 Y s 1568 995 m 3 Y s 1585 995 m 3 Y s 1602 995 m 3 Y s 1618 992 m 6 Y s 1635 995 m 3 Y s 1651
 995 m 3 Y s 1668 995 m 3 Y s 1684 995 m 3 Y s 1701 992 m 6 Y s 1717 995 m 3 Y s 1734 995 m 3 Y s 1750 995 m 3 Y s 1767 995 m 3 Y s 1784 992 m 6 Y s 1800 995 m 3 Y s 1817 995 m 3 Y s 1833 995 m 3 Y s 1850 995 m 3 Y s 1866 992 m 6 Y s 1883 995 m 3 Y s
 1899 995 m 3 Y s 1916 995 m 3 Y s 1932 995 m 3 Y s 1949 992 m 6 Y s 1966 995 m 3 Y s 1982 995 m 3 Y s 1999 995 m 3 Y s 2015 995 m 3 Y s 2032 992 m 6 Y s 2048 995 m 3 Y s 2065 995 m 3 Y s 2081 995 m 3 Y s 2098 995 m 3 Y s 2114 992 m 6 Y s 1287 814 m
 184 Y s 1309 832 m -22 X s 1298 842 m -11 X s 1298 851 m -11 X s 1298 860 m -11 X s 1309 869 m -22 X s 1298 878 m -11 X s 1298 888 m -11 X s 1298 897 m -11 X s 1309 906 m -22 X s 1298 915 m -11 X s 1298 924 m -11 X s 1298 934 m -11 X s 1309 943 m
 -22 X s 1298 952 m -11 X s 1298 961 m -11 X s 1298 970 m -11 X s 1309 980 m -22 X s 1309 832 m -22 X s 1298 823 m -11 X s 1298 814 m -11 X s 1309 980 m -22 X s 1298 989 m -11 X s 1298 998 m -11 X s
 gsave  1088 280 1157 730 C 1213.33 820.238 t 0 r /Helvetica findfont 32.7324 sf 0 0 m (0.96) show NC gr 
 gsave  1088 280 1157 730 C 1213.33 857.134 t 0 r /Helvetica findfont 32.7324 sf 0 0 m (0.98) show NC gr 
 gsave  1088 280 1157 730 C 1263 894.031 t 0 r /Helvetica findfont 32.7324 sf 0 0 m (1) show NC gr 
 gsave  1088 280 1157 730 C 1213.33 930.927 t 0 r /Helvetica findfont 32.7324 sf 0 0 m (1.02) show NC gr 
 gsave  1088 280 1157 730 C 1213.33 967.824 t 0 r /Helvetica findfont 32.7324 sf 0 0 m (1.04) show NC gr 
 gsave  1088 280 1157 730 C 1183.53 851.458 t 90 r /Helvetica findfont 21.3472 sf 0 0 m (Data/MC         ) show NC gr  2114 814 m 184 Y s 2093 832 m 21 X s 2104 842 m 10 X s 2104 851 m 10 X s 2104 860 m 10 X s 2093 869 m 21 X s 2104 878 m 10 X s 2104
 888 m 10 X s 2104 897 m 10 X s 2093 906 m 21 X s 2104 915 m 10 X s 2104 924 m 10 X s 2104 934 m 10 X s 2093 943 m 21 X s 2104 952 m 10 X s 2104 961 m 10 X s 2104 970 m 10 X s 2093 980 m 21 X s 2093 832 m 21 X s 2104 823 m 10 X s 2104 814 m 10 X s
 2093 980 m 21 X s 2104 989 m 10 X s 2104 998 m 10 X s 0 0 1 c[ 12 12] 0 sd 6 lw 1287 906 m 827 X s 1287 906 m 827 X s black[  ] 0 sd 3 lw 1 1 1 c black 1308 856 m 21 Y s 1308 888 m 21 Y s 1287 882 m 15 X s 1314 882 m 15 X s 1305 856 m 6 X s 1305 909
 m 6 X s 1287 880 m 5 Y s 1329 880 m 5 Y s 1308 882 m20 1349 879 m 13 Y s 1349 904 m 13 Y s 1329 898 m 15 X s 1355 898 m 15 X s 1346 879 m 6 X s 1346 917 m 6 X s 1329 895 m 6 Y s 1370 895 m 6 Y s 1349 898 m20 1391 887 m 10 Y s 1391 908 m 11 Y s 1370
 903 m 15 X s 1396 903 m 15 X s 1388 887 m 5 X s 1388 919 m 5 X s 1370 900 m 6 Y s 1411 900 m 6 Y s 1391 903 m20 1432 883 m 10 Y s 1432 904 m 9 Y s 1411 898 m 15 X s 1438 898 m 15 X s 1429 883 m 6 X s 1429 913 m 6 X s 1411 896 m 5 Y s 1453 896 m 5 Y
 s 1432 898 m20 1473 889 m 8 Y s 1473 909 m 8 Y s 1453 903 m 15 X s 1479 903 m 15 X s 1470 889 m 6 X s 1470 917 m 6 X s 1453 900 m 6 Y s 1494 900 m 6 Y s 1473 903 m20 1515 859 m 13 Y s 1515 883 m 14 Y s 1494 878 m 15 X s 1520 878 m 15 X s 1512 859 m
 5 X s 1512 897 m 5 X s 1494 875 m 6 Y s 1535 875 m 6 Y s 1515 878 m20 1556 895 m 5 Y s 1556 912 m 5 Y s 1535 906 m 15 X s 1562 906 m 15 X s 1553 895 m 6 X s 1553 917 m 6 X s 1535 903 m 6 Y s 1577 903 m 6 Y s 1556 906 m20 1597 898 m 4 Y s 1597 914 m
 4 Y s 1577 908 m 15 X s 1603 908 m 15 X s 1595 898 m 5 X s 1595 918 m 5 X s 1577 905 m 6 Y s 1618 905 m 6 Y s 1597 908 m20 1639 900 m 5 Y s 1639 916 m 4 Y s 1618 910 m 15 X s 1644 910 m 15 X s 1636 900 m 6 X s 1636 920 m 6 X s 1618 907 m 6 Y s 1659
 907 m 6 Y s 1639 910 m20 1680 896 m 4 Y s 1680 912 m 4 Y s 1659 906 m 15 X s 1686 906 m 15 X s 1677 896 m 6 X s 1677 916 m 6 X s 1659 903 m 6 Y s 1701 903 m 6 Y s 1680 906 m20 1721 884 m 10 Y s 1721 906 m 10 Y s 1701 900 m 15 X s 1727 900 m 15 X s
 1719 884 m 5 X s 1719 916 m 5 X s 1701 897 m 6 Y s 1742 897 m 6 Y s 1721 900 m20 1763 899 m 3 Y s 1763 914 m 3 Y s 1742 908 m 15 X s 1769 908 m 15 X s 1760 899 m 6 X s 1760 917 m 6 X s 1742 905 m 6 Y s 1784 905 m 6 Y s 1763 908 m20 1804 891 m 6 Y s
 1804 909 m 7 Y s 1784 903 m 15 X s 1810 903 m 15 X s 1801 891 m 6 X s 1801 916 m 6 X s 1784 900 m 6 Y s 1825 900 m 6 Y s 1804 903 m20 1846 896 m 4 Y s 1846 912 m 4 Y s 1825 906 m 15 X s 1851 906 m 15 X s 1843 896 m 5 X s 1843 916 m 5 X s 1825 903 m
 6 Y s 1866 903 m 6 Y s 1846 906 m20 1887 888 m 9 Y s 1887 909 m 9 Y s 1866 903 m 15 X s 1893 903 m 15 X s 1884 888 m 6 X s 1884 918 m 6 X s 1866 900 m 6 Y s 1908 900 m 6 Y s 1887 903 m20 1928 894 m 6 Y s 1928 912 m 6 Y s 1908 906 m 15 X s 1934 906 m
 15 X s 1925 894 m 6 X s 1925 918 m 6 X s 1908 903 m 6 Y s 1949 903 m 6 Y s 1928 906 m20 1970 887 m 8 Y s 1970 906 m 8 Y s 1949 901 m 15 X s 1975 901 m 15 X s 1967 887 m 5 X s 1967 914 m 5 X s 1949 898 m 5 Y s 1990 898 m 5 Y s 1970 901 m20 2011 897 m
 10 Y s 2011 918 m 10 Y s 1990 913 m 15 X s 2017 913 m 15 X s 2008 897 m 6 X s 2008 928 m 6 X s 1990 910 m 6 Y s 2032 910 m 6 Y s 2011 913 m20 2052 883 m 11 Y s 2052 905 m 11 Y s 2032 899 m 15 X s 2058 899 m 15 X s 2050 883 m 5 X s 2050 916 m 5 X s
 2032 896 m 6 Y s 2073 896 m 6 Y s 2052 899 m20 2094 814 m 49 Y s 2094 875 m 123 Y s 2073 869 m 15 X s 2099 869 m 15 X s 2091 814 m 6 X s 2091 998 m 6 X s 2073 866 m 6 Y s 2114 866 m 6 Y s 2094 869 m20 1 1 1 c 1088 681 23 14 bf black 1 1 1 c black 1
 1 1 c 828 343 153 290 bf black 828 343 153 290 bl 1 1 1 c 828 343 153 290 bf black 828 343 153 290 bl 153 290 m 828 X s 153 300 m -10 Y s 172 295 m -5 Y s 190 295 m -5 Y s 208 295 m -5 Y s 227 295 m -5 Y s 245 300 m -10 Y s 264 295 m -5 Y s 282 295
 m -5 Y s 300 295 m -5 Y s 319 295 m -5 Y s 337 300 m -10 Y s 356 295 m -5 Y s 374 295 m -5 Y s 392 295 m -5 Y s 411 295 m -5 Y s 429 300 m -10 Y s 447 295 m -5 Y s 466 295 m -5 Y s 484 295 m -5 Y s 503 295 m -5 Y s 521 300 m -10 Y s 539 295 m -5 Y s
 558 295 m -5 Y s 576 295 m -5 Y s 595 295 m -5 Y s 613 300 m -10 Y s 631 295 m -5 Y s 650 295 m -5 Y s 668 295 m -5 Y s 686 295 m -5 Y s 705 300 m -10 Y s 723 295 m -5 Y s 742 295 m -5 Y s 760 295 m -5 Y s 778 295 m -5 Y s 797 300 m -10 Y s 815 295
 m -5 Y s 833 295 m -5 Y s 852 295 m -5 Y s 870 295 m -5 Y s 889 300 m -10 Y s 907 295 m -5 Y s 925 295 m -5 Y s 944 295 m -5 Y s 962 295 m -5 Y s 981 300 m -10 Y s 981 300 m -10 Y s
 gsave  1088 409 23 286 C 146.167 278.143 t 0 r /Helvetica findfont 12.8036 sf 0 0 m (10) show NC gr 
 gsave  1088 409 23 286 C 236.989 278.143 t 0 r /Helvetica findfont 12.8036 sf 0 0 m (20) show NC gr 
 gsave  1088 409 23 286 C 329.23 278.143 t 0 r /Helvetica findfont 12.8036 sf 0 0 m (30) show NC gr 
 gsave  1088 409 23 286 C 421.472 278.143 t 0 r /Helvetica findfont 12.8036 sf 0 0 m (40) show NC gr 
 gsave  1088 409 23 286 C 513.713 278.143 t 0 r /Helvetica findfont 12.8036 sf 0 0 m (50) show NC gr 
 gsave  1088 409 23 286 C 604.535 278.143 t 0 r /Helvetica findfont 12.8036 sf 0 0 m (60) show NC gr 
 gsave  1088 409 23 286 C 696.776 278.143 t 0 r /Helvetica findfont 12.8036 sf 0 0 m (70) show NC gr 
 gsave  1088 409 23 286 C 789.018 278.143 t 0 r /Helvetica findfont 12.8036 sf 0 0 m (80) show NC gr 
 gsave  1088 409 23 286 C 881.259 278.143 t 0 r /Helvetica findfont 12.8036 sf 0 0 m (90) show NC gr 
 gsave  1088 409 23 286 C 967.824 278.143 t 0 r /Helvetica findfont 12.8036 sf 0 0 m (100) show NC gr 
 gsave  1088 409 23 286 C 972.081 272.467 t 0 r /Symbol findfont 8.5357 sf 0 0 m (m) show NC gr 
 gsave  1088 409 23 286 C 972.081 258.276 t 0 r /Helvetica findfont 8.5357 sf 0 0 m (T) show NC gr 
 gsave  1088 409 23 286 C 964.986 265.371 t 0 r /Helvetica findfont 12.8036 sf 0 0 m (p) show NC gr  153 633 m 828 X s 153 624 m 9 Y s 172 629 m 4 Y s 190 629 m 4 Y s 208 629 m 4 Y s 227 629 m 4 Y s 245 624 m 9 Y s 264 629 m 4 Y s 282 629 m 4 Y s 300
 629 m 4 Y s 319 629 m 4 Y s 337 624 m 9 Y s 356 629 m 4 Y s 374 629 m 4 Y s 392 629 m 4 Y s 411 629 m 4 Y s 429 624 m 9 Y s 447 629 m 4 Y s 466 629 m 4 Y s 484 629 m 4 Y s 503 629 m 4 Y s 521 624 m 9 Y s 539 629 m 4 Y s 558 629 m 4 Y s 576 629 m 4 Y
 s 595 629 m 4 Y s 613 624 m 9 Y s 631 629 m 4 Y s 650 629 m 4 Y s 668 629 m 4 Y s 686 629 m 4 Y s 705 624 m 9 Y s 723 629 m 4 Y s 742 629 m 4 Y s 760 629 m 4 Y s 778 629 m 4 Y s 797 624 m 9 Y s 815 629 m 4 Y s 833 629 m 4 Y s 852 629 m 4 Y s 870 629
 m 4 Y s 889 624 m 9 Y s 907 629 m 4 Y s 925 629 m 4 Y s 944 629 m 4 Y s 962 629 m 4 Y s 981 624 m 9 Y s 981 624 m 9 Y s 153 290 m 343 Y s 181 333 m -28 X s 167 341 m -14 X s 167 350 m -14 X s 167 358 m -14 X s 167 367 m -14 X s 181 376 m -28 X s 167
 384 m -14 X s 167 393 m -14 X s 167 401 m -14 X s 167 410 m -14 X s 181 419 m -28 X s 167 427 m -14 X s 167 436 m -14 X s 167 444 m -14 X s 167 453 m -14 X s 181 462 m -28 X s 167 470 m -14 X s 167 479 m -14 X s 167 487 m -14 X s 167 496 m -14 X s
 181 504 m -28 X s 167 513 m -14 X s 167 522 m -14 X s 167 530 m -14 X s 167 539 m -14 X s 181 547 m -28 X s 167 556 m -14 X s 167 565 m -14 X s 167 573 m -14 X s 167 582 m -14 X s 181 590 m -28 X s 167 599 m -14 X s 167 608 m -14 X s 167 616 m -14 X
 s 167 625 m -14 X s 181 633 m -28 X s 181 333 m -28 X s 167 324 m -14 X s 167 315 m -14 X s 167 307 m -14 X s 167 298 m -14 X s 181 633 m -28 X s
 gsave  1088 409 23 286 C 66.6975 320.716 t 0 r /Helvetica findfont 32.7202 sf 0 0 m (0.965) show NC gr 
 gsave  1088 409 23 286 C 85.1458 363.289 t 0 r /Helvetica findfont 32.7202 sf 0 0 m (0.97) show NC gr 
 gsave  1088 409 23 286 C 66.6975 405.862 t 0 r /Helvetica findfont 32.7202 sf 0 0 m (0.975) show NC gr 
 gsave  1088 409 23 286 C 85.1458 449.854 t 0 r /Helvetica findfont 32.7202 sf 0 0 m (0.98) show NC gr 
 gsave  1088 409 23 286 C 66.6975 492.427 t 0 r /Helvetica findfont 32.7202 sf 0 0 m (0.985) show NC gr 
 gsave  1088 409 23 286 C 85.1458 534.999 t 0 r /Helvetica findfont 32.7202 sf 0 0 m (0.99) show NC gr 
 gsave  1088 409 23 286 C 66.6975 578.991 t 0 r /Helvetica findfont 32.7202 sf 0 0 m (0.995) show NC gr 
 gsave  1088 409 23 286 C 134.814 621.564 t 0 r /Helvetica findfont 32.7202 sf 0 0 m (1) show NC gr 
 gsave  1088 409 23 286 C 49.6684 441.339 t 90 r /Helvetica findfont 22.7619 sf 0 0 m (Efficiency \(ID | MS\)) show NC gr  981 290 m 343 Y s 953 333 m 28 X s 967 341 m 14 X s 967 350 m 14 X s 967 358 m 14 X s 967 367 m 14 X s 953 376 m 28 X s 967 384
 m 14 X s 967 393 m 14 X s 967 401 m 14 X s 967 410 m 14 X s 953 419 m 28 X s 967 427 m 14 X s 967 436 m 14 X s 967 444 m 14 X s 967 453 m 14 X s 953 462 m 28 X s 967 470 m 14 X s 967 479 m 14 X s 967 487 m 14 X s 967 496 m 14 X s 953 504 m 28 X s
 967 513 m 14 X s 967 522 m 14 X s 967 530 m 14 X s 967 539 m 14 X s 953 547 m 28 X s 967 556 m 14 X s 967 565 m 14 X s 967 573 m 14 X s 967 582 m 14 X s 953 590 m 28 X s 967 599 m 14 X s 967 608 m 14 X s 967 616 m 14 X s 967 625 m 14 X s 953 633 m
 28 X s 953 333 m 28 X s 967 324 m 14 X s 967 315 m 14 X s 967 307 m 14 X s 967 298 m 14 X s 953 633 m 28 X s 1 0 0 c 191 502 m -38 X s 153 499 m 5 Y s 191 502 m 38 X s 229 499 m 5 Y s 191 502 m 56 Y s 188 558 m 6 X s 191 502 m -88 Y s 188 414 m 6 X
 s 266 633 m -37 X s 229 631 m 2 Y s 266 633 m 38 X s 304 631 m 2 Y s 266 633 m -16 Y s 263 617 m 6 X s 341 627 m -37 X s 304 624 m 6 Y s 341 627 m 38 X s 379 624 m 6 Y s 341 627 m 4 Y s 338 631 m 6 X s 341 627 m -9 Y s 338 618 m 6 X s 417 626 m -38
 X s 379 623 m 6 Y s 417 626 m 37 X s 454 623 m 6 Y s 417 626 m 4 Y s 414 630 m 5 X s 417 626 m -5 Y s 414 621 m 5 X s 492 625 m -38 X s 454 622 m 6 Y s 492 625 m 37 X s 529 622 m 6 Y s 492 625 m 4 Y s 489 629 m 6 X s 492 625 m -7 Y s 489 618 m 6 X s
 567 617 m -38 X s 529 614 m 6 Y s 567 617 m 38 X s 605 614 m 6 Y s 567 617 m 11 Y s 564 628 m 6 X s 567 617 m -21 Y s 564 596 m 6 X s 642 633 m -37 X s 605 631 m 2 Y s 642 633 m 38 X s 680 631 m 2 Y s 642 633 m -49 Y s 639 584 m 6 X s 717 575 m -37
 X s 680 572 m 6 Y s 717 575 m 38 X s 755 572 m 6 Y s 717 575 m 48 Y s 715 623 m 5 X s 717 575 m -133 Y s 715 442 m 5 X s 793 633 m -38 X s 755 631 m 2 Y s 793 633 m 37 X s 830 631 m 2 Y s 793 633 m -288 Y s 790 345 m 5 X s 868 633 m -38 X s 830 631
 m 2 Y s 868 633 m 37 X s 905 631 m 2 Y s 868 633 m -343 Y s 865 290 m 6 X s 0.95 0.95 0.95 c 1 0 0 c /w 12 def /w2 {w 2 div} def /w3 {w 3 div} def 191 502 266 633 341 627 417 626 492 625 567 617 642 633 717 575 793 633 868 633 10 { m24} R black 260
 594 m -31 X s 229 592 m 5 Y s 272 594 m 32 X s 304 592 m 5 Y s 266 600 m 20 Y s 263 620 m 6 X s 266 589 m -46 Y s 263 543 m 6 X s 336 626 m -32 X s 304 623 m 6 Y s 347 626 m 32 X s 379 623 m 6 Y s 341 632 m s 338 632 m 6 X s 341 620 m -11 Y s 338
 609 m 6 X s 411 626 m -32 X s 379 623 m 5 Y s 422 626 m 32 X s 454 623 m 5 Y s 417 620 m -5 Y s 414 615 m 5 X s 486 620 m -32 X s 454 617 m 6 Y s 497 620 m 32 X s 529 617 m 6 Y s 492 625 m 2 Y s 489 627 m 6 X s 492 614 m -8 Y s 489 606 m 6 X s 561
 583 m -32 X s 529 580 m 6 Y s 573 583 m 32 X s 605 580 m 6 Y s 567 589 m 21 Y s 564 610 m 6 X s 567 577 m -43 Y s 564 534 m 6 X s 636 633 m -31 X s 605 631 m 2 Y s 648 633 m 32 X s 680 631 m 2 Y s 642 628 m -89 Y s 639 539 m 6 X s 712 529 m -32 X s
 680 526 m 5 Y s 723 529 m 32 X s 755 526 m 5 Y s 717 534 m 81 Y s 715 615 m 5 X s 717 523 m -231 Y s 715 292 m 5 X s 787 633 m -32 X s 755 631 m 2 Y s 798 633 m 32 X s 830 631 m 2 Y s 793 628 m -338 Y s 790 290 m 5 X s 862 633 m -32 X s 830 631 m 2
 Y s 873 633 m 32 X s 905 631 m 2 Y s 868 628 m -338 Y s 865 290 m 6 X s 937 633 m -32 X s 905 631 m 2 Y s 949 633 m 32 X s 981 631 m 2 Y s 943 628 m -338 Y s 940 290 m 6 X s 0.95 0.95 0.95 c black 266 594 341 626 417 626 492 620 567 583 642 633 717
 529 793 633 868 633 943 633 10 { m20} R 1 1 1 c 218 82 240 368 bf black
 gsave  1088 409 23 286 C 390.252 432.824 t 0 r /Helvetica findfont 21.3393 sf 0 0 m (+) show NC gr 
 gsave  1088 409 23 286 C 371.803 421.472 t 0 r /Symbol findfont 31.2976 sf 0 0 m (m) show NC gr 
 gsave  1088 409 23 286 C 293.753 421.472 t 0 r /Helvetica findfont 31.2976 sf 0 0 m (data, ) show NC gr  268 429 m20
 gsave  1088 409 23 286 C 377.48 391.671 t 0 r /Helvetica findfont 21.3393 sf 0 0 m (+) show NC gr 
 gsave  1088 409 23 286 C 359.031 380.318 t 0 r /Symbol findfont 31.2976 sf 0 0 m (m) show NC gr 
 gsave  1088 409 23 286 C 293.753 380.318 t 0 r /Helvetica findfont 31.2976 sf 0 0 m (MC, ) show NC gr  1 0 0 c 268 388 m24 black
 gsave  1088 409 23 286 C 590.344 344.841 t 0 r /Helvetica-Bold findfont 25.6071 sf 0 0 m (\2551) show NC gr 
 gsave  1088 409 23 286 C 280.981 327.811 t 0 r /Helvetica-Bold findfont 38.4107 sf 0 0 m ( = 13 TeV, 22.1 fb) show NC gr 
 gsave  1088 409 23 286 C 259.695 327.811 t 0 r /Helvetica-Bold findfont 38.4107 sf 0 0 m (s) show NC gr  6 lw 247 349 m 4 -23 d s 3 lw 251 326 m 4 34 d s 255 360 m 26 X s 1 1 1 c black 1 1 1 c 828 184 153 105 bf black 828 184 153 105 bl 1 1 1 c 828
 184 153 105 bf black 828 184 153 105 bl 1 1 1 c black 191 105 m 32 Y s 191 148 m 46 Y s 153 143 m 32 X s 197 143 m 32 X s 188 105 m 6 X s 188 194 m 6 X s 153 140 m 6 Y s 229 140 m 6 Y s /w 11 def /w2 {w 2 div} def /w3 {w 3 div} def 191 143 m20 266
 177 m 6 Y s 266 195 m 5 Y s 229 189 m 31 X s 272 189 m 32 X s 263 177 m 6 X s 263 200 m 6 X s 229 186 m 6 Y s 304 186 m 6 Y s 266 189 m20 304 197 m 32 X s 347 197 m 32 X s 304 194 m 6 Y s 379 194 m 6 Y s 341 197 m20 379 197 m 32 X s 422 197 m 32 X s
 379 194 m 6 Y s 454 194 m 6 Y s 417 197 m20 454 196 m 32 X s 497 196 m 32 X s 454 193 m 6 Y s 529 193 m 6 Y s 492 196 m20 567 178 m 6 Y s 567 196 m 5 Y s 529 190 m 32 X s 573 190 m 32 X s 564 178 m 6 X s 564 201 m 6 X s 529 187 m 6 Y s 605 187 m 6 Y
 s 567 190 m20 642 174 m 18 Y s 642 203 m 17 Y s 605 197 m 31 X s 648 197 m 32 X s 639 174 m 6 X s 639 220 m 6 X s 605 194 m 6 Y s 680 194 m 6 Y s 642 197 m20 717 129 m 53 Y s 717 193 m 53 Y s 680 187 m 32 X s 723 187 m 32 X s 715 129 m 5 X s 715 246
 m 5 X s 680 184 m 6 Y s 755 184 m 6 Y s 717 187 m20 793 105 m 87 Y s 793 203 m 86 Y s 755 197 m 32 X s 798 197 m 32 X s 790 105 m 5 X s 790 289 m 5 X s 755 194 m 6 Y s 830 194 m 6 Y s 793 197 m20 868 105 m 87 Y s 868 203 m 86 Y s 830 197 m 32 X s
 873 197 m 32 X s 865 105 m 6 X s 865 289 m 6 X s 830 194 m 6 Y s 905 194 m 6 Y s 868 197 m20 943 105 m 170 Y s 943 287 m 2 Y s 905 281 m 32 X s 949 281 m 32 X s 940 105 m 6 X s 940 289 m 6 X s 905 278 m 6 Y s 981 278 m 6 Y s 943 281 m20 153 105 m
 828 X s 153 111 m -6 Y s 172 108 m -3 Y s 190 108 m -3 Y s 208 108 m -3 Y s 227 108 m -3 Y s 245 111 m -6 Y s 264 108 m -3 Y s 282 108 m -3 Y s 300 108 m -3 Y s 319 108 m -3 Y s 337 111 m -6 Y s 356 108 m -3 Y s 374 108 m -3 Y s 392 108 m -3 Y s 411
 108 m -3 Y s 429 111 m -6 Y s 447 108 m -3 Y s 466 108 m -3 Y s 484 108 m -3 Y s 503 108 m -3 Y s 521 111 m -6 Y s 539 108 m -3 Y s 558 108 m -3 Y s 576 108 m -3 Y s 595 108 m -3 Y s 613 111 m -6 Y s 631 108 m -3 Y s 650 108 m -3 Y s 668 108 m -3 Y
 s 686 108 m -3 Y s 705 111 m -6 Y s 723 108 m -3 Y s 742 108 m -3 Y s 760 108 m -3 Y s 778 108 m -3 Y s 797 111 m -6 Y s 815 108 m -3 Y s 833 108 m -3 Y s 852 108 m -3 Y s 870 108 m -3 Y s 889 111 m -6 Y s 907 108 m -3 Y s 925 108 m -3 Y s 944 108 m
 -3 Y s 962 108 m -3 Y s 981 111 m -6 Y s
 gsave  1088 280 23 21 C 134.814 75.2121 t 0 r /Helvetica findfont 32.7324 sf 0 0 m (10) show NC gr 
 gsave  1088 280 23 21 C 225.636 75.2121 t 0 r /Helvetica findfont 32.7324 sf 0 0 m (20) show NC gr 
 gsave  1088 280 23 21 C 317.878 75.2121 t 0 r /Helvetica findfont 32.7324 sf 0 0 m (30) show NC gr 
 gsave  1088 280 23 21 C 410.119 75.2121 t 0 r /Helvetica findfont 32.7324 sf 0 0 m (40) show NC gr 
 gsave  1088 280 23 21 C 502.36 75.2121 t 0 r /Helvetica findfont 32.7324 sf 0 0 m (50) show NC gr 
 gsave  1088 280 23 21 C 593.182 75.2121 t 0 r /Helvetica findfont 32.7324 sf 0 0 m (60) show NC gr 
 gsave  1088 280 23 21 C 685.424 75.2121 t 0 r /Helvetica findfont 32.7324 sf 0 0 m (70) show NC gr 
 gsave  1088 280 23 21 C 777.665 75.2121 t 0 r /Helvetica findfont 32.7324 sf 0 0 m (80) show NC gr 
 gsave  1088 280 23 21 C 869.906 75.2121 t 0 r /Helvetica findfont 32.7324 sf 0 0 m (90) show NC gr 
 gsave  1088 280 23 21 C 952.214 75.2121 t 0 r /Helvetica findfont 32.7324 sf 0 0 m (100) show NC gr 
 gsave  1088 280 23 21 C 919.575 48.2493 t 0 r /Helvetica findfont 21.3472 sf 0 0 m ( [GeV]) show NC gr 
 gsave  1088 280 23 21 C 909.641 61.0212 t 0 r /Symbol findfont 14.2315 sf 0 0 m (m) show NC gr 
 gsave  1088 280 23 21 C 909.641 35.4774 t 0 r /Helvetica findfont 14.2315 sf 0 0 m (T) show NC gr 
 gsave  1088 280 23 21 C 896.869 48.2493 t 0 r /Helvetica findfont 21.3472 sf 0 0 m (p) show NC gr  153 289 m 828 X s 153 283 m 6 Y s 172 286 m 3 Y s 190 286 m 3 Y s 208 286 m 3 Y s 227 286 m 3 Y s 245 283 m 6 Y s 264 286 m 3 Y s 282 286 m 3 Y s 300
 286 m 3 Y s 319 286 m 3 Y s 337 283 m 6 Y s 356 286 m 3 Y s 374 286 m 3 Y s 392 286 m 3 Y s 411 286 m 3 Y s 429 283 m 6 Y s 447 286 m 3 Y s 466 286 m 3 Y s 484 286 m 3 Y s 503 286 m 3 Y s 521 283 m 6 Y s 539 286 m 3 Y s 558 286 m 3 Y s 576 286 m 3 Y
 s 595 286 m 3 Y s 613 283 m 6 Y s 631 286 m 3 Y s 650 286 m 3 Y s 668 286 m 3 Y s 686 286 m 3 Y s 705 283 m 6 Y s 723 286 m 3 Y s 742 286 m 3 Y s 760 286 m 3 Y s 778 286 m 3 Y s 797 283 m 6 Y s 815 286 m 3 Y s 833 286 m 3 Y s 852 286 m 3 Y s 870 286
 m 3 Y s 889 283 m 6 Y s 907 286 m 3 Y s 925 286 m 3 Y s 944 286 m 3 Y s 962 286 m 3 Y s 981 283 m 6 Y s 153 105 m 184 Y s 175 124 m -22 X s 164 133 m -11 X s 164 142 m -11 X s 164 151 m -11 X s 175 160 m -22 X s 164 170 m -11 X s 164 179 m -11 X s
 164 188 m -11 X s 175 197 m -22 X s 164 206 m -11 X s 164 216 m -11 X s 164 225 m -11 X s 175 234 m -22 X s 164 243 m -11 X s 164 252 m -11 X s 164 262 m -11 X s 175 271 m -22 X s 175 124 m -22 X s 164 114 m -11 X s 164 105 m -11 X s 175 271 m -22 X
 s 164 280 m -11 X s 164 289 m -11 X s
 gsave  1088 280 23 21 C 79.4694 112.109 t 0 r /Helvetica findfont 32.7324 sf 0 0 m (0.96) show NC gr 
 gsave  1088 280 23 21 C 79.4694 147.586 t 0 r /Helvetica findfont 32.7324 sf 0 0 m (0.98) show NC gr 
 gsave  1088 280 23 21 C 129.138 184.483 t 0 r /Helvetica findfont 32.7324 sf 0 0 m (1) show NC gr 
 gsave  1088 280 23 21 C 79.4694 221.379 t 0 r /Helvetica findfont 32.7324 sf 0 0 m (1.02) show NC gr 
 gsave  1088 280 23 21 C 79.4694 258.276 t 0 r /Helvetica findfont 32.7324 sf 0 0 m (1.04) show NC gr 
 gsave  1088 280 23 21 C 49.6684 141.91 t 90 r /Helvetica findfont 21.3472 sf 0 0 m (Data/MC         ) show NC gr  981 105 m 184 Y s 959 124 m 22 X s 970 133 m 11 X s 970 142 m 11 X s 970 151 m 11 X s 959 160 m 22 X s 970 170 m 11 X s 970 179 m 11 X
 s 970 188 m 11 X s 959 197 m 22 X s 970 206 m 11 X s 970 216 m 11 X s 970 225 m 11 X s 959 234 m 22 X s 970 243 m 11 X s 970 252 m 11 X s 970 262 m 11 X s 959 271 m 22 X s 959 124 m 22 X s 970 114 m 11 X s 970 105 m 11 X s 959 271 m 22 X s 970 280 m
 11 X s 970 289 m 11 X s 0 0 1 c[ 12 12] 0 sd 6 lw 153 197 m 828 X s 153 197 m 828 X s black[  ] 0 sd 3 lw 1 1 1 c black 191 105 m 32 Y s 191 148 m 46 Y s 153 143 m 32 X s 197 143 m 32 X s 188 105 m 6 X s 188 194 m 6 X s 153 140 m 6 Y s 229 140 m 6 Y
 s 191 143 m20 266 177 m 6 Y s 266 195 m 5 Y s 229 189 m 31 X s 272 189 m 32 X s 263 177 m 6 X s 263 200 m 6 X s 229 186 m 6 Y s 304 186 m 6 Y s 266 189 m20 304 197 m 32 X s 347 197 m 32 X s 304 194 m 6 Y s 379 194 m 6 Y s 341 197 m20 379 197 m 32 X
 s 422 197 m 32 X s 379 194 m 6 Y s 454 194 m 6 Y s 417 197 m20 454 196 m 32 X s 497 196 m 32 X s 454 193 m 6 Y s 529 193 m 6 Y s 492 196 m20 567 178 m 6 Y s 567 196 m 5 Y s 529 190 m 32 X s 573 190 m 32 X s 564 178 m 6 X s 564 201 m 6 X s 529 187 m
 6 Y s 605 187 m 6 Y s 567 190 m20 642 174 m 18 Y s 642 203 m 17 Y s 605 197 m 31 X s 648 197 m 32 X s 639 174 m 6 X s 639 220 m 6 X s 605 194 m 6 Y s 680 194 m 6 Y s 642 197 m20 717 129 m 53 Y s 717 193 m 53 Y s 680 187 m 32 X s 723 187 m 32 X s 715
 129 m 5 X s 715 246 m 5 X s 680 184 m 6 Y s 755 184 m 6 Y s 717 187 m20 793 105 m 87 Y s 793 203 m 86 Y s 755 197 m 32 X s 798 197 m 32 X s 790 105 m 5 X s 790 289 m 5 X s 755 194 m 6 Y s 830 194 m 6 Y s 793 197 m20 868 105 m 87 Y s 868 203 m 86 Y s
 830 197 m 32 X s 873 197 m 32 X s 865 105 m 6 X s 865 289 m 6 X s 830 194 m 6 Y s 905 194 m 6 Y s 868 197 m20 943 105 m 170 Y s 943 287 m 2 Y s 905 281 m 32 X s 949 281 m 32 X s 940 105 m 6 X s 940 289 m 6 X s 905 278 m 6 Y s 981 278 m 6 Y s 943 281
 m20 1 1 1 c 1088 681 1157 14 bf black 1 1 1 c black 1 1 1 c 827 343 1287 290 bf black 827 343 1287 290 bl 1 1 1 c 827 343 1287 290 bf black 827 343 1287 290 bl 1287 290 m 827 X s 1287 300 m -10 Y s 1306 295 m -5 Y s 1324 295 m -5 Y s 1342 295 m -5 Y
 s 1361 295 m -5 Y s 1379 300 m -10 Y s 1397 295 m -5 Y s 1416 295 m -5 Y s 1434 295 m -5 Y s 1453 295 m -5 Y s 1471 300 m -10 Y s 1489 295 m -5 Y s 1508 295 m -5 Y s 1526 295 m -5 Y s 1545 295 m -5 Y s 1563 300 m -10 Y s 1581 295 m -5 Y s 1600 295 m
 -5 Y s 1618 295 m -5 Y s 1636 295 m -5 Y s 1655 300 m -10 Y s 1673 295 m -5 Y s 1692 295 m -5 Y s 1710 295 m -5 Y s 1728 295 m -5 Y s 1747 300 m -10 Y s 1765 295 m -5 Y s 1784 295 m -5 Y s 1802 295 m -5 Y s 1820 295 m -5 Y s 1839 300 m -10 Y s 1857
 295 m -5 Y s 1875 295 m -5 Y s 1894 295 m -5 Y s 1912 295 m -5 Y s 1931 300 m -10 Y s 1949 295 m -5 Y s 1967 295 m -5 Y s 1986 295 m -5 Y s 2004 295 m -5 Y s 2023 300 m -10 Y s 2041 295 m -5 Y s 2059 295 m -5 Y s 2078 295 m -5 Y s 2096 295 m -5 Y s
 2114 300 m -10 Y s 2114 300 m -10 Y s
 gsave  1088 409 1157 286 C 1280.03 278.143 t 0 r /Helvetica findfont 12.8036 sf 0 0 m (10) show NC gr 
 gsave  1088 409 1157 286 C 1370.85 278.143 t 0 r /Helvetica findfont 12.8036 sf 0 0 m (20) show NC gr 
 gsave  1088 409 1157 286 C 1463.09 278.143 t 0 r /Helvetica findfont 12.8036 sf 0 0 m (30) show NC gr 
 gsave  1088 409 1157 286 C 1555.33 278.143 t 0 r /Helvetica findfont 12.8036 sf 0 0 m (40) show NC gr 
 gsave  1088 409 1157 286 C 1647.57 278.143 t 0 r /Helvetica findfont 12.8036 sf 0 0 m (50) show NC gr 
 gsave  1088 409 1157 286 C 1738.39 278.143 t 0 r /Helvetica findfont 12.8036 sf 0 0 m (60) show NC gr 
 gsave  1088 409 1157 286 C 1830.63 278.143 t 0 r /Helvetica findfont 12.8036 sf 0 0 m (70) show NC gr 
 gsave  1088 409 1157 286 C 1922.88 278.143 t 0 r /Helvetica findfont 12.8036 sf 0 0 m (80) show NC gr 
 gsave  1088 409 1157 286 C 2015.12 278.143 t 0 r /Helvetica findfont 12.8036 sf 0 0 m (90) show NC gr 
 gsave  1088 409 1157 286 C 2101.68 278.143 t 0 r /Helvetica findfont 12.8036 sf 0 0 m (100) show NC gr 
 gsave  1088 409 1157 286 C 2105.94 272.467 t 0 r /Symbol findfont 8.5357 sf 0 0 m (m) show NC gr 
 gsave  1088 409 1157 286 C 2105.94 258.276 t 0 r /Helvetica findfont 8.5357 sf 0 0 m (T) show NC gr 
 gsave  1088 409 1157 286 C 2098.84 265.371 t 0 r /Helvetica findfont 12.8036 sf 0 0 m (p) show NC gr  1287 633 m 827 X s 1287 624 m 9 Y s 1306 629 m 4 Y s 1324 629 m 4 Y s 1342 629 m 4 Y s 1361 629 m 4 Y s 1379 624 m 9 Y s 1397 629 m 4 Y s 1416 629
 m 4 Y s 1434 629 m 4 Y s 1453 629 m 4 Y s 1471 624 m 9 Y s 1489 629 m 4 Y s 1508 629 m 4 Y s 1526 629 m 4 Y s 1545 629 m 4 Y s 1563 624 m 9 Y s 1581 629 m 4 Y s 1600 629 m 4 Y s 1618 629 m 4 Y s 1636 629 m 4 Y s 1655 624 m 9 Y s 1673 629 m 4 Y s
 1692 629 m 4 Y s 1710 629 m 4 Y s 1728 629 m 4 Y s 1747 624 m 9 Y s 1765 629 m 4 Y s 1784 629 m 4 Y s 1802 629 m 4 Y s 1820 629 m 4 Y s 1839 624 m 9 Y s 1857 629 m 4 Y s 1875 629 m 4 Y s 1894 629 m 4 Y s 1912 629 m 4 Y s 1931 624 m 9 Y s 1949 629 m
 4 Y s 1967 629 m 4 Y s 1986 629 m 4 Y s 2004 629 m 4 Y s 2023 624 m 9 Y s 2041 629 m 4 Y s 2059 629 m 4 Y s 2078 629 m 4 Y s 2096 629 m 4 Y s 2114 624 m 9 Y s 2114 624 m 9 Y s 1287 290 m 343 Y s 1315 333 m -28 X s 1301 341 m -14 X s 1301 350 m -14 X
 s 1301 358 m -14 X s 1301 367 m -14 X s 1315 376 m -28 X s 1301 384 m -14 X s 1301 393 m -14 X s 1301 401 m -14 X s 1301 410 m -14 X s 1315 419 m -28 X s 1301 427 m -14 X s 1301 436 m -14 X s 1301 444 m -14 X s 1301 453 m -14 X s 1315 462 m -28 X s
 1301 470 m -14 X s 1301 479 m -14 X s 1301 487 m -14 X s 1301 496 m -14 X s 1315 504 m -28 X s 1301 513 m -14 X s 1301 522 m -14 X s 1301 530 m -14 X s 1301 539 m -14 X s 1315 547 m -28 X s 1301 556 m -14 X s 1301 565 m -14 X s 1301 573 m -14 X s
 1301 582 m -14 X s 1315 590 m -28 X s 1301 599 m -14 X s 1301 608 m -14 X s 1301 616 m -14 X s 1301 625 m -14 X s 1315 633 m -28 X s 1315 333 m -28 X s 1301 324 m -14 X s 1301 315 m -14 X s 1301 307 m -14 X s 1301 298 m -14 X s 1315 633 m -28 X s
 gsave  1088 409 1157 286 C 1200.56 320.716 t 0 r /Helvetica findfont 32.7202 sf 0 0 m (0.965) show NC gr 
 gsave  1088 409 1157 286 C 1219 363.289 t 0 r /Helvetica findfont 32.7202 sf 0 0 m (0.97) show NC gr 
 gsave  1088 409 1157 286 C 1200.56 405.862 t 0 r /Helvetica findfont 32.7202 sf 0 0 m (0.975) show NC gr 
 gsave  1088 409 1157 286 C 1219 449.854 t 0 r /Helvetica findfont 32.7202 sf 0 0 m (0.98) show NC gr 
 gsave  1088 409 1157 286 C 1200.56 492.427 t 0 r /Helvetica findfont 32.7202 sf 0 0 m (0.985) show NC gr 
 gsave  1088 409 1157 286 C 1219 534.999 t 0 r /Helvetica findfont 32.7202 sf 0 0 m (0.99) show NC gr 
 gsave  1088 409 1157 286 C 1200.56 578.991 t 0 r /Helvetica findfont 32.7202 sf 0 0 m (0.995) show NC gr 
 gsave  1088 409 1157 286 C 1268.67 621.564 t 0 r /Helvetica findfont 32.7202 sf 0 0 m (1) show NC gr 
 gsave  1088 409 1157 286 C 1183.53 441.339 t 90 r /Helvetica findfont 22.7619 sf 0 0 m (Efficiency \(ID | MS\)) show NC gr  2114 290 m 343 Y s 2087 333 m 27 X s 2101 341 m 13 X s 2101 350 m 13 X s 2101 358 m 13 X s 2101 367 m 13 X s 2087 376 m 27 X
 s 2101 384 m 13 X s 2101 393 m 13 X s 2101 401 m 13 X s 2101 410 m 13 X s 2087 419 m 27 X s 2101 427 m 13 X s 2101 436 m 13 X s 2101 444 m 13 X s 2101 453 m 13 X s 2087 462 m 27 X s 2101 470 m 13 X s 2101 479 m 13 X s 2101 487 m 13 X s 2101 496 m 13
 X s 2087 504 m 27 X s 2101 513 m 13 X s 2101 522 m 13 X s 2101 530 m 13 X s 2101 539 m 13 X s 2087 547 m 27 X s 2101 556 m 13 X s 2101 565 m 13 X s 2101 573 m 13 X s 2101 582 m 13 X s 2087 590 m 27 X s 2101 599 m 13 X s 2101 608 m 13 X s 2101 616 m
 13 X s 2101 625 m 13 X s 2087 633 m 27 X s 2087 333 m 27 X s 2101 324 m 13 X s 2101 315 m 13 X s 2101 307 m 13 X s 2101 298 m 13 X s 2087 633 m 27 X s 1 0 0 c 1325 580 m -38 X s 1287 577 m 5 Y s 1325 580 m 37 X s 1362 577 m 5 Y s 1325 580 m 34 Y s
 1322 614 m 6 X s 1325 580 m -71 Y s 1322 509 m 6 X s 1400 624 m -38 X s 1362 621 m 5 Y s 1400 624 m 38 X s 1438 621 m 5 Y s 1400 624 m 8 Y s 1397 632 m 6 X s 1400 624 m -23 Y s 1397 601 m 6 X s 1475 617 m -37 X s 1438 614 m 6 Y s 1475 617 m 38 X s
 1513 614 m 6 Y s 1475 617 m 7 Y s 1472 624 m 6 X s 1475 617 m -11 Y s 1472 606 m 6 X s 1550 626 m -37 X s 1513 623 m 6 Y s 1550 626 m 38 X s 1588 623 m 6 Y s 1550 626 m 4 Y s 1548 630 m 5 X s 1550 626 m -6 Y s 1548 620 m 5 X s 1626 627 m -38 X s
 1588 624 m 6 Y s 1626 627 m 37 X s 1663 624 m 6 Y s 1626 627 m 4 Y s 1623 631 m 5 X s 1626 627 m -6 Y s 1623 621 m 5 X s 1701 616 m -38 X s 1663 614 m 5 Y s 1701 616 m 37 X s 1738 614 m 5 Y s 1701 616 m 11 Y s 1698 627 m 6 X s 1701 616 m -22 Y s
 1698 594 m 6 X s 1776 633 m -38 X s 1738 631 m 2 Y s 1776 633 m 38 X s 1814 631 m 2 Y s 1776 633 m -43 Y s 1773 590 m 6 X s 1851 576 m -37 X s 1814 574 m 5 Y s 1851 576 m 38 X s 1889 574 m 5 Y s 1851 576 m 48 Y s 1848 624 m 6 X s 1851 576 m -129 Y s
 1848 447 m 6 X s 1926 509 m -37 X s 1889 506 m 6 Y s 1926 509 m 38 X s 1964 506 m 6 Y s 1926 509 m 103 Y s 1924 612 m 5 X s 1926 509 m -219 Y s 1924 290 m 5 X s 2002 633 m -38 X s 1964 631 m 2 Y s 2002 633 m 37 X s 2039 631 m 2 Y s 2002 633 m -343 Y
 s 1999 290 m 5 X s 2077 633 m -38 X s 2039 631 m 2 Y s 2077 633 m 37 X s 2114 631 m 2 Y s 2077 633 m -343 Y s 2074 290 m 6 X s 0.95 0.95 0.95 c 1 0 0 c /w 12 def /w2 {w 2 div} def /w3 {w 3 div} def 1325 580 1400 624 1475 617 1550 626 1626 627 1701
 616 1776 633 1851 576 1926 509 2002 633 2077 633 11 { m24} R black 1319 307 m -32 X s 1287 304 m 6 Y s 1330 307 m 32 X s 1362 304 m 6 Y s 1325 313 m 123 Y s 1322 436 m 6 X s 1325 301 m -11 Y s 1322 290 m 6 X s 1394 576 m -32 X s 1362 573 m 6 Y s
 1406 576 m 32 X s 1438 573 m 6 Y s 1400 581 m 26 Y s 1397 607 m 6 X s 1400 570 m -50 Y s 1397 520 m 6 X s 1469 603 m -31 X s 1438 601 m 5 Y s 1481 603 m 32 X s 1513 601 m 5 Y s 1475 609 m 9 Y s 1472 618 m 6 X s 1475 598 m -18 Y s 1472 580 m 6 X s
 1545 587 m -32 X s 1513 584 m 6 Y s 1556 587 m 32 X s 1588 584 m 6 Y s 1550 593 m 7 Y s 1548 600 m 5 X s 1550 582 m -12 Y s 1548 570 m 5 X s 1620 629 m -32 X s 1588 626 m 6 Y s 1631 629 m 32 X s 1663 626 m 6 Y s 1626 623 m -5 Y s 1623 618 m 5 X s
 1695 596 m -32 X s 1663 593 m 6 Y s 1706 596 m 32 X s 1738 593 m 6 Y s 1701 602 m 18 Y s 1698 620 m 6 X s 1701 590 m -43 Y s 1698 547 m 6 X s 1770 535 m -32 X s 1738 532 m 5 Y s 1782 535 m 32 X s 1814 532 m 5 Y s 1776 540 m 58 Y s 1773 598 m 6 X s
 1776 529 m -123 Y s 1773 406 m 6 X s 1846 633 m -32 X s 1814 631 m 2 Y s 1857 633 m 32 X s 1889 631 m 2 Y s 1851 628 m -195 Y s 1848 433 m 6 X s 1921 633 m -32 X s 1889 631 m 2 Y s 1932 633 m 32 X s 1964 631 m 2 Y s 1926 628 m -338 Y s 1924 290 m 5
 X s 1996 633 m -32 X s 1964 631 m 2 Y s 2007 633 m 32 X s 2039 631 m 2 Y s 2002 628 m -338 Y s 1999 290 m 5 X s 2071 633 m -32 X s 2039 631 m 2 Y s 2082 633 m 32 X s 2114 631 m 2 Y s 2077 628 m -338 Y s 2074 290 m 6 X s 0.95 0.95 0.95 c black 1325
 307 1400 576 1475 603 1550 587 1626 629 1701 596 1776 535 1851 633 1926 633 2002 633 2077 633 11 { m20} R 1 1 1 c 218 82 1374 368 bf black
 gsave  1088 409 1157 286 C 1524.11 435.663 t 0 r /Helvetica findfont 21.3393 sf 0 0 m (\255) show NC gr 
 gsave  1088 409 1157 286 C 1505.66 421.472 t 0 r /Symbol findfont 31.2976 sf 0 0 m (m) show NC gr 
 gsave  1088 409 1157 286 C 1427.61 421.472 t 0 r /Helvetica findfont 31.2976 sf 0 0 m (data, ) show NC gr  1401 429 m20
 gsave  1088 409 1157 286 C 1511.34 394.509 t 0 r /Helvetica findfont 21.3393 sf 0 0 m (\255) show NC gr 
 gsave  1088 409 1157 286 C 1492.89 380.318 t 0 r /Symbol findfont 31.2976 sf 0 0 m (m) show NC gr 
 gsave  1088 409 1157 286 C 1427.61 380.318 t 0 r /Helvetica findfont 31.2976 sf 0 0 m (MC, ) show NC gr  1 0 0 c 1401 388 m24 black
 gsave  1088 409 1157 286 C 1724.2 344.841 t 0 r /Helvetica-Bold findfont 25.6071 sf 0 0 m (\2551) show NC gr 
 gsave  1088 409 1157 286 C 1414.84 327.811 t 0 r /Helvetica-Bold findfont 38.4107 sf 0 0 m ( = 13 TeV, 22.1 fb) show NC gr 
 gsave  1088 409 1157 286 C 1393.55 327.811 t 0 r /Helvetica-Bold findfont 38.4107 sf 0 0 m (s) show NC gr  6 lw 1381 349 m 4 -23 d s 3 lw 1385 326 m 4 34 d s 1389 360 m 26 X s 1 1 1 c black 1 1 1 c 827 184 1287 105 bf black 827 184 1287 105 bl 1 1 1
 c 827 184 1287 105 bf black 827 184 1287 105 bl 1 1 1 c black 1325 105 m 28 Y s 1325 144 m 38 Y s 1287 138 m 32 X s 1330 138 m 32 X s 1322 105 m 6 X s 1322 182 m 6 X s 1287 136 m 5 Y s 1362 136 m 5 Y s /w 11 def /w2 {w 2 div} def /w3 {w 3 div} def
 1325 138 m20 1400 174 m 7 Y s 1400 193 m 7 Y s 1362 187 m 32 X s 1406 187 m 32 X s 1397 174 m 6 X s 1397 200 m 6 X s 1362 184 m 6 Y s 1438 184 m 6 Y s 1400 187 m20 1438 194 m 31 X s 1481 194 m 32 X s 1438 191 m 6 Y s 1513 191 m 6 Y s 1475 194 m20
 1513 189 m 32 X s 1556 189 m 32 X s 1513 186 m 6 Y s 1588 186 m 6 Y s 1550 189 m20 1588 198 m 32 X s 1631 198 m 32 X s 1588 195 m 5 Y s 1663 195 m 5 Y s 1626 198 m20 1701 181 m 6 Y s 1701 198 m 6 Y s 1663 193 m 32 X s 1706 193 m 32 X s 1698 181 m 6
 X s 1698 204 m 6 X s 1663 190 m 6 Y s 1738 190 m 6 Y s 1701 193 m20 1776 147 m 23 Y s 1776 182 m 23 Y s 1738 176 m 32 X s 1782 176 m 32 X s 1773 147 m 6 X s 1773 205 m 6 X s 1738 173 m 6 Y s 1814 173 m 6 Y s 1776 176 m20 1851 158 m 46 Y s 1851 215 m
 46 Y s 1814 209 m 32 X s 1857 209 m 32 X s 1848 158 m 6 X s 1848 261 m 6 X s 1814 207 m 5 Y s 1889 207 m 5 Y s 1851 209 m20 1926 110 m 109 Y s 1926 230 m 59 Y s 1889 224 m 32 X s 1932 224 m 32 X s 1924 110 m 5 X s 1924 289 m 5 X s 1889 221 m 6 Y s
 1964 221 m 6 Y s 1926 224 m20 2002 105 m 87 Y s 2002 203 m 86 Y s 1964 197 m 32 X s 2007 197 m 32 X s 1999 105 m 5 X s 1999 289 m 5 X s 1964 194 m 6 Y s 2039 194 m 6 Y s 2002 197 m20 2077 105 m 87 Y s 2077 203 m 86 Y s 2039 197 m 32 X s 2082 197 m
 32 X s 2074 105 m 6 X s 2074 289 m 6 X s 2039 194 m 6 Y s 2114 194 m 6 Y s 2077 197 m20 1287 105 m 827 X s 1287 111 m -6 Y s 1306 108 m -3 Y s 1324 108 m -3 Y s 1342 108 m -3 Y s 1361 108 m -3 Y s 1379 111 m -6 Y s 1397 108 m -3 Y s 1416 108 m -3 Y
 s 1434 108 m -3 Y s 1453 108 m -3 Y s 1471 111 m -6 Y s 1489 108 m -3 Y s 1508 108 m -3 Y s 1526 108 m -3 Y s 1545 108 m -3 Y s 1563 111 m -6 Y s 1581 108 m -3 Y s 1600 108 m -3 Y s 1618 108 m -3 Y s 1636 108 m -3 Y s 1655 111 m -6 Y s 1673 108 m -3
 Y s 1692 108 m -3 Y s 1710 108 m -3 Y s 1728 108 m -3 Y s 1747 111 m -6 Y s 1765 108 m -3 Y s 1784 108 m -3 Y s 1802 108 m -3 Y s 1820 108 m -3 Y s 1839 111 m -6 Y s 1857 108 m -3 Y s 1875 108 m -3 Y s 1894 108 m -3 Y s 1912 108 m -3 Y s 1931 111 m
 -6 Y s 1949 108 m -3 Y s 1967 108 m -3 Y s 1986 108 m -3 Y s 2004 108 m -3 Y s 2023 111 m -6 Y s 2041 108 m -3 Y s 2059 108 m -3 Y s 2078 108 m -3 Y s 2096 108 m -3 Y s 2114 111 m -6 Y s
 gsave  1088 280 1157 21 C 1268.67 75.2121 t 0 r /Helvetica findfont 32.7324 sf 0 0 m (10) show NC gr 
 gsave  1088 280 1157 21 C 1359.49 75.2121 t 0 r /Helvetica findfont 32.7324 sf 0 0 m (20) show NC gr 
 gsave  1088 280 1157 21 C 1451.74 75.2121 t 0 r /Helvetica findfont 32.7324 sf 0 0 m (30) show NC gr 
 gsave  1088 280 1157 21 C 1543.98 75.2121 t 0 r /Helvetica findfont 32.7324 sf 0 0 m (40) show NC gr 
 gsave  1088 280 1157 21 C 1636.22 75.2121 t 0 r /Helvetica findfont 32.7324 sf 0 0 m (50) show NC gr 
 gsave  1088 280 1157 21 C 1727.04 75.2121 t 0 r /Helvetica findfont 32.7324 sf 0 0 m (60) show NC gr 
 gsave  1088 280 1157 21 C 1819.28 75.2121 t 0 r /Helvetica findfont 32.7324 sf 0 0 m (70) show NC gr 
 gsave  1088 280 1157 21 C 1911.52 75.2121 t 0 r /Helvetica findfont 32.7324 sf 0 0 m (80) show NC gr 
 gsave  1088 280 1157 21 C 2003.76 75.2121 t 0 r /Helvetica findfont 32.7324 sf 0 0 m (90) show NC gr 
 gsave  1088 280 1157 21 C 2086.07 75.2121 t 0 r /Helvetica findfont 32.7324 sf 0 0 m (100) show NC gr 
 gsave  1088 280 1157 21 C 2053.43 48.2493 t 0 r /Helvetica findfont 21.3472 sf 0 0 m ( [GeV]) show NC gr 
 gsave  1088 280 1157 21 C 2043.5 61.0212 t 0 r /Symbol findfont 14.2315 sf 0 0 m (m) show NC gr 
 gsave  1088 280 1157 21 C 2043.5 35.4774 t 0 r /Helvetica findfont 14.2315 sf 0 0 m (T) show NC gr 
 gsave  1088 280 1157 21 C 2030.73 48.2493 t 0 r /Helvetica findfont 21.3472 sf 0 0 m (p) show NC gr  1287 289 m 827 X s 1287 283 m 6 Y s 1306 286 m 3 Y s 1324 286 m 3 Y s 1342 286 m 3 Y s 1361 286 m 3 Y s 1379 283 m 6 Y s 1397 286 m 3 Y s 1416 286 m
 3 Y s 1434 286 m 3 Y s 1453 286 m 3 Y s 1471 283 m 6 Y s 1489 286 m 3 Y s 1508 286 m 3 Y s 1526 286 m 3 Y s 1545 286 m 3 Y s 1563 283 m 6 Y s 1581 286 m 3 Y s 1600 286 m 3 Y s 1618 286 m 3 Y s 1636 286 m 3 Y s 1655 283 m 6 Y s 1673 286 m 3 Y s 1692
 286 m 3 Y s 1710 286 m 3 Y s 1728 286 m 3 Y s 1747 283 m 6 Y s 1765 286 m 3 Y s 1784 286 m 3 Y s 1802 286 m 3 Y s 1820 286 m 3 Y s 1839 283 m 6 Y s 1857 286 m 3 Y s 1875 286 m 3 Y s 1894 286 m 3 Y s 1912 286 m 3 Y s 1931 283 m 6 Y s 1949 286 m 3 Y s
 1967 286 m 3 Y s 1986 286 m 3 Y s 2004 286 m 3 Y s 2023 283 m 6 Y s 2041 286 m 3 Y s 2059 286 m 3 Y s 2078 286 m 3 Y s 2096 286 m 3 Y s 2114 283 m 6 Y s 1287 105 m 184 Y s 1309 124 m -22 X s 1298 133 m -11 X s 1298 142 m -11 X s 1298 151 m -11 X s
 1309 160 m -22 X s 1298 170 m -11 X s 1298 179 m -11 X s 1298 188 m -11 X s 1309 197 m -22 X s 1298 206 m -11 X s 1298 216 m -11 X s 1298 225 m -11 X s 1309 234 m -22 X s 1298 243 m -11 X s 1298 252 m -11 X s 1298 262 m -11 X s 1309 271 m -22 X s
 1309 124 m -22 X s 1298 114 m -11 X s 1298 105 m -11 X s 1309 271 m -22 X s 1298 280 m -11 X s 1298 289 m -11 X s
 gsave  1088 280 1157 21 C 1213.33 112.109 t 0 r /Helvetica findfont 32.7324 sf 0 0 m (0.96) show NC gr 
 gsave  1088 280 1157 21 C 1213.33 147.586 t 0 r /Helvetica findfont 32.7324 sf 0 0 m (0.98) show NC gr 
 gsave  1088 280 1157 21 C 1263 184.483 t 0 r /Helvetica findfont 32.7324 sf 0 0 m (1) show NC gr 
 gsave  1088 280 1157 21 C 1213.33 221.379 t 0 r /Helvetica findfont 32.7324 sf 0 0 m (1.02) show NC gr 
 gsave  1088 280 1157 21 C 1213.33 258.276 t 0 r /Helvetica findfont 32.7324 sf 0 0 m (1.04) show NC gr 
 gsave  1088 280 1157 21 C 1183.53 141.91 t 90 r /Helvetica findfont 21.3472 sf 0 0 m (Data/MC         ) show NC gr  2114 105 m 184 Y s 2093 124 m 21 X s 2104 133 m 10 X s 2104 142 m 10 X s 2104 151 m 10 X s 2093 160 m 21 X s 2104 170 m 10 X s 2104
 179 m 10 X s 2104 188 m 10 X s 2093 197 m 21 X s 2104 206 m 10 X s 2104 216 m 10 X s 2104 225 m 10 X s 2093 234 m 21 X s 2104 243 m 10 X s 2104 252 m 10 X s 2104 262 m 10 X s 2093 271 m 21 X s 2093 124 m 21 X s 2104 114 m 10 X s 2104 105 m 10 X s
 2093 271 m 21 X s 2104 280 m 10 X s 2104 289 m 10 X s 0 0 1 c[ 12 12] 0 sd 6 lw 1287 197 m 827 X s 1287 197 m 827 X s black[  ] 0 sd 3 lw 1 1 1 c black 1325 105 m 28 Y s 1325 144 m 38 Y s 1287 138 m 32 X s 1330 138 m 32 X s 1322 105 m 6 X s 1322 182
 m 6 X s 1287 136 m 5 Y s 1362 136 m 5 Y s 1325 138 m20 1400 174 m 7 Y s 1400 193 m 7 Y s 1362 187 m 32 X s 1406 187 m 32 X s 1397 174 m 6 X s 1397 200 m 6 X s 1362 184 m 6 Y s 1438 184 m 6 Y s 1400 187 m20 1438 194 m 31 X s 1481 194 m 32 X s 1438
 191 m 6 Y s 1513 191 m 6 Y s 1475 194 m20 1513 189 m 32 X s 1556 189 m 32 X s 1513 186 m 6 Y s 1588 186 m 6 Y s 1550 189 m20 1588 198 m 32 X s 1631 198 m 32 X s 1588 195 m 5 Y s 1663 195 m 5 Y s 1626 198 m20 1701 181 m 6 Y s 1701 198 m 6 Y s 1663
 193 m 32 X s 1706 193 m 32 X s 1698 181 m 6 X s 1698 204 m 6 X s 1663 190 m 6 Y s 1738 190 m 6 Y s 1701 193 m20 1776 147 m 23 Y s 1776 182 m 23 Y s 1738 176 m 32 X s 1782 176 m 32 X s 1773 147 m 6 X s 1773 205 m 6 X s 1738 173 m 6 Y s 1814 173 m 6 Y
 s 1776 176 m20 1851 158 m 46 Y s 1851 215 m 46 Y s 1814 209 m 32 X s 1857 209 m 32 X s 1848 158 m 6 X s 1848 261 m 6 X s 1814 207 m 5 Y s 1889 207 m 5 Y s 1851 209 m20 1926 110 m 109 Y s 1926 230 m 59 Y s 1889 224 m 32 X s 1932 224 m 32 X s 1924 110
 m 5 X s 1924 289 m 5 X s 1889 221 m 6 Y s 1964 221 m 6 Y s 1926 224 m20 2002 105 m 87 Y s 2002 203 m 86 Y s 1964 197 m 32 X s 2007 197 m 32 X s 1999 105 m 5 X s 1999 289 m 5 X s 1964 194 m 6 Y s 2039 194 m 6 Y s 2002 197 m20 2077 105 m 87 Y s 2077
 203 m 86 Y s 2039 197 m 32 X s 2082 197 m 32 X s 2074 105 m 6 X s 2074 289 m 6 X s 2039 194 m 6 Y s 2114 194 m 6 Y s 2077 197 m20
 gr  gr showpage
end
%%EOF
