%!PS-Adobe-2.0 EPSF-2.0
%%BoundingBox:  0 0 567 274
%%Title: /home/petr/Analysis_iwona/SFAnalysis/eps/Zmass_mumu_MEcuts_MSTree_.eps: Results
%%Creator: ROOT Version 6.16/00
%%CreationDate: Thu Apr  4 16:05:31 2019
%%DocumentNeededResources: ProcSet (FontSetInit)
%%EndComments
%%BeginProlog
80 dict begin
/s {stroke} def /l {lineto} def /m {moveto} def /t {translate} def
/r {rotate} def /rl {roll}  def /R {repeat} def
/d {rlineto} def /rm {rmoveto} def /gr {grestore} def /f {eofill} def
/c {setrgbcolor} def /black {0 setgray} def /sd {setdash} def
/cl {closepath} def /sf {scalefont setfont} def /lw {setlinewidth} def
/box {m dup 0 exch d exch 0 d 0 exch neg d cl} def
/NC{systemdict begin initclip end}def/C{NC box clip newpath}def
/bl {box s} def /bf {gsave box gsave f grestore 1 lw [] 0 sd s grestore} def /Y { 0 exch d} def /X { 0 d} def 
/K {{pop pop 0 moveto} exch kshow} bind def
/ita {/ang 15 def gsave [1 0 ang dup sin exch cos div 1 0 0] concat} def 
/mp {newpath /y exch def /x exch def} def
/side {[w .77 mul w .23 mul] .385 w mul sd w 0 l currentpoint t -144 r} def
/mr {mp x y w2 0 360 arc} def /m24 {mr s} def /m20 {mr f} def
/mb {mp x y w2 add m w2 neg 0 d 0 w neg d w 0 d 0 w d cl} def
/mt {mp x y w2 add m w2 neg w neg d w 0 d cl} def
/w4 {w 4 div} def
/w6 {w 6 div} def
/w8 {w 8 div} def
/m21 {mb f} def /m25 {mb s} def /m22 {mt f} def /m26{mt s} def
/m23 {mp x y w2 sub m w2 w d w neg 0 d cl f} def
/m27 {mp x y w2 add m w3 neg w2 neg d w3 w2 neg d w3 w2 d cl s} def
/m28 {mp x w2 sub y w2 sub w3 add m w3 0 d  0 w3 neg d w3 0 d 0 w3 d w3 0 d  0 w3 d w3 neg 0 d 0 w3 d w3 neg 0 d 0 w3 neg d w3 neg 0 d cl s } def
/m29 {mp gsave x w2 sub y w2 add w3 sub m currentpoint t 4 {side} repeat cl fill gr} def
/m30 {mp gsave x w2 sub y w2 add w3 sub m currentpoint t 4 {side} repeat cl s gr} def
/m31 {mp x y w2 sub m 0 w d x w2 sub y m w 0 d x w2 sub y w2 add m w w neg d x w2 sub y w2 sub m w w d s} def
/m32 {mp x y w2 sub m w2 w d w neg 0 d cl s} def
/m33 {mp x y w2 add m w3 neg w2 neg d w3 w2 neg d w3 w2 d cl f} def
/m34 {mp x w2 sub y w2 sub w3 add m w3 0 d  0 w3 neg d w3 0 d 0 w3 d w3 0 d  0 w3 d w3 neg 0 d 0 w3 d w3 neg 0 d 0 w3 neg d w3 neg 0 d cl f } def
/m35 {mp x y w2 add m w2 neg w2 neg d w2 w2 neg d w2 w2 d w2 neg w2 d x y w2 sub m 0 w d x w2 sub y m w 0 d s} def
/m36 {mb x w2 sub y w2 add m w w neg d x w2 sub y w2 sub m w w d s} def
/m37 {mp x y m w4 neg w2 d w4 neg w2 neg d w2 0 d  w4 neg w2 neg d w2 0 d w4 neg w2 d w2 0 d w4 neg w2 d w4 neg w2 neg d cl s} def
/m38 {mp x w4 sub y w2 add m w4 neg w4 neg d 0 w2 neg d w4 w4 neg d w2 0 d w4 w4 d 0 w2 d w4 neg w4 d w2 neg 0 d x y w2 sub m 0 w d x w2 sub y m w 0 d cl s} def
/m39 {mp x y m w4 neg w2 d w4 neg w2 neg d w2 0 d  w4 neg w2 neg d w2 0 d w4 neg w2 d w2 0 d w4 neg w2 d w4 neg w2 neg d cl f} def
/m40 {mp x y m w4 w2 d w4 w4 neg d w2 neg w4 neg d w2 w4 neg d w4 neg w4 neg d w4 neg w2 d w4 neg w2 neg d w4 neg w4 d w2 w4 d w2 neg w4 d w4 w4 d w4 w2 neg d cl s} def
/m41 {mp x y m w4 w2 d w4 w4 neg d w2 neg w4 neg d w2 w4 neg d w4 neg w4 neg d w4 neg w2 d w4 neg w2 neg d w4 neg w4 d w2 w4 d w2 neg w4 d w4 w4 d w4 w2 neg d cl f} def
/m42 {mp x y w2 add m w8 neg w2 -3 4 div mul d w2 -3 4 div mul w8 neg d w2 3 4 div mul w8 neg d w8 w2 -3 4 div mul d w8 w2 3 4 div mul d w2 3 4 div mul w8 d w2 -3 4 div mul w8 d w8 neg w2 3 4 div mul d cl s} def
/m43 {mp x y w2 add m w8 neg w2 -3 4 div mul d w2 -3 4 div mul w8 neg d w2 3 4 div mul w8 neg d w8 w2 -3 4 div mul d w8 w2 3 4 div mul d w2 3 4 div mul w8 d w2 -3 4 div mul w8 d w8 neg w2 3 4 div mul d cl f} def
/m44 {mp x y m w6 neg w2 d w2 2 3 div mul 0 d w6 neg w2 neg d w2 w6 d 0 w2 -2 3 div mul d w2 neg w6 d w6 w2 neg d w2 -2 3 div mul 0 d w6 w2 d w2 neg w6 neg d 0 w2 2 3 div mul d w2 w6 neg d cl s} def
/m45 {mp x y m w6 neg w2 d w2 2 3 div mul 0 d w6 neg w2 neg d w2 w6 d 0 w2 -2 3 div mul d w2 neg w6 d w6 w2 neg d w2 -2 3 div mul 0 d w6 w2 d w2 neg w6 neg d 0 w2 2 3 div mul d w2 w6 neg d cl f} def
/m46 {mp x y w4 add m w4 neg w4 d w4 neg w4 neg d  w4 w4 neg d w4 neg w4 neg d w4 w4 neg d w4 w4 d w4 w4 neg d w4 w4 d w4 neg w4 d w4 w4 d w4 neg w4 d w4 neg w4 neg d cl s} def
/m47 {mp x y w4 add m w4 neg w4 d w4 neg w4 neg d w4 w4 neg d w4 neg w4 neg d  w4 w4 neg d w4 w4 d w4 w4 neg d w4 w4 d w4 neg w4 d w4 w4 d w4 neg w4 d w4 neg w4 neg d cl f} def
/m48 {mp x y w4 add m w4 neg w4 d w4 neg w4 neg d w4 w4 neg d  w4 neg w4 neg d w4 w4 neg d w4 w4 d w4 w4 neg d w4 w4 d w4 neg w4 d w4 w4 d w4 neg w4 d w4 neg w4 neg d  w4 w4 neg d w4 neg w4 neg d w4 neg w4 d w4 w4 d cl f} def
/m49 {mp x w2 sub w3 add y w2 sub w3 add m  0 w3 neg d w3 0 d 0 w3 d w3 0 d 0 w3 d w3 neg 0 d 0 w3 d w3 neg 0 d 0 w3 neg d w3 neg 0 d 0 w3 neg d w3 0 d 0 w3 d w3 0 d 0 w3 neg d w3 neg 0 d cl f } def
/m2 {mp x y w2 sub m 0 w d x w2 sub y m w 0 d s} def
/m5 {mp x w2 sub y w2 sub m w w d x w2 sub y w2 add m w w neg d s} def
%%IncludeResource: ProcSet (FontSetInit)
%%IncludeResource: font Times-Roman
%%IncludeResource: font Times-Italic
%%IncludeResource: font Times-Bold
%%IncludeResource: font Times-BoldItalic
%%IncludeResource: font Helvetica
%%IncludeResource: font Helvetica-Oblique
%%IncludeResource: font Helvetica-Bold
%%IncludeResource: font Helvetica-BoldOblique
%%IncludeResource: font Courier
%%IncludeResource: font Courier-Oblique
%%IncludeResource: font Courier-Bold
%%IncludeResource: font Courier-BoldOblique
%%IncludeResource: font Symbol
%%IncludeResource: font ZapfDingbats
/reEncode {exch findfont dup length dict begin {1 index /FID eq  {pop pop} {def} ifelse } forall /Encoding exch def currentdict end dup /FontName get exch definefont pop } def [/Times-Bold /Times-Italic /Times-BoldItalic /Helvetica /Helvetica-Oblique
 /Helvetica-Bold /Helvetica-BoldOblique /Courier /Courier-Oblique /Courier-Bold /Courier-BoldOblique /Times-Roman /AvantGarde-Book /AvantGarde-BookOblique /AvantGarde-Demi /AvantGarde-DemiOblique /Bookman-Demi /Bookman-DemiItalic /Bookman-Light
 /Bookman-LightItalic /Helvetica-Narrow /Helvetica-Narrow-Bold /Helvetica-Narrow-BoldOblique /Helvetica-Narrow-Oblique /NewCenturySchlbk-Roman /NewCenturySchlbk-Bold /NewCenturySchlbk-BoldItalic /NewCenturySchlbk-Italic /Palatino-Bold
 /Palatino-BoldItalic /Palatino-Italic /Palatino-Roman ] {ISOLatin1Encoding reEncode } forall
%%EndProlog
%%BeginSetup
%%EndSetup
newpath  gsave  .25 .25 scale  gsave  0 0 t black[  ] 0 sd 3 lw 1 1 1 c 2268 1094 0 0 bf black 1 1 1 c 1088 1072 23 11 bf black 1 1 1 c 828 858 153 118 bf black 828 858 153 118 bl 1 1 1 c 828 858 153 118 bf black 828 858 153 118 bl 1 0 0 c 1 1 1 c 1
 0 0 c 450 247 m s 443 253 m 1 X s 455 253 m 2 X s /w 12 def /w2 {w 2 div} def /w3 {w 3 div} def 450 253 m20 457 278 m 1 X s 469 278 m 1 X s 464 278 m20 470 293 m 2 X s 483 293 m 1 X s 477 293 m20 484 313 m 1 X s 497 313 m 1 X s 491 313 m20 498 356 m
 1 X s 511 356 m 1 X s 505 356 m20 512 397 m 1 X s 524 397 m 2 X s 519 397 m20 526 432 m 1 X s 538 432 m 1 X s 532 432 m20 539 468 m 2 X s 552 468 m 1 X s 546 468 m20 553 499 m 1 X s 566 499 m 1 X s 560 499 m20 567 514 m 1 X s 579 514 m 2 X s 574 514
 m20 581 509 m 1 X s 593 509 m 2 X s 588 509 m20 595 488 m 1 X s 607 488 m 1 X s 601 488 m20 608 456 m 2 X s 621 456 m 1 X s 615 456 m20 622 409 m 1 X s 635 409 m 1 X s 629 409 m20 636 360 m 1 X s 648 360 m 2 X s 643 360 m20 650 309 m 1 X s 662 309 m
 1 X s 657 309 m20 663 272 m 2 X s 676 272 m 1 X s 670 272 m20 684 246 m 1 Y s 677 252 m 1 X s 690 252 m 1 X s 684 252 m20 698 217 m 1 Y s 698 229 m 1 Y s 691 224 m 1 X s 704 224 m 1 X s 698 224 m20 712 188 m 2 Y s 712 201 m 2 Y s 705 195 m 1 X s 717
 195 m 2 X s 712 195 m20 black 153 118 m 828 X s 153 143 m -25 Y s 181 130 m -12 Y s 208 130 m -12 Y s 236 130 m -12 Y s 264 130 m -12 Y s 291 143 m -25 Y s 319 130 m -12 Y s 346 130 m -12 Y s 374 130 m -12 Y s 401 130 m -12 Y s 429 143 m -25 Y s 457
 130 m -12 Y s 484 130 m -12 Y s 512 130 m -12 Y s 539 130 m -12 Y s 567 143 m -25 Y s 595 130 m -12 Y s 622 130 m -12 Y s 650 130 m -12 Y s 677 130 m -12 Y s 705 143 m -25 Y s 732 130 m -12 Y s 760 130 m -12 Y s 788 130 m -12 Y s 815 130 m -12 Y s
 843 143 m -25 Y s 870 130 m -12 Y s 898 130 m -12 Y s 925 130 m -12 Y s 953 130 m -12 Y s 981 143 m -25 Y s
 gsave  1088 1072 23 11 C 133.395 83.7267 t 0 r /Helvetica findfont 35.5047 sf 0 0 m (60) show NC gr 
 gsave  1088 1072 23 11 C 271.047 83.7267 t 0 r /Helvetica findfont 35.5047 sf 0 0 m (70) show NC gr 
 gsave  1088 1072 23 11 C 408.7 83.7267 t 0 r /Helvetica findfont 35.5047 sf 0 0 m (80) show NC gr 
 gsave  1088 1072 23 11 C 546.352 83.7267 t 0 r /Helvetica findfont 35.5047 sf 0 0 m (90) show NC gr 
 gsave  1088 1072 23 11 C 674.071 83.7267 t 0 r /Helvetica findfont 35.5047 sf 0 0 m (100) show NC gr 
 gsave  1088 1072 23 11 C 811.723 83.7267 t 0 r /Helvetica findfont 35.5047 sf 0 0 m (110) show NC gr 
 gsave  1088 1072 23 11 C 949.376 83.7267 t 0 r /Helvetica findfont 35.5047 sf 0 0 m (120) show NC gr 
 gsave  1088 1072 23 11 C 852.877 32.6392 t 0 r /Helvetica findfont 45.446 sf 0 0 m ( [GeV]) show NC gr 
 gsave  1088 1072 23 11 C 835.848 24.1246 t 0 r /Symbol findfont 29.8239 sf 0 0 m (m) show NC gr 
 gsave  1088 1072 23 11 C 818.819 24.1246 t 0 r /Symbol findfont 29.8239 sf 0 0 m (m) show NC gr 
 gsave  1088 1072 23 11 C 783.341 32.6392 t 0 r /Helvetica findfont 45.446 sf 0 0 m (M) show NC gr  153 118 m 858 Y s 166 149 m -13 X s 166 178 m -13 X s 166 200 m -13 X s 166 218 m -13 X s 166 234 m -13 X s 166 247 m -13 X s 166 259 m -13 X s 179
 270 m -26 X s
 gsave  1088 1072 23 11 C 109.27 256.857 t 0 r /Helvetica findfont 32.6643 sf 0 0 m (10) show NC gr  166 339 m -13 X s 166 380 m -13 X s 166 409 m -13 X s 166 431 m -13 X s 166 449 m -13 X s 166 465 m -13 X s 166 478 m -13 X s 166 490 m -13 X s 179
 501 m -26 X s
 gsave  1088 1072 23 11 C 131.976 499.522 t 0 r /Helvetica findfont 22.723 sf 0 0 m (2) show NC gr 
 gsave  1088 1072 23 11 C 96.4986 485.331 t 0 r /Helvetica findfont 32.6643 sf 0 0 m (10) show NC gr  166 570 m -13 X s 166 611 m -13 X s 166 640 m -13 X s 166 662 m -13 X s 166 680 m -13 X s 166 696 m -13 X s 166 709 m -13 X s 166 721 m -13 X s 179
 732 m -26 X s
 gsave  1088 1072 23 11 C 131.976 732.254 t 0 r /Helvetica findfont 22.723 sf 0 0 m (3) show NC gr 
 gsave  1088 1072 23 11 C 96.4986 716.644 t 0 r /Helvetica findfont 32.6643 sf 0 0 m (10) show NC gr  166 801 m -13 X s 166 842 m -13 X s 166 871 m -13 X s 166 893 m -13 X s 166 911 m -13 X s 166 927 m -13 X s 166 940 m -13 X s 166 952 m -13 X s 179
 963 m -26 X s
 gsave  1088 1072 23 11 C 131.976 962.148 t 0 r /Helvetica findfont 22.723 sf 0 0 m (4) show NC gr 
 gsave  1088 1072 23 11 C 96.4986 947.957 t 0 r /Helvetica findfont 32.6643 sf 0 0 m (10) show NC gr 
 gsave  1088 1072 23 11 C 69.5357 557.705 t 90 r /Helvetica findfont 45.446 sf 0 0 m (Entries / NormFactor) show NC gr  1 0 0 c 1 1 1 c 1 0 0 c black 1 1 1 c black 450 259 464 234 477 317 491 296 505 362 519 392 532 398 546 487 560 490 574 525 588
 521 601 488 615 470 629 365 643 339 657 310 670 247 684 200 698 234 19 { m20} R 1 1 1 c black 0 0 1 c[ 12 12] 0 sd 6 lw 443 118 m 326 Y s 719 118 m 326 Y s black[  ] 0 sd 3 lw 1 1 1 c 272 268 186 654 bf black
 gsave  1088 1072 23 11 C 252.599 874.164 t 0 r /Helvetica findfont 39.7652 sf 0 0 m (OC data: 812) show NC gr  220 889 m20
 gsave  1088 1072 23 11 C 252.599 807.466 t 0 r /Helvetica findfont 39.7652 sf 0 0 m (SC data: 2) show NC gr  220 822 m24
 gsave  1088 1072 23 11 C 252.599 740.768 t 0 r /Helvetica findfont 39.7652 sf 0 0 m (OC MC: 30581) show NC gr  1 0 0 c 220 755 m20 black
 gsave  1088 1072 23 11 C 252.599 674.071 t 0 r /Helvetica findfont 39.7652 sf 0 0 m (SC MC: 16) show NC gr  1 0 0 c 220 688 m24 black
 gsave  1088 1072 23 11 C 566.22 901.126 t 0 r /Helvetica-Bold findfont 59.6478 sf 0 0 m (pp collisions) show NC gr  1 1 1 c 1088 1072 1157 11 bf black 1 1 1 c 827 858 1287 118 bf black 827 858 1287 118 bl 1 1 1 c 827 858 1287 118 bf black 827 858
 1287 118 bl 1 0 0 c 1 1 1 c 1 0 0 c 1584 247 m s 1577 253 m 1 X s 1589 253 m 1 X s 1584 253 m20 1590 278 m 2 X s 1603 278 m 1 X s 1597 278 m20 1604 293 m 1 X s 1617 293 m 1 X s 1611 293 m20 1618 313 m 1 X s 1631 313 m 1 X s 1625 313 m20 1632 356 m 1
 X s 1644 356 m 2 X s 1639 356 m20 1646 397 m 1 X s 1658 397 m 1 X s 1653 397 m20 1659 432 m 2 X s 1672 432 m 1 X s 1666 432 m20 1673 468 m 1 X s 1686 468 m 1 X s 1680 468 m20 1687 499 m 1 X s 1700 499 m 1 X s 1694 499 m20 1701 514 m 1 X s 1713 514 m
 2 X s 1708 514 m20 1715 509 m 1 X s 1727 509 m 1 X s 1721 509 m20 1728 488 m 2 X s 1741 488 m 1 X s 1735 488 m20 1742 456 m 1 X s 1755 456 m 1 X s 1749 456 m20 1756 409 m 1 X s 1769 409 m 1 X s 1763 409 m20 1770 360 m 1 X s 1782 360 m 2 X s 1777 360
 m20 1784 309 m 1 X s 1796 309 m 1 X s 1790 309 m20 1797 272 m 2 X s 1810 272 m 1 X s 1804 272 m20 1818 246 m 1 Y s 1811 252 m 1 X s 1824 252 m 1 X s 1818 252 m20 1832 217 m 1 Y s 1832 229 m 1 Y s 1825 224 m 1 X s 1837 224 m 2 X s 1832 224 m20 1846
 188 m 2 Y s 1846 201 m 2 Y s 1839 195 m 1 X s 1851 195 m 1 X s 1846 195 m20 black 1287 118 m 827 X s 1287 143 m -25 Y s 1315 130 m -12 Y s 1342 130 m -12 Y s 1370 130 m -12 Y s 1397 130 m -12 Y s 1425 143 m -25 Y s 1453 130 m -12 Y s 1480 130 m -12
 Y s 1508 130 m -12 Y s 1535 130 m -12 Y s 1563 143 m -25 Y s 1590 130 m -12 Y s 1618 130 m -12 Y s 1646 130 m -12 Y s 1673 130 m -12 Y s 1701 143 m -25 Y s 1728 130 m -12 Y s 1756 130 m -12 Y s 1784 130 m -12 Y s 1811 130 m -12 Y s 1839 143 m -25 Y
 s 1866 130 m -12 Y s 1894 130 m -12 Y s 1921 130 m -12 Y s 1949 130 m -12 Y s 1977 143 m -25 Y s 2004 130 m -12 Y s 2032 130 m -12 Y s 2059 130 m -12 Y s 2087 130 m -12 Y s 2114 143 m -25 Y s
 gsave  1088 1072 1157 11 C 1267.25 83.7267 t 0 r /Helvetica findfont 35.5047 sf 0 0 m (60) show NC gr 
 gsave  1088 1072 1157 11 C 1404.91 83.7267 t 0 r /Helvetica findfont 35.5047 sf 0 0 m (70) show NC gr 
 gsave  1088 1072 1157 11 C 1542.56 83.7267 t 0 r /Helvetica findfont 35.5047 sf 0 0 m (80) show NC gr 
 gsave  1088 1072 1157 11 C 1680.21 83.7267 t 0 r /Helvetica findfont 35.5047 sf 0 0 m (90) show NC gr 
 gsave  1088 1072 1157 11 C 1807.93 83.7267 t 0 r /Helvetica findfont 35.5047 sf 0 0 m (100) show NC gr 
 gsave  1088 1072 1157 11 C 1945.58 83.7267 t 0 r /Helvetica findfont 35.5047 sf 0 0 m (110) show NC gr 
 gsave  1088 1072 1157 11 C 2083.23 83.7267 t 0 r /Helvetica findfont 35.5047 sf 0 0 m (120) show NC gr 
 gsave  1088 1072 1157 11 C 1986.74 32.6392 t 0 r /Helvetica findfont 45.446 sf 0 0 m ( [GeV]) show NC gr 
 gsave  1088 1072 1157 11 C 1969.71 24.1246 t 0 r /Symbol findfont 29.8239 sf 0 0 m (m) show NC gr 
 gsave  1088 1072 1157 11 C 1952.68 24.1246 t 0 r /Symbol findfont 29.8239 sf 0 0 m (m) show NC gr 
 gsave  1088 1072 1157 11 C 1917.2 32.6392 t 0 r /Helvetica findfont 45.446 sf 0 0 m (M) show NC gr  1287 118 m 858 Y s 1300 149 m -13 X s 1300 178 m -13 X s 1300 200 m -13 X s 1300 218 m -13 X s 1300 234 m -13 X s 1300 247 m -13 X s 1300 259 m -13 X
 s 1313 270 m -26 X s
 gsave  1088 1072 1157 11 C 1243.13 256.857 t 0 r /Helvetica findfont 32.6643 sf 0 0 m (10) show NC gr  1300 339 m -13 X s 1300 380 m -13 X s 1300 409 m -13 X s 1300 431 m -13 X s 1300 449 m -13 X s 1300 465 m -13 X s 1300 478 m -13 X s 1300 490 m
 -13 X s 1313 501 m -26 X s
 gsave  1088 1072 1157 11 C 1265.83 499.522 t 0 r /Helvetica findfont 22.723 sf 0 0 m (2) show NC gr 
 gsave  1088 1072 1157 11 C 1230.36 485.331 t 0 r /Helvetica findfont 32.6643 sf 0 0 m (10) show NC gr  1300 570 m -13 X s 1300 611 m -13 X s 1300 640 m -13 X s 1300 662 m -13 X s 1300 680 m -13 X s 1300 696 m -13 X s 1300 709 m -13 X s 1300 721 m
 -13 X s 1313 732 m -26 X s
 gsave  1088 1072 1157 11 C 1265.83 732.254 t 0 r /Helvetica findfont 22.723 sf 0 0 m (3) show NC gr 
 gsave  1088 1072 1157 11 C 1230.36 716.644 t 0 r /Helvetica findfont 32.6643 sf 0 0 m (10) show NC gr  1300 801 m -13 X s 1300 842 m -13 X s 1300 871 m -13 X s 1300 893 m -13 X s 1300 911 m -13 X s 1300 927 m -13 X s 1300 940 m -13 X s 1300 952 m
 -13 X s 1313 963 m -26 X s
 gsave  1088 1072 1157 11 C 1265.83 962.148 t 0 r /Helvetica findfont 22.723 sf 0 0 m (4) show NC gr 
 gsave  1088 1072 1157 11 C 1230.36 947.957 t 0 r /Helvetica findfont 32.6643 sf 0 0 m (10) show NC gr 
 gsave  1088 1072 1157 11 C 1203.39 557.705 t 90 r /Helvetica findfont 45.446 sf 0 0 m (Entries / NormFactor) show NC gr  1 0 0 c 1 1 1 c 1 0 0 c black 1 1 1 c black 1584 259 1597 234 1611 317 1625 296 1639 362 1653 392 1666 398 1680 487 1694 490
 1708 525 1721 521 1735 488 1749 470 1763 365 1777 339 1790 310 1804 247 1818 200 1832 234 19 { m20} R 1 1 1 c black 0 0 1 c[ 12 12] 0 sd 6 lw 1577 118 m 326 Y s 1852 118 m 326 Y s black[  ] 0 sd 3 lw 1 1 1 c 272 268 1320 654 bf black
 gsave  1088 1072 1157 11 C 1386.46 874.164 t 0 r /Helvetica findfont 39.7652 sf 0 0 m (OC data: 812) show NC gr  1354 889 m20
 gsave  1088 1072 1157 11 C 1386.46 807.466 t 0 r /Helvetica findfont 39.7652 sf 0 0 m (SC data: 2) show NC gr  1354 822 m24
 gsave  1088 1072 1157 11 C 1386.46 740.768 t 0 r /Helvetica findfont 39.7652 sf 0 0 m (OC MC: 30581) show NC gr  1 0 0 c 1354 755 m20 black
 gsave  1088 1072 1157 11 C 1386.46 674.071 t 0 r /Helvetica findfont 39.7652 sf 0 0 m (SC MC: 16) show NC gr  1 0 0 c 1354 688 m24 black
 gsave  1088 1072 1157 11 C 1700.08 901.126 t 0 r /Helvetica-Bold findfont 59.6478 sf 0 0 m (pp collisions) show NC gr 
 gr  gr showpage
end
%%EOF
