%!PS-Adobe-2.0 EPSF-2.0
%%BoundingBox:  0 0 567 274
%%Title: /home/petr/Analysis_iwona/SFAnalysis/eps/Zmass_mumu_MEcuts_denom_MSTree.eps: Results
%%Creator: ROOT Version 6.16/00
%%CreationDate: Tue Apr 23 09:57:56 2019
%%DocumentNeededResources: ProcSet (FontSetInit)
%%EndComments
%%BeginProlog
80 dict begin
/s {stroke} def /l {lineto} def /m {moveto} def /t {translate} def
/r {rotate} def /rl {roll}  def /R {repeat} def
/d {rlineto} def /rm {rmoveto} def /gr {grestore} def /f {eofill} def
/c {setrgbcolor} def /black {0 setgray} def /sd {setdash} def
/cl {closepath} def /sf {scalefont setfont} def /lw {setlinewidth} def
/box {m dup 0 exch d exch 0 d 0 exch neg d cl} def
/NC{systemdict begin initclip end}def/C{NC box clip newpath}def
/bl {box s} def /bf {gsave box gsave f grestore 1 lw [] 0 sd s grestore} def /Y { 0 exch d} def /X { 0 d} def 
/K {{pop pop 0 moveto} exch kshow} bind def
/ita {/ang 15 def gsave [1 0 ang dup sin exch cos div 1 0 0] concat} def 
/mp {newpath /y exch def /x exch def} def
/side {[w .77 mul w .23 mul] .385 w mul sd w 0 l currentpoint t -144 r} def
/mr {mp x y w2 0 360 arc} def /m24 {mr s} def /m20 {mr f} def
/mb {mp x y w2 add m w2 neg 0 d 0 w neg d w 0 d 0 w d cl} def
/mt {mp x y w2 add m w2 neg w neg d w 0 d cl} def
/w4 {w 4 div} def
/w6 {w 6 div} def
/w8 {w 8 div} def
/m21 {mb f} def /m25 {mb s} def /m22 {mt f} def /m26{mt s} def
/m23 {mp x y w2 sub m w2 w d w neg 0 d cl f} def
/m27 {mp x y w2 add m w3 neg w2 neg d w3 w2 neg d w3 w2 d cl s} def
/m28 {mp x w2 sub y w2 sub w3 add m w3 0 d  0 w3 neg d w3 0 d 0 w3 d w3 0 d  0 w3 d w3 neg 0 d 0 w3 d w3 neg 0 d 0 w3 neg d w3 neg 0 d cl s } def
/m29 {mp gsave x w2 sub y w2 add w3 sub m currentpoint t 4 {side} repeat cl fill gr} def
/m30 {mp gsave x w2 sub y w2 add w3 sub m currentpoint t 4 {side} repeat cl s gr} def
/m31 {mp x y w2 sub m 0 w d x w2 sub y m w 0 d x w2 sub y w2 add m w w neg d x w2 sub y w2 sub m w w d s} def
/m32 {mp x y w2 sub m w2 w d w neg 0 d cl s} def
/m33 {mp x y w2 add m w3 neg w2 neg d w3 w2 neg d w3 w2 d cl f} def
/m34 {mp x w2 sub y w2 sub w3 add m w3 0 d  0 w3 neg d w3 0 d 0 w3 d w3 0 d  0 w3 d w3 neg 0 d 0 w3 d w3 neg 0 d 0 w3 neg d w3 neg 0 d cl f } def
/m35 {mp x y w2 add m w2 neg w2 neg d w2 w2 neg d w2 w2 d w2 neg w2 d x y w2 sub m 0 w d x w2 sub y m w 0 d s} def
/m36 {mb x w2 sub y w2 add m w w neg d x w2 sub y w2 sub m w w d s} def
/m37 {mp x y m w4 neg w2 d w4 neg w2 neg d w2 0 d  w4 neg w2 neg d w2 0 d w4 neg w2 d w2 0 d w4 neg w2 d w4 neg w2 neg d cl s} def
/m38 {mp x w4 sub y w2 add m w4 neg w4 neg d 0 w2 neg d w4 w4 neg d w2 0 d w4 w4 d 0 w2 d w4 neg w4 d w2 neg 0 d x y w2 sub m 0 w d x w2 sub y m w 0 d cl s} def
/m39 {mp x y m w4 neg w2 d w4 neg w2 neg d w2 0 d  w4 neg w2 neg d w2 0 d w4 neg w2 d w2 0 d w4 neg w2 d w4 neg w2 neg d cl f} def
/m40 {mp x y m w4 w2 d w4 w4 neg d w2 neg w4 neg d w2 w4 neg d w4 neg w4 neg d w4 neg w2 d w4 neg w2 neg d w4 neg w4 d w2 w4 d w2 neg w4 d w4 w4 d w4 w2 neg d cl s} def
/m41 {mp x y m w4 w2 d w4 w4 neg d w2 neg w4 neg d w2 w4 neg d w4 neg w4 neg d w4 neg w2 d w4 neg w2 neg d w4 neg w4 d w2 w4 d w2 neg w4 d w4 w4 d w4 w2 neg d cl f} def
/m42 {mp x y w2 add m w8 neg w2 -3 4 div mul d w2 -3 4 div mul w8 neg d w2 3 4 div mul w8 neg d w8 w2 -3 4 div mul d w8 w2 3 4 div mul d w2 3 4 div mul w8 d w2 -3 4 div mul w8 d w8 neg w2 3 4 div mul d cl s} def
/m43 {mp x y w2 add m w8 neg w2 -3 4 div mul d w2 -3 4 div mul w8 neg d w2 3 4 div mul w8 neg d w8 w2 -3 4 div mul d w8 w2 3 4 div mul d w2 3 4 div mul w8 d w2 -3 4 div mul w8 d w8 neg w2 3 4 div mul d cl f} def
/m44 {mp x y m w6 neg w2 d w2 2 3 div mul 0 d w6 neg w2 neg d w2 w6 d 0 w2 -2 3 div mul d w2 neg w6 d w6 w2 neg d w2 -2 3 div mul 0 d w6 w2 d w2 neg w6 neg d 0 w2 2 3 div mul d w2 w6 neg d cl s} def
/m45 {mp x y m w6 neg w2 d w2 2 3 div mul 0 d w6 neg w2 neg d w2 w6 d 0 w2 -2 3 div mul d w2 neg w6 d w6 w2 neg d w2 -2 3 div mul 0 d w6 w2 d w2 neg w6 neg d 0 w2 2 3 div mul d w2 w6 neg d cl f} def
/m46 {mp x y w4 add m w4 neg w4 d w4 neg w4 neg d  w4 w4 neg d w4 neg w4 neg d w4 w4 neg d w4 w4 d w4 w4 neg d w4 w4 d w4 neg w4 d w4 w4 d w4 neg w4 d w4 neg w4 neg d cl s} def
/m47 {mp x y w4 add m w4 neg w4 d w4 neg w4 neg d w4 w4 neg d w4 neg w4 neg d  w4 w4 neg d w4 w4 d w4 w4 neg d w4 w4 d w4 neg w4 d w4 w4 d w4 neg w4 d w4 neg w4 neg d cl f} def
/m48 {mp x y w4 add m w4 neg w4 d w4 neg w4 neg d w4 w4 neg d  w4 neg w4 neg d w4 w4 neg d w4 w4 d w4 w4 neg d w4 w4 d w4 neg w4 d w4 w4 d w4 neg w4 d w4 neg w4 neg d  w4 w4 neg d w4 neg w4 neg d w4 neg w4 d w4 w4 d cl f} def
/m49 {mp x w2 sub w3 add y w2 sub w3 add m  0 w3 neg d w3 0 d 0 w3 d w3 0 d 0 w3 d w3 neg 0 d 0 w3 d w3 neg 0 d 0 w3 neg d w3 neg 0 d 0 w3 neg d w3 0 d 0 w3 d w3 0 d 0 w3 neg d w3 neg 0 d cl f } def
/m2 {mp x y w2 sub m 0 w d x w2 sub y m w 0 d s} def
/m5 {mp x w2 sub y w2 sub m w w d x w2 sub y w2 add m w w neg d s} def
%%IncludeResource: ProcSet (FontSetInit)
%%IncludeResource: font Times-Roman
%%IncludeResource: font Times-Italic
%%IncludeResource: font Times-Bold
%%IncludeResource: font Times-BoldItalic
%%IncludeResource: font Helvetica
%%IncludeResource: font Helvetica-Oblique
%%IncludeResource: font Helvetica-Bold
%%IncludeResource: font Helvetica-BoldOblique
%%IncludeResource: font Courier
%%IncludeResource: font Courier-Oblique
%%IncludeResource: font Courier-Bold
%%IncludeResource: font Courier-BoldOblique
%%IncludeResource: font Symbol
%%IncludeResource: font ZapfDingbats
/reEncode {exch findfont dup length dict begin {1 index /FID eq  {pop pop} {def} ifelse } forall /Encoding exch def currentdict end dup /FontName get exch definefont pop } def [/Times-Bold /Times-Italic /Times-BoldItalic /Helvetica /Helvetica-Oblique
 /Helvetica-Bold /Helvetica-BoldOblique /Courier /Courier-Oblique /Courier-Bold /Courier-BoldOblique /Times-Roman /AvantGarde-Book /AvantGarde-BookOblique /AvantGarde-Demi /AvantGarde-DemiOblique /Bookman-Demi /Bookman-DemiItalic /Bookman-Light
 /Bookman-LightItalic /Helvetica-Narrow /Helvetica-Narrow-Bold /Helvetica-Narrow-BoldOblique /Helvetica-Narrow-Oblique /NewCenturySchlbk-Roman /NewCenturySchlbk-Bold /NewCenturySchlbk-BoldItalic /NewCenturySchlbk-Italic /Palatino-Bold
 /Palatino-BoldItalic /Palatino-Italic /Palatino-Roman ] {ISOLatin1Encoding reEncode } forall
%%EndProlog
%%BeginSetup
%%EndSetup
newpath  gsave  .25 .25 scale  gsave  0 0 t black[  ] 0 sd 3 lw 1 1 1 c 2268 1094 0 0 bf black 1 1 1 c 1088 1072 23 11 bf black 1 1 1 c 828 858 153 118 bf black 828 858 153 118 bl 1 1 1 c 828 858 153 118 bf black 828 858 153 118 bl 1 0 0 c 1 1 1 c 1
 0 0 c 174 379 m 6 Y s 174 397 m 4 Y s 167 391 m 1 X s 180 391 m 1 X s 171 379 m 6 X s 171 401 m 6 X s 167 388 m 6 Y s 181 388 m 6 Y s /w 12 def /w2 {w 2 div} def /w3 {w 3 div} def 174 391 m20 188 399 m 4 Y s 188 414 m 3 Y s 181 409 m 1 X s 193 409 m
 2 X s 185 399 m 6 X s 185 417 m 6 X s 181 406 m 5 Y s 195 406 m 5 Y s 188 409 m20 202 395 m 5 Y s 202 411 m 4 Y s 195 406 m 1 X s 207 406 m 1 X s 199 395 m 5 X s 199 415 m 5 X s 195 403 m 6 Y s 208 403 m 6 Y s 202 406 m20 215 399 m 4 Y s 215 414 m 3
 Y s 208 409 m 2 X s 221 409 m 1 X s 213 399 m 5 X s 213 417 m 5 X s 208 406 m 5 Y s 222 406 m 5 Y s 215 409 m20 229 401 m 5 Y s 229 417 m 3 Y s 222 411 m 1 X s 235 411 m 1 X s 226 401 m 6 X s 226 420 m 6 X s 222 408 m 6 Y s 236 408 m 6 Y s 229 411
 m20 243 412 m 3 Y s 243 427 m 2 Y s 236 421 m 1 X s 249 421 m 1 X s 240 412 m 6 X s 240 429 m 6 X s 236 418 m 6 Y s 250 418 m 6 Y s 243 421 m20 257 420 m 3 Y s 257 434 m 2 Y s 250 429 m 1 X s 262 429 m 2 X s 254 420 m 6 X s 254 436 m 6 X s 250 426 m
 5 Y s 264 426 m 5 Y s 257 429 m20 270 404 m 4 Y s 270 420 m 2 Y s 264 414 m 1 X s 276 414 m 1 X s 268 404 m 5 X s 268 422 m 5 X s 264 411 m 6 Y s 277 411 m 6 Y s 270 414 m20 284 420 m 3 Y s 284 434 m 2 Y s 277 429 m 2 X s 290 429 m 1 X s 281 420 m 6
 X s 281 436 m 6 X s 277 426 m 5 Y s 291 426 m 5 Y s 284 429 m20 298 431 m 2 Y s 298 444 m 2 Y s 291 439 m 1 X s 304 439 m 1 X s 295 431 m 6 X s 295 446 m 6 X s 291 436 m 6 Y s 305 436 m 6 Y s 298 439 m20 312 434 m 2 Y s 312 447 m 1 Y s 305 441 m 1 X
 s 318 441 m 1 X s 309 434 m 6 X s 309 448 m 6 X s 305 438 m 6 Y s 319 438 m 6 Y s 312 441 m20 326 435 m 2 Y s 326 449 m 1 Y s 319 443 m 1 X s 331 443 m 2 X s 323 435 m 5 X s 323 450 m 5 X s 319 440 m 6 Y s 333 440 m 6 Y s 326 443 m20 339 441 m 2 Y s
 339 454 m 1 Y s 333 448 m 1 X s 345 448 m 1 X s 337 441 m 5 X s 337 455 m 5 X s 333 445 m 6 Y s 346 445 m 6 Y s 339 448 m20 353 451 m 1 Y s 353 463 m 1 Y s 346 458 m 2 X s 359 458 m 1 X s 350 451 m 6 X s 350 464 m 6 X s 346 455 m 6 Y s 360 455 m 6 Y
 s 353 458 m20 367 458 m 1 Y s 367 470 m s 360 464 m 1 X s 373 464 m 1 X s 364 458 m 6 X s 364 470 m 6 X s 360 461 m 6 Y s 374 461 m 6 Y s 367 464 m20 381 459 m s 374 465 m 1 X s 386 465 m 2 X s 378 459 m 6 X s 374 462 m 6 Y s 388 462 m 6 Y s 381 465
 m20 388 480 m 1 X s 400 480 m 1 X s 388 477 m 6 Y s 401 477 m 6 Y s 395 480 m20 401 498 m 2 X s 414 498 m 1 X s 401 496 m 5 Y s 415 496 m 5 Y s 408 498 m20 415 502 m 1 X s 428 502 m 1 X s 415 499 m 6 Y s 429 499 m 6 Y s 422 502 m20 429 509 m 1 X s
 442 509 m 1 X s 429 507 m 5 Y s 443 507 m 5 Y s 436 509 m20 443 527 m 1 X s 455 527 m 2 X s 443 524 m 6 Y s 457 524 m 6 Y s 450 527 m20 457 541 m 1 X s 469 541 m 1 X s 457 538 m 6 Y s 470 538 m 6 Y s 464 541 m20 470 552 m 2 X s 483 552 m 1 X s 470
 549 m 6 Y s 484 549 m 6 Y s 477 552 m20 484 564 m 1 X s 497 564 m 1 X s 484 561 m 6 Y s 498 561 m 6 Y s 491 564 m20 498 591 m 1 X s 511 591 m 1 X s 498 589 m 5 Y s 512 589 m 5 Y s 505 591 m20 512 617 m 1 X s 524 617 m 2 X s 512 614 m 6 Y s 526 614 m
 6 Y s 519 617 m20 526 638 m 1 X s 538 638 m 1 X s 526 635 m 6 Y s 539 635 m 6 Y s 532 638 m20 539 660 m 2 X s 552 660 m 1 X s 539 657 m 6 Y s 553 657 m 6 Y s 546 660 m20 553 680 m 1 X s 566 680 m 1 X s 553 677 m 6 Y s 567 677 m 6 Y s 560 680 m20 567
 689 m 1 X s 579 689 m 2 X s 567 686 m 6 Y s 581 686 m 6 Y s 574 689 m20 581 686 m 1 X s 593 686 m 2 X s 581 683 m 6 Y s 595 683 m 6 Y s 588 686 m20 595 673 m 1 X s 607 673 m 1 X s 595 670 m 6 Y s 608 670 m 6 Y s 601 673 m20 608 653 m 2 X s 621 653 m
 1 X s 608 651 m 5 Y s 622 651 m 5 Y s 615 653 m20 622 623 m 1 X s 635 623 m 1 X s 622 621 m 5 Y s 636 621 m 5 Y s 629 623 m20 636 593 m 1 X s 648 593 m 2 X s 636 590 m 6 Y s 650 590 m 6 Y s 643 593 m20 650 562 m 1 X s 662 562 m 1 X s 650 559 m 5 Y s
 663 559 m 5 Y s 657 562 m20 663 539 m 2 X s 676 539 m 1 X s 663 536 m 5 Y s 677 536 m 5 Y s 670 539 m20 677 526 m 1 X s 690 526 m 1 X s 677 523 m 6 Y s 691 523 m 6 Y s 684 526 m20 691 507 m 1 X s 704 507 m 1 X s 691 504 m 6 Y s 705 504 m 6 Y s 698
 507 m20 705 490 m 1 X s 717 490 m 2 X s 705 487 m 5 Y s 719 487 m 5 Y s 712 490 m20 725 467 m 1 Y s 719 473 m 1 X s 731 473 m 1 X s 723 467 m 5 X s 719 470 m 6 Y s 732 470 m 6 Y s 725 473 m20 739 430 m 2 Y s 739 444 m 1 Y s 732 438 m 2 X s 745 438 m
 1 X s 736 430 m 6 X s 736 445 m 6 X s 732 435 m 6 Y s 746 435 m 6 Y s 739 438 m20 753 452 m 1 Y s 753 464 m s 746 458 m 1 X s 759 458 m 1 X s 750 452 m 6 X s 750 464 m 6 X s 746 456 m 5 Y s 760 456 m 5 Y s 753 458 m20 767 426 m 3 Y s 767 440 m 1 Y s
 760 434 m 1 X s 773 434 m 1 X s 764 426 m 6 X s 764 441 m 6 X s 760 431 m 6 Y s 774 431 m 6 Y s 767 434 m20 781 418 m 3 Y s 781 432 m 2 Y s 774 427 m 1 X s 786 427 m 2 X s 778 418 m 5 X s 778 434 m 5 X s 774 424 m 5 Y s 788 424 m 5 Y s 781 427 m20
 794 423 m 3 Y s 794 437 m 2 Y s 788 431 m 1 X s 800 431 m 1 X s 792 423 m 5 X s 792 439 m 5 X s 788 429 m 5 Y s 801 429 m 5 Y s 794 431 m20 808 381 m 6 Y s 808 399 m 4 Y s 801 393 m 2 X s 814 393 m 1 X s 805 381 m 6 X s 805 403 m 6 X s 801 390 m 6 Y
 s 815 390 m 6 Y s 808 393 m20 822 413 m 4 Y s 822 428 m 2 Y s 815 422 m 1 X s 828 422 m 1 X s 819 413 m 6 X s 819 430 m 6 X s 815 419 m 6 Y s 829 419 m 6 Y s 822 422 m20 836 392 m 5 Y s 836 408 m 4 Y s 829 403 m 1 X s 841 403 m 2 X s 833 392 m 6 X s
 833 412 m 6 X s 829 400 m 6 Y s 843 400 m 6 Y s 836 403 m20 850 383 m 6 Y s 850 400 m 4 Y s 843 395 m 1 X s 855 395 m 1 X s 847 383 m 5 X s 847 404 m 5 X s 843 392 m 6 Y s 856 392 m 6 Y s 850 395 m20 863 387 m 5 Y s 863 404 m 3 Y s 856 398 m 2 X s
 869 398 m 1 X s 861 387 m 5 X s 861 407 m 5 X s 856 395 m 6 Y s 870 395 m 6 Y s 863 398 m20 877 371 m 7 Y s 877 389 m 5 Y s 870 383 m 1 X s 883 383 m 1 X s 874 371 m 6 X s 874 394 m 6 X s 870 380 m 6 Y s 884 380 m 6 Y s 877 383 m20 891 377 m 7 Y s
 891 395 m 4 Y s 884 389 m 1 X s 897 389 m 1 X s 888 377 m 6 X s 888 399 m 6 X s 884 386 m 6 Y s 898 386 m 6 Y s 891 389 m20 905 352 m 9 Y s 905 372 m 7 Y s 898 367 m 1 X s 910 367 m 2 X s 902 352 m 6 X s 902 379 m 6 X s 898 364 m 6 Y s 912 364 m 6 Y
 s 905 367 m20 919 355 m 9 Y s 919 375 m 6 Y s 912 369 m 1 X s 924 369 m 1 X s 916 355 m 5 X s 916 381 m 5 X s 912 367 m 5 Y s 925 367 m 5 Y s 919 369 m20 932 373 m 7 Y s 932 391 m 5 Y s 925 385 m 2 X s 938 385 m 1 X s 929 373 m 6 X s 929 396 m 6 X s
 925 383 m 5 Y s 939 383 m 5 Y s 932 385 m20 946 361 m 8 Y s 946 380 m 6 Y s 939 374 m 1 X s 952 374 m 1 X s 943 361 m 6 X s 943 386 m 6 X s 939 372 m 5 Y s 953 372 m 5 Y s 946 374 m20 960 326 m 12 Y s 960 350 m 8 Y s 953 344 m 1 X s 966 344 m 1 X s
 957 326 m 6 X s 957 358 m 6 X s 953 341 m 6 Y s 967 341 m 6 Y s 960 344 m20 974 352 m 9 Y s 974 372 m 7 Y s 967 367 m 1 X s 979 367 m 2 X s 971 352 m 6 X s 971 379 m 6 X s 967 364 m 6 Y s 981 364 m 6 Y s 974 367 m20 black 153 118 m 828 X s 153 143 m
 -25 Y s 181 130 m -12 Y s 208 130 m -12 Y s 236 130 m -12 Y s 264 130 m -12 Y s 291 143 m -25 Y s 319 130 m -12 Y s 346 130 m -12 Y s 374 130 m -12 Y s 401 130 m -12 Y s 429 143 m -25 Y s 457 130 m -12 Y s 484 130 m -12 Y s 512 130 m -12 Y s 539 130
 m -12 Y s 567 143 m -25 Y s 595 130 m -12 Y s 622 130 m -12 Y s 650 130 m -12 Y s 677 130 m -12 Y s 705 143 m -25 Y s 732 130 m -12 Y s 760 130 m -12 Y s 788 130 m -12 Y s 815 130 m -12 Y s 843 143 m -25 Y s 870 130 m -12 Y s 898 130 m -12 Y s 925
 130 m -12 Y s 953 130 m -12 Y s 981 143 m -25 Y s
 gsave  1088 1072 23 11 C 133.395 83.7267 t 0 r /Helvetica findfont 35.5047 sf 0 0 m (60) show NC gr 
 gsave  1088 1072 23 11 C 271.047 83.7267 t 0 r /Helvetica findfont 35.5047 sf 0 0 m (70) show NC gr 
 gsave  1088 1072 23 11 C 408.7 83.7267 t 0 r /Helvetica findfont 35.5047 sf 0 0 m (80) show NC gr 
 gsave  1088 1072 23 11 C 546.352 83.7267 t 0 r /Helvetica findfont 35.5047 sf 0 0 m (90) show NC gr 
 gsave  1088 1072 23 11 C 674.071 83.7267 t 0 r /Helvetica findfont 35.5047 sf 0 0 m (100) show NC gr 
 gsave  1088 1072 23 11 C 811.723 83.7267 t 0 r /Helvetica findfont 35.5047 sf 0 0 m (110) show NC gr 
 gsave  1088 1072 23 11 C 949.376 83.7267 t 0 r /Helvetica findfont 35.5047 sf 0 0 m (120) show NC gr 
 gsave  1088 1072 23 11 C 852.877 32.6392 t 0 r /Helvetica findfont 45.446 sf 0 0 m ( [GeV]) show NC gr 
 gsave  1088 1072 23 11 C 835.848 24.1246 t 0 r /Symbol findfont 29.8239 sf 0 0 m (m) show NC gr 
 gsave  1088 1072 23 11 C 818.819 24.1246 t 0 r /Symbol findfont 29.8239 sf 0 0 m (m) show NC gr 
 gsave  1088 1072 23 11 C 783.341 32.6392 t 0 r /Helvetica findfont 45.446 sf 0 0 m (M) show NC gr  153 118 m 858 Y s 166 118 m -13 X s 166 143 m -13 X s 166 161 m -13 X s 166 175 m -13 X s 166 187 m -13 X s 166 196 m -13 X s 166 205 m -13 X s 166
 212 m -13 X s 179 218 m -26 X s
 gsave  1088 1072 23 11 C 131.976 205.769 t 0 r /Helvetica findfont 32.6643 sf 0 0 m (1) show NC gr  166 262 m -13 X s 166 287 m -13 X s 166 305 m -13 X s 166 319 m -13 X s 166 330 m -13 X s 166 340 m -13 X s 166 348 m -13 X s 166 355 m -13 X s 179
 362 m -26 X s
 gsave  1088 1072 23 11 C 109.27 350.517 t 0 r /Helvetica findfont 32.6643 sf 0 0 m (10) show NC gr  166 405 m -13 X s 166 430 m -13 X s 166 448 m -13 X s 166 462 m -13 X s 166 474 m -13 X s 166 483 m -13 X s 166 492 m -13 X s 166 499 m -13 X s 179
 506 m -26 X s
 gsave  1088 1072 23 11 C 131.976 505.198 t 0 r /Helvetica findfont 22.723 sf 0 0 m (2) show NC gr 
 gsave  1088 1072 23 11 C 96.4986 491.007 t 0 r /Helvetica findfont 32.6643 sf 0 0 m (10) show NC gr  166 549 m -13 X s 166 574 m -13 X s 166 592 m -13 X s 166 606 m -13 X s 166 617 m -13 X s 166 627 m -13 X s 166 635 m -13 X s 166 642 m -13 X s 179
 649 m -26 X s
 gsave  1088 1072 23 11 C 131.976 649.946 t 0 r /Helvetica findfont 22.723 sf 0 0 m (3) show NC gr 
 gsave  1088 1072 23 11 C 96.4986 634.336 t 0 r /Helvetica findfont 32.6643 sf 0 0 m (10) show NC gr  166 692 m -13 X s 166 718 m -13 X s 166 735 m -13 X s 166 749 m -13 X s 166 761 m -13 X s 166 770 m -13 X s 166 779 m -13 X s 166 786 m -13 X s 179
 793 m -26 X s
 gsave  1088 1072 23 11 C 131.976 791.856 t 0 r /Helvetica findfont 22.723 sf 0 0 m (4) show NC gr 
 gsave  1088 1072 23 11 C 96.4986 777.665 t 0 r /Helvetica findfont 32.6643 sf 0 0 m (10) show NC gr  166 836 m -13 X s 166 861 m -13 X s 166 879 m -13 X s 166 893 m -13 X s 166 904 m -13 X s 166 914 m -13 X s 166 922 m -13 X s 166 930 m -13 X s 179
 936 m -26 X s
 gsave  1088 1072 23 11 C 131.976 936.604 t 0 r /Helvetica findfont 22.723 sf 0 0 m (5) show NC gr 
 gsave  1088 1072 23 11 C 96.4986 920.994 t 0 r /Helvetica findfont 32.6643 sf 0 0 m (10) show NC gr 
 gsave  1088 1072 23 11 C 69.5357 557.705 t 90 r /Helvetica findfont 45.446 sf 0 0 m (Entries / NormFactor) show NC gr  1 0 0 c 1 1 1 c 1 0 0 c 174 290 m 48 Y s 174 349 m 23 Y s 167 344 m 1 X s 180 344 m 1 X s 171 290 m 6 X s 171 372 m 6 X s 167 341
 m 6 Y s 181 341 m 6 Y s 174 344 m24 188 118 m 152 Y s 188 281 m 38 Y s 181 275 m 1 X s 193 275 m 2 X s 185 118 m 6 X s 185 319 m 6 X s 181 273 m 5 Y s 195 273 m 5 Y s 188 275 m24 215 118 m 152 Y s 215 281 m 38 Y s 208 275 m 2 X s 221 275 m 1 X s 213
 118 m 5 X s 213 319 m 5 X s 208 273 m 5 Y s 222 273 m 5 Y s 215 275 m24 229 118 m 152 Y s 229 281 m 38 Y s 222 275 m 1 X s 235 275 m 1 X s 226 118 m 6 X s 226 319 m 6 X s 222 273 m 5 Y s 236 273 m 5 Y s 229 275 m24 243 242 m 71 Y s 243 324 m 28 Y s
 236 319 m 1 X s 249 319 m 1 X s 240 242 m 6 X s 240 352 m 6 X s 236 316 m 5 Y s 250 316 m 5 Y s 243 319 m24 257 242 m 71 Y s 257 324 m 28 Y s 250 319 m 1 X s 262 319 m 2 X s 254 242 m 6 X s 254 352 m 6 X s 250 316 m 5 Y s 264 316 m 5 Y s 257 319 m24
 270 118 m 152 Y s 270 281 m 38 Y s 264 275 m 1 X s 276 275 m 1 X s 268 118 m 5 X s 268 319 m 5 X s 264 273 m 5 Y s 277 273 m 5 Y s 270 275 m24 284 242 m 71 Y s 284 324 m 28 Y s 277 319 m 2 X s 290 319 m 1 X s 281 242 m 6 X s 281 352 m 6 X s 277 316
 m 5 Y s 291 316 m 5 Y s 284 319 m24 298 242 m 71 Y s 298 324 m 28 Y s 291 319 m 1 X s 304 319 m 1 X s 295 242 m 6 X s 295 352 m 6 X s 291 316 m 5 Y s 305 316 m 5 Y s 298 319 m24 353 290 m 48 Y s 353 349 m 23 Y s 346 344 m 2 X s 359 344 m 1 X s 350
 290 m 6 X s 350 372 m 6 X s 346 341 m 6 Y s 360 341 m 6 Y s 353 344 m24 367 118 m 152 Y s 367 281 m 38 Y s 360 275 m 1 X s 373 275 m 1 X s 364 118 m 6 X s 364 319 m 6 X s 360 273 m 5 Y s 374 273 m 5 Y s 367 275 m24 381 242 m 71 Y s 381 324 m 28 Y s
 374 319 m 1 X s 386 319 m 2 X s 378 242 m 6 X s 378 352 m 6 X s 374 316 m 5 Y s 388 316 m 5 Y s 381 319 m24 395 118 m 152 Y s 395 281 m 38 Y s 388 275 m 1 X s 400 275 m 1 X s 392 118 m 5 X s 392 319 m 5 X s 388 273 m 5 Y s 401 273 m 5 Y s 395 275
 m24 408 118 m 152 Y s 408 281 m 38 Y s 401 275 m 2 X s 414 275 m 1 X s 406 118 m 5 X s 406 319 m 5 X s 401 273 m 5 Y s 415 273 m 5 Y s 408 275 m24 450 242 m 71 Y s 450 324 m 28 Y s 443 319 m 1 X s 455 319 m 2 X s 447 242 m 6 X s 447 352 m 6 X s 443
 316 m 5 Y s 457 316 m 5 Y s 450 319 m24 477 118 m 152 Y s 477 281 m 38 Y s 470 275 m 2 X s 483 275 m 1 X s 474 118 m 6 X s 474 319 m 6 X s 470 273 m 5 Y s 484 273 m 5 Y s 477 275 m24 491 242 m 71 Y s 491 324 m 28 Y s 484 319 m 1 X s 497 319 m 1 X s
 488 242 m 6 X s 488 352 m 6 X s 484 316 m 5 Y s 498 316 m 5 Y s 491 319 m24 505 242 m 71 Y s 505 324 m 28 Y s 498 319 m 1 X s 511 319 m 1 X s 502 242 m 6 X s 502 352 m 6 X s 498 316 m 5 Y s 512 316 m 5 Y s 505 319 m24 532 118 m 152 Y s 532 281 m 38
 Y s 526 275 m 1 X s 538 275 m 1 X s 530 118 m 5 X s 530 319 m 5 X s 526 273 m 5 Y s 539 273 m 5 Y s 532 275 m24 560 242 m 71 Y s 560 324 m 28 Y s 553 319 m 1 X s 566 319 m 1 X s 557 242 m 6 X s 557 352 m 6 X s 553 316 m 5 Y s 567 316 m 5 Y s 560 319
 m24 588 118 m 152 Y s 588 281 m 38 Y s 581 275 m 1 X s 593 275 m 2 X s 585 118 m 5 X s 585 319 m 5 X s 581 273 m 5 Y s 595 273 m 5 Y s 588 275 m24 615 118 m 152 Y s 615 281 m 38 Y s 608 275 m 2 X s 621 275 m 1 X s 612 118 m 6 X s 612 319 m 6 X s 608
 273 m 5 Y s 622 273 m 5 Y s 615 275 m24 698 118 m 152 Y s 698 281 m 38 Y s 691 275 m 1 X s 704 275 m 1 X s 695 118 m 6 X s 695 319 m 6 X s 691 273 m 5 Y s 705 273 m 5 Y s 698 275 m24 725 118 m 152 Y s 725 281 m 38 Y s 719 275 m 1 X s 731 275 m 1 X s
 723 118 m 5 X s 723 319 m 5 X s 719 273 m 5 Y s 732 273 m 5 Y s 725 275 m24 753 118 m 152 Y s 753 281 m 38 Y s 746 275 m 1 X s 759 275 m 1 X s 750 118 m 6 X s 750 319 m 6 X s 746 273 m 5 Y s 760 273 m 5 Y s 753 275 m24 767 242 m 71 Y s 767 324 m 28
 Y s 760 319 m 1 X s 773 319 m 1 X s 764 242 m 6 X s 764 352 m 6 X s 760 316 m 5 Y s 774 316 m 5 Y s 767 319 m24 822 118 m 152 Y s 822 281 m 38 Y s 815 275 m 1 X s 828 275 m 1 X s 819 118 m 6 X s 819 319 m 6 X s 815 273 m 5 Y s 829 273 m 5 Y s 822
 275 m24 836 118 m 152 Y s 836 281 m 38 Y s 829 275 m 1 X s 841 275 m 2 X s 833 118 m 6 X s 833 319 m 6 X s 829 273 m 5 Y s 843 273 m 5 Y s 836 275 m24 919 118 m 152 Y s 919 281 m 38 Y s 912 275 m 1 X s 924 275 m 1 X s 916 118 m 5 X s 916 319 m 5 X s
 912 273 m 5 Y s 925 273 m 5 Y s 919 275 m24 932 290 m 48 Y s 932 349 m 23 Y s 925 344 m 2 X s 938 344 m 1 X s 929 290 m 6 X s 929 372 m 6 X s 925 341 m 6 Y s 939 341 m 6 Y s 932 344 m24 974 290 m 48 Y s 974 349 m 23 Y s 967 344 m 1 X s 979 344 m 2 X
 s 971 290 m 6 X s 971 372 m 6 X s 967 341 m 6 Y s 981 341 m 6 Y s 974 344 m24 black 1 1 1 c black 174 396 m 9 Y s 174 417 m 6 Y s 167 411 m 1 X s 180 411 m 1 X s 171 396 m 6 X s 171 423 m 6 X s 167 408 m 6 Y s 181 408 m 6 Y s 174 411 m20 188 402 m 9
 Y s 188 422 m 6 Y s 181 417 m 1 X s 193 417 m 2 X s 185 402 m 6 X s 185 428 m 6 X s 181 414 m 5 Y s 195 414 m 5 Y s 188 417 m20 202 408 m 8 Y s 202 427 m 6 Y s 195 422 m 1 X s 207 422 m 1 X s 199 408 m 5 X s 199 433 m 5 X s 195 419 m 5 Y s 208 419 m
 5 Y s 202 422 m20 215 399 m 9 Y s 215 420 m 6 Y s 208 414 m 2 X s 221 414 m 1 X s 213 399 m 5 X s 213 426 m 5 X s 208 411 m 6 Y s 222 411 m 6 Y s 215 414 m20 229 411 m 7 Y s 229 430 m 5 Y s 222 424 m 1 X s 235 424 m 1 X s 226 411 m 6 X s 226 435 m 6
 X s 222 421 m 6 Y s 236 421 m 6 Y s 229 424 m20 243 416 m 7 Y s 243 434 m 5 Y s 236 428 m 1 X s 249 428 m 1 X s 240 416 m 6 X s 240 439 m 6 X s 236 426 m 5 Y s 250 426 m 5 Y s 243 428 m20 257 427 m 6 Y s 257 444 m 4 Y s 250 438 m 1 X s 262 438 m 2 X
 s 254 427 m 6 X s 254 448 m 6 X s 250 435 m 6 Y s 264 435 m 6 Y s 257 438 m20 270 429 m 5 Y s 270 446 m 4 Y s 264 440 m 1 X s 276 440 m 1 X s 268 429 m 5 X s 268 450 m 5 X s 264 437 m 6 Y s 277 437 m 6 Y s 270 440 m20 284 429 m 5 Y s 284 446 m 4 Y s
 277 440 m 2 X s 290 440 m 1 X s 281 429 m 6 X s 281 450 m 6 X s 277 437 m 6 Y s 291 437 m 6 Y s 284 440 m20 298 402 m 9 Y s 298 422 m 6 Y s 291 417 m 1 X s 304 417 m 1 X s 295 402 m 6 X s 295 428 m 6 X s 291 414 m 5 Y s 305 414 m 5 Y s 298 417 m20
 312 453 m 4 Y s 312 468 m 3 Y s 305 462 m 1 X s 318 462 m 1 X s 309 453 m 6 X s 309 471 m 6 X s 305 459 m 6 Y s 319 459 m 6 Y s 312 462 m20 326 453 m 4 Y s 326 468 m 3 Y s 319 462 m 1 X s 331 462 m 2 X s 323 453 m 5 X s 323 471 m 5 X s 319 459 m 6 Y
 s 333 459 m 6 Y s 326 462 m20 339 460 m 4 Y s 339 475 m 2 Y s 333 469 m 1 X s 345 469 m 1 X s 337 460 m 5 X s 337 477 m 5 X s 333 467 m 5 Y s 346 467 m 5 Y s 339 469 m20 353 454 m 4 Y s 353 469 m 3 Y s 346 464 m 2 X s 359 464 m 1 X s 350 454 m 6 X s
 350 472 m 6 X s 346 461 m 5 Y s 360 461 m 5 Y s 353 464 m20 367 436 m 5 Y s 367 453 m 3 Y s 360 447 m 1 X s 373 447 m 1 X s 364 436 m 6 X s 364 456 m 6 X s 360 444 m 6 Y s 374 444 m 6 Y s 367 447 m20 381 459 m 4 Y s 381 474 m 2 Y s 374 468 m 1 X s
 386 468 m 2 X s 378 459 m 6 X s 378 476 m 6 X s 374 465 m 6 Y s 388 465 m 6 Y s 381 468 m20 395 494 m 1 Y s 395 507 m s 388 501 m 1 X s 400 501 m 1 X s 392 494 m 5 X s 392 507 m 5 X s 388 498 m 6 Y s 401 498 m 6 Y s 395 501 m20 408 491 m 2 Y s 408
 504 m 1 Y s 401 498 m 2 X s 414 498 m 1 X s 406 491 m 5 X s 406 505 m 5 X s 401 495 m 6 Y s 415 495 m 6 Y s 408 498 m20 422 493 m 2 Y s 422 506 m 1 Y s 415 500 m 1 X s 428 500 m 1 X s 419 493 m 6 X s 419 507 m 6 X s 415 497 m 6 Y s 429 497 m 6 Y s
 422 500 m20 436 506 m s 429 512 m 1 X s 442 512 m 1 X s 433 506 m 6 X s 429 509 m 6 Y s 443 509 m 6 Y s 436 512 m20 443 525 m 1 X s 455 525 m 2 X s 443 522 m 6 Y s 457 522 m 6 Y s 450 525 m20 457 533 m 1 X s 469 533 m 1 X s 457 530 m 6 Y s 470 530 m
 6 Y s 464 533 m20 470 562 m 2 X s 483 562 m 1 X s 470 559 m 6 Y s 484 559 m 6 Y s 477 562 m20 484 569 m 1 X s 497 569 m 1 X s 484 566 m 6 Y s 498 566 m 6 Y s 491 569 m20 498 597 m 1 X s 511 597 m 1 X s 498 594 m 6 Y s 512 594 m 6 Y s 505 597 m20 512
 610 m 1 X s 524 610 m 2 X s 512 607 m 6 Y s 526 607 m 6 Y s 519 610 m20 526 641 m 1 X s 538 641 m 1 X s 526 638 m 5 Y s 539 638 m 5 Y s 532 641 m20 539 657 m 2 X s 552 657 m 1 X s 539 654 m 6 Y s 553 654 m 6 Y s 546 657 m20 553 677 m 1 X s 566 677 m
 1 X s 553 674 m 6 Y s 567 674 m 6 Y s 560 677 m20 567 687 m 1 X s 579 687 m 2 X s 567 684 m 6 Y s 581 684 m 6 Y s 574 687 m20 581 689 m 1 X s 593 689 m 2 X s 581 686 m 6 Y s 595 686 m 6 Y s 588 689 m20 595 671 m 1 X s 607 671 m 1 X s 595 668 m 6 Y s
 608 668 m 6 Y s 601 671 m20 608 647 m 2 X s 621 647 m 1 X s 608 644 m 6 Y s 622 644 m 6 Y s 615 647 m20 622 624 m 1 X s 635 624 m 1 X s 622 621 m 5 Y s 636 621 m 5 Y s 629 624 m20 636 590 m 1 X s 648 590 m 2 X s 636 587 m 6 Y s 650 587 m 6 Y s 643
 590 m20 650 563 m 1 X s 662 563 m 1 X s 650 560 m 6 Y s 663 560 m 6 Y s 657 563 m20 663 548 m 2 X s 676 548 m 1 X s 663 545 m 6 Y s 677 545 m 6 Y s 670 548 m20 677 526 m 1 X s 690 526 m 1 X s 677 523 m 6 Y s 691 523 m 6 Y s 684 526 m20 698 502 m 1 Y
 s 698 514 m s 691 509 m 1 X s 704 509 m 1 X s 695 502 m 6 X s 695 514 m 6 X s 691 506 m 5 Y s 705 506 m 5 Y s 698 509 m20 712 484 m 2 Y s 712 497 m 1 Y s 705 492 m 1 X s 717 492 m 2 X s 709 484 m 6 X s 709 498 m 6 X s 705 489 m 5 Y s 719 489 m 5 Y s
 712 492 m20 725 475 m 3 Y s 725 489 m 1 Y s 719 483 m 1 X s 731 483 m 1 X s 723 475 m 5 X s 723 490 m 5 X s 719 480 m 6 Y s 732 480 m 6 Y s 725 483 m20 739 457 m 3 Y s 739 472 m 2 Y s 732 466 m 2 X s 745 466 m 1 X s 736 457 m 6 X s 736 474 m 6 X s
 732 463 m 6 Y s 746 463 m 6 Y s 739 466 m20 753 449 m 4 Y s 753 464 m 3 Y s 746 458 m 1 X s 759 458 m 1 X s 750 449 m 6 X s 750 467 m 6 X s 746 456 m 5 Y s 760 456 m 5 Y s 753 458 m20 767 439 m 5 Y s 767 456 m 3 Y s 760 450 m 1 X s 773 450 m 1 X s
 764 439 m 6 X s 764 459 m 6 X s 760 447 m 6 Y s 774 447 m 6 Y s 767 450 m20 781 430 m 6 Y s 781 448 m 3 Y s 774 442 m 1 X s 786 442 m 2 X s 778 430 m 5 X s 778 451 m 5 X s 774 439 m 6 Y s 788 439 m 6 Y s 781 442 m20 794 418 m 7 Y s 794 436 m 5 Y s
 788 430 m 1 X s 800 430 m 1 X s 792 418 m 5 X s 792 441 m 5 X s 788 428 m 5 Y s 801 428 m 5 Y s 794 430 m20 808 364 m 13 Y s 808 389 m 9 Y s 801 383 m 2 X s 814 383 m 1 X s 805 364 m 6 X s 805 398 m 6 X s 801 380 m 6 Y s 815 380 m 6 Y s 808 383 m20
 822 411 m 7 Y s 822 430 m 5 Y s 815 424 m 1 X s 828 424 m 1 X s 819 411 m 6 X s 819 435 m 6 X s 815 421 m 6 Y s 829 421 m 6 Y s 822 424 m20 836 369 m 13 Y s 836 393 m 9 Y s 829 387 m 1 X s 841 387 m 2 X s 833 369 m 6 X s 833 402 m 6 X s 829 384 m 6
 Y s 843 384 m 6 Y s 836 387 m20 850 402 m 9 Y s 850 422 m 6 Y s 843 417 m 1 X s 855 417 m 1 X s 847 402 m 5 X s 847 428 m 5 X s 843 414 m 5 Y s 856 414 m 5 Y s 850 417 m20 863 378 m 11 Y s 863 401 m 8 Y s 856 395 m 2 X s 869 395 m 1 X s 861 378 m 5
 X s 861 409 m 5 X s 856 392 m 6 Y s 870 392 m 6 Y s 863 395 m20 877 352 m 16 Y s 877 379 m 10 Y s 870 373 m 1 X s 883 373 m 1 X s 874 352 m 6 X s 874 389 m 6 X s 870 371 m 5 Y s 884 371 m 5 Y s 877 373 m20 891 369 m 13 Y s 891 393 m 9 Y s 884 387 m
 1 X s 897 387 m 1 X s 888 369 m 6 X s 888 402 m 6 X s 884 384 m 6 Y s 898 384 m 6 Y s 891 387 m20 905 389 m 11 Y s 905 411 m 7 Y s 898 405 m 1 X s 910 405 m 2 X s 902 389 m 6 X s 902 418 m 6 X s 898 402 m 6 Y s 912 402 m 6 Y s 905 405 m20 919 382 m
 11 Y s 919 404 m 8 Y s 912 399 m 1 X s 924 399 m 1 X s 916 382 m 5 X s 916 412 m 5 X s 912 396 m 5 Y s 925 396 m 5 Y s 919 399 m20 932 338 m 18 Y s 932 368 m 11 Y s 925 362 m 2 X s 938 362 m 1 X s 929 338 m 6 X s 929 379 m 6 X s 925 359 m 6 Y s 939
 359 m 6 Y s 932 362 m20 946 369 m 13 Y s 946 393 m 9 Y s 939 387 m 1 X s 952 387 m 1 X s 943 369 m 6 X s 943 402 m 6 X s 939 384 m 6 Y s 953 384 m 6 Y s 946 387 m20 960 352 m 16 Y s 960 379 m 10 Y s 953 373 m 1 X s 966 373 m 1 X s 957 352 m 6 X s
 957 389 m 6 X s 953 371 m 5 Y s 967 371 m 5 Y s 960 373 m20 974 352 m 16 Y s 974 379 m 10 Y s 967 373 m 1 X s 979 373 m 2 X s 971 352 m 6 X s 971 389 m 6 X s 967 371 m 5 Y s 981 371 m 5 Y s 974 373 m20 1 1 1 c black 174 233 m 48 Y s 174 293 m 22 Y s
 167 287 m 1 X s 180 287 m 1 X s 171 233 m 6 X s 171 315 m 6 X s 167 284 m 6 Y s 181 284 m 6 Y s 174 287 m24 188 233 m 48 Y s 188 293 m 22 Y s 181 287 m 1 X s 193 287 m 2 X s 185 233 m 6 X s 185 315 m 6 X s 181 284 m 6 Y s 195 284 m 6 Y s 188 287 m24
 202 233 m 48 Y s 202 293 m 22 Y s 195 287 m 1 X s 207 287 m 1 X s 199 233 m 5 X s 199 315 m 5 X s 195 284 m 6 Y s 208 284 m 6 Y s 202 287 m24 215 118 m 95 Y s 215 224 m 38 Y s 208 218 m 2 X s 221 218 m 1 X s 213 118 m 5 X s 213 262 m 5 X s 208 216 m
 5 Y s 222 216 m 5 Y s 215 218 m24 229 185 m 71 Y s 229 267 m 28 Y s 222 262 m 1 X s 235 262 m 1 X s 226 185 m 6 X s 226 295 m 6 X s 222 259 m 6 Y s 236 259 m 6 Y s 229 262 m24 243 185 m 71 Y s 243 267 m 28 Y s 236 262 m 1 X s 249 262 m 1 X s 240 185
 m 6 X s 240 295 m 6 X s 236 259 m 6 Y s 250 259 m 6 Y s 243 262 m24 257 282 m 31 Y s 257 324 m 18 Y s 250 319 m 1 X s 262 319 m 2 X s 254 282 m 6 X s 254 342 m 6 X s 250 316 m 6 Y s 264 316 m 6 Y s 257 319 m24 270 118 m 95 Y s 270 224 m 38 Y s 264
 218 m 1 X s 276 218 m 1 X s 268 118 m 5 X s 268 262 m 5 X s 264 216 m 5 Y s 277 216 m 5 Y s 270 218 m24 284 118 m 95 Y s 284 224 m 38 Y s 277 218 m 2 X s 290 218 m 1 X s 281 118 m 6 X s 281 262 m 6 X s 277 216 m 5 Y s 291 216 m 5 Y s 284 218 m24 298
 185 m 71 Y s 298 267 m 28 Y s 291 262 m 1 X s 304 262 m 1 X s 295 185 m 6 X s 295 295 m 6 X s 291 259 m 6 Y s 305 259 m 6 Y s 298 262 m24 312 185 m 71 Y s 312 267 m 28 Y s 305 262 m 1 X s 318 262 m 1 X s 309 185 m 6 X s 309 295 m 6 X s 305 259 m 6 Y
 s 319 259 m 6 Y s 312 262 m24 326 185 m 71 Y s 326 267 m 28 Y s 319 262 m 1 X s 331 262 m 2 X s 323 185 m 5 X s 323 295 m 5 X s 319 259 m 6 Y s 333 259 m 6 Y s 326 262 m24 339 321 m 21 Y s 339 354 m 13 Y s 333 348 m 1 X s 345 348 m 1 X s 337 321 m 5
 X s 337 367 m 5 X s 333 345 m 6 Y s 346 345 m 6 Y s 339 348 m24 353 233 m 48 Y s 353 293 m 22 Y s 346 287 m 2 X s 359 287 m 1 X s 350 233 m 6 X s 350 315 m 6 X s 346 284 m 6 Y s 360 284 m 6 Y s 353 287 m24 367 185 m 71 Y s 367 267 m 28 Y s 360 262 m
 1 X s 373 262 m 1 X s 364 185 m 6 X s 364 295 m 6 X s 360 259 m 6 Y s 374 259 m 6 Y s 367 262 m24 381 233 m 48 Y s 381 293 m 22 Y s 374 287 m 1 X s 386 287 m 2 X s 378 233 m 6 X s 378 315 m 6 X s 374 284 m 6 Y s 388 284 m 6 Y s 381 287 m24 395 118 m
 95 Y s 395 224 m 38 Y s 388 218 m 1 X s 400 218 m 1 X s 392 118 m 5 X s 392 262 m 5 X s 388 216 m 5 Y s 401 216 m 5 Y s 395 218 m24 408 262 m 37 Y s 408 311 m 19 Y s 401 305 m 2 X s 414 305 m 1 X s 406 262 m 5 X s 406 330 m 5 X s 401 302 m 6 Y s 415
 302 m 6 Y s 408 305 m24 422 185 m 71 Y s 422 267 m 28 Y s 415 262 m 1 X s 428 262 m 1 X s 419 185 m 6 X s 419 295 m 6 X s 415 259 m 6 Y s 429 259 m 6 Y s 422 262 m24 436 282 m 31 Y s 436 324 m 18 Y s 429 319 m 1 X s 442 319 m 1 X s 433 282 m 6 X s
 433 342 m 6 X s 429 316 m 6 Y s 443 316 m 6 Y s 436 319 m24 450 118 m 95 Y s 450 224 m 38 Y s 443 218 m 1 X s 455 218 m 2 X s 447 118 m 6 X s 447 262 m 6 X s 443 216 m 5 Y s 457 216 m 5 Y s 450 218 m24 464 233 m 48 Y s 464 293 m 22 Y s 457 287 m 1 X
 s 469 287 m 1 X s 461 233 m 5 X s 461 315 m 5 X s 457 284 m 6 Y s 470 284 m 6 Y s 464 287 m24 477 233 m 48 Y s 477 293 m 22 Y s 470 287 m 2 X s 483 287 m 1 X s 474 233 m 6 X s 474 315 m 6 X s 470 284 m 6 Y s 484 284 m 6 Y s 477 287 m24 491 118 m 95
 Y s 491 224 m 38 Y s 484 218 m 1 X s 497 218 m 1 X s 488 118 m 6 X s 488 262 m 6 X s 484 216 m 5 Y s 498 216 m 5 Y s 491 218 m24 505 233 m 48 Y s 505 293 m 22 Y s 498 287 m 1 X s 511 287 m 1 X s 502 233 m 6 X s 502 315 m 6 X s 498 284 m 6 Y s 512
 284 m 6 Y s 505 287 m24 519 185 m 71 Y s 519 267 m 28 Y s 512 262 m 1 X s 524 262 m 2 X s 516 185 m 6 X s 516 295 m 6 X s 512 259 m 6 Y s 526 259 m 6 Y s 519 262 m24 532 118 m 95 Y s 532 224 m 38 Y s 526 218 m 1 X s 538 218 m 1 X s 530 118 m 5 X s
 530 262 m 5 X s 526 216 m 5 Y s 539 216 m 5 Y s 532 218 m24 546 118 m 95 Y s 546 224 m 38 Y s 539 218 m 2 X s 552 218 m 1 X s 543 118 m 6 X s 543 262 m 6 X s 539 216 m 5 Y s 553 216 m 5 Y s 546 218 m24 560 185 m 71 Y s 560 267 m 28 Y s 553 262 m 1 X
 s 566 262 m 1 X s 557 185 m 6 X s 557 295 m 6 X s 553 259 m 6 Y s 567 259 m 6 Y s 560 262 m24 574 233 m 48 Y s 574 293 m 22 Y s 567 287 m 1 X s 579 287 m 2 X s 571 233 m 6 X s 571 315 m 6 X s 567 284 m 6 Y s 581 284 m 6 Y s 574 287 m24 601 185 m 71
 Y s 601 267 m 28 Y s 595 262 m 1 X s 607 262 m 1 X s 599 185 m 5 X s 599 295 m 5 X s 595 259 m 6 Y s 608 259 m 6 Y s 601 262 m24 615 118 m 95 Y s 615 224 m 38 Y s 608 218 m 2 X s 621 218 m 1 X s 612 118 m 6 X s 612 262 m 6 X s 608 216 m 5 Y s 622
 216 m 5 Y s 615 218 m24 629 118 m 95 Y s 629 224 m 38 Y s 622 218 m 1 X s 635 218 m 1 X s 626 118 m 6 X s 626 262 m 6 X s 622 216 m 5 Y s 636 216 m 5 Y s 629 218 m24 643 185 m 71 Y s 643 267 m 28 Y s 636 262 m 1 X s 648 262 m 2 X s 640 185 m 6 X s
 640 295 m 6 X s 636 259 m 6 Y s 650 259 m 6 Y s 643 262 m24 670 233 m 48 Y s 670 293 m 22 Y s 663 287 m 2 X s 676 287 m 1 X s 667 233 m 6 X s 667 315 m 6 X s 663 284 m 6 Y s 677 284 m 6 Y s 670 287 m24 684 118 m 95 Y s 684 224 m 38 Y s 677 218 m 1 X
 s 690 218 m 1 X s 681 118 m 6 X s 681 262 m 6 X s 677 216 m 5 Y s 691 216 m 5 Y s 684 218 m24 698 118 m 95 Y s 698 224 m 38 Y s 691 218 m 1 X s 704 218 m 1 X s 695 118 m 6 X s 695 262 m 6 X s 691 216 m 5 Y s 705 216 m 5 Y s 698 218 m24 712 118 m 95
 Y s 712 224 m 38 Y s 705 218 m 1 X s 717 218 m 2 X s 709 118 m 6 X s 709 262 m 6 X s 705 216 m 5 Y s 719 216 m 5 Y s 712 218 m24 725 118 m 95 Y s 725 224 m 38 Y s 719 218 m 1 X s 731 218 m 1 X s 723 118 m 5 X s 723 262 m 5 X s 719 216 m 5 Y s 732
 216 m 5 Y s 725 218 m24 739 185 m 71 Y s 739 267 m 28 Y s 732 262 m 2 X s 745 262 m 1 X s 736 185 m 6 X s 736 295 m 6 X s 732 259 m 6 Y s 746 259 m 6 Y s 739 262 m24 753 118 m 95 Y s 753 224 m 38 Y s 746 218 m 1 X s 759 218 m 1 X s 750 118 m 6 X s
 750 262 m 6 X s 746 216 m 5 Y s 760 216 m 5 Y s 753 218 m24 767 233 m 48 Y s 767 293 m 22 Y s 760 287 m 1 X s 773 287 m 1 X s 764 233 m 6 X s 764 315 m 6 X s 760 284 m 6 Y s 774 284 m 6 Y s 767 287 m24 794 233 m 48 Y s 794 293 m 22 Y s 788 287 m 1 X
 s 800 287 m 1 X s 792 233 m 5 X s 792 315 m 5 X s 788 284 m 6 Y s 801 284 m 6 Y s 794 287 m24 808 233 m 48 Y s 808 293 m 22 Y s 801 287 m 2 X s 814 287 m 1 X s 805 233 m 6 X s 805 315 m 6 X s 801 284 m 6 Y s 815 284 m 6 Y s 808 287 m24 822 233 m 48
 Y s 822 293 m 22 Y s 815 287 m 1 X s 828 287 m 1 X s 819 233 m 6 X s 819 315 m 6 X s 815 284 m 6 Y s 829 284 m 6 Y s 822 287 m24 863 118 m 95 Y s 863 224 m 38 Y s 856 218 m 2 X s 869 218 m 1 X s 861 118 m 5 X s 861 262 m 5 X s 856 216 m 5 Y s 870
 216 m 5 Y s 863 218 m24 877 118 m 95 Y s 877 224 m 38 Y s 870 218 m 1 X s 883 218 m 1 X s 874 118 m 6 X s 874 262 m 6 X s 870 216 m 5 Y s 884 216 m 5 Y s 877 218 m24 891 118 m 95 Y s 891 224 m 38 Y s 884 218 m 1 X s 897 218 m 1 X s 888 118 m 6 X s
 888 262 m 6 X s 884 216 m 5 Y s 898 216 m 5 Y s 891 218 m24 905 233 m 48 Y s 905 293 m 22 Y s 898 287 m 1 X s 910 287 m 2 X s 902 233 m 6 X s 902 315 m 6 X s 898 284 m 6 Y s 912 284 m 6 Y s 905 287 m24 919 118 m 95 Y s 919 224 m 38 Y s 912 218 m 1 X
 s 924 218 m 1 X s 916 118 m 5 X s 916 262 m 5 X s 912 216 m 5 Y s 925 216 m 5 Y s 919 218 m24 932 297 m 27 Y s 932 336 m 16 Y s 925 330 m 2 X s 938 330 m 1 X s 929 297 m 6 X s 929 352 m 6 X s 925 327 m 6 Y s 939 327 m 6 Y s 932 330 m24 946 233 m 48
 Y s 946 293 m 22 Y s 939 287 m 1 X s 952 287 m 1 X s 943 233 m 6 X s 943 315 m 6 X s 939 284 m 6 Y s 953 284 m 6 Y s 946 287 m24 960 118 m 95 Y s 960 224 m 38 Y s 953 218 m 1 X s 966 218 m 1 X s 957 118 m 6 X s 957 262 m 6 X s 953 216 m 5 Y s 967
 216 m 5 Y s 960 218 m24 974 185 m 71 Y s 974 267 m 28 Y s 967 262 m 1 X s 979 262 m 2 X s 971 185 m 6 X s 971 295 m 6 X s 967 259 m 6 Y s 981 259 m 6 Y s 974 262 m24 0 0 1 c[ 12 12] 0 sd 6 lw 443 118 m 528 Y s 719 118 m 528 Y s black[  ] 0 sd 3 lw 1
 1 1 c 272 268 186 654 bf black
 gsave  1088 1072 23 11 C 252.599 874.164 t 0 r /Helvetica findfont 39.7652 sf 0 0 m (OC data: 14788) show NC gr  220 889 m20
 gsave  1088 1072 23 11 C 252.599 807.466 t 0 r /Helvetica findfont 39.7652 sf 0 0 m (SC data: 122) show NC gr  220 822 m24
 gsave  1088 1072 23 11 C 252.599 740.768 t 0 r /Helvetica findfont 39.7652 sf 0 0 m (OC MC: 31516) show NC gr  1 0 0 c 220 755 m20 black
 gsave  1088 1072 23 11 C 252.599 674.071 t 0 r /Helvetica findfont 39.7652 sf 0 0 m (SC MC: 50) show NC gr  1 0 0 c 220 688 m24 black
 gsave  1088 1072 23 11 C 566.22 901.126 t 0 r /Helvetica-Bold findfont 59.6478 sf 0 0 m (pp collisions) show NC gr  1 1 1 c 1088 1072 1157 11 bf black 1 1 1 c 827 858 1287 118 bf black 827 858 1287 118 bl 1 1 1 c 827 858 1287 118 bf black 827 858
 1287 118 bl 1 0 0 c 1 1 1 c 1 0 0 c 1308 379 m 6 Y s 1308 397 m 4 Y s 1301 391 m 1 X s 1314 391 m 1 X s 1305 379 m 6 X s 1305 401 m 6 X s 1301 388 m 6 Y s 1315 388 m 6 Y s 1308 391 m20 1322 399 m 4 Y s 1322 414 m 3 Y s 1315 409 m 1 X s 1327 409 m 2
 X s 1319 399 m 5 X s 1319 417 m 5 X s 1315 406 m 5 Y s 1329 406 m 5 Y s 1322 409 m20 1335 395 m 5 Y s 1335 411 m 4 Y s 1329 406 m 1 X s 1341 406 m 1 X s 1333 395 m 5 X s 1333 415 m 5 X s 1329 403 m 6 Y s 1342 403 m 6 Y s 1335 406 m20 1349 399 m 4 Y
 s 1349 414 m 3 Y s 1342 409 m 2 X s 1355 409 m 1 X s 1346 399 m 6 X s 1346 417 m 6 X s 1342 406 m 5 Y s 1356 406 m 5 Y s 1349 409 m20 1363 401 m 5 Y s 1363 417 m 3 Y s 1356 411 m 1 X s 1369 411 m 1 X s 1360 401 m 6 X s 1360 420 m 6 X s 1356 408 m 6
 Y s 1370 408 m 6 Y s 1363 411 m20 1377 412 m 3 Y s 1377 427 m 2 Y s 1370 421 m 1 X s 1382 421 m 2 X s 1374 412 m 6 X s 1374 429 m 6 X s 1370 418 m 6 Y s 1384 418 m 6 Y s 1377 421 m20 1391 420 m 3 Y s 1391 434 m 2 Y s 1384 429 m 1 X s 1396 429 m 1 X
 s 1388 420 m 5 X s 1388 436 m 5 X s 1384 426 m 5 Y s 1397 426 m 5 Y s 1391 429 m20 1404 404 m 4 Y s 1404 420 m 2 Y s 1397 414 m 2 X s 1410 414 m 1 X s 1402 404 m 5 X s 1402 422 m 5 X s 1397 411 m 6 Y s 1411 411 m 6 Y s 1404 414 m20 1418 420 m 3 Y s
 1418 434 m 2 Y s 1411 429 m 1 X s 1424 429 m 1 X s 1415 420 m 6 X s 1415 436 m 6 X s 1411 426 m 5 Y s 1425 426 m 5 Y s 1418 429 m20 1432 431 m 2 Y s 1432 444 m 2 Y s 1425 439 m 1 X s 1438 439 m 1 X s 1429 431 m 6 X s 1429 446 m 6 X s 1425 436 m 6 Y
 s 1439 436 m 6 Y s 1432 439 m20 1446 434 m 2 Y s 1446 447 m 1 Y s 1439 441 m 1 X s 1451 441 m 2 X s 1443 434 m 6 X s 1443 448 m 6 X s 1439 438 m 6 Y s 1453 438 m 6 Y s 1446 441 m20 1460 435 m 2 Y s 1460 449 m 1 Y s 1453 443 m 1 X s 1465 443 m 1 X s
 1457 435 m 5 X s 1457 450 m 5 X s 1453 440 m 6 Y s 1466 440 m 6 Y s 1460 443 m20 1473 441 m 2 Y s 1473 454 m 1 Y s 1466 448 m 2 X s 1479 448 m 1 X s 1470 441 m 6 X s 1470 455 m 6 X s 1466 445 m 6 Y s 1480 445 m 6 Y s 1473 448 m20 1487 451 m 1 Y s
 1487 463 m 1 Y s 1480 458 m 1 X s 1493 458 m 1 X s 1484 451 m 6 X s 1484 464 m 6 X s 1480 455 m 6 Y s 1494 455 m 6 Y s 1487 458 m20 1501 458 m 1 Y s 1501 470 m s 1494 464 m 1 X s 1507 464 m 1 X s 1498 458 m 6 X s 1498 470 m 6 X s 1494 461 m 6 Y s
 1508 461 m 6 Y s 1501 464 m20 1515 459 m s 1508 465 m 1 X s 1520 465 m 2 X s 1512 459 m 5 X s 1508 462 m 6 Y s 1522 462 m 6 Y s 1515 465 m20 1522 480 m 1 X s 1534 480 m 1 X s 1522 477 m 6 Y s 1535 477 m 6 Y s 1528 480 m20 1535 498 m 2 X s 1548 498 m
 1 X s 1535 496 m 5 Y s 1549 496 m 5 Y s 1542 498 m20 1549 502 m 1 X s 1562 502 m 1 X s 1549 499 m 6 Y s 1563 499 m 6 Y s 1556 502 m20 1563 509 m 1 X s 1575 509 m 2 X s 1563 507 m 5 Y s 1577 507 m 5 Y s 1570 509 m20 1577 527 m 1 X s 1589 527 m 1 X s
 1577 524 m 6 Y s 1590 524 m 6 Y s 1584 527 m20 1590 541 m 2 X s 1603 541 m 1 X s 1590 538 m 6 Y s 1604 538 m 6 Y s 1597 541 m20 1604 552 m 1 X s 1617 552 m 1 X s 1604 549 m 6 Y s 1618 549 m 6 Y s 1611 552 m20 1618 564 m 1 X s 1631 564 m 1 X s 1618
 561 m 6 Y s 1632 561 m 6 Y s 1625 564 m20 1632 591 m 1 X s 1644 591 m 2 X s 1632 589 m 5 Y s 1646 589 m 5 Y s 1639 591 m20 1646 617 m 1 X s 1658 617 m 1 X s 1646 614 m 6 Y s 1659 614 m 6 Y s 1653 617 m20 1659 638 m 2 X s 1672 638 m 1 X s 1659 635 m
 6 Y s 1673 635 m 6 Y s 1666 638 m20 1673 660 m 1 X s 1686 660 m 1 X s 1673 657 m 6 Y s 1687 657 m 6 Y s 1680 660 m20 1687 680 m 1 X s 1700 680 m 1 X s 1687 677 m 6 Y s 1701 677 m 6 Y s 1694 680 m20 1701 689 m 1 X s 1713 689 m 2 X s 1701 686 m 6 Y s
 1715 686 m 6 Y s 1708 689 m20 1715 686 m 1 X s 1727 686 m 1 X s 1715 683 m 6 Y s 1728 683 m 6 Y s 1721 686 m20 1728 673 m 2 X s 1741 673 m 1 X s 1728 670 m 6 Y s 1742 670 m 6 Y s 1735 673 m20 1742 653 m 1 X s 1755 653 m 1 X s 1742 651 m 5 Y s 1756
 651 m 5 Y s 1749 653 m20 1756 623 m 1 X s 1769 623 m 1 X s 1756 621 m 5 Y s 1770 621 m 5 Y s 1763 623 m20 1770 593 m 1 X s 1782 593 m 2 X s 1770 590 m 6 Y s 1784 590 m 6 Y s 1777 593 m20 1784 562 m 1 X s 1796 562 m 1 X s 1784 559 m 5 Y s 1797 559 m
 5 Y s 1790 562 m20 1797 539 m 2 X s 1810 539 m 1 X s 1797 536 m 5 Y s 1811 536 m 5 Y s 1804 539 m20 1811 526 m 1 X s 1824 526 m 1 X s 1811 523 m 6 Y s 1825 523 m 6 Y s 1818 526 m20 1825 507 m 1 X s 1837 507 m 2 X s 1825 504 m 6 Y s 1839 504 m 6 Y s
 1832 507 m20 1839 490 m 1 X s 1851 490 m 1 X s 1839 487 m 5 Y s 1852 487 m 5 Y s 1846 490 m20 1859 467 m 1 Y s 1852 473 m 2 X s 1865 473 m 1 X s 1857 467 m 5 X s 1852 470 m 6 Y s 1866 470 m 6 Y s 1859 473 m20 1873 430 m 2 Y s 1873 444 m 1 Y s 1866
 438 m 1 X s 1879 438 m 1 X s 1870 430 m 6 X s 1870 445 m 6 X s 1866 435 m 6 Y s 1880 435 m 6 Y s 1873 438 m20 1887 452 m 1 Y s 1887 464 m s 1880 458 m 1 X s 1893 458 m 1 X s 1884 452 m 6 X s 1884 464 m 6 X s 1880 456 m 5 Y s 1894 456 m 5 Y s 1887
 458 m20 1901 426 m 3 Y s 1901 440 m 1 Y s 1894 434 m 1 X s 1906 434 m 2 X s 1898 426 m 6 X s 1898 441 m 6 X s 1894 431 m 6 Y s 1908 431 m 6 Y s 1901 434 m20 1914 418 m 3 Y s 1914 432 m 2 Y s 1908 427 m 1 X s 1920 427 m 1 X s 1912 418 m 5 X s 1912
 434 m 5 X s 1908 424 m 5 Y s 1921 424 m 5 Y s 1914 427 m20 1928 423 m 3 Y s 1928 437 m 2 Y s 1921 431 m 2 X s 1934 431 m 1 X s 1925 423 m 6 X s 1925 439 m 6 X s 1921 429 m 5 Y s 1935 429 m 5 Y s 1928 431 m20 1942 381 m 6 Y s 1942 399 m 4 Y s 1935
 393 m 1 X s 1948 393 m 1 X s 1939 381 m 6 X s 1939 403 m 6 X s 1935 390 m 6 Y s 1949 390 m 6 Y s 1942 393 m20 1956 413 m 4 Y s 1956 428 m 2 Y s 1949 422 m 1 X s 1962 422 m 1 X s 1953 413 m 6 X s 1953 430 m 6 X s 1949 419 m 6 Y s 1963 419 m 6 Y s
 1956 422 m20 1970 392 m 5 Y s 1970 408 m 4 Y s 1963 403 m 1 X s 1975 403 m 2 X s 1967 392 m 5 X s 1967 412 m 5 X s 1963 400 m 6 Y s 1977 400 m 6 Y s 1970 403 m20 1983 383 m 6 Y s 1983 400 m 4 Y s 1977 395 m 1 X s 1989 395 m 1 X s 1981 383 m 5 X s
 1981 404 m 5 X s 1977 392 m 6 Y s 1990 392 m 6 Y s 1983 395 m20 1997 387 m 5 Y s 1997 404 m 3 Y s 1990 398 m 2 X s 2003 398 m 1 X s 1994 387 m 6 X s 1994 407 m 6 X s 1990 395 m 6 Y s 2004 395 m 6 Y s 1997 398 m20 2011 371 m 7 Y s 2011 389 m 5 Y s
 2004 383 m 1 X s 2017 383 m 1 X s 2008 371 m 6 X s 2008 394 m 6 X s 2004 380 m 6 Y s 2018 380 m 6 Y s 2011 383 m20 2025 377 m 7 Y s 2025 395 m 4 Y s 2018 389 m 1 X s 2030 389 m 2 X s 2022 377 m 6 X s 2022 399 m 6 X s 2018 386 m 6 Y s 2032 386 m 6 Y
 s 2025 389 m20 2039 352 m 9 Y s 2039 372 m 7 Y s 2032 367 m 1 X s 2044 367 m 1 X s 2036 352 m 5 X s 2036 379 m 5 X s 2032 364 m 6 Y s 2045 364 m 6 Y s 2039 367 m20 2052 355 m 9 Y s 2052 375 m 6 Y s 2045 369 m 2 X s 2058 369 m 1 X s 2050 355 m 5 X s
 2050 381 m 5 X s 2045 367 m 5 Y s 2059 367 m 5 Y s 2052 369 m20 2066 373 m 7 Y s 2066 391 m 5 Y s 2059 385 m 1 X s 2072 385 m 1 X s 2063 373 m 6 X s 2063 396 m 6 X s 2059 383 m 5 Y s 2073 383 m 5 Y s 2066 385 m20 2080 361 m 8 Y s 2080 380 m 6 Y s
 2073 374 m 1 X s 2086 374 m 1 X s 2077 361 m 6 X s 2077 386 m 6 X s 2073 372 m 5 Y s 2087 372 m 5 Y s 2080 374 m20 2094 326 m 12 Y s 2094 350 m 8 Y s 2087 344 m 1 X s 2099 344 m 2 X s 2091 326 m 6 X s 2091 358 m 6 X s 2087 341 m 6 Y s 2101 341 m 6 Y
 s 2094 344 m20 2108 352 m 9 Y s 2108 372 m 7 Y s 2101 367 m 1 X s 2113 367 m 1 X s 2105 352 m 5 X s 2105 379 m 5 X s 2101 364 m 6 Y s 2114 364 m 6 Y s 2108 367 m20 black 1287 118 m 827 X s 1287 143 m -25 Y s 1315 130 m -12 Y s 1342 130 m -12 Y s
 1370 130 m -12 Y s 1397 130 m -12 Y s 1425 143 m -25 Y s 1453 130 m -12 Y s 1480 130 m -12 Y s 1508 130 m -12 Y s 1535 130 m -12 Y s 1563 143 m -25 Y s 1590 130 m -12 Y s 1618 130 m -12 Y s 1646 130 m -12 Y s 1673 130 m -12 Y s 1701 143 m -25 Y s
 1728 130 m -12 Y s 1756 130 m -12 Y s 1784 130 m -12 Y s 1811 130 m -12 Y s 1839 143 m -25 Y s 1866 130 m -12 Y s 1894 130 m -12 Y s 1921 130 m -12 Y s 1949 130 m -12 Y s 1977 143 m -25 Y s 2004 130 m -12 Y s 2032 130 m -12 Y s 2059 130 m -12 Y s
 2087 130 m -12 Y s 2114 143 m -25 Y s
 gsave  1088 1072 1157 11 C 1267.25 83.7267 t 0 r /Helvetica findfont 35.5047 sf 0 0 m (60) show NC gr 
 gsave  1088 1072 1157 11 C 1404.91 83.7267 t 0 r /Helvetica findfont 35.5047 sf 0 0 m (70) show NC gr 
 gsave  1088 1072 1157 11 C 1542.56 83.7267 t 0 r /Helvetica findfont 35.5047 sf 0 0 m (80) show NC gr 
 gsave  1088 1072 1157 11 C 1680.21 83.7267 t 0 r /Helvetica findfont 35.5047 sf 0 0 m (90) show NC gr 
 gsave  1088 1072 1157 11 C 1807.93 83.7267 t 0 r /Helvetica findfont 35.5047 sf 0 0 m (100) show NC gr 
 gsave  1088 1072 1157 11 C 1945.58 83.7267 t 0 r /Helvetica findfont 35.5047 sf 0 0 m (110) show NC gr 
 gsave  1088 1072 1157 11 C 2083.23 83.7267 t 0 r /Helvetica findfont 35.5047 sf 0 0 m (120) show NC gr 
 gsave  1088 1072 1157 11 C 1986.74 32.6392 t 0 r /Helvetica findfont 45.446 sf 0 0 m ( [GeV]) show NC gr 
 gsave  1088 1072 1157 11 C 1969.71 24.1246 t 0 r /Symbol findfont 29.8239 sf 0 0 m (m) show NC gr 
 gsave  1088 1072 1157 11 C 1952.68 24.1246 t 0 r /Symbol findfont 29.8239 sf 0 0 m (m) show NC gr 
 gsave  1088 1072 1157 11 C 1917.2 32.6392 t 0 r /Helvetica findfont 45.446 sf 0 0 m (M) show NC gr  1287 118 m 858 Y s 1300 118 m -13 X s 1300 143 m -13 X s 1300 161 m -13 X s 1300 175 m -13 X s 1300 187 m -13 X s 1300 196 m -13 X s 1300 205 m -13 X
 s 1300 212 m -13 X s 1313 218 m -26 X s
 gsave  1088 1072 1157 11 C 1265.83 205.769 t 0 r /Helvetica findfont 32.6643 sf 0 0 m (1) show NC gr  1300 262 m -13 X s 1300 287 m -13 X s 1300 305 m -13 X s 1300 319 m -13 X s 1300 330 m -13 X s 1300 340 m -13 X s 1300 348 m -13 X s 1300 355 m -13
 X s 1313 362 m -26 X s
 gsave  1088 1072 1157 11 C 1243.13 350.517 t 0 r /Helvetica findfont 32.6643 sf 0 0 m (10) show NC gr  1300 405 m -13 X s 1300 430 m -13 X s 1300 448 m -13 X s 1300 462 m -13 X s 1300 474 m -13 X s 1300 483 m -13 X s 1300 492 m -13 X s 1300 499 m
 -13 X s 1313 506 m -26 X s
 gsave  1088 1072 1157 11 C 1265.83 505.198 t 0 r /Helvetica findfont 22.723 sf 0 0 m (2) show NC gr 
 gsave  1088 1072 1157 11 C 1230.36 491.007 t 0 r /Helvetica findfont 32.6643 sf 0 0 m (10) show NC gr  1300 549 m -13 X s 1300 574 m -13 X s 1300 592 m -13 X s 1300 606 m -13 X s 1300 617 m -13 X s 1300 627 m -13 X s 1300 635 m -13 X s 1300 642 m
 -13 X s 1313 649 m -26 X s
 gsave  1088 1072 1157 11 C 1265.83 649.946 t 0 r /Helvetica findfont 22.723 sf 0 0 m (3) show NC gr 
 gsave  1088 1072 1157 11 C 1230.36 634.336 t 0 r /Helvetica findfont 32.6643 sf 0 0 m (10) show NC gr  1300 692 m -13 X s 1300 718 m -13 X s 1300 735 m -13 X s 1300 749 m -13 X s 1300 761 m -13 X s 1300 770 m -13 X s 1300 779 m -13 X s 1300 786 m
 -13 X s 1313 793 m -26 X s
 gsave  1088 1072 1157 11 C 1265.83 791.856 t 0 r /Helvetica findfont 22.723 sf 0 0 m (4) show NC gr 
 gsave  1088 1072 1157 11 C 1230.36 777.665 t 0 r /Helvetica findfont 32.6643 sf 0 0 m (10) show NC gr  1300 836 m -13 X s 1300 861 m -13 X s 1300 879 m -13 X s 1300 893 m -13 X s 1300 904 m -13 X s 1300 914 m -13 X s 1300 922 m -13 X s 1300 930 m
 -13 X s 1313 936 m -26 X s
 gsave  1088 1072 1157 11 C 1265.83 936.604 t 0 r /Helvetica findfont 22.723 sf 0 0 m (5) show NC gr 
 gsave  1088 1072 1157 11 C 1230.36 920.994 t 0 r /Helvetica findfont 32.6643 sf 0 0 m (10) show NC gr 
 gsave  1088 1072 1157 11 C 1203.39 557.705 t 90 r /Helvetica findfont 45.446 sf 0 0 m (Entries / NormFactor) show NC gr  1 0 0 c 1 1 1 c 1 0 0 c 1308 290 m 48 Y s 1308 349 m 23 Y s 1301 344 m 1 X s 1314 344 m 1 X s 1305 290 m 6 X s 1305 372 m 6 X s
 1301 341 m 6 Y s 1315 341 m 6 Y s 1308 344 m24 1322 118 m 152 Y s 1322 281 m 38 Y s 1315 275 m 1 X s 1327 275 m 2 X s 1319 118 m 5 X s 1319 319 m 5 X s 1315 273 m 5 Y s 1329 273 m 5 Y s 1322 275 m24 1349 118 m 152 Y s 1349 281 m 38 Y s 1342 275 m 2
 X s 1355 275 m 1 X s 1346 118 m 6 X s 1346 319 m 6 X s 1342 273 m 5 Y s 1356 273 m 5 Y s 1349 275 m24 1363 118 m 152 Y s 1363 281 m 38 Y s 1356 275 m 1 X s 1369 275 m 1 X s 1360 118 m 6 X s 1360 319 m 6 X s 1356 273 m 5 Y s 1370 273 m 5 Y s 1363 275
 m24 1377 242 m 71 Y s 1377 324 m 28 Y s 1370 319 m 1 X s 1382 319 m 2 X s 1374 242 m 6 X s 1374 352 m 6 X s 1370 316 m 5 Y s 1384 316 m 5 Y s 1377 319 m24 1391 242 m 71 Y s 1391 324 m 28 Y s 1384 319 m 1 X s 1396 319 m 1 X s 1388 242 m 5 X s 1388
 352 m 5 X s 1384 316 m 5 Y s 1397 316 m 5 Y s 1391 319 m24 1404 118 m 152 Y s 1404 281 m 38 Y s 1397 275 m 2 X s 1410 275 m 1 X s 1402 118 m 5 X s 1402 319 m 5 X s 1397 273 m 5 Y s 1411 273 m 5 Y s 1404 275 m24 1418 242 m 71 Y s 1418 324 m 28 Y s
 1411 319 m 1 X s 1424 319 m 1 X s 1415 242 m 6 X s 1415 352 m 6 X s 1411 316 m 5 Y s 1425 316 m 5 Y s 1418 319 m24 1432 242 m 71 Y s 1432 324 m 28 Y s 1425 319 m 1 X s 1438 319 m 1 X s 1429 242 m 6 X s 1429 352 m 6 X s 1425 316 m 5 Y s 1439 316 m 5
 Y s 1432 319 m24 1487 290 m 48 Y s 1487 349 m 23 Y s 1480 344 m 1 X s 1493 344 m 1 X s 1484 290 m 6 X s 1484 372 m 6 X s 1480 341 m 6 Y s 1494 341 m 6 Y s 1487 344 m24 1501 118 m 152 Y s 1501 281 m 38 Y s 1494 275 m 1 X s 1507 275 m 1 X s 1498 118 m
 6 X s 1498 319 m 6 X s 1494 273 m 5 Y s 1508 273 m 5 Y s 1501 275 m24 1515 242 m 71 Y s 1515 324 m 28 Y s 1508 319 m 1 X s 1520 319 m 2 X s 1512 242 m 5 X s 1512 352 m 5 X s 1508 316 m 5 Y s 1522 316 m 5 Y s 1515 319 m24 1528 118 m 152 Y s 1528 281
 m 38 Y s 1522 275 m 1 X s 1534 275 m 1 X s 1526 118 m 5 X s 1526 319 m 5 X s 1522 273 m 5 Y s 1535 273 m 5 Y s 1528 275 m24 1542 118 m 152 Y s 1542 281 m 38 Y s 1535 275 m 2 X s 1548 275 m 1 X s 1539 118 m 6 X s 1539 319 m 6 X s 1535 273 m 5 Y s
 1549 273 m 5 Y s 1542 275 m24 1584 242 m 71 Y s 1584 324 m 28 Y s 1577 319 m 1 X s 1589 319 m 1 X s 1581 242 m 5 X s 1581 352 m 5 X s 1577 316 m 5 Y s 1590 316 m 5 Y s 1584 319 m24 1611 118 m 152 Y s 1611 281 m 38 Y s 1604 275 m 1 X s 1617 275 m 1 X
 s 1608 118 m 6 X s 1608 319 m 6 X s 1604 273 m 5 Y s 1618 273 m 5 Y s 1611 275 m24 1625 242 m 71 Y s 1625 324 m 28 Y s 1618 319 m 1 X s 1631 319 m 1 X s 1622 242 m 6 X s 1622 352 m 6 X s 1618 316 m 5 Y s 1632 316 m 5 Y s 1625 319 m24 1639 242 m 71 Y
 s 1639 324 m 28 Y s 1632 319 m 1 X s 1644 319 m 2 X s 1636 242 m 6 X s 1636 352 m 6 X s 1632 316 m 5 Y s 1646 316 m 5 Y s 1639 319 m24 1666 118 m 152 Y s 1666 281 m 38 Y s 1659 275 m 2 X s 1672 275 m 1 X s 1663 118 m 6 X s 1663 319 m 6 X s 1659 273
 m 5 Y s 1673 273 m 5 Y s 1666 275 m24 1694 242 m 71 Y s 1694 324 m 28 Y s 1687 319 m 1 X s 1700 319 m 1 X s 1691 242 m 6 X s 1691 352 m 6 X s 1687 316 m 5 Y s 1701 316 m 5 Y s 1694 319 m24 1721 118 m 152 Y s 1721 281 m 38 Y s 1715 275 m 1 X s 1727
 275 m 1 X s 1719 118 m 5 X s 1719 319 m 5 X s 1715 273 m 5 Y s 1728 273 m 5 Y s 1721 275 m24 1749 118 m 152 Y s 1749 281 m 38 Y s 1742 275 m 1 X s 1755 275 m 1 X s 1746 118 m 6 X s 1746 319 m 6 X s 1742 273 m 5 Y s 1756 273 m 5 Y s 1749 275 m24 1832
 118 m 152 Y s 1832 281 m 38 Y s 1825 275 m 1 X s 1837 275 m 2 X s 1829 118 m 6 X s 1829 319 m 6 X s 1825 273 m 5 Y s 1839 273 m 5 Y s 1832 275 m24 1859 118 m 152 Y s 1859 281 m 38 Y s 1852 275 m 2 X s 1865 275 m 1 X s 1857 118 m 5 X s 1857 319 m 5 X
 s 1852 273 m 5 Y s 1866 273 m 5 Y s 1859 275 m24 1887 118 m 152 Y s 1887 281 m 38 Y s 1880 275 m 1 X s 1893 275 m 1 X s 1884 118 m 6 X s 1884 319 m 6 X s 1880 273 m 5 Y s 1894 273 m 5 Y s 1887 275 m24 1901 242 m 71 Y s 1901 324 m 28 Y s 1894 319 m 1
 X s 1906 319 m 2 X s 1898 242 m 6 X s 1898 352 m 6 X s 1894 316 m 5 Y s 1908 316 m 5 Y s 1901 319 m24 1956 118 m 152 Y s 1956 281 m 38 Y s 1949 275 m 1 X s 1962 275 m 1 X s 1953 118 m 6 X s 1953 319 m 6 X s 1949 273 m 5 Y s 1963 273 m 5 Y s 1956 275
 m24 1970 118 m 152 Y s 1970 281 m 38 Y s 1963 275 m 1 X s 1975 275 m 2 X s 1967 118 m 5 X s 1967 319 m 5 X s 1963 273 m 5 Y s 1977 273 m 5 Y s 1970 275 m24 2052 118 m 152 Y s 2052 281 m 38 Y s 2045 275 m 2 X s 2058 275 m 1 X s 2050 118 m 5 X s 2050
 319 m 5 X s 2045 273 m 5 Y s 2059 273 m 5 Y s 2052 275 m24 2066 290 m 48 Y s 2066 349 m 23 Y s 2059 344 m 1 X s 2072 344 m 1 X s 2063 290 m 6 X s 2063 372 m 6 X s 2059 341 m 6 Y s 2073 341 m 6 Y s 2066 344 m24 2108 290 m 48 Y s 2108 349 m 23 Y s
 2101 344 m 1 X s 2113 344 m 1 X s 2105 290 m 5 X s 2105 372 m 5 X s 2101 341 m 6 Y s 2114 341 m 6 Y s 2108 344 m24 black 1 1 1 c black 1308 396 m 9 Y s 1308 417 m 6 Y s 1301 411 m 1 X s 1314 411 m 1 X s 1305 396 m 6 X s 1305 423 m 6 X s 1301 408 m 6
 Y s 1315 408 m 6 Y s 1308 411 m20 1322 402 m 9 Y s 1322 422 m 6 Y s 1315 417 m 1 X s 1327 417 m 2 X s 1319 402 m 5 X s 1319 428 m 5 X s 1315 414 m 5 Y s 1329 414 m 5 Y s 1322 417 m20 1335 408 m 8 Y s 1335 427 m 6 Y s 1329 422 m 1 X s 1341 422 m 1 X
 s 1333 408 m 5 X s 1333 433 m 5 X s 1329 419 m 5 Y s 1342 419 m 5 Y s 1335 422 m20 1349 399 m 9 Y s 1349 420 m 6 Y s 1342 414 m 2 X s 1355 414 m 1 X s 1346 399 m 6 X s 1346 426 m 6 X s 1342 411 m 6 Y s 1356 411 m 6 Y s 1349 414 m20 1363 411 m 7 Y s
 1363 430 m 5 Y s 1356 424 m 1 X s 1369 424 m 1 X s 1360 411 m 6 X s 1360 435 m 6 X s 1356 421 m 6 Y s 1370 421 m 6 Y s 1363 424 m20 1377 416 m 7 Y s 1377 434 m 5 Y s 1370 428 m 1 X s 1382 428 m 2 X s 1374 416 m 6 X s 1374 439 m 6 X s 1370 426 m 5 Y
 s 1384 426 m 5 Y s 1377 428 m20 1391 427 m 6 Y s 1391 444 m 4 Y s 1384 438 m 1 X s 1396 438 m 1 X s 1388 427 m 5 X s 1388 448 m 5 X s 1384 435 m 6 Y s 1397 435 m 6 Y s 1391 438 m20 1404 429 m 5 Y s 1404 446 m 4 Y s 1397 440 m 2 X s 1410 440 m 1 X s
 1402 429 m 5 X s 1402 450 m 5 X s 1397 437 m 6 Y s 1411 437 m 6 Y s 1404 440 m20 1418 429 m 5 Y s 1418 446 m 4 Y s 1411 440 m 1 X s 1424 440 m 1 X s 1415 429 m 6 X s 1415 450 m 6 X s 1411 437 m 6 Y s 1425 437 m 6 Y s 1418 440 m20 1432 402 m 9 Y s
 1432 422 m 6 Y s 1425 417 m 1 X s 1438 417 m 1 X s 1429 402 m 6 X s 1429 428 m 6 X s 1425 414 m 5 Y s 1439 414 m 5 Y s 1432 417 m20 1446 453 m 4 Y s 1446 468 m 3 Y s 1439 462 m 1 X s 1451 462 m 2 X s 1443 453 m 6 X s 1443 471 m 6 X s 1439 459 m 6 Y
 s 1453 459 m 6 Y s 1446 462 m20 1460 453 m 4 Y s 1460 468 m 3 Y s 1453 462 m 1 X s 1465 462 m 1 X s 1457 453 m 5 X s 1457 471 m 5 X s 1453 459 m 6 Y s 1466 459 m 6 Y s 1460 462 m20 1473 460 m 4 Y s 1473 475 m 2 Y s 1466 469 m 2 X s 1479 469 m 1 X s
 1470 460 m 6 X s 1470 477 m 6 X s 1466 467 m 5 Y s 1480 467 m 5 Y s 1473 469 m20 1487 454 m 4 Y s 1487 469 m 3 Y s 1480 464 m 1 X s 1493 464 m 1 X s 1484 454 m 6 X s 1484 472 m 6 X s 1480 461 m 5 Y s 1494 461 m 5 Y s 1487 464 m20 1501 436 m 5 Y s
 1501 453 m 3 Y s 1494 447 m 1 X s 1507 447 m 1 X s 1498 436 m 6 X s 1498 456 m 6 X s 1494 444 m 6 Y s 1508 444 m 6 Y s 1501 447 m20 1515 459 m 4 Y s 1515 474 m 2 Y s 1508 468 m 1 X s 1520 468 m 2 X s 1512 459 m 5 X s 1512 476 m 5 X s 1508 465 m 6 Y
 s 1522 465 m 6 Y s 1515 468 m20 1528 494 m 1 Y s 1528 507 m s 1522 501 m 1 X s 1534 501 m 1 X s 1526 494 m 5 X s 1526 507 m 5 X s 1522 498 m 6 Y s 1535 498 m 6 Y s 1528 501 m20 1542 491 m 2 Y s 1542 504 m 1 Y s 1535 498 m 2 X s 1548 498 m 1 X s 1539
 491 m 6 X s 1539 505 m 6 X s 1535 495 m 6 Y s 1549 495 m 6 Y s 1542 498 m20 1556 493 m 2 Y s 1556 506 m 1 Y s 1549 500 m 1 X s 1562 500 m 1 X s 1553 493 m 6 X s 1553 507 m 6 X s 1549 497 m 6 Y s 1563 497 m 6 Y s 1556 500 m20 1570 506 m s 1563 512 m
 1 X s 1575 512 m 2 X s 1567 506 m 6 X s 1563 509 m 6 Y s 1577 509 m 6 Y s 1570 512 m20 1577 525 m 1 X s 1589 525 m 1 X s 1577 522 m 6 Y s 1590 522 m 6 Y s 1584 525 m20 1590 533 m 2 X s 1603 533 m 1 X s 1590 530 m 6 Y s 1604 530 m 6 Y s 1597 533 m20
 1604 562 m 1 X s 1617 562 m 1 X s 1604 559 m 6 Y s 1618 559 m 6 Y s 1611 562 m20 1618 569 m 1 X s 1631 569 m 1 X s 1618 566 m 6 Y s 1632 566 m 6 Y s 1625 569 m20 1632 597 m 1 X s 1644 597 m 2 X s 1632 594 m 6 Y s 1646 594 m 6 Y s 1639 597 m20 1646
 610 m 1 X s 1658 610 m 1 X s 1646 607 m 6 Y s 1659 607 m 6 Y s 1653 610 m20 1659 641 m 2 X s 1672 641 m 1 X s 1659 638 m 5 Y s 1673 638 m 5 Y s 1666 641 m20 1673 657 m 1 X s 1686 657 m 1 X s 1673 654 m 6 Y s 1687 654 m 6 Y s 1680 657 m20 1687 677 m
 1 X s 1700 677 m 1 X s 1687 674 m 6 Y s 1701 674 m 6 Y s 1694 677 m20 1701 687 m 1 X s 1713 687 m 2 X s 1701 684 m 6 Y s 1715 684 m 6 Y s 1708 687 m20 1715 689 m 1 X s 1727 689 m 1 X s 1715 686 m 6 Y s 1728 686 m 6 Y s 1721 689 m20 1728 671 m 2 X s
 1741 671 m 1 X s 1728 668 m 6 Y s 1742 668 m 6 Y s 1735 671 m20 1742 647 m 1 X s 1755 647 m 1 X s 1742 644 m 6 Y s 1756 644 m 6 Y s 1749 647 m20 1756 624 m 1 X s 1769 624 m 1 X s 1756 621 m 5 Y s 1770 621 m 5 Y s 1763 624 m20 1770 590 m 1 X s 1782
 590 m 2 X s 1770 587 m 6 Y s 1784 587 m 6 Y s 1777 590 m20 1784 563 m 1 X s 1796 563 m 1 X s 1784 560 m 6 Y s 1797 560 m 6 Y s 1790 563 m20 1797 548 m 2 X s 1810 548 m 1 X s 1797 545 m 6 Y s 1811 545 m 6 Y s 1804 548 m20 1811 526 m 1 X s 1824 526 m
 1 X s 1811 523 m 6 Y s 1825 523 m 6 Y s 1818 526 m20 1832 502 m 1 Y s 1832 514 m s 1825 509 m 1 X s 1837 509 m 2 X s 1829 502 m 6 X s 1829 514 m 6 X s 1825 506 m 5 Y s 1839 506 m 5 Y s 1832 509 m20 1846 484 m 2 Y s 1846 497 m 1 Y s 1839 492 m 1 X s
 1851 492 m 1 X s 1843 484 m 5 X s 1843 498 m 5 X s 1839 489 m 5 Y s 1852 489 m 5 Y s 1846 492 m20 1859 475 m 3 Y s 1859 489 m 1 Y s 1852 483 m 2 X s 1865 483 m 1 X s 1857 475 m 5 X s 1857 490 m 5 X s 1852 480 m 6 Y s 1866 480 m 6 Y s 1859 483 m20
 1873 457 m 3 Y s 1873 472 m 2 Y s 1866 466 m 1 X s 1879 466 m 1 X s 1870 457 m 6 X s 1870 474 m 6 X s 1866 463 m 6 Y s 1880 463 m 6 Y s 1873 466 m20 1887 449 m 4 Y s 1887 464 m 3 Y s 1880 458 m 1 X s 1893 458 m 1 X s 1884 449 m 6 X s 1884 467 m 6 X
 s 1880 456 m 5 Y s 1894 456 m 5 Y s 1887 458 m20 1901 439 m 5 Y s 1901 456 m 3 Y s 1894 450 m 1 X s 1906 450 m 2 X s 1898 439 m 6 X s 1898 459 m 6 X s 1894 447 m 6 Y s 1908 447 m 6 Y s 1901 450 m20 1914 430 m 6 Y s 1914 448 m 3 Y s 1908 442 m 1 X s
 1920 442 m 1 X s 1912 430 m 5 X s 1912 451 m 5 X s 1908 439 m 6 Y s 1921 439 m 6 Y s 1914 442 m20 1928 418 m 7 Y s 1928 436 m 5 Y s 1921 430 m 2 X s 1934 430 m 1 X s 1925 418 m 6 X s 1925 441 m 6 X s 1921 428 m 5 Y s 1935 428 m 5 Y s 1928 430 m20
 1942 364 m 13 Y s 1942 389 m 9 Y s 1935 383 m 1 X s 1948 383 m 1 X s 1939 364 m 6 X s 1939 398 m 6 X s 1935 380 m 6 Y s 1949 380 m 6 Y s 1942 383 m20 1956 411 m 7 Y s 1956 430 m 5 Y s 1949 424 m 1 X s 1962 424 m 1 X s 1953 411 m 6 X s 1953 435 m 6 X
 s 1949 421 m 6 Y s 1963 421 m 6 Y s 1956 424 m20 1970 369 m 13 Y s 1970 393 m 9 Y s 1963 387 m 1 X s 1975 387 m 2 X s 1967 369 m 5 X s 1967 402 m 5 X s 1963 384 m 6 Y s 1977 384 m 6 Y s 1970 387 m20 1983 402 m 9 Y s 1983 422 m 6 Y s 1977 417 m 1 X s
 1989 417 m 1 X s 1981 402 m 5 X s 1981 428 m 5 X s 1977 414 m 5 Y s 1990 414 m 5 Y s 1983 417 m20 1997 378 m 11 Y s 1997 401 m 8 Y s 1990 395 m 2 X s 2003 395 m 1 X s 1994 378 m 6 X s 1994 409 m 6 X s 1990 392 m 6 Y s 2004 392 m 6 Y s 1997 395 m20
 2011 352 m 16 Y s 2011 379 m 10 Y s 2004 373 m 1 X s 2017 373 m 1 X s 2008 352 m 6 X s 2008 389 m 6 X s 2004 371 m 5 Y s 2018 371 m 5 Y s 2011 373 m20 2025 369 m 13 Y s 2025 393 m 9 Y s 2018 387 m 1 X s 2030 387 m 2 X s 2022 369 m 6 X s 2022 402 m 6
 X s 2018 384 m 6 Y s 2032 384 m 6 Y s 2025 387 m20 2039 389 m 11 Y s 2039 411 m 7 Y s 2032 405 m 1 X s 2044 405 m 1 X s 2036 389 m 5 X s 2036 418 m 5 X s 2032 402 m 6 Y s 2045 402 m 6 Y s 2039 405 m20 2052 382 m 11 Y s 2052 404 m 8 Y s 2045 399 m 2
 X s 2058 399 m 1 X s 2050 382 m 5 X s 2050 412 m 5 X s 2045 396 m 5 Y s 2059 396 m 5 Y s 2052 399 m20 2066 338 m 18 Y s 2066 368 m 11 Y s 2059 362 m 1 X s 2072 362 m 1 X s 2063 338 m 6 X s 2063 379 m 6 X s 2059 359 m 6 Y s 2073 359 m 6 Y s 2066 362
 m20 2080 369 m 13 Y s 2080 393 m 9 Y s 2073 387 m 1 X s 2086 387 m 1 X s 2077 369 m 6 X s 2077 402 m 6 X s 2073 384 m 6 Y s 2087 384 m 6 Y s 2080 387 m20 2094 352 m 16 Y s 2094 379 m 10 Y s 2087 373 m 1 X s 2099 373 m 2 X s 2091 352 m 6 X s 2091 389
 m 6 X s 2087 371 m 5 Y s 2101 371 m 5 Y s 2094 373 m20 2108 352 m 16 Y s 2108 379 m 10 Y s 2101 373 m 1 X s 2113 373 m 1 X s 2105 352 m 5 X s 2105 389 m 5 X s 2101 371 m 5 Y s 2114 371 m 5 Y s 2108 373 m20 1 1 1 c black 1308 233 m 48 Y s 1308 293 m
 22 Y s 1301 287 m 1 X s 1314 287 m 1 X s 1305 233 m 6 X s 1305 315 m 6 X s 1301 284 m 6 Y s 1315 284 m 6 Y s 1308 287 m24 1322 233 m 48 Y s 1322 293 m 22 Y s 1315 287 m 1 X s 1327 287 m 2 X s 1319 233 m 5 X s 1319 315 m 5 X s 1315 284 m 6 Y s 1329
 284 m 6 Y s 1322 287 m24 1335 233 m 48 Y s 1335 293 m 22 Y s 1329 287 m 1 X s 1341 287 m 1 X s 1333 233 m 5 X s 1333 315 m 5 X s 1329 284 m 6 Y s 1342 284 m 6 Y s 1335 287 m24 1349 118 m 95 Y s 1349 224 m 38 Y s 1342 218 m 2 X s 1355 218 m 1 X s
 1346 118 m 6 X s 1346 262 m 6 X s 1342 216 m 5 Y s 1356 216 m 5 Y s 1349 218 m24 1363 185 m 71 Y s 1363 267 m 28 Y s 1356 262 m 1 X s 1369 262 m 1 X s 1360 185 m 6 X s 1360 295 m 6 X s 1356 259 m 6 Y s 1370 259 m 6 Y s 1363 262 m24 1377 185 m 71 Y s
 1377 267 m 28 Y s 1370 262 m 1 X s 1382 262 m 2 X s 1374 185 m 6 X s 1374 295 m 6 X s 1370 259 m 6 Y s 1384 259 m 6 Y s 1377 262 m24 1391 282 m 31 Y s 1391 324 m 18 Y s 1384 319 m 1 X s 1396 319 m 1 X s 1388 282 m 5 X s 1388 342 m 5 X s 1384 316 m 6
 Y s 1397 316 m 6 Y s 1391 319 m24 1404 118 m 95 Y s 1404 224 m 38 Y s 1397 218 m 2 X s 1410 218 m 1 X s 1402 118 m 5 X s 1402 262 m 5 X s 1397 216 m 5 Y s 1411 216 m 5 Y s 1404 218 m24 1418 118 m 95 Y s 1418 224 m 38 Y s 1411 218 m 1 X s 1424 218 m
 1 X s 1415 118 m 6 X s 1415 262 m 6 X s 1411 216 m 5 Y s 1425 216 m 5 Y s 1418 218 m24 1432 185 m 71 Y s 1432 267 m 28 Y s 1425 262 m 1 X s 1438 262 m 1 X s 1429 185 m 6 X s 1429 295 m 6 X s 1425 259 m 6 Y s 1439 259 m 6 Y s 1432 262 m24 1446 185 m
 71 Y s 1446 267 m 28 Y s 1439 262 m 1 X s 1451 262 m 2 X s 1443 185 m 6 X s 1443 295 m 6 X s 1439 259 m 6 Y s 1453 259 m 6 Y s 1446 262 m24 1460 185 m 71 Y s 1460 267 m 28 Y s 1453 262 m 1 X s 1465 262 m 1 X s 1457 185 m 5 X s 1457 295 m 5 X s 1453
 259 m 6 Y s 1466 259 m 6 Y s 1460 262 m24 1473 321 m 21 Y s 1473 354 m 13 Y s 1466 348 m 2 X s 1479 348 m 1 X s 1470 321 m 6 X s 1470 367 m 6 X s 1466 345 m 6 Y s 1480 345 m 6 Y s 1473 348 m24 1487 233 m 48 Y s 1487 293 m 22 Y s 1480 287 m 1 X s
 1493 287 m 1 X s 1484 233 m 6 X s 1484 315 m 6 X s 1480 284 m 6 Y s 1494 284 m 6 Y s 1487 287 m24 1501 185 m 71 Y s 1501 267 m 28 Y s 1494 262 m 1 X s 1507 262 m 1 X s 1498 185 m 6 X s 1498 295 m 6 X s 1494 259 m 6 Y s 1508 259 m 6 Y s 1501 262 m24
 1515 233 m 48 Y s 1515 293 m 22 Y s 1508 287 m 1 X s 1520 287 m 2 X s 1512 233 m 5 X s 1512 315 m 5 X s 1508 284 m 6 Y s 1522 284 m 6 Y s 1515 287 m24 1528 118 m 95 Y s 1528 224 m 38 Y s 1522 218 m 1 X s 1534 218 m 1 X s 1526 118 m 5 X s 1526 262 m
 5 X s 1522 216 m 5 Y s 1535 216 m 5 Y s 1528 218 m24 1542 262 m 37 Y s 1542 311 m 19 Y s 1535 305 m 2 X s 1548 305 m 1 X s 1539 262 m 6 X s 1539 330 m 6 X s 1535 302 m 6 Y s 1549 302 m 6 Y s 1542 305 m24 1556 185 m 71 Y s 1556 267 m 28 Y s 1549 262
 m 1 X s 1562 262 m 1 X s 1553 185 m 6 X s 1553 295 m 6 X s 1549 259 m 6 Y s 1563 259 m 6 Y s 1556 262 m24 1570 282 m 31 Y s 1570 324 m 18 Y s 1563 319 m 1 X s 1575 319 m 2 X s 1567 282 m 6 X s 1567 342 m 6 X s 1563 316 m 6 Y s 1577 316 m 6 Y s 1570
 319 m24 1584 118 m 95 Y s 1584 224 m 38 Y s 1577 218 m 1 X s 1589 218 m 1 X s 1581 118 m 5 X s 1581 262 m 5 X s 1577 216 m 5 Y s 1590 216 m 5 Y s 1584 218 m24 1597 233 m 48 Y s 1597 293 m 22 Y s 1590 287 m 2 X s 1603 287 m 1 X s 1595 233 m 5 X s
 1595 315 m 5 X s 1590 284 m 6 Y s 1604 284 m 6 Y s 1597 287 m24 1611 233 m 48 Y s 1611 293 m 22 Y s 1604 287 m 1 X s 1617 287 m 1 X s 1608 233 m 6 X s 1608 315 m 6 X s 1604 284 m 6 Y s 1618 284 m 6 Y s 1611 287 m24 1625 118 m 95 Y s 1625 224 m 38 Y
 s 1618 218 m 1 X s 1631 218 m 1 X s 1622 118 m 6 X s 1622 262 m 6 X s 1618 216 m 5 Y s 1632 216 m 5 Y s 1625 218 m24 1639 233 m 48 Y s 1639 293 m 22 Y s 1632 287 m 1 X s 1644 287 m 2 X s 1636 233 m 6 X s 1636 315 m 6 X s 1632 284 m 6 Y s 1646 284 m
 6 Y s 1639 287 m24 1653 185 m 71 Y s 1653 267 m 28 Y s 1646 262 m 1 X s 1658 262 m 1 X s 1650 185 m 5 X s 1650 295 m 5 X s 1646 259 m 6 Y s 1659 259 m 6 Y s 1653 262 m24 1666 118 m 95 Y s 1666 224 m 38 Y s 1659 218 m 2 X s 1672 218 m 1 X s 1663 118
 m 6 X s 1663 262 m 6 X s 1659 216 m 5 Y s 1673 216 m 5 Y s 1666 218 m24 1680 118 m 95 Y s 1680 224 m 38 Y s 1673 218 m 1 X s 1686 218 m 1 X s 1677 118 m 6 X s 1677 262 m 6 X s 1673 216 m 5 Y s 1687 216 m 5 Y s 1680 218 m24 1694 185 m 71 Y s 1694 267
 m 28 Y s 1687 262 m 1 X s 1700 262 m 1 X s 1691 185 m 6 X s 1691 295 m 6 X s 1687 259 m 6 Y s 1701 259 m 6 Y s 1694 262 m24 1708 233 m 48 Y s 1708 293 m 22 Y s 1701 287 m 1 X s 1713 287 m 2 X s 1705 233 m 6 X s 1705 315 m 6 X s 1701 284 m 6 Y s 1715
 284 m 6 Y s 1708 287 m24 1735 185 m 71 Y s 1735 267 m 28 Y s 1728 262 m 2 X s 1741 262 m 1 X s 1732 185 m 6 X s 1732 295 m 6 X s 1728 259 m 6 Y s 1742 259 m 6 Y s 1735 262 m24 1749 118 m 95 Y s 1749 224 m 38 Y s 1742 218 m 1 X s 1755 218 m 1 X s
 1746 118 m 6 X s 1746 262 m 6 X s 1742 216 m 5 Y s 1756 216 m 5 Y s 1749 218 m24 1763 118 m 95 Y s 1763 224 m 38 Y s 1756 218 m 1 X s 1769 218 m 1 X s 1760 118 m 6 X s 1760 262 m 6 X s 1756 216 m 5 Y s 1770 216 m 5 Y s 1763 218 m24 1777 185 m 71 Y s
 1777 267 m 28 Y s 1770 262 m 1 X s 1782 262 m 2 X s 1774 185 m 5 X s 1774 295 m 5 X s 1770 259 m 6 Y s 1784 259 m 6 Y s 1777 262 m24 1804 233 m 48 Y s 1804 293 m 22 Y s 1797 287 m 2 X s 1810 287 m 1 X s 1801 233 m 6 X s 1801 315 m 6 X s 1797 284 m 6
 Y s 1811 284 m 6 Y s 1804 287 m24 1818 118 m 95 Y s 1818 224 m 38 Y s 1811 218 m 1 X s 1824 218 m 1 X s 1815 118 m 6 X s 1815 262 m 6 X s 1811 216 m 5 Y s 1825 216 m 5 Y s 1818 218 m24 1832 118 m 95 Y s 1832 224 m 38 Y s 1825 218 m 1 X s 1837 218 m
 2 X s 1829 118 m 6 X s 1829 262 m 6 X s 1825 216 m 5 Y s 1839 216 m 5 Y s 1832 218 m24 1846 118 m 95 Y s 1846 224 m 38 Y s 1839 218 m 1 X s 1851 218 m 1 X s 1843 118 m 5 X s 1843 262 m 5 X s 1839 216 m 5 Y s 1852 216 m 5 Y s 1846 218 m24 1859 118 m
 95 Y s 1859 224 m 38 Y s 1852 218 m 2 X s 1865 218 m 1 X s 1857 118 m 5 X s 1857 262 m 5 X s 1852 216 m 5 Y s 1866 216 m 5 Y s 1859 218 m24 1873 185 m 71 Y s 1873 267 m 28 Y s 1866 262 m 1 X s 1879 262 m 1 X s 1870 185 m 6 X s 1870 295 m 6 X s 1866
 259 m 6 Y s 1880 259 m 6 Y s 1873 262 m24 1887 118 m 95 Y s 1887 224 m 38 Y s 1880 218 m 1 X s 1893 218 m 1 X s 1884 118 m 6 X s 1884 262 m 6 X s 1880 216 m 5 Y s 1894 216 m 5 Y s 1887 218 m24 1901 233 m 48 Y s 1901 293 m 22 Y s 1894 287 m 1 X s
 1906 287 m 2 X s 1898 233 m 6 X s 1898 315 m 6 X s 1894 284 m 6 Y s 1908 284 m 6 Y s 1901 287 m24 1928 233 m 48 Y s 1928 293 m 22 Y s 1921 287 m 2 X s 1934 287 m 1 X s 1925 233 m 6 X s 1925 315 m 6 X s 1921 284 m 6 Y s 1935 284 m 6 Y s 1928 287 m24
 1942 233 m 48 Y s 1942 293 m 22 Y s 1935 287 m 1 X s 1948 287 m 1 X s 1939 233 m 6 X s 1939 315 m 6 X s 1935 284 m 6 Y s 1949 284 m 6 Y s 1942 287 m24 1956 233 m 48 Y s 1956 293 m 22 Y s 1949 287 m 1 X s 1962 287 m 1 X s 1953 233 m 6 X s 1953 315 m
 6 X s 1949 284 m 6 Y s 1963 284 m 6 Y s 1956 287 m24 1997 118 m 95 Y s 1997 224 m 38 Y s 1990 218 m 2 X s 2003 218 m 1 X s 1994 118 m 6 X s 1994 262 m 6 X s 1990 216 m 5 Y s 2004 216 m 5 Y s 1997 218 m24 2011 118 m 95 Y s 2011 224 m 38 Y s 2004 218
 m 1 X s 2017 218 m 1 X s 2008 118 m 6 X s 2008 262 m 6 X s 2004 216 m 5 Y s 2018 216 m 5 Y s 2011 218 m24 2025 118 m 95 Y s 2025 224 m 38 Y s 2018 218 m 1 X s 2030 218 m 2 X s 2022 118 m 6 X s 2022 262 m 6 X s 2018 216 m 5 Y s 2032 216 m 5 Y s 2025
 218 m24 2039 233 m 48 Y s 2039 293 m 22 Y s 2032 287 m 1 X s 2044 287 m 1 X s 2036 233 m 5 X s 2036 315 m 5 X s 2032 284 m 6 Y s 2045 284 m 6 Y s 2039 287 m24 2052 118 m 95 Y s 2052 224 m 38 Y s 2045 218 m 2 X s 2058 218 m 1 X s 2050 118 m 5 X s
 2050 262 m 5 X s 2045 216 m 5 Y s 2059 216 m 5 Y s 2052 218 m24 2066 297 m 27 Y s 2066 336 m 16 Y s 2059 330 m 1 X s 2072 330 m 1 X s 2063 297 m 6 X s 2063 352 m 6 X s 2059 327 m 6 Y s 2073 327 m 6 Y s 2066 330 m24 2080 233 m 48 Y s 2080 293 m 22 Y
 s 2073 287 m 1 X s 2086 287 m 1 X s 2077 233 m 6 X s 2077 315 m 6 X s 2073 284 m 6 Y s 2087 284 m 6 Y s 2080 287 m24 2094 118 m 95 Y s 2094 224 m 38 Y s 2087 218 m 1 X s 2099 218 m 2 X s 2091 118 m 6 X s 2091 262 m 6 X s 2087 216 m 5 Y s 2101 216 m
 5 Y s 2094 218 m24 2108 185 m 71 Y s 2108 267 m 28 Y s 2101 262 m 1 X s 2113 262 m 1 X s 2105 185 m 5 X s 2105 295 m 5 X s 2101 259 m 6 Y s 2114 259 m 6 Y s 2108 262 m24 0 0 1 c[ 12 12] 0 sd 6 lw 1577 118 m 528 Y s 1852 118 m 528 Y s black[  ] 0 sd
 3 lw 1 1 1 c 272 268 1320 654 bf black
 gsave  1088 1072 1157 11 C 1386.46 874.164 t 0 r /Helvetica findfont 39.7652 sf 0 0 m (OC data: 14788) show NC gr  1354 889 m20
 gsave  1088 1072 1157 11 C 1386.46 807.466 t 0 r /Helvetica findfont 39.7652 sf 0 0 m (SC data: 122) show NC gr  1354 822 m24
 gsave  1088 1072 1157 11 C 1386.46 740.768 t 0 r /Helvetica findfont 39.7652 sf 0 0 m (OC MC: 31516) show NC gr  1 0 0 c 1354 755 m20 black
 gsave  1088 1072 1157 11 C 1386.46 674.071 t 0 r /Helvetica findfont 39.7652 sf 0 0 m (SC MC: 50) show NC gr  1 0 0 c 1354 688 m24 black
 gsave  1088 1072 1157 11 C 1700.08 901.126 t 0 r /Helvetica-Bold findfont 59.6478 sf 0 0 m (pp collisions) show NC gr 
 gr  gr showpage
end
%%EOF
