%!PS-Adobe-2.0 EPSF-2.0
%%BoundingBox:  0 0 567 274
%%Title: /home/petr/Analysis_iwona/SFAnalysis/eps/Zmass_mumu__CaloTree_can.eps: Results
%%Creator: ROOT Version 6.16/00
%%CreationDate: Thu Apr  4 11:06:30 2019
%%DocumentNeededResources: ProcSet (FontSetInit)
%%EndComments
%%BeginProlog
80 dict begin
/s {stroke} def /l {lineto} def /m {moveto} def /t {translate} def
/r {rotate} def /rl {roll}  def /R {repeat} def
/d {rlineto} def /rm {rmoveto} def /gr {grestore} def /f {eofill} def
/c {setrgbcolor} def /black {0 setgray} def /sd {setdash} def
/cl {closepath} def /sf {scalefont setfont} def /lw {setlinewidth} def
/box {m dup 0 exch d exch 0 d 0 exch neg d cl} def
/NC{systemdict begin initclip end}def/C{NC box clip newpath}def
/bl {box s} def /bf {gsave box gsave f grestore 1 lw [] 0 sd s grestore} def /Y { 0 exch d} def /X { 0 d} def 
/K {{pop pop 0 moveto} exch kshow} bind def
/ita {/ang 15 def gsave [1 0 ang dup sin exch cos div 1 0 0] concat} def 
/mp {newpath /y exch def /x exch def} def
/side {[w .77 mul w .23 mul] .385 w mul sd w 0 l currentpoint t -144 r} def
/mr {mp x y w2 0 360 arc} def /m24 {mr s} def /m20 {mr f} def
/mb {mp x y w2 add m w2 neg 0 d 0 w neg d w 0 d 0 w d cl} def
/mt {mp x y w2 add m w2 neg w neg d w 0 d cl} def
/w4 {w 4 div} def
/w6 {w 6 div} def
/w8 {w 8 div} def
/m21 {mb f} def /m25 {mb s} def /m22 {mt f} def /m26{mt s} def
/m23 {mp x y w2 sub m w2 w d w neg 0 d cl f} def
/m27 {mp x y w2 add m w3 neg w2 neg d w3 w2 neg d w3 w2 d cl s} def
/m28 {mp x w2 sub y w2 sub w3 add m w3 0 d  0 w3 neg d w3 0 d 0 w3 d w3 0 d  0 w3 d w3 neg 0 d 0 w3 d w3 neg 0 d 0 w3 neg d w3 neg 0 d cl s } def
/m29 {mp gsave x w2 sub y w2 add w3 sub m currentpoint t 4 {side} repeat cl fill gr} def
/m30 {mp gsave x w2 sub y w2 add w3 sub m currentpoint t 4 {side} repeat cl s gr} def
/m31 {mp x y w2 sub m 0 w d x w2 sub y m w 0 d x w2 sub y w2 add m w w neg d x w2 sub y w2 sub m w w d s} def
/m32 {mp x y w2 sub m w2 w d w neg 0 d cl s} def
/m33 {mp x y w2 add m w3 neg w2 neg d w3 w2 neg d w3 w2 d cl f} def
/m34 {mp x w2 sub y w2 sub w3 add m w3 0 d  0 w3 neg d w3 0 d 0 w3 d w3 0 d  0 w3 d w3 neg 0 d 0 w3 d w3 neg 0 d 0 w3 neg d w3 neg 0 d cl f } def
/m35 {mp x y w2 add m w2 neg w2 neg d w2 w2 neg d w2 w2 d w2 neg w2 d x y w2 sub m 0 w d x w2 sub y m w 0 d s} def
/m36 {mb x w2 sub y w2 add m w w neg d x w2 sub y w2 sub m w w d s} def
/m37 {mp x y m w4 neg w2 d w4 neg w2 neg d w2 0 d  w4 neg w2 neg d w2 0 d w4 neg w2 d w2 0 d w4 neg w2 d w4 neg w2 neg d cl s} def
/m38 {mp x w4 sub y w2 add m w4 neg w4 neg d 0 w2 neg d w4 w4 neg d w2 0 d w4 w4 d 0 w2 d w4 neg w4 d w2 neg 0 d x y w2 sub m 0 w d x w2 sub y m w 0 d cl s} def
/m39 {mp x y m w4 neg w2 d w4 neg w2 neg d w2 0 d  w4 neg w2 neg d w2 0 d w4 neg w2 d w2 0 d w4 neg w2 d w4 neg w2 neg d cl f} def
/m40 {mp x y m w4 w2 d w4 w4 neg d w2 neg w4 neg d w2 w4 neg d w4 neg w4 neg d w4 neg w2 d w4 neg w2 neg d w4 neg w4 d w2 w4 d w2 neg w4 d w4 w4 d w4 w2 neg d cl s} def
/m41 {mp x y m w4 w2 d w4 w4 neg d w2 neg w4 neg d w2 w4 neg d w4 neg w4 neg d w4 neg w2 d w4 neg w2 neg d w4 neg w4 d w2 w4 d w2 neg w4 d w4 w4 d w4 w2 neg d cl f} def
/m42 {mp x y w2 add m w8 neg w2 -3 4 div mul d w2 -3 4 div mul w8 neg d w2 3 4 div mul w8 neg d w8 w2 -3 4 div mul d w8 w2 3 4 div mul d w2 3 4 div mul w8 d w2 -3 4 div mul w8 d w8 neg w2 3 4 div mul d cl s} def
/m43 {mp x y w2 add m w8 neg w2 -3 4 div mul d w2 -3 4 div mul w8 neg d w2 3 4 div mul w8 neg d w8 w2 -3 4 div mul d w8 w2 3 4 div mul d w2 3 4 div mul w8 d w2 -3 4 div mul w8 d w8 neg w2 3 4 div mul d cl f} def
/m44 {mp x y m w6 neg w2 d w2 2 3 div mul 0 d w6 neg w2 neg d w2 w6 d 0 w2 -2 3 div mul d w2 neg w6 d w6 w2 neg d w2 -2 3 div mul 0 d w6 w2 d w2 neg w6 neg d 0 w2 2 3 div mul d w2 w6 neg d cl s} def
/m45 {mp x y m w6 neg w2 d w2 2 3 div mul 0 d w6 neg w2 neg d w2 w6 d 0 w2 -2 3 div mul d w2 neg w6 d w6 w2 neg d w2 -2 3 div mul 0 d w6 w2 d w2 neg w6 neg d 0 w2 2 3 div mul d w2 w6 neg d cl f} def
/m46 {mp x y w4 add m w4 neg w4 d w4 neg w4 neg d  w4 w4 neg d w4 neg w4 neg d w4 w4 neg d w4 w4 d w4 w4 neg d w4 w4 d w4 neg w4 d w4 w4 d w4 neg w4 d w4 neg w4 neg d cl s} def
/m47 {mp x y w4 add m w4 neg w4 d w4 neg w4 neg d w4 w4 neg d w4 neg w4 neg d  w4 w4 neg d w4 w4 d w4 w4 neg d w4 w4 d w4 neg w4 d w4 w4 d w4 neg w4 d w4 neg w4 neg d cl f} def
/m48 {mp x y w4 add m w4 neg w4 d w4 neg w4 neg d w4 w4 neg d  w4 neg w4 neg d w4 w4 neg d w4 w4 d w4 w4 neg d w4 w4 d w4 neg w4 d w4 w4 d w4 neg w4 d w4 neg w4 neg d  w4 w4 neg d w4 neg w4 neg d w4 neg w4 d w4 w4 d cl f} def
/m49 {mp x w2 sub w3 add y w2 sub w3 add m  0 w3 neg d w3 0 d 0 w3 d w3 0 d 0 w3 d w3 neg 0 d 0 w3 d w3 neg 0 d 0 w3 neg d w3 neg 0 d 0 w3 neg d w3 0 d 0 w3 d w3 0 d 0 w3 neg d w3 neg 0 d cl f } def
/m2 {mp x y w2 sub m 0 w d x w2 sub y m w 0 d s} def
/m5 {mp x w2 sub y w2 sub m w w d x w2 sub y w2 add m w w neg d s} def
%%IncludeResource: ProcSet (FontSetInit)
%%IncludeResource: font Times-Roman
%%IncludeResource: font Times-Italic
%%IncludeResource: font Times-Bold
%%IncludeResource: font Times-BoldItalic
%%IncludeResource: font Helvetica
%%IncludeResource: font Helvetica-Oblique
%%IncludeResource: font Helvetica-Bold
%%IncludeResource: font Helvetica-BoldOblique
%%IncludeResource: font Courier
%%IncludeResource: font Courier-Oblique
%%IncludeResource: font Courier-Bold
%%IncludeResource: font Courier-BoldOblique
%%IncludeResource: font Symbol
%%IncludeResource: font ZapfDingbats
/reEncode {exch findfont dup length dict begin {1 index /FID eq  {pop pop} {def} ifelse } forall /Encoding exch def currentdict end dup /FontName get exch definefont pop } def [/Times-Bold /Times-Italic /Times-BoldItalic /Helvetica /Helvetica-Oblique
 /Helvetica-Bold /Helvetica-BoldOblique /Courier /Courier-Oblique /Courier-Bold /Courier-BoldOblique /Times-Roman /AvantGarde-Book /AvantGarde-BookOblique /AvantGarde-Demi /AvantGarde-DemiOblique /Bookman-Demi /Bookman-DemiItalic /Bookman-Light
 /Bookman-LightItalic /Helvetica-Narrow /Helvetica-Narrow-Bold /Helvetica-Narrow-BoldOblique /Helvetica-Narrow-Oblique /NewCenturySchlbk-Roman /NewCenturySchlbk-Bold /NewCenturySchlbk-BoldItalic /NewCenturySchlbk-Italic /Palatino-Bold
 /Palatino-BoldItalic /Palatino-Italic /Palatino-Roman ] {ISOLatin1Encoding reEncode } forall
%%EndProlog
%%BeginSetup
%%EndSetup
newpath  gsave  .25 .25 scale  gsave  0 0 t black[  ] 0 sd 3 lw 1 1 1 c 2268 1094 0 0 bf black 1 1 1 c 1088 1072 23 11 bf black 1 1 1 c 828 858 153 118 bf black 828 858 153 118 bl 1 1 1 c 828 858 153 118 bf black 828 858 153 118 bl 1 0 0 c 1 1 1 c 1
 0 0 c 174 240 m 7 Y s 174 259 m 6 Y s 167 253 m 1 X s 180 253 m 1 X s /w 12 def /w2 {w 2 div} def /w3 {w 3 div} def 174 253 m20 188 233 m 8 Y s 188 253 m 6 Y s 181 247 m 1 X s 193 247 m 2 X s 188 247 m20 202 262 m 6 Y s 202 280 m 4 Y s 195 274 m 1 X
 s 207 274 m 1 X s 202 274 m20 215 244 m 7 Y s 215 263 m 5 Y s 208 257 m 2 X s 221 257 m 1 X s 215 257 m20 229 264 m 6 Y s 229 281 m 5 Y s 222 276 m 1 X s 235 276 m 1 X s 229 276 m20 243 280 m 5 Y s 243 296 m 4 Y s 236 290 m 1 X s 249 290 m 1 X s 243
 290 m20 257 290 m 4 Y s 257 305 m 3 Y s 250 300 m 1 X s 262 300 m 2 X s 257 300 m20 270 270 m 6 Y s 270 287 m 4 Y s 264 281 m 1 X s 276 281 m 1 X s 270 281 m20 284 273 m 5 Y s 284 290 m 4 Y s 277 284 m 2 X s 290 284 m 1 X s 284 284 m20 298 288 m 4 Y
 s 298 303 m 3 Y s 291 298 m 1 X s 304 298 m 1 X s 298 298 m20 312 301 m 3 Y s 312 316 m 2 Y s 305 310 m 1 X s 318 310 m 1 X s 312 310 m20 326 306 m 3 Y s 326 320 m 3 Y s 319 315 m 1 X s 331 315 m 2 X s 326 315 m20 339 305 m 3 Y s 339 319 m 3 Y s 333
 314 m 1 X s 345 314 m 1 X s 339 314 m20 353 316 m 2 Y s 353 330 m 2 Y s 346 324 m 2 X s 359 324 m 1 X s 353 324 m20 367 324 m 2 Y s 367 337 m 2 Y s 360 332 m 1 X s 373 332 m 1 X s 367 332 m20 381 328 m 2 Y s 381 342 m 1 Y s 374 336 m 1 X s 386 336 m
 2 X s 381 336 m20 395 345 m 1 Y s 395 358 m s 388 352 m 1 X s 400 352 m 1 X s 395 352 m20 408 368 m s 401 374 m 2 X s 414 374 m 1 X s 408 374 m20 422 370 m 1 Y s 415 376 m 1 X s 428 376 m 1 X s 422 376 m20 429 386 m 1 X s 442 386 m 1 X s 436 386 m20
 443 413 m 1 X s 455 413 m 2 X s 450 413 m20 457 427 m 1 X s 469 427 m 1 X s 464 427 m20 470 443 m 2 X s 483 443 m 1 X s 477 443 m20 484 459 m 1 X s 497 459 m 1 X s 491 459 m20 498 491 m 1 X s 511 491 m 1 X s 505 491 m20 512 525 m 1 X s 524 525 m 2 X
 s 519 525 m20 526 551 m 1 X s 538 551 m 1 X s 532 551 m20 539 580 m 2 X s 552 580 m 1 X s 546 580 m20 553 605 m 1 X s 566 605 m 1 X s 560 605 m20 567 618 m 1 X s 579 618 m 2 X s 574 618 m20 581 614 m 1 X s 593 614 m 2 X s 588 614 m20 595 598 m 1 X s
 607 598 m 1 X s 601 598 m20 608 572 m 2 X s 621 572 m 1 X s 615 572 m20 622 536 m 1 X s 635 536 m 1 X s 629 536 m20 636 498 m 1 X s 648 498 m 2 X s 643 498 m20 650 461 m 1 X s 662 461 m 1 X s 657 461 m20 663 430 m 2 X s 676 430 m 1 X s 670 430 m20
 677 417 m 1 X s 690 417 m 1 X s 684 417 m20 691 390 m 1 X s 704 390 m 1 X s 698 390 m20 712 363 m s 712 375 m s 705 369 m 1 X s 717 369 m 2 X s 712 369 m20 725 335 m 2 Y s 725 348 m 1 Y s 719 342 m 1 X s 731 342 m 1 X s 725 342 m20 739 305 m 3 Y s
 739 319 m 3 Y s 732 314 m 2 X s 745 314 m 1 X s 739 314 m20 753 317 m 2 Y s 753 330 m 2 Y s 746 325 m 1 X s 759 325 m 1 X s 753 325 m20 767 288 m 4 Y s 767 303 m 3 Y s 760 298 m 1 X s 773 298 m 1 X s 767 298 m20 781 289 m 4 Y s 781 304 m 3 Y s 774
 299 m 1 X s 786 299 m 2 X s 781 299 m20 794 292 m 4 Y s 794 308 m 3 Y s 788 302 m 1 X s 800 302 m 1 X s 794 302 m20 808 255 m 7 Y s 808 273 m 5 Y s 801 268 m 2 X s 814 268 m 1 X s 808 268 m20 822 272 m 5 Y s 822 288 m 4 Y s 815 283 m 1 X s 828 283 m
 1 X s 822 283 m20 836 242 m 7 Y s 836 261 m 6 Y s 829 255 m 1 X s 841 255 m 2 X s 836 255 m20 850 242 m 7 Y s 850 261 m 6 Y s 843 255 m 1 X s 855 255 m 1 X s 850 255 m20 863 244 m 7 Y s 863 263 m 5 Y s 856 257 m 2 X s 869 257 m 1 X s 863 257 m20 877
 220 m 10 Y s 877 241 m 7 Y s 870 235 m 1 X s 883 235 m 1 X s 877 235 m20 891 230 m 9 Y s 891 250 m 7 Y s 884 245 m 1 X s 897 245 m 1 X s 891 245 m20 905 182 m 14 Y s 905 207 m 10 Y s 898 201 m 1 X s 910 201 m 2 X s 905 201 m20 919 194 m 12 Y s 919
 218 m 9 Y s 912 212 m 1 X s 924 212 m 1 X s 919 212 m20 932 223 m 9 Y s 932 243 m 7 Y s 925 238 m 2 X s 938 238 m 1 X s 932 238 m20 946 190 m 13 Y s 946 214 m 10 Y s 939 209 m 1 X s 952 209 m 1 X s 946 209 m20 960 172 m 15 Y s 960 199 m 10 Y s 953
 193 m 1 X s 966 193 m 1 X s 960 193 m20 974 186 m 13 Y s 974 211 m 9 Y s 967 205 m 1 X s 979 205 m 2 X s 974 205 m20 black 153 118 m 828 X s 153 143 m -25 Y s 181 130 m -12 Y s 208 130 m -12 Y s 236 130 m -12 Y s 264 130 m -12 Y s 291 143 m -25 Y s
 319 130 m -12 Y s 346 130 m -12 Y s 374 130 m -12 Y s 401 130 m -12 Y s 429 143 m -25 Y s 457 130 m -12 Y s 484 130 m -12 Y s 512 130 m -12 Y s 539 130 m -12 Y s 567 143 m -25 Y s 595 130 m -12 Y s 622 130 m -12 Y s 650 130 m -12 Y s 677 130 m -12 Y
 s 705 143 m -25 Y s 732 130 m -12 Y s 760 130 m -12 Y s 788 130 m -12 Y s 815 130 m -12 Y s 843 143 m -25 Y s 870 130 m -12 Y s 898 130 m -12 Y s 925 130 m -12 Y s 953 130 m -12 Y s 981 143 m -25 Y s
 gsave  1088 1072 23 11 C 133.395 83.7267 t 0 r /Helvetica findfont 35.5047 sf 0 0 m (60) show NC gr 
 gsave  1088 1072 23 11 C 271.047 83.7267 t 0 r /Helvetica findfont 35.5047 sf 0 0 m (70) show NC gr 
 gsave  1088 1072 23 11 C 408.7 83.7267 t 0 r /Helvetica findfont 35.5047 sf 0 0 m (80) show NC gr 
 gsave  1088 1072 23 11 C 546.352 83.7267 t 0 r /Helvetica findfont 35.5047 sf 0 0 m (90) show NC gr 
 gsave  1088 1072 23 11 C 674.071 83.7267 t 0 r /Helvetica findfont 35.5047 sf 0 0 m (100) show NC gr 
 gsave  1088 1072 23 11 C 811.723 83.7267 t 0 r /Helvetica findfont 35.5047 sf 0 0 m (110) show NC gr 
 gsave  1088 1072 23 11 C 949.376 83.7267 t 0 r /Helvetica findfont 35.5047 sf 0 0 m (120) show NC gr 
 gsave  1088 1072 23 11 C 852.877 32.6392 t 0 r /Helvetica findfont 45.446 sf 0 0 m ( [GeV]) show NC gr 
 gsave  1088 1072 23 11 C 835.848 24.1246 t 0 r /Symbol findfont 29.8239 sf 0 0 m (m) show NC gr 
 gsave  1088 1072 23 11 C 818.819 24.1246 t 0 r /Symbol findfont 29.8239 sf 0 0 m (m) show NC gr 
 gsave  1088 1072 23 11 C 783.341 32.6392 t 0 r /Helvetica findfont 45.446 sf 0 0 m (M) show NC gr  153 118 m 858 Y s 166 145 m -13 X s 166 168 m -13 X s 166 185 m -13 X s 166 199 m -13 X s 166 211 m -13 X s 166 222 m -13 X s 166 231 m -13 X s 179
 239 m -26 X s
 gsave  1088 1072 23 11 C 131.976 239.827 t 0 r /Helvetica findfont 22.723 sf 0 0 m (3) show NC gr 
 gsave  1088 1072 23 11 C 119.204 239.827 t 0 r /Symbol findfont 22.723 sf 0 0 m (-) show NC gr 
 gsave  1088 1072 23 11 C 83.7267 224.217 t 0 r /Helvetica findfont 32.6643 sf 0 0 m (10) show NC gr  166 293 m -13 X s 166 324 m -13 X s 166 347 m -13 X s 166 364 m -13 X s 166 378 m -13 X s 166 390 m -13 X s 166 401 m -13 X s 166 410 m -13 X s 179
 418 m -26 X s
 gsave  1088 1072 23 11 C 131.976 417.214 t 0 r /Helvetica findfont 22.723 sf 0 0 m (2) show NC gr 
 gsave  1088 1072 23 11 C 119.204 417.214 t 0 r /Symbol findfont 22.723 sf 0 0 m (-) show NC gr 
 gsave  1088 1072 23 11 C 83.7267 403.023 t 0 r /Helvetica findfont 32.6643 sf 0 0 m (10) show NC gr  166 472 m -13 X s 166 503 m -13 X s 166 526 m -13 X s 166 543 m -13 X s 166 557 m -13 X s 166 569 m -13 X s 166 580 m -13 X s 166 589 m -13 X s 179
 597 m -26 X s
 gsave  1088 1072 23 11 C 136.233 596.021 t 0 r /Helvetica findfont 22.723 sf 0 0 m (1) show NC gr 
 gsave  1088 1072 23 11 C 123.461 596.021 t 0 r /Symbol findfont 22.723 sf 0 0 m (-) show NC gr 
 gsave  1088 1072 23 11 C 87.984 581.83 t 0 r /Helvetica findfont 32.6643 sf 0 0 m (10) show NC gr  166 651 m -13 X s 166 683 m -13 X s 166 705 m -13 X s 166 722 m -13 X s 166 736 m -13 X s 166 748 m -13 X s 166 759 m -13 X s 166 768 m -13 X s 179
 776 m -26 X s
 gsave  1088 1072 23 11 C 131.976 763.474 t 0 r /Helvetica findfont 32.6643 sf 0 0 m (1) show NC gr  166 830 m -13 X s 166 862 m -13 X s 166 884 m -13 X s 166 901 m -13 X s 166 916 m -13 X s 166 928 m -13 X s 166 938 m -13 X s 166 947 m -13 X s 179
 955 m -26 X s
 gsave  1088 1072 23 11 C 109.27 943.699 t 0 r /Helvetica findfont 32.6643 sf 0 0 m (10) show NC gr 
 gsave  1088 1072 23 11 C 65.2785 648.527 t 90 r /Helvetica findfont 45.446 sf 0 0 m (Entries / Integral) show NC gr  1 0 0 c 1 1 1 c 1 0 0 c 174 429 m 90 Y s 174 530 m 36 Y s 167 524 m 1 X s 180 524 m 1 X s 174 524 m24 188 489 m 61 Y s 188 562 m 29
 Y s 181 556 m 1 X s 193 556 m 2 X s 188 556 m24 202 489 m 61 Y s 202 562 m 29 Y s 195 556 m 1 X s 207 556 m 1 X s 202 556 m24 215 429 m 90 Y s 215 530 m 36 Y s 208 524 m 2 X s 221 524 m 1 X s 215 524 m24 229 118 m 347 Y s 229 476 m 48 Y s 222 470 m
 1 X s 235 470 m 1 X s 229 470 m24 243 524 m 49 Y s 243 584 m 26 Y s 236 578 m 1 X s 249 578 m 1 X s 243 578 m24 257 118 m 347 Y s 257 476 m 48 Y s 250 470 m 1 X s 262 470 m 2 X s 257 470 m24 270 118 m 347 Y s 270 476 m 48 Y s 264 470 m 1 X s 276 470
 m 1 X s 270 470 m24 284 429 m 90 Y s 284 530 m 36 Y s 277 524 m 2 X s 290 524 m 1 X s 284 524 m24 298 118 m 347 Y s 298 476 m 48 Y s 291 470 m 1 X s 304 470 m 1 X s 298 470 m24 312 118 m 347 Y s 312 476 m 48 Y s 305 470 m 1 X s 318 470 m 1 X s 312
 470 m24 326 118 m 347 Y s 326 476 m 48 Y s 319 470 m 1 X s 331 470 m 2 X s 326 470 m24 339 118 m 347 Y s 339 476 m 48 Y s 333 470 m 1 X s 345 470 m 1 X s 339 470 m24 353 118 m 347 Y s 353 476 m 48 Y s 346 470 m 2 X s 359 470 m 1 X s 353 470 m24 367
 118 m 347 Y s 367 476 m 48 Y s 360 470 m 1 X s 373 470 m 1 X s 367 470 m24 381 118 m 347 Y s 381 476 m 48 Y s 374 470 m 1 X s 386 470 m 2 X s 381 470 m24 395 118 m 347 Y s 395 476 m 48 Y s 388 470 m 1 X s 400 470 m 1 X s 395 470 m24 436 118 m 347 Y
 s 436 476 m 48 Y s 429 470 m 1 X s 442 470 m 1 X s 436 470 m24 464 118 m 347 Y s 464 476 m 48 Y s 457 470 m 1 X s 469 470 m 1 X s 464 470 m24 491 429 m 90 Y s 491 530 m 36 Y s 484 524 m 1 X s 497 524 m 1 X s 491 524 m24 519 118 m 347 Y s 519 476 m
 48 Y s 512 470 m 1 X s 524 470 m 2 X s 519 470 m24 546 429 m 90 Y s 546 530 m 36 Y s 539 524 m 2 X s 552 524 m 1 X s 546 524 m24 560 489 m 61 Y s 560 562 m 29 Y s 553 556 m 1 X s 566 556 m 1 X s 560 556 m24 588 118 m 347 Y s 588 476 m 48 Y s 581 470
 m 1 X s 593 470 m 2 X s 588 470 m24 615 429 m 90 Y s 615 530 m 36 Y s 608 524 m 2 X s 621 524 m 1 X s 615 524 m24 629 118 m 347 Y s 629 476 m 48 Y s 622 470 m 1 X s 635 470 m 1 X s 629 470 m24 643 429 m 90 Y s 643 530 m 36 Y s 636 524 m 1 X s 648
 524 m 2 X s 643 524 m24 684 118 m 347 Y s 684 476 m 48 Y s 677 470 m 1 X s 690 470 m 1 X s 684 470 m24 712 118 m 347 Y s 712 476 m 48 Y s 705 470 m 1 X s 717 470 m 2 X s 712 470 m24 753 118 m 347 Y s 753 476 m 48 Y s 746 470 m 1 X s 759 470 m 1 X s
 753 470 m24 781 118 m 347 Y s 781 476 m 48 Y s 774 470 m 1 X s 786 470 m 2 X s 781 470 m24 808 118 m 347 Y s 808 476 m 48 Y s 801 470 m 2 X s 814 470 m 1 X s 808 470 m24 822 118 m 347 Y s 822 476 m 48 Y s 815 470 m 1 X s 828 470 m 1 X s 822 470 m24
 850 118 m 347 Y s 850 476 m 48 Y s 843 470 m 1 X s 855 470 m 1 X s 850 470 m24 905 118 m 347 Y s 905 476 m 48 Y s 898 470 m 1 X s 910 470 m 2 X s 905 470 m24 black 1 1 1 c black 174 118 m 127 Y s 174 257 m 48 Y s 167 251 m 1 X s 180 251 m 1 X s 174
 251 m20 188 118 m 127 Y s 188 257 m 48 Y s 181 251 m 1 X s 193 251 m 2 X s 188 251 m20 202 209 m 90 Y s 202 310 m 36 Y s 195 305 m 1 X s 207 305 m 1 X s 202 305 m20 243 118 m 127 Y s 243 257 m 48 Y s 236 251 m 1 X s 249 251 m 1 X s 243 251 m20 257
 269 m 62 Y s 257 342 m 30 Y s 250 336 m 1 X s 262 336 m 2 X s 257 336 m20 270 118 m 127 Y s 270 257 m 48 Y s 264 251 m 1 X s 276 251 m 1 X s 270 251 m20 298 269 m 62 Y s 298 342 m 30 Y s 291 336 m 1 X s 304 336 m 1 X s 298 336 m20 312 349 m 36 Y s
 312 396 m 21 Y s 305 390 m 1 X s 318 390 m 1 X s 312 390 m20 326 305 m 48 Y s 326 364 m 26 Y s 319 359 m 1 X s 331 359 m 2 X s 326 359 m20 339 269 m 62 Y s 339 342 m 30 Y s 333 336 m 1 X s 345 336 m 1 X s 339 336 m20 353 118 m 127 Y s 353 257 m 48 Y
 s 346 251 m 2 X s 359 251 m 1 X s 353 251 m20 367 269 m 62 Y s 367 342 m 30 Y s 360 336 m 1 X s 373 336 m 1 X s 367 336 m20 395 349 m 36 Y s 395 396 m 21 Y s 388 390 m 1 X s 400 390 m 1 X s 395 390 m20 408 118 m 127 Y s 408 257 m 48 Y s 401 251 m 2
 X s 414 251 m 1 X s 408 251 m20 422 330 m 40 Y s 422 382 m 23 Y s 415 376 m 1 X s 428 376 m 1 X s 422 376 m20 436 349 m 36 Y s 436 396 m 21 Y s 429 390 m 1 X s 442 390 m 1 X s 436 390 m20 450 390 m 26 Y s 450 427 m 17 Y s 443 422 m 1 X s 455 422 m 2
 X s 450 422 m20 464 330 m 40 Y s 464 382 m 23 Y s 457 376 m 1 X s 469 376 m 1 X s 464 376 m20 477 450 m 16 Y s 477 477 m 11 Y s 470 471 m 2 X s 483 471 m 1 X s 477 471 m20 491 400 m 24 Y s 491 436 m 15 Y s 484 430 m 1 X s 497 430 m 1 X s 491 430 m20
 505 477 m 12 Y s 505 500 m 10 Y s 498 495 m 1 X s 511 495 m 1 X s 505 495 m20 519 508 m 9 Y s 519 529 m 6 Y s 512 523 m 1 X s 524 523 m 2 X s 519 523 m20 532 505 m 10 Y s 532 526 m 7 Y s 526 520 m 1 X s 538 520 m 1 X s 532 520 m20 546 584 m 3 Y s
 546 598 m 3 Y s 539 593 m 2 X s 552 593 m 1 X s 546 593 m20 560 595 m 3 Y s 560 609 m 2 Y s 553 603 m 1 X s 566 603 m 1 X s 560 603 m20 574 614 m 2 Y s 574 627 m 1 Y s 567 621 m 1 X s 579 621 m 2 X s 574 621 m20 588 615 m 2 Y s 588 628 m 1 Y s 581
 623 m 1 X s 593 623 m 2 X s 588 623 m20 601 590 m 3 Y s 601 605 m 2 Y s 595 599 m 1 X s 607 599 m 1 X s 601 599 m20 615 570 m 5 Y s 615 586 m 3 Y s 608 580 m 2 X s 621 580 m 1 X s 615 580 m20 629 473 m 13 Y s 629 497 m 9 Y s 622 491 m 1 X s 635 491
 m 1 X s 629 491 m20 643 473 m 13 Y s 643 497 m 9 Y s 636 491 m 1 X s 648 491 m 2 X s 643 491 m20 657 444 m 17 Y s 657 472 m 12 Y s 650 467 m 1 X s 662 467 m 1 X s 657 467 m20 670 409 m 23 Y s 670 443 m 15 Y s 663 437 m 2 X s 676 437 m 1 X s 670 437
 m20 684 330 m 40 Y s 684 382 m 23 Y s 677 376 m 1 X s 690 376 m 1 X s 684 376 m20 698 400 m 24 Y s 698 436 m 15 Y s 691 430 m 1 X s 704 430 m 1 X s 698 430 m20 712 209 m 90 Y s 712 310 m 36 Y s 705 305 m 1 X s 717 305 m 2 X s 712 305 m20 725 330 m
 40 Y s 725 382 m 23 Y s 719 376 m 1 X s 731 376 m 1 X s 725 376 m20 753 209 m 90 Y s 753 310 m 36 Y s 746 305 m 1 X s 759 305 m 1 X s 753 305 m20 767 330 m 40 Y s 767 382 m 23 Y s 760 376 m 1 X s 773 376 m 1 X s 767 376 m20 781 209 m 90 Y s 781 310
 m 36 Y s 774 305 m 1 X s 786 305 m 2 X s 781 305 m20 822 209 m 90 Y s 822 310 m 36 Y s 815 305 m 1 X s 828 305 m 1 X s 822 305 m20 850 118 m 127 Y s 850 257 m 48 Y s 843 251 m 1 X s 855 251 m 1 X s 850 251 m20 891 118 m 127 Y s 891 257 m 48 Y s 884
 251 m 1 X s 897 251 m 1 X s 891 251 m20 905 209 m 90 Y s 905 310 m 36 Y s 898 305 m 1 X s 910 305 m 2 X s 905 305 m20 919 209 m 90 Y s 919 310 m 36 Y s 912 305 m 1 X s 924 305 m 1 X s 919 305 m20 960 305 m 48 Y s 960 364 m 26 Y s 953 359 m 1 X s 966
 359 m 1 X s 960 359 m20 1 1 1 c black 229 118 m 491 Y s 229 620 m 48 Y s 222 614 m 1 X s 235 614 m 1 X s 229 614 m24 353 118 m 491 Y s 353 620 m 48 Y s 346 614 m 2 X s 359 614 m 1 X s 353 614 m24 477 118 m 491 Y s 477 620 m 48 Y s 470 614 m 2 X s
 483 614 m 1 X s 477 614 m24 532 118 m 491 Y s 532 620 m 48 Y s 526 614 m 1 X s 538 614 m 1 X s 532 614 m24 546 118 m 491 Y s 546 620 m 48 Y s 539 614 m 2 X s 552 614 m 1 X s 546 614 m24 753 118 m 491 Y s 753 620 m 48 Y s 746 614 m 1 X s 759 614 m 1
 X s 753 614 m24 781 118 m 491 Y s 781 620 m 48 Y s 774 614 m 1 X s 786 614 m 2 X s 781 614 m24 919 118 m 491 Y s 919 620 m 48 Y s 912 614 m 1 X s 924 614 m 1 X s 919 614 m24 0 0 1 c[ 12 12] 0 sd 6 lw 443 118 m 479 Y s 719 118 m 479 Y s black[  ] 0
 sd 3 lw 1 1 1 c 272 268 186 654 bf black
 gsave  1088 1072 23 11 C 252.599 874.164 t 0 r /Helvetica findfont 39.7652 sf 0 0 m (OC data: 857) show NC gr  220 889 m20
 gsave  1088 1072 23 11 C 252.599 807.466 t 0 r /Helvetica findfont 39.7652 sf 0 0 m (SC data: 8) show NC gr  220 822 m24
 gsave  1088 1072 23 11 C 252.599 740.768 t 0 r /Helvetica findfont 39.7652 sf 0 0 m (OC MC: 32469) show NC gr  1 0 0 c 220 755 m20 black
 gsave  1088 1072 23 11 C 252.599 674.071 t 0 r /Helvetica findfont 39.7652 sf 0 0 m (SC MC: 51) show NC gr  1 0 0 c 220 688 m24 black
 gsave  1088 1072 23 11 C 566.22 901.126 t 0 r /Helvetica-Bold findfont 59.6478 sf 0 0 m (pp collisions) show NC gr  1 1 1 c 1088 1072 1157 11 bf black 1 1 1 c 827 858 1287 118 bf black 827 858 1287 118 bl 1 1 1 c 827 858 1287 118 bf black 827 858
 1287 118 bl 1 0 0 c 1 1 1 c 1 0 0 c 1308 240 m 7 Y s 1308 259 m 6 Y s 1301 253 m 1 X s 1314 253 m 1 X s 1308 253 m20 1322 233 m 8 Y s 1322 253 m 6 Y s 1315 247 m 1 X s 1327 247 m 2 X s 1322 247 m20 1335 262 m 6 Y s 1335 280 m 4 Y s 1329 274 m 1 X s
 1341 274 m 1 X s 1335 274 m20 1349 244 m 7 Y s 1349 263 m 5 Y s 1342 257 m 2 X s 1355 257 m 1 X s 1349 257 m20 1363 264 m 6 Y s 1363 281 m 5 Y s 1356 276 m 1 X s 1369 276 m 1 X s 1363 276 m20 1377 280 m 5 Y s 1377 296 m 4 Y s 1370 290 m 1 X s 1382
 290 m 2 X s 1377 290 m20 1391 290 m 4 Y s 1391 305 m 3 Y s 1384 300 m 1 X s 1396 300 m 1 X s 1391 300 m20 1404 270 m 6 Y s 1404 287 m 4 Y s 1397 281 m 2 X s 1410 281 m 1 X s 1404 281 m20 1418 273 m 5 Y s 1418 290 m 4 Y s 1411 284 m 1 X s 1424 284 m
 1 X s 1418 284 m20 1432 288 m 4 Y s 1432 303 m 3 Y s 1425 298 m 1 X s 1438 298 m 1 X s 1432 298 m20 1446 301 m 3 Y s 1446 316 m 2 Y s 1439 310 m 1 X s 1451 310 m 2 X s 1446 310 m20 1460 306 m 3 Y s 1460 320 m 3 Y s 1453 315 m 1 X s 1465 315 m 1 X s
 1460 315 m20 1473 305 m 3 Y s 1473 319 m 3 Y s 1466 314 m 2 X s 1479 314 m 1 X s 1473 314 m20 1487 316 m 2 Y s 1487 330 m 2 Y s 1480 324 m 1 X s 1493 324 m 1 X s 1487 324 m20 1501 324 m 2 Y s 1501 337 m 2 Y s 1494 332 m 1 X s 1507 332 m 1 X s 1501
 332 m20 1515 328 m 2 Y s 1515 342 m 1 Y s 1508 336 m 1 X s 1520 336 m 2 X s 1515 336 m20 1528 345 m 1 Y s 1528 358 m s 1522 352 m 1 X s 1534 352 m 1 X s 1528 352 m20 1542 368 m s 1535 374 m 2 X s 1548 374 m 1 X s 1542 374 m20 1556 370 m 1 Y s 1549
 376 m 1 X s 1562 376 m 1 X s 1556 376 m20 1563 386 m 1 X s 1575 386 m 2 X s 1570 386 m20 1577 413 m 1 X s 1589 413 m 1 X s 1584 413 m20 1590 427 m 2 X s 1603 427 m 1 X s 1597 427 m20 1604 443 m 1 X s 1617 443 m 1 X s 1611 443 m20 1618 459 m 1 X s
 1631 459 m 1 X s 1625 459 m20 1632 491 m 1 X s 1644 491 m 2 X s 1639 491 m20 1646 525 m 1 X s 1658 525 m 1 X s 1653 525 m20 1659 551 m 2 X s 1672 551 m 1 X s 1666 551 m20 1673 580 m 1 X s 1686 580 m 1 X s 1680 580 m20 1687 605 m 1 X s 1700 605 m 1 X
 s 1694 605 m20 1701 618 m 1 X s 1713 618 m 2 X s 1708 618 m20 1715 614 m 1 X s 1727 614 m 1 X s 1721 614 m20 1728 598 m 2 X s 1741 598 m 1 X s 1735 598 m20 1742 572 m 1 X s 1755 572 m 1 X s 1749 572 m20 1756 536 m 1 X s 1769 536 m 1 X s 1763 536 m20
 1770 498 m 1 X s 1782 498 m 2 X s 1777 498 m20 1784 461 m 1 X s 1796 461 m 1 X s 1790 461 m20 1797 430 m 2 X s 1810 430 m 1 X s 1804 430 m20 1811 417 m 1 X s 1824 417 m 1 X s 1818 417 m20 1825 390 m 1 X s 1837 390 m 2 X s 1832 390 m20 1846 363 m s
 1846 375 m s 1839 369 m 1 X s 1851 369 m 1 X s 1846 369 m20 1859 335 m 2 Y s 1859 348 m 1 Y s 1852 342 m 2 X s 1865 342 m 1 X s 1859 342 m20 1873 305 m 3 Y s 1873 319 m 3 Y s 1866 314 m 1 X s 1879 314 m 1 X s 1873 314 m20 1887 317 m 2 Y s 1887 330 m
 2 Y s 1880 325 m 1 X s 1893 325 m 1 X s 1887 325 m20 1901 288 m 4 Y s 1901 303 m 3 Y s 1894 298 m 1 X s 1906 298 m 2 X s 1901 298 m20 1914 289 m 4 Y s 1914 304 m 3 Y s 1908 299 m 1 X s 1920 299 m 1 X s 1914 299 m20 1928 292 m 4 Y s 1928 308 m 3 Y s
 1921 302 m 2 X s 1934 302 m 1 X s 1928 302 m20 1942 255 m 7 Y s 1942 273 m 5 Y s 1935 268 m 1 X s 1948 268 m 1 X s 1942 268 m20 1956 272 m 5 Y s 1956 288 m 4 Y s 1949 283 m 1 X s 1962 283 m 1 X s 1956 283 m20 1970 242 m 7 Y s 1970 261 m 6 Y s 1963
 255 m 1 X s 1975 255 m 2 X s 1970 255 m20 1983 242 m 7 Y s 1983 261 m 6 Y s 1977 255 m 1 X s 1989 255 m 1 X s 1983 255 m20 1997 244 m 7 Y s 1997 263 m 5 Y s 1990 257 m 2 X s 2003 257 m 1 X s 1997 257 m20 2011 220 m 10 Y s 2011 241 m 7 Y s 2004 235 m
 1 X s 2017 235 m 1 X s 2011 235 m20 2025 230 m 9 Y s 2025 250 m 7 Y s 2018 245 m 1 X s 2030 245 m 2 X s 2025 245 m20 2039 182 m 14 Y s 2039 207 m 10 Y s 2032 201 m 1 X s 2044 201 m 1 X s 2039 201 m20 2052 194 m 12 Y s 2052 218 m 9 Y s 2045 212 m 2 X
 s 2058 212 m 1 X s 2052 212 m20 2066 223 m 9 Y s 2066 243 m 7 Y s 2059 238 m 1 X s 2072 238 m 1 X s 2066 238 m20 2080 190 m 13 Y s 2080 214 m 10 Y s 2073 209 m 1 X s 2086 209 m 1 X s 2080 209 m20 2094 172 m 15 Y s 2094 199 m 10 Y s 2087 193 m 1 X s
 2099 193 m 2 X s 2094 193 m20 2108 186 m 13 Y s 2108 211 m 9 Y s 2101 205 m 1 X s 2113 205 m 1 X s 2108 205 m20 black 1287 118 m 827 X s 1287 143 m -25 Y s 1315 130 m -12 Y s 1342 130 m -12 Y s 1370 130 m -12 Y s 1397 130 m -12 Y s 1425 143 m -25 Y
 s 1453 130 m -12 Y s 1480 130 m -12 Y s 1508 130 m -12 Y s 1535 130 m -12 Y s 1563 143 m -25 Y s 1590 130 m -12 Y s 1618 130 m -12 Y s 1646 130 m -12 Y s 1673 130 m -12 Y s 1701 143 m -25 Y s 1728 130 m -12 Y s 1756 130 m -12 Y s 1784 130 m -12 Y s
 1811 130 m -12 Y s 1839 143 m -25 Y s 1866 130 m -12 Y s 1894 130 m -12 Y s 1921 130 m -12 Y s 1949 130 m -12 Y s 1977 143 m -25 Y s 2004 130 m -12 Y s 2032 130 m -12 Y s 2059 130 m -12 Y s 2087 130 m -12 Y s 2114 143 m -25 Y s
 gsave  1088 1072 1157 11 C 1267.25 83.7267 t 0 r /Helvetica findfont 35.5047 sf 0 0 m (60) show NC gr 
 gsave  1088 1072 1157 11 C 1404.91 83.7267 t 0 r /Helvetica findfont 35.5047 sf 0 0 m (70) show NC gr 
 gsave  1088 1072 1157 11 C 1542.56 83.7267 t 0 r /Helvetica findfont 35.5047 sf 0 0 m (80) show NC gr 
 gsave  1088 1072 1157 11 C 1680.21 83.7267 t 0 r /Helvetica findfont 35.5047 sf 0 0 m (90) show NC gr 
 gsave  1088 1072 1157 11 C 1807.93 83.7267 t 0 r /Helvetica findfont 35.5047 sf 0 0 m (100) show NC gr 
 gsave  1088 1072 1157 11 C 1945.58 83.7267 t 0 r /Helvetica findfont 35.5047 sf 0 0 m (110) show NC gr 
 gsave  1088 1072 1157 11 C 2083.23 83.7267 t 0 r /Helvetica findfont 35.5047 sf 0 0 m (120) show NC gr 
 gsave  1088 1072 1157 11 C 1986.74 32.6392 t 0 r /Helvetica findfont 45.446 sf 0 0 m ( [GeV]) show NC gr 
 gsave  1088 1072 1157 11 C 1969.71 24.1246 t 0 r /Symbol findfont 29.8239 sf 0 0 m (m) show NC gr 
 gsave  1088 1072 1157 11 C 1952.68 24.1246 t 0 r /Symbol findfont 29.8239 sf 0 0 m (m) show NC gr 
 gsave  1088 1072 1157 11 C 1917.2 32.6392 t 0 r /Helvetica findfont 45.446 sf 0 0 m (M) show NC gr  1287 118 m 858 Y s 1300 145 m -13 X s 1300 168 m -13 X s 1300 185 m -13 X s 1300 199 m -13 X s 1300 211 m -13 X s 1300 222 m -13 X s 1300 231 m -13 X
 s 1313 239 m -26 X s
 gsave  1088 1072 1157 11 C 1265.83 239.827 t 0 r /Helvetica findfont 22.723 sf 0 0 m (3) show NC gr 
 gsave  1088 1072 1157 11 C 1253.06 239.827 t 0 r /Symbol findfont 22.723 sf 0 0 m (-) show NC gr 
 gsave  1088 1072 1157 11 C 1217.58 224.217 t 0 r /Helvetica findfont 32.6643 sf 0 0 m (10) show NC gr  1300 293 m -13 X s 1300 324 m -13 X s 1300 347 m -13 X s 1300 364 m -13 X s 1300 378 m -13 X s 1300 390 m -13 X s 1300 401 m -13 X s 1300 410 m
 -13 X s 1313 418 m -26 X s
 gsave  1088 1072 1157 11 C 1265.83 417.214 t 0 r /Helvetica findfont 22.723 sf 0 0 m (2) show NC gr 
 gsave  1088 1072 1157 11 C 1253.06 417.214 t 0 r /Symbol findfont 22.723 sf 0 0 m (-) show NC gr 
 gsave  1088 1072 1157 11 C 1217.58 403.023 t 0 r /Helvetica findfont 32.6643 sf 0 0 m (10) show NC gr  1300 472 m -13 X s 1300 503 m -13 X s 1300 526 m -13 X s 1300 543 m -13 X s 1300 557 m -13 X s 1300 569 m -13 X s 1300 580 m -13 X s 1300 589 m
 -13 X s 1313 597 m -26 X s
 gsave  1088 1072 1157 11 C 1270.09 596.021 t 0 r /Helvetica findfont 22.723 sf 0 0 m (1) show NC gr 
 gsave  1088 1072 1157 11 C 1257.32 596.021 t 0 r /Symbol findfont 22.723 sf 0 0 m (-) show NC gr 
 gsave  1088 1072 1157 11 C 1221.84 581.83 t 0 r /Helvetica findfont 32.6643 sf 0 0 m (10) show NC gr  1300 651 m -13 X s 1300 683 m -13 X s 1300 705 m -13 X s 1300 722 m -13 X s 1300 736 m -13 X s 1300 748 m -13 X s 1300 759 m -13 X s 1300 768 m -13
 X s 1313 776 m -26 X s
 gsave  1088 1072 1157 11 C 1265.83 763.474 t 0 r /Helvetica findfont 32.6643 sf 0 0 m (1) show NC gr  1300 830 m -13 X s 1300 862 m -13 X s 1300 884 m -13 X s 1300 901 m -13 X s 1300 916 m -13 X s 1300 928 m -13 X s 1300 938 m -13 X s 1300 947 m -13
 X s 1313 955 m -26 X s
 gsave  1088 1072 1157 11 C 1243.13 943.699 t 0 r /Helvetica findfont 32.6643 sf 0 0 m (10) show NC gr 
 gsave  1088 1072 1157 11 C 1199.14 648.527 t 90 r /Helvetica findfont 45.446 sf 0 0 m (Entries / Integral) show NC gr  1 0 0 c 1 1 1 c 1 0 0 c 1308 429 m 90 Y s 1308 530 m 36 Y s 1301 524 m 1 X s 1314 524 m 1 X s 1308 524 m24 1322 489 m 61 Y s 1322
 562 m 29 Y s 1315 556 m 1 X s 1327 556 m 2 X s 1322 556 m24 1335 489 m 61 Y s 1335 562 m 29 Y s 1329 556 m 1 X s 1341 556 m 1 X s 1335 556 m24 1349 429 m 90 Y s 1349 530 m 36 Y s 1342 524 m 2 X s 1355 524 m 1 X s 1349 524 m24 1363 118 m 347 Y s 1363
 476 m 48 Y s 1356 470 m 1 X s 1369 470 m 1 X s 1363 470 m24 1377 524 m 49 Y s 1377 584 m 26 Y s 1370 578 m 1 X s 1382 578 m 2 X s 1377 578 m24 1391 118 m 347 Y s 1391 476 m 48 Y s 1384 470 m 1 X s 1396 470 m 1 X s 1391 470 m24 1404 118 m 347 Y s
 1404 476 m 48 Y s 1397 470 m 2 X s 1410 470 m 1 X s 1404 470 m24 1418 429 m 90 Y s 1418 530 m 36 Y s 1411 524 m 1 X s 1424 524 m 1 X s 1418 524 m24 1432 118 m 347 Y s 1432 476 m 48 Y s 1425 470 m 1 X s 1438 470 m 1 X s 1432 470 m24 1446 118 m 347 Y
 s 1446 476 m 48 Y s 1439 470 m 1 X s 1451 470 m 2 X s 1446 470 m24 1460 118 m 347 Y s 1460 476 m 48 Y s 1453 470 m 1 X s 1465 470 m 1 X s 1460 470 m24 1473 118 m 347 Y s 1473 476 m 48 Y s 1466 470 m 2 X s 1479 470 m 1 X s 1473 470 m24 1487 118 m 347
 Y s 1487 476 m 48 Y s 1480 470 m 1 X s 1493 470 m 1 X s 1487 470 m24 1501 118 m 347 Y s 1501 476 m 48 Y s 1494 470 m 1 X s 1507 470 m 1 X s 1501 470 m24 1515 118 m 347 Y s 1515 476 m 48 Y s 1508 470 m 1 X s 1520 470 m 2 X s 1515 470 m24 1528 118 m
 347 Y s 1528 476 m 48 Y s 1522 470 m 1 X s 1534 470 m 1 X s 1528 470 m24 1570 118 m 347 Y s 1570 476 m 48 Y s 1563 470 m 1 X s 1575 470 m 2 X s 1570 470 m24 1597 118 m 347 Y s 1597 476 m 48 Y s 1590 470 m 2 X s 1603 470 m 1 X s 1597 470 m24 1625 429
 m 90 Y s 1625 530 m 36 Y s 1618 524 m 1 X s 1631 524 m 1 X s 1625 524 m24 1653 118 m 347 Y s 1653 476 m 48 Y s 1646 470 m 1 X s 1658 470 m 1 X s 1653 470 m24 1680 429 m 90 Y s 1680 530 m 36 Y s 1673 524 m 1 X s 1686 524 m 1 X s 1680 524 m24 1694 489
 m 61 Y s 1694 562 m 29 Y s 1687 556 m 1 X s 1700 556 m 1 X s 1694 556 m24 1721 118 m 347 Y s 1721 476 m 48 Y s 1715 470 m 1 X s 1727 470 m 1 X s 1721 470 m24 1749 429 m 90 Y s 1749 530 m 36 Y s 1742 524 m 1 X s 1755 524 m 1 X s 1749 524 m24 1763 118
 m 347 Y s 1763 476 m 48 Y s 1756 470 m 1 X s 1769 470 m 1 X s 1763 470 m24 1777 429 m 90 Y s 1777 530 m 36 Y s 1770 524 m 1 X s 1782 524 m 2 X s 1777 524 m24 1818 118 m 347 Y s 1818 476 m 48 Y s 1811 470 m 1 X s 1824 470 m 1 X s 1818 470 m24 1846
 118 m 347 Y s 1846 476 m 48 Y s 1839 470 m 1 X s 1851 470 m 1 X s 1846 470 m24 1887 118 m 347 Y s 1887 476 m 48 Y s 1880 470 m 1 X s 1893 470 m 1 X s 1887 470 m24 1914 118 m 347 Y s 1914 476 m 48 Y s 1908 470 m 1 X s 1920 470 m 1 X s 1914 470 m24
 1942 118 m 347 Y s 1942 476 m 48 Y s 1935 470 m 1 X s 1948 470 m 1 X s 1942 470 m24 1956 118 m 347 Y s 1956 476 m 48 Y s 1949 470 m 1 X s 1962 470 m 1 X s 1956 470 m24 1983 118 m 347 Y s 1983 476 m 48 Y s 1977 470 m 1 X s 1989 470 m 1 X s 1983 470
 m24 2039 118 m 347 Y s 2039 476 m 48 Y s 2032 470 m 1 X s 2044 470 m 1 X s 2039 470 m24 black 1 1 1 c black 1308 118 m 127 Y s 1308 257 m 48 Y s 1301 251 m 1 X s 1314 251 m 1 X s 1308 251 m20 1322 118 m 127 Y s 1322 257 m 48 Y s 1315 251 m 1 X s
 1327 251 m 2 X s 1322 251 m20 1335 209 m 90 Y s 1335 310 m 36 Y s 1329 305 m 1 X s 1341 305 m 1 X s 1335 305 m20 1377 118 m 127 Y s 1377 257 m 48 Y s 1370 251 m 1 X s 1382 251 m 2 X s 1377 251 m20 1391 269 m 62 Y s 1391 342 m 30 Y s 1384 336 m 1 X s
 1396 336 m 1 X s 1391 336 m20 1404 118 m 127 Y s 1404 257 m 48 Y s 1397 251 m 2 X s 1410 251 m 1 X s 1404 251 m20 1432 269 m 62 Y s 1432 342 m 30 Y s 1425 336 m 1 X s 1438 336 m 1 X s 1432 336 m20 1446 349 m 36 Y s 1446 396 m 21 Y s 1439 390 m 1 X s
 1451 390 m 2 X s 1446 390 m20 1460 305 m 48 Y s 1460 364 m 26 Y s 1453 359 m 1 X s 1465 359 m 1 X s 1460 359 m20 1473 269 m 62 Y s 1473 342 m 30 Y s 1466 336 m 2 X s 1479 336 m 1 X s 1473 336 m20 1487 118 m 127 Y s 1487 257 m 48 Y s 1480 251 m 1 X s
 1493 251 m 1 X s 1487 251 m20 1501 269 m 62 Y s 1501 342 m 30 Y s 1494 336 m 1 X s 1507 336 m 1 X s 1501 336 m20 1528 349 m 36 Y s 1528 396 m 21 Y s 1522 390 m 1 X s 1534 390 m 1 X s 1528 390 m20 1542 118 m 127 Y s 1542 257 m 48 Y s 1535 251 m 2 X s
 1548 251 m 1 X s 1542 251 m20 1556 330 m 40 Y s 1556 382 m 23 Y s 1549 376 m 1 X s 1562 376 m 1 X s 1556 376 m20 1570 349 m 36 Y s 1570 396 m 21 Y s 1563 390 m 1 X s 1575 390 m 2 X s 1570 390 m20 1584 390 m 26 Y s 1584 427 m 17 Y s 1577 422 m 1 X s
 1589 422 m 1 X s 1584 422 m20 1597 330 m 40 Y s 1597 382 m 23 Y s 1590 376 m 2 X s 1603 376 m 1 X s 1597 376 m20 1611 450 m 16 Y s 1611 477 m 11 Y s 1604 471 m 1 X s 1617 471 m 1 X s 1611 471 m20 1625 400 m 24 Y s 1625 436 m 15 Y s 1618 430 m 1 X s
 1631 430 m 1 X s 1625 430 m20 1639 477 m 12 Y s 1639 500 m 10 Y s 1632 495 m 1 X s 1644 495 m 2 X s 1639 495 m20 1653 508 m 9 Y s 1653 529 m 6 Y s 1646 523 m 1 X s 1658 523 m 1 X s 1653 523 m20 1666 505 m 10 Y s 1666 526 m 7 Y s 1659 520 m 2 X s
 1672 520 m 1 X s 1666 520 m20 1680 584 m 3 Y s 1680 598 m 3 Y s 1673 593 m 1 X s 1686 593 m 1 X s 1680 593 m20 1694 595 m 3 Y s 1694 609 m 2 Y s 1687 603 m 1 X s 1700 603 m 1 X s 1694 603 m20 1708 614 m 2 Y s 1708 627 m 1 Y s 1701 621 m 1 X s 1713
 621 m 2 X s 1708 621 m20 1721 615 m 2 Y s 1721 628 m 1 Y s 1715 623 m 1 X s 1727 623 m 1 X s 1721 623 m20 1735 590 m 3 Y s 1735 605 m 2 Y s 1728 599 m 2 X s 1741 599 m 1 X s 1735 599 m20 1749 570 m 5 Y s 1749 586 m 3 Y s 1742 580 m 1 X s 1755 580 m
 1 X s 1749 580 m20 1763 473 m 13 Y s 1763 497 m 9 Y s 1756 491 m 1 X s 1769 491 m 1 X s 1763 491 m20 1777 473 m 13 Y s 1777 497 m 9 Y s 1770 491 m 1 X s 1782 491 m 2 X s 1777 491 m20 1790 444 m 17 Y s 1790 472 m 12 Y s 1784 467 m 1 X s 1796 467 m 1
 X s 1790 467 m20 1804 409 m 23 Y s 1804 443 m 15 Y s 1797 437 m 2 X s 1810 437 m 1 X s 1804 437 m20 1818 330 m 40 Y s 1818 382 m 23 Y s 1811 376 m 1 X s 1824 376 m 1 X s 1818 376 m20 1832 400 m 24 Y s 1832 436 m 15 Y s 1825 430 m 1 X s 1837 430 m 2
 X s 1832 430 m20 1846 209 m 90 Y s 1846 310 m 36 Y s 1839 305 m 1 X s 1851 305 m 1 X s 1846 305 m20 1859 330 m 40 Y s 1859 382 m 23 Y s 1852 376 m 2 X s 1865 376 m 1 X s 1859 376 m20 1887 209 m 90 Y s 1887 310 m 36 Y s 1880 305 m 1 X s 1893 305 m 1
 X s 1887 305 m20 1901 330 m 40 Y s 1901 382 m 23 Y s 1894 376 m 1 X s 1906 376 m 2 X s 1901 376 m20 1914 209 m 90 Y s 1914 310 m 36 Y s 1908 305 m 1 X s 1920 305 m 1 X s 1914 305 m20 1956 209 m 90 Y s 1956 310 m 36 Y s 1949 305 m 1 X s 1962 305 m 1
 X s 1956 305 m20 1983 118 m 127 Y s 1983 257 m 48 Y s 1977 251 m 1 X s 1989 251 m 1 X s 1983 251 m20 2025 118 m 127 Y s 2025 257 m 48 Y s 2018 251 m 1 X s 2030 251 m 2 X s 2025 251 m20 2039 209 m 90 Y s 2039 310 m 36 Y s 2032 305 m 1 X s 2044 305 m
 1 X s 2039 305 m20 2052 209 m 90 Y s 2052 310 m 36 Y s 2045 305 m 2 X s 2058 305 m 1 X s 2052 305 m20 2094 305 m 48 Y s 2094 364 m 26 Y s 2087 359 m 1 X s 2099 359 m 2 X s 2094 359 m20 1 1 1 c black 1363 118 m 491 Y s 1363 620 m 48 Y s 1356 614 m 1
 X s 1369 614 m 1 X s 1363 614 m24 1487 118 m 491 Y s 1487 620 m 48 Y s 1480 614 m 1 X s 1493 614 m 1 X s 1487 614 m24 1611 118 m 491 Y s 1611 620 m 48 Y s 1604 614 m 1 X s 1617 614 m 1 X s 1611 614 m24 1666 118 m 491 Y s 1666 620 m 48 Y s 1659 614 m
 2 X s 1672 614 m 1 X s 1666 614 m24 1680 118 m 491 Y s 1680 620 m 48 Y s 1673 614 m 1 X s 1686 614 m 1 X s 1680 614 m24 1887 118 m 491 Y s 1887 620 m 48 Y s 1880 614 m 1 X s 1893 614 m 1 X s 1887 614 m24 1914 118 m 491 Y s 1914 620 m 48 Y s 1908 614
 m 1 X s 1920 614 m 1 X s 1914 614 m24 2052 118 m 491 Y s 2052 620 m 48 Y s 2045 614 m 2 X s 2058 614 m 1 X s 2052 614 m24 0 0 1 c[ 12 12] 0 sd 6 lw 1577 118 m 479 Y s 1852 118 m 479 Y s black[  ] 0 sd 3 lw 1 1 1 c 272 268 1320 654 bf black
 gsave  1088 1072 1157 11 C 1386.46 874.164 t 0 r /Helvetica findfont 39.7652 sf 0 0 m (OC data: 857) show NC gr  1354 889 m20
 gsave  1088 1072 1157 11 C 1386.46 807.466 t 0 r /Helvetica findfont 39.7652 sf 0 0 m (SC data: 8) show NC gr  1354 822 m24
 gsave  1088 1072 1157 11 C 1386.46 740.768 t 0 r /Helvetica findfont 39.7652 sf 0 0 m (OC MC: 32469) show NC gr  1 0 0 c 1354 755 m20 black
 gsave  1088 1072 1157 11 C 1386.46 674.071 t 0 r /Helvetica findfont 39.7652 sf 0 0 m (SC MC: 51) show NC gr  1 0 0 c 1354 688 m24 black
 gsave  1088 1072 1157 11 C 1700.08 901.126 t 0 r /Helvetica-Bold findfont 59.6478 sf 0 0 m (pp collisions) show NC gr 
 gr  gr showpage
end
%%EOF
