%!PS-Adobe-2.0 EPSF-2.0
%%BoundingBox:  0 0 567 274
%%Title: /home/petr/Analysis_iwona/SFAnalysis/eps/Zmass_mumu_CaloTree.eps: Results
%%Creator: ROOT Version 6.16/00
%%CreationDate: Tue Apr 23 09:36:06 2019
%%DocumentNeededResources: ProcSet (FontSetInit)
%%EndComments
%%BeginProlog
80 dict begin
/s {stroke} def /l {lineto} def /m {moveto} def /t {translate} def
/r {rotate} def /rl {roll}  def /R {repeat} def
/d {rlineto} def /rm {rmoveto} def /gr {grestore} def /f {eofill} def
/c {setrgbcolor} def /black {0 setgray} def /sd {setdash} def
/cl {closepath} def /sf {scalefont setfont} def /lw {setlinewidth} def
/box {m dup 0 exch d exch 0 d 0 exch neg d cl} def
/NC{systemdict begin initclip end}def/C{NC box clip newpath}def
/bl {box s} def /bf {gsave box gsave f grestore 1 lw [] 0 sd s grestore} def /Y { 0 exch d} def /X { 0 d} def 
/K {{pop pop 0 moveto} exch kshow} bind def
/ita {/ang 15 def gsave [1 0 ang dup sin exch cos div 1 0 0] concat} def 
/mp {newpath /y exch def /x exch def} def
/side {[w .77 mul w .23 mul] .385 w mul sd w 0 l currentpoint t -144 r} def
/mr {mp x y w2 0 360 arc} def /m24 {mr s} def /m20 {mr f} def
/mb {mp x y w2 add m w2 neg 0 d 0 w neg d w 0 d 0 w d cl} def
/mt {mp x y w2 add m w2 neg w neg d w 0 d cl} def
/w4 {w 4 div} def
/w6 {w 6 div} def
/w8 {w 8 div} def
/m21 {mb f} def /m25 {mb s} def /m22 {mt f} def /m26{mt s} def
/m23 {mp x y w2 sub m w2 w d w neg 0 d cl f} def
/m27 {mp x y w2 add m w3 neg w2 neg d w3 w2 neg d w3 w2 d cl s} def
/m28 {mp x w2 sub y w2 sub w3 add m w3 0 d  0 w3 neg d w3 0 d 0 w3 d w3 0 d  0 w3 d w3 neg 0 d 0 w3 d w3 neg 0 d 0 w3 neg d w3 neg 0 d cl s } def
/m29 {mp gsave x w2 sub y w2 add w3 sub m currentpoint t 4 {side} repeat cl fill gr} def
/m30 {mp gsave x w2 sub y w2 add w3 sub m currentpoint t 4 {side} repeat cl s gr} def
/m31 {mp x y w2 sub m 0 w d x w2 sub y m w 0 d x w2 sub y w2 add m w w neg d x w2 sub y w2 sub m w w d s} def
/m32 {mp x y w2 sub m w2 w d w neg 0 d cl s} def
/m33 {mp x y w2 add m w3 neg w2 neg d w3 w2 neg d w3 w2 d cl f} def
/m34 {mp x w2 sub y w2 sub w3 add m w3 0 d  0 w3 neg d w3 0 d 0 w3 d w3 0 d  0 w3 d w3 neg 0 d 0 w3 d w3 neg 0 d 0 w3 neg d w3 neg 0 d cl f } def
/m35 {mp x y w2 add m w2 neg w2 neg d w2 w2 neg d w2 w2 d w2 neg w2 d x y w2 sub m 0 w d x w2 sub y m w 0 d s} def
/m36 {mb x w2 sub y w2 add m w w neg d x w2 sub y w2 sub m w w d s} def
/m37 {mp x y m w4 neg w2 d w4 neg w2 neg d w2 0 d  w4 neg w2 neg d w2 0 d w4 neg w2 d w2 0 d w4 neg w2 d w4 neg w2 neg d cl s} def
/m38 {mp x w4 sub y w2 add m w4 neg w4 neg d 0 w2 neg d w4 w4 neg d w2 0 d w4 w4 d 0 w2 d w4 neg w4 d w2 neg 0 d x y w2 sub m 0 w d x w2 sub y m w 0 d cl s} def
/m39 {mp x y m w4 neg w2 d w4 neg w2 neg d w2 0 d  w4 neg w2 neg d w2 0 d w4 neg w2 d w2 0 d w4 neg w2 d w4 neg w2 neg d cl f} def
/m40 {mp x y m w4 w2 d w4 w4 neg d w2 neg w4 neg d w2 w4 neg d w4 neg w4 neg d w4 neg w2 d w4 neg w2 neg d w4 neg w4 d w2 w4 d w2 neg w4 d w4 w4 d w4 w2 neg d cl s} def
/m41 {mp x y m w4 w2 d w4 w4 neg d w2 neg w4 neg d w2 w4 neg d w4 neg w4 neg d w4 neg w2 d w4 neg w2 neg d w4 neg w4 d w2 w4 d w2 neg w4 d w4 w4 d w4 w2 neg d cl f} def
/m42 {mp x y w2 add m w8 neg w2 -3 4 div mul d w2 -3 4 div mul w8 neg d w2 3 4 div mul w8 neg d w8 w2 -3 4 div mul d w8 w2 3 4 div mul d w2 3 4 div mul w8 d w2 -3 4 div mul w8 d w8 neg w2 3 4 div mul d cl s} def
/m43 {mp x y w2 add m w8 neg w2 -3 4 div mul d w2 -3 4 div mul w8 neg d w2 3 4 div mul w8 neg d w8 w2 -3 4 div mul d w8 w2 3 4 div mul d w2 3 4 div mul w8 d w2 -3 4 div mul w8 d w8 neg w2 3 4 div mul d cl f} def
/m44 {mp x y m w6 neg w2 d w2 2 3 div mul 0 d w6 neg w2 neg d w2 w6 d 0 w2 -2 3 div mul d w2 neg w6 d w6 w2 neg d w2 -2 3 div mul 0 d w6 w2 d w2 neg w6 neg d 0 w2 2 3 div mul d w2 w6 neg d cl s} def
/m45 {mp x y m w6 neg w2 d w2 2 3 div mul 0 d w6 neg w2 neg d w2 w6 d 0 w2 -2 3 div mul d w2 neg w6 d w6 w2 neg d w2 -2 3 div mul 0 d w6 w2 d w2 neg w6 neg d 0 w2 2 3 div mul d w2 w6 neg d cl f} def
/m46 {mp x y w4 add m w4 neg w4 d w4 neg w4 neg d  w4 w4 neg d w4 neg w4 neg d w4 w4 neg d w4 w4 d w4 w4 neg d w4 w4 d w4 neg w4 d w4 w4 d w4 neg w4 d w4 neg w4 neg d cl s} def
/m47 {mp x y w4 add m w4 neg w4 d w4 neg w4 neg d w4 w4 neg d w4 neg w4 neg d  w4 w4 neg d w4 w4 d w4 w4 neg d w4 w4 d w4 neg w4 d w4 w4 d w4 neg w4 d w4 neg w4 neg d cl f} def
/m48 {mp x y w4 add m w4 neg w4 d w4 neg w4 neg d w4 w4 neg d  w4 neg w4 neg d w4 w4 neg d w4 w4 d w4 w4 neg d w4 w4 d w4 neg w4 d w4 w4 d w4 neg w4 d w4 neg w4 neg d  w4 w4 neg d w4 neg w4 neg d w4 neg w4 d w4 w4 d cl f} def
/m49 {mp x w2 sub w3 add y w2 sub w3 add m  0 w3 neg d w3 0 d 0 w3 d w3 0 d 0 w3 d w3 neg 0 d 0 w3 d w3 neg 0 d 0 w3 neg d w3 neg 0 d 0 w3 neg d w3 0 d 0 w3 d w3 0 d 0 w3 neg d w3 neg 0 d cl f } def
/m2 {mp x y w2 sub m 0 w d x w2 sub y m w 0 d s} def
/m5 {mp x w2 sub y w2 sub m w w d x w2 sub y w2 add m w w neg d s} def
%%IncludeResource: ProcSet (FontSetInit)
%%IncludeResource: font Times-Roman
%%IncludeResource: font Times-Italic
%%IncludeResource: font Times-Bold
%%IncludeResource: font Times-BoldItalic
%%IncludeResource: font Helvetica
%%IncludeResource: font Helvetica-Oblique
%%IncludeResource: font Helvetica-Bold
%%IncludeResource: font Helvetica-BoldOblique
%%IncludeResource: font Courier
%%IncludeResource: font Courier-Oblique
%%IncludeResource: font Courier-Bold
%%IncludeResource: font Courier-BoldOblique
%%IncludeResource: font Symbol
%%IncludeResource: font ZapfDingbats
/reEncode {exch findfont dup length dict begin {1 index /FID eq  {pop pop} {def} ifelse } forall /Encoding exch def currentdict end dup /FontName get exch definefont pop } def [/Times-Bold /Times-Italic /Times-BoldItalic /Helvetica /Helvetica-Oblique
 /Helvetica-Bold /Helvetica-BoldOblique /Courier /Courier-Oblique /Courier-Bold /Courier-BoldOblique /Times-Roman /AvantGarde-Book /AvantGarde-BookOblique /AvantGarde-Demi /AvantGarde-DemiOblique /Bookman-Demi /Bookman-DemiItalic /Bookman-Light
 /Bookman-LightItalic /Helvetica-Narrow /Helvetica-Narrow-Bold /Helvetica-Narrow-BoldOblique /Helvetica-Narrow-Oblique /NewCenturySchlbk-Roman /NewCenturySchlbk-Bold /NewCenturySchlbk-BoldItalic /NewCenturySchlbk-Italic /Palatino-Bold
 /Palatino-BoldItalic /Palatino-Italic /Palatino-Roman ] {ISOLatin1Encoding reEncode } forall
%%EndProlog
%%BeginSetup
%%EndSetup
newpath  gsave  .25 .25 scale  gsave  0 0 t black[  ] 0 sd 3 lw 1 1 1 c 2268 1094 0 0 bf black 1 1 1 c 1088 1072 23 11 bf black 1 1 1 c 828 858 153 118 bf black 828 858 153 118 bl 1 1 1 c 828 858 153 118 bf black 828 858 153 118 bl 1 0 0 c 1 1 1 c 1
 0 0 c 174 388 m 5 Y s 174 404 m 4 Y s 167 398 m 1 X s 180 398 m 1 X s 171 388 m 6 X s 171 408 m 6 X s 167 396 m 5 Y s 181 396 m 5 Y s /w 12 def /w2 {w 2 div} def /w3 {w 3 div} def 174 398 m20 188 382 m 6 Y s 188 399 m 4 Y s 181 393 m 1 X s 193 393 m
 2 X s 185 382 m 6 X s 185 403 m 6 X s 181 391 m 5 Y s 195 391 m 5 Y s 188 393 m20 202 406 m 3 Y s 202 421 m 2 Y s 195 415 m 1 X s 207 415 m 1 X s 199 406 m 5 X s 199 423 m 5 X s 195 412 m 6 Y s 208 412 m 6 Y s 202 415 m20 215 391 m 5 Y s 215 407 m 4
 Y s 208 402 m 2 X s 221 402 m 1 X s 213 391 m 5 X s 213 411 m 5 X s 208 399 m 5 Y s 222 399 m 5 Y s 215 402 m20 229 407 m 4 Y s 229 422 m 2 Y s 222 416 m 1 X s 235 416 m 1 X s 226 407 m 6 X s 226 424 m 6 X s 222 414 m 5 Y s 236 414 m 5 Y s 229 416
 m20 243 420 m 3 Y s 243 434 m 2 Y s 236 428 m 1 X s 249 428 m 1 X s 240 420 m 6 X s 240 436 m 6 X s 236 425 m 6 Y s 250 425 m 6 Y s 243 428 m20 257 428 m 2 Y s 257 441 m 2 Y s 250 436 m 1 X s 262 436 m 2 X s 254 428 m 6 X s 254 443 m 6 X s 250 433 m
 6 Y s 264 433 m 6 Y s 257 436 m20 270 412 m 3 Y s 270 427 m 2 Y s 264 421 m 1 X s 276 421 m 1 X s 268 412 m 5 X s 268 429 m 5 X s 264 418 m 6 Y s 277 418 m 6 Y s 270 421 m20 284 414 m 3 Y s 284 429 m 2 Y s 277 423 m 2 X s 290 423 m 1 X s 281 414 m 6
 X s 281 431 m 6 X s 277 420 m 6 Y s 291 420 m 6 Y s 284 423 m20 298 426 m 2 Y s 298 440 m 1 Y s 291 434 m 1 X s 304 434 m 1 X s 295 426 m 6 X s 295 441 m 6 X s 291 431 m 6 Y s 305 431 m 6 Y s 298 434 m20 312 437 m 1 Y s 312 450 m s 305 444 m 1 X s
 318 444 m 1 X s 309 437 m 6 X s 309 450 m 6 X s 305 441 m 6 Y s 319 441 m 6 Y s 312 444 m20 326 441 m 1 Y s 326 453 m 1 Y s 319 448 m 1 X s 331 448 m 2 X s 323 441 m 5 X s 323 454 m 5 X s 319 445 m 5 Y s 333 445 m 5 Y s 326 448 m20 339 440 m 1 Y s
 339 453 m s 333 447 m 1 X s 345 447 m 1 X s 337 440 m 5 X s 337 453 m 5 X s 333 444 m 6 Y s 346 444 m 6 Y s 339 447 m20 353 448 m 1 Y s 353 461 m s 346 455 m 2 X s 359 455 m 1 X s 350 448 m 6 X s 350 461 m 6 X s 346 452 m 6 Y s 360 452 m 6 Y s 353
 455 m20 367 455 m 1 Y s 367 467 m s 360 461 m 1 X s 373 461 m 1 X s 364 455 m 6 X s 364 467 m 6 X s 360 458 m 6 Y s 374 458 m 6 Y s 367 461 m20 381 458 m 1 Y s 374 465 m 1 X s 386 465 m 2 X s 378 458 m 6 X s 374 462 m 5 Y s 388 462 m 5 Y s 381 465
 m20 388 477 m 1 X s 400 477 m 1 X s 388 475 m 5 Y s 401 475 m 5 Y s 395 477 m20 401 495 m 2 X s 414 495 m 1 X s 401 492 m 6 Y s 415 492 m 6 Y s 408 495 m20 415 497 m 1 X s 428 497 m 1 X s 415 494 m 6 Y s 429 494 m 6 Y s 422 497 m20 429 505 m 1 X s
 442 505 m 1 X s 429 502 m 6 Y s 443 502 m 6 Y s 436 505 m20 443 526 m 1 X s 455 526 m 2 X s 443 523 m 6 Y s 457 523 m 6 Y s 450 526 m20 457 537 m 1 X s 469 537 m 1 X s 457 535 m 5 Y s 470 535 m 5 Y s 464 537 m20 470 550 m 2 X s 483 550 m 1 X s 470
 547 m 6 Y s 484 547 m 6 Y s 477 550 m20 484 563 m 1 X s 497 563 m 1 X s 484 560 m 5 Y s 498 560 m 5 Y s 491 563 m20 498 589 m 1 X s 511 589 m 1 X s 498 586 m 5 Y s 512 586 m 5 Y s 505 589 m20 512 616 m 1 X s 524 616 m 2 X s 512 613 m 6 Y s 526 613 m
 6 Y s 519 616 m20 526 636 m 1 X s 538 636 m 1 X s 526 634 m 5 Y s 539 634 m 5 Y s 532 636 m20 539 660 m 2 X s 552 660 m 1 X s 539 657 m 6 Y s 553 657 m 6 Y s 546 660 m20 553 679 m 1 X s 566 679 m 1 X s 553 676 m 6 Y s 567 676 m 6 Y s 560 679 m20 567
 690 m 1 X s 579 690 m 2 X s 567 687 m 6 Y s 581 687 m 6 Y s 574 690 m20 581 686 m 1 X s 593 686 m 2 X s 581 684 m 5 Y s 595 684 m 5 Y s 588 686 m20 595 674 m 1 X s 607 674 m 1 X s 595 671 m 6 Y s 608 671 m 6 Y s 601 674 m20 608 653 m 2 X s 621 653 m
 1 X s 608 651 m 5 Y s 622 651 m 5 Y s 615 653 m20 622 624 m 1 X s 635 624 m 1 X s 622 622 m 5 Y s 636 622 m 5 Y s 629 624 m20 636 594 m 1 X s 648 594 m 2 X s 636 591 m 6 Y s 650 591 m 6 Y s 643 594 m20 650 564 m 1 X s 662 564 m 1 X s 650 562 m 5 Y s
 663 562 m 5 Y s 657 564 m20 663 539 m 2 X s 676 539 m 1 X s 663 537 m 5 Y s 677 537 m 5 Y s 670 539 m20 677 529 m 1 X s 690 529 m 1 X s 677 527 m 5 Y s 691 527 m 5 Y s 684 529 m20 691 508 m 1 X s 704 508 m 1 X s 691 505 m 6 Y s 705 505 m 6 Y s 698
 508 m20 705 491 m 1 X s 717 491 m 2 X s 705 488 m 6 Y s 719 488 m 6 Y s 712 491 m20 725 464 m s 719 470 m 1 X s 731 470 m 1 X s 723 464 m 5 X s 719 467 m 6 Y s 732 467 m 6 Y s 725 470 m20 739 440 m 1 Y s 739 453 m s 732 447 m 2 X s 745 447 m 1 X s
 736 440 m 6 X s 736 453 m 6 X s 732 444 m 6 Y s 746 444 m 6 Y s 739 447 m20 753 449 m 1 Y s 753 461 m 1 Y s 746 456 m 1 X s 759 456 m 1 X s 750 449 m 6 X s 750 462 m 6 X s 746 453 m 6 Y s 760 453 m 6 Y s 753 456 m20 767 426 m 2 Y s 767 440 m 1 Y s
 760 434 m 1 X s 773 434 m 1 X s 764 426 m 6 X s 764 441 m 6 X s 760 431 m 6 Y s 774 431 m 6 Y s 767 434 m20 781 427 m 2 Y s 781 440 m 2 Y s 774 435 m 1 X s 786 435 m 2 X s 778 427 m 5 X s 778 442 m 5 X s 774 432 m 6 Y s 788 432 m 6 Y s 781 435 m20
 794 430 m 2 Y s 794 443 m 1 Y s 788 437 m 1 X s 800 437 m 1 X s 792 430 m 5 X s 792 444 m 5 X s 788 435 m 5 Y s 801 435 m 5 Y s 794 437 m20 808 400 m 4 Y s 808 416 m 3 Y s 801 410 m 2 X s 814 410 m 1 X s 805 400 m 6 X s 805 419 m 6 X s 801 407 m 6 Y
 s 815 407 m 6 Y s 808 410 m20 822 413 m 3 Y s 822 428 m 2 Y s 815 422 m 1 X s 828 422 m 1 X s 819 413 m 6 X s 819 430 m 6 X s 815 419 m 6 Y s 829 419 m 6 Y s 822 422 m20 836 389 m 5 Y s 836 406 m 3 Y s 829 400 m 1 X s 841 400 m 2 X s 833 389 m 6 X s
 833 409 m 6 X s 829 397 m 6 Y s 843 397 m 6 Y s 836 400 m20 850 389 m 5 Y s 850 406 m 3 Y s 843 400 m 1 X s 855 400 m 1 X s 847 389 m 5 X s 847 409 m 5 X s 843 397 m 6 Y s 856 397 m 6 Y s 850 400 m20 863 391 m 5 Y s 863 407 m 4 Y s 856 402 m 2 X s
 869 402 m 1 X s 861 391 m 5 X s 861 411 m 5 X s 856 399 m 5 Y s 870 399 m 5 Y s 863 402 m20 877 372 m 7 Y s 877 390 m 4 Y s 870 384 m 1 X s 883 384 m 1 X s 874 372 m 6 X s 874 394 m 6 X s 870 381 m 6 Y s 884 381 m 6 Y s 877 384 m20 891 380 m 6 Y s
 891 397 m 4 Y s 884 392 m 1 X s 897 392 m 1 X s 888 380 m 6 X s 888 401 m 6 X s 884 389 m 6 Y s 898 389 m 6 Y s 891 392 m20 905 341 m 10 Y s 905 363 m 7 Y s 898 357 m 1 X s 910 357 m 2 X s 902 341 m 6 X s 902 370 m 6 X s 898 354 m 6 Y s 912 354 m 6
 Y s 905 357 m20 919 351 m 9 Y s 919 371 m 6 Y s 912 366 m 1 X s 924 366 m 1 X s 916 351 m 5 X s 916 377 m 5 X s 912 363 m 5 Y s 925 363 m 5 Y s 919 366 m20 932 374 m 6 Y s 932 392 m 4 Y s 925 386 m 2 X s 938 386 m 1 X s 929 374 m 6 X s 929 396 m 6 X
 s 925 383 m 6 Y s 939 383 m 6 Y s 932 386 m20 946 348 m 9 Y s 946 369 m 6 Y s 939 363 m 1 X s 952 363 m 1 X s 943 348 m 6 X s 943 375 m 6 X s 939 360 m 6 Y s 953 360 m 6 Y s 946 363 m20 960 334 m 11 Y s 960 356 m 8 Y s 953 350 m 1 X s 966 350 m 1 X
 s 957 334 m 6 X s 957 364 m 6 X s 953 348 m 5 Y s 967 348 m 5 Y s 960 350 m20 974 345 m 9 Y s 974 366 m 6 Y s 967 360 m 1 X s 979 360 m 2 X s 971 345 m 6 X s 971 372 m 6 X s 967 357 m 6 Y s 981 357 m 6 Y s 974 360 m20 black 153 118 m 828 X s 153 143
 m -25 Y s 181 130 m -12 Y s 208 130 m -12 Y s 236 130 m -12 Y s 264 130 m -12 Y s 291 143 m -25 Y s 319 130 m -12 Y s 346 130 m -12 Y s 374 130 m -12 Y s 401 130 m -12 Y s 429 143 m -25 Y s 457 130 m -12 Y s 484 130 m -12 Y s 512 130 m -12 Y s 539
 130 m -12 Y s 567 143 m -25 Y s 595 130 m -12 Y s 622 130 m -12 Y s 650 130 m -12 Y s 677 130 m -12 Y s 705 143 m -25 Y s 732 130 m -12 Y s 760 130 m -12 Y s 788 130 m -12 Y s 815 130 m -12 Y s 843 143 m -25 Y s 870 130 m -12 Y s 898 130 m -12 Y s
 925 130 m -12 Y s 953 130 m -12 Y s 981 143 m -25 Y s
 gsave  1088 1072 23 11 C 133.395 83.7267 t 0 r /Helvetica findfont 35.5047 sf 0 0 m (60) show NC gr 
 gsave  1088 1072 23 11 C 271.047 83.7267 t 0 r /Helvetica findfont 35.5047 sf 0 0 m (70) show NC gr 
 gsave  1088 1072 23 11 C 408.7 83.7267 t 0 r /Helvetica findfont 35.5047 sf 0 0 m (80) show NC gr 
 gsave  1088 1072 23 11 C 546.352 83.7267 t 0 r /Helvetica findfont 35.5047 sf 0 0 m (90) show NC gr 
 gsave  1088 1072 23 11 C 674.071 83.7267 t 0 r /Helvetica findfont 35.5047 sf 0 0 m (100) show NC gr 
 gsave  1088 1072 23 11 C 811.723 83.7267 t 0 r /Helvetica findfont 35.5047 sf 0 0 m (110) show NC gr 
 gsave  1088 1072 23 11 C 949.376 83.7267 t 0 r /Helvetica findfont 35.5047 sf 0 0 m (120) show NC gr 
 gsave  1088 1072 23 11 C 852.877 32.6392 t 0 r /Helvetica findfont 45.446 sf 0 0 m ( [GeV]) show NC gr 
 gsave  1088 1072 23 11 C 835.848 24.1246 t 0 r /Symbol findfont 29.8239 sf 0 0 m (m) show NC gr 
 gsave  1088 1072 23 11 C 818.819 24.1246 t 0 r /Symbol findfont 29.8239 sf 0 0 m (m) show NC gr 
 gsave  1088 1072 23 11 C 783.341 32.6392 t 0 r /Helvetica findfont 45.446 sf 0 0 m (M) show NC gr  153 118 m 858 Y s 166 118 m -13 X s 166 143 m -13 X s 166 161 m -13 X s 166 175 m -13 X s 166 186 m -13 X s 166 196 m -13 X s 166 204 m -13 X s 166
 212 m -13 X s 179 218 m -26 X s
 gsave  1088 1072 23 11 C 131.976 205.769 t 0 r /Helvetica findfont 32.6643 sf 0 0 m (1) show NC gr  166 261 m -13 X s 166 286 m -13 X s 166 304 m -13 X s 166 318 m -13 X s 166 330 m -13 X s 166 339 m -13 X s 166 347 m -13 X s 166 355 m -13 X s 179
 361 m -26 X s
 gsave  1088 1072 23 11 C 109.27 349.098 t 0 r /Helvetica findfont 32.6643 sf 0 0 m (10) show NC gr  166 404 m -13 X s 166 430 m -13 X s 166 447 m -13 X s 166 461 m -13 X s 166 473 m -13 X s 166 482 m -13 X s 166 491 m -13 X s 166 498 m -13 X s 179
 504 m -26 X s
 gsave  1088 1072 23 11 C 131.976 503.779 t 0 r /Helvetica findfont 22.723 sf 0 0 m (2) show NC gr 
 gsave  1088 1072 23 11 C 96.4986 489.588 t 0 r /Helvetica findfont 32.6643 sf 0 0 m (10) show NC gr  166 547 m -13 X s 166 573 m -13 X s 166 591 m -13 X s 166 604 m -13 X s 166 616 m -13 X s 166 625 m -13 X s 166 634 m -13 X s 166 641 m -13 X s 179
 648 m -26 X s
 gsave  1088 1072 23 11 C 131.976 648.527 t 0 r /Helvetica findfont 22.723 sf 0 0 m (3) show NC gr 
 gsave  1088 1072 23 11 C 96.4986 632.917 t 0 r /Helvetica findfont 32.6643 sf 0 0 m (10) show NC gr  166 691 m -13 X s 166 716 m -13 X s 166 734 m -13 X s 166 748 m -13 X s 166 759 m -13 X s 166 768 m -13 X s 166 777 m -13 X s 166 784 m -13 X s 179
 791 m -26 X s
 gsave  1088 1072 23 11 C 131.976 790.437 t 0 r /Helvetica findfont 22.723 sf 0 0 m (4) show NC gr 
 gsave  1088 1072 23 11 C 96.4986 776.246 t 0 r /Helvetica findfont 32.6643 sf 0 0 m (10) show NC gr  166 834 m -13 X s 166 859 m -13 X s 166 877 m -13 X s 166 891 m -13 X s 166 902 m -13 X s 166 912 m -13 X s 166 920 m -13 X s 166 927 m -13 X s 179
 934 m -26 X s
 gsave  1088 1072 23 11 C 131.976 933.766 t 0 r /Helvetica findfont 22.723 sf 0 0 m (5) show NC gr 
 gsave  1088 1072 23 11 C 96.4986 918.156 t 0 r /Helvetica findfont 32.6643 sf 0 0 m (10) show NC gr 
 gsave  1088 1072 23 11 C 69.5357 557.705 t 90 r /Helvetica findfont 45.446 sf 0 0 m (Entries / NormFactor) show NC gr  1 0 0 c 1 1 1 c 1 0 0 c 174 256 m 71 Y s 174 338 m 28 Y s 167 333 m 1 X s 180 333 m 1 X s 171 256 m 6 X s 171 366 m 6 X s 167 330
 m 6 Y s 181 330 m 6 Y s 174 333 m24 188 304 m 48 Y s 188 364 m 22 Y s 181 358 m 1 X s 193 358 m 2 X s 185 304 m 6 X s 185 386 m 6 X s 181 355 m 6 Y s 195 355 m 6 Y s 188 358 m24 202 304 m 48 Y s 202 364 m 22 Y s 195 358 m 1 X s 207 358 m 1 X s 199
 304 m 5 X s 199 386 m 5 X s 195 355 m 6 Y s 208 355 m 6 Y s 202 358 m24 215 256 m 71 Y s 215 338 m 28 Y s 208 333 m 2 X s 221 333 m 1 X s 213 256 m 5 X s 213 366 m 5 X s 208 330 m 6 Y s 222 330 m 6 Y s 215 333 m24 229 118 m 166 Y s 229 295 m 38 Y s
 222 290 m 1 X s 235 290 m 1 X s 226 118 m 6 X s 226 333 m 6 X s 222 287 m 5 Y s 236 287 m 5 Y s 229 290 m24 243 333 m 37 Y s 243 381 m 20 Y s 236 376 m 1 X s 249 376 m 1 X s 240 333 m 6 X s 240 401 m 6 X s 236 373 m 6 Y s 250 373 m 6 Y s 243 376 m24
 257 118 m 166 Y s 257 295 m 38 Y s 250 290 m 1 X s 262 290 m 2 X s 254 118 m 6 X s 254 333 m 6 X s 250 287 m 5 Y s 264 287 m 5 Y s 257 290 m24 270 118 m 166 Y s 270 295 m 38 Y s 264 290 m 1 X s 276 290 m 1 X s 268 118 m 5 X s 268 333 m 5 X s 264 287
 m 5 Y s 277 287 m 5 Y s 270 290 m24 284 256 m 71 Y s 284 338 m 28 Y s 277 333 m 2 X s 290 333 m 1 X s 281 256 m 6 X s 281 366 m 6 X s 277 330 m 6 Y s 291 330 m 6 Y s 284 333 m24 298 118 m 166 Y s 298 295 m 38 Y s 291 290 m 1 X s 304 290 m 1 X s 295
 118 m 6 X s 295 333 m 6 X s 291 287 m 5 Y s 305 287 m 5 Y s 298 290 m24 312 118 m 166 Y s 312 295 m 38 Y s 305 290 m 1 X s 318 290 m 1 X s 309 118 m 6 X s 309 333 m 6 X s 305 287 m 5 Y s 319 287 m 5 Y s 312 290 m24 326 118 m 166 Y s 326 295 m 38 Y s
 319 290 m 1 X s 331 290 m 2 X s 323 118 m 5 X s 323 333 m 5 X s 319 287 m 5 Y s 333 287 m 5 Y s 326 290 m24 339 118 m 166 Y s 339 295 m 38 Y s 333 290 m 1 X s 345 290 m 1 X s 337 118 m 5 X s 337 333 m 5 X s 333 287 m 5 Y s 346 287 m 5 Y s 339 290
 m24 353 118 m 166 Y s 353 295 m 38 Y s 346 290 m 2 X s 359 290 m 1 X s 350 118 m 6 X s 350 333 m 6 X s 346 287 m 5 Y s 360 287 m 5 Y s 353 290 m24 367 118 m 166 Y s 367 295 m 38 Y s 360 290 m 1 X s 373 290 m 1 X s 364 118 m 6 X s 364 333 m 6 X s 360
 287 m 5 Y s 374 287 m 5 Y s 367 290 m24 381 118 m 166 Y s 381 295 m 38 Y s 374 290 m 1 X s 386 290 m 2 X s 378 118 m 6 X s 378 333 m 6 X s 374 287 m 5 Y s 388 287 m 5 Y s 381 290 m24 395 118 m 166 Y s 395 295 m 38 Y s 388 290 m 1 X s 400 290 m 1 X s
 392 118 m 5 X s 392 333 m 5 X s 388 287 m 5 Y s 401 287 m 5 Y s 395 290 m24 436 118 m 166 Y s 436 295 m 38 Y s 429 290 m 1 X s 442 290 m 1 X s 433 118 m 6 X s 433 333 m 6 X s 429 287 m 5 Y s 443 287 m 5 Y s 436 290 m24 464 118 m 166 Y s 464 295 m 38
 Y s 457 290 m 1 X s 469 290 m 1 X s 461 118 m 5 X s 461 333 m 5 X s 457 287 m 5 Y s 470 287 m 5 Y s 464 290 m24 491 256 m 71 Y s 491 338 m 28 Y s 484 333 m 1 X s 497 333 m 1 X s 488 256 m 6 X s 488 366 m 6 X s 484 330 m 6 Y s 498 330 m 6 Y s 491 333
 m24 519 118 m 166 Y s 519 295 m 38 Y s 512 290 m 1 X s 524 290 m 2 X s 516 118 m 6 X s 516 333 m 6 X s 512 287 m 5 Y s 526 287 m 5 Y s 519 290 m24 546 256 m 71 Y s 546 338 m 28 Y s 539 333 m 2 X s 552 333 m 1 X s 543 256 m 6 X s 543 366 m 6 X s 539
 330 m 6 Y s 553 330 m 6 Y s 546 333 m24 560 304 m 48 Y s 560 364 m 22 Y s 553 358 m 1 X s 566 358 m 1 X s 557 304 m 6 X s 557 386 m 6 X s 553 355 m 6 Y s 567 355 m 6 Y s 560 358 m24 588 118 m 166 Y s 588 295 m 38 Y s 581 290 m 1 X s 593 290 m 2 X s
 585 118 m 5 X s 585 333 m 5 X s 581 287 m 5 Y s 595 287 m 5 Y s 588 290 m24 615 256 m 71 Y s 615 338 m 28 Y s 608 333 m 2 X s 621 333 m 1 X s 612 256 m 6 X s 612 366 m 6 X s 608 330 m 6 Y s 622 330 m 6 Y s 615 333 m24 629 118 m 166 Y s 629 295 m 38
 Y s 622 290 m 1 X s 635 290 m 1 X s 626 118 m 6 X s 626 333 m 6 X s 622 287 m 5 Y s 636 287 m 5 Y s 629 290 m24 643 256 m 71 Y s 643 338 m 28 Y s 636 333 m 1 X s 648 333 m 2 X s 640 256 m 6 X s 640 366 m 6 X s 636 330 m 6 Y s 650 330 m 6 Y s 643 333
 m24 684 118 m 166 Y s 684 295 m 38 Y s 677 290 m 1 X s 690 290 m 1 X s 681 118 m 6 X s 681 333 m 6 X s 677 287 m 5 Y s 691 287 m 5 Y s 684 290 m24 712 118 m 166 Y s 712 295 m 38 Y s 705 290 m 1 X s 717 290 m 2 X s 709 118 m 6 X s 709 333 m 6 X s 705
 287 m 5 Y s 719 287 m 5 Y s 712 290 m24 753 118 m 166 Y s 753 295 m 38 Y s 746 290 m 1 X s 759 290 m 1 X s 750 118 m 6 X s 750 333 m 6 X s 746 287 m 5 Y s 760 287 m 5 Y s 753 290 m24 781 118 m 166 Y s 781 295 m 38 Y s 774 290 m 1 X s 786 290 m 2 X s
 778 118 m 5 X s 778 333 m 5 X s 774 287 m 5 Y s 788 287 m 5 Y s 781 290 m24 808 118 m 166 Y s 808 295 m 38 Y s 801 290 m 2 X s 814 290 m 1 X s 805 118 m 6 X s 805 333 m 6 X s 801 287 m 5 Y s 815 287 m 5 Y s 808 290 m24 822 118 m 166 Y s 822 295 m 38
 Y s 815 290 m 1 X s 828 290 m 1 X s 819 118 m 6 X s 819 333 m 6 X s 815 287 m 5 Y s 829 287 m 5 Y s 822 290 m24 850 118 m 166 Y s 850 295 m 38 Y s 843 290 m 1 X s 855 290 m 1 X s 847 118 m 5 X s 847 333 m 5 X s 843 287 m 5 Y s 856 287 m 5 Y s 850
 290 m24 905 118 m 166 Y s 905 295 m 38 Y s 898 290 m 1 X s 910 290 m 2 X s 902 118 m 6 X s 902 333 m 6 X s 898 287 m 5 Y s 912 287 m 5 Y s 905 290 m24 black 1 1 1 c black 174 373 m 12 Y s 174 396 m 8 Y s 167 391 m 1 X s 180 391 m 1 X s 171 373 m 6 X
 s 171 404 m 6 X s 167 388 m 5 Y s 181 388 m 5 Y s 174 391 m20 188 407 m 8 Y s 188 426 m 6 Y s 181 421 m 1 X s 193 421 m 2 X s 185 407 m 6 X s 185 432 m 6 X s 181 418 m 6 Y s 195 418 m 6 Y s 188 421 m20 202 412 m 8 Y s 202 431 m 5 Y s 195 425 m 1 X s
 207 425 m 1 X s 199 412 m 5 X s 199 436 m 5 X s 195 422 m 6 Y s 208 422 m 6 Y s 202 425 m20 215 417 m 7 Y s 215 435 m 5 Y s 208 430 m 2 X s 221 430 m 1 X s 213 417 m 5 X s 213 440 m 5 X s 208 427 m 5 Y s 222 427 m 5 Y s 215 430 m20 229 412 m 8 Y s
 229 431 m 5 Y s 222 425 m 1 X s 235 425 m 1 X s 226 412 m 6 X s 226 436 m 6 X s 222 422 m 6 Y s 236 422 m 6 Y s 229 425 m20 243 415 m 7 Y s 243 433 m 5 Y s 236 427 m 1 X s 249 427 m 1 X s 240 415 m 6 X s 240 438 m 6 X s 236 425 m 5 Y s 250 425 m 5 Y
 s 243 427 m20 257 440 m 5 Y s 257 456 m 3 Y s 250 450 m 1 X s 262 450 m 2 X s 254 440 m 6 X s 254 459 m 6 X s 250 448 m 5 Y s 264 448 m 5 Y s 257 450 m20 270 438 m 5 Y s 270 455 m 3 Y s 264 449 m 1 X s 276 449 m 1 X s 268 438 m 5 X s 268 458 m 5 X s
 264 446 m 6 Y s 277 446 m 6 Y s 270 449 m20 284 433 m 6 Y s 284 450 m 4 Y s 277 444 m 2 X s 290 444 m 1 X s 281 433 m 6 X s 281 454 m 6 X s 277 441 m 6 Y s 291 441 m 6 Y s 284 444 m20 298 399 m 8 Y s 298 419 m 6 Y s 291 413 m 1 X s 304 413 m 1 X s
 295 399 m 6 X s 295 425 m 6 X s 291 410 m 6 Y s 305 410 m 6 Y s 298 413 m20 312 452 m 4 Y s 312 467 m 3 Y s 305 461 m 1 X s 318 461 m 1 X s 309 452 m 6 X s 309 470 m 6 X s 305 458 m 6 Y s 319 458 m 6 Y s 312 461 m20 326 450 m 4 Y s 326 466 m 2 Y s
 319 460 m 1 X s 331 460 m 2 X s 323 450 m 5 X s 323 468 m 5 X s 319 457 m 6 Y s 333 457 m 6 Y s 326 460 m20 339 464 m 3 Y s 339 478 m 2 Y s 333 473 m 1 X s 345 473 m 1 X s 337 464 m 5 X s 337 480 m 5 X s 333 470 m 5 Y s 346 470 m 5 Y s 339 473 m20
 353 457 m 3 Y s 353 472 m 2 Y s 346 466 m 2 X s 359 466 m 1 X s 350 457 m 6 X s 350 474 m 6 X s 346 463 m 6 Y s 360 463 m 6 Y s 353 466 m20 367 452 m 4 Y s 367 467 m 3 Y s 360 461 m 1 X s 373 461 m 1 X s 364 452 m 6 X s 364 470 m 6 X s 360 458 m 6 Y
 s 374 458 m 6 Y s 367 461 m20 381 464 m 3 Y s 381 478 m 2 Y s 374 473 m 1 X s 386 473 m 2 X s 378 464 m 6 X s 378 480 m 6 X s 374 470 m 5 Y s 388 470 m 5 Y s 381 473 m20 395 489 m 2 Y s 395 502 m 1 Y s 388 496 m 1 X s 400 496 m 1 X s 392 489 m 5 X s
 392 503 m 5 X s 388 494 m 5 Y s 401 494 m 5 Y s 395 496 m20 408 494 m 1 Y s 408 506 m 1 Y s 401 501 m 2 X s 414 501 m 1 X s 406 494 m 5 X s 406 507 m 5 X s 401 498 m 5 Y s 415 498 m 5 Y s 408 501 m20 422 491 m 1 Y s 422 504 m s 415 498 m 1 X s 428
 498 m 1 X s 419 491 m 6 X s 419 504 m 6 X s 415 495 m 6 Y s 429 495 m 6 Y s 422 498 m20 436 497 m 1 Y s 436 509 m 1 Y s 429 504 m 1 X s 442 504 m 1 X s 433 497 m 6 X s 433 510 m 6 X s 429 501 m 6 Y s 443 501 m 6 Y s 436 504 m20 443 522 m 1 X s 455
 522 m 2 X s 443 519 m 6 Y s 457 519 m 6 Y s 450 522 m20 457 529 m 1 X s 469 529 m 1 X s 457 526 m 6 Y s 470 526 m 6 Y s 464 529 m20 470 564 m 2 X s 483 564 m 1 X s 470 561 m 6 Y s 484 561 m 6 Y s 477 564 m20 484 564 m 1 X s 497 564 m 1 X s 484 561 m
 6 Y s 498 561 m 6 Y s 491 564 m20 498 594 m 1 X s 511 594 m 1 X s 498 591 m 6 Y s 512 591 m 6 Y s 505 594 m20 512 610 m 1 X s 524 610 m 2 X s 512 607 m 6 Y s 526 607 m 6 Y s 519 610 m20 526 639 m 1 X s 538 639 m 1 X s 526 636 m 6 Y s 539 636 m 6 Y s
 532 639 m20 539 656 m 2 X s 552 656 m 1 X s 539 654 m 5 Y s 553 654 m 5 Y s 546 656 m20 553 678 m 1 X s 566 678 m 1 X s 553 675 m 6 Y s 567 675 m 6 Y s 560 678 m20 567 687 m 1 X s 579 687 m 2 X s 567 684 m 6 Y s 581 684 m 6 Y s 574 687 m20 581 689 m
 1 X s 593 689 m 2 X s 581 686 m 5 Y s 595 686 m 5 Y s 588 689 m20 595 671 m 1 X s 607 671 m 1 X s 595 668 m 6 Y s 608 668 m 6 Y s 601 671 m20 608 648 m 2 X s 621 648 m 1 X s 608 645 m 6 Y s 622 645 m 6 Y s 615 648 m20 622 624 m 1 X s 635 624 m 1 X s
 622 621 m 6 Y s 636 621 m 6 Y s 629 624 m20 636 593 m 1 X s 648 593 m 2 X s 636 590 m 6 Y s 650 590 m 6 Y s 643 593 m20 650 565 m 1 X s 662 565 m 1 X s 650 562 m 6 Y s 663 562 m 6 Y s 657 565 m20 663 549 m 2 X s 676 549 m 1 X s 663 546 m 6 Y s 677
 546 m 6 Y s 670 549 m20 677 529 m 1 X s 690 529 m 1 X s 677 526 m 6 Y s 691 526 m 6 Y s 684 529 m20 698 505 m 1 Y s 691 511 m 1 X s 704 511 m 1 X s 695 505 m 6 X s 691 509 m 5 Y s 705 509 m 5 Y s 698 511 m20 712 481 m 2 Y s 712 495 m 1 Y s 705 489 m
 1 X s 717 489 m 2 X s 709 481 m 6 X s 709 496 m 6 X s 705 486 m 6 Y s 719 486 m 6 Y s 712 489 m20 725 471 m 3 Y s 725 485 m 2 Y s 719 480 m 1 X s 731 480 m 1 X s 723 471 m 5 X s 723 487 m 5 X s 719 477 m 5 Y s 732 477 m 5 Y s 725 480 m20 739 459 m 4
 Y s 739 474 m 2 Y s 732 468 m 2 X s 745 468 m 1 X s 736 459 m 6 X s 736 476 m 6 X s 732 466 m 5 Y s 746 466 m 5 Y s 739 468 m20 753 461 m 3 Y s 753 475 m 2 Y s 746 469 m 1 X s 759 469 m 1 X s 750 461 m 6 X s 750 477 m 6 X s 746 467 m 5 Y s 760 467 m
 5 Y s 753 469 m20 767 450 m 4 Y s 767 466 m 2 Y s 760 460 m 1 X s 773 460 m 1 X s 764 450 m 6 X s 764 468 m 6 X s 760 457 m 6 Y s 774 457 m 6 Y s 767 460 m20 781 445 m 4 Y s 781 460 m 3 Y s 774 455 m 1 X s 786 455 m 2 X s 778 445 m 5 X s 778 463 m 5
 X s 774 452 m 6 Y s 788 452 m 6 Y s 781 455 m20 794 415 m 7 Y s 794 433 m 5 Y s 788 427 m 1 X s 800 427 m 1 X s 792 415 m 5 X s 792 438 m 5 X s 788 425 m 5 Y s 801 425 m 5 Y s 794 427 m20 808 363 m 14 Y s 808 388 m 9 Y s 801 382 m 2 X s 814 382 m 1
 X s 805 363 m 6 X s 805 397 m 6 X s 801 379 m 6 Y s 815 379 m 6 Y s 808 382 m20 822 415 m 7 Y s 822 433 m 5 Y s 815 427 m 1 X s 828 427 m 1 X s 819 415 m 6 X s 819 438 m 6 X s 815 425 m 5 Y s 829 425 m 5 Y s 822 427 m20 836 345 m 17 Y s 836 373 m 11
 Y s 829 367 m 1 X s 841 367 m 2 X s 833 345 m 6 X s 833 384 m 6 X s 829 364 m 6 Y s 843 364 m 6 Y s 836 367 m20 850 395 m 10 Y s 850 416 m 6 Y s 843 410 m 1 X s 855 410 m 1 X s 847 395 m 5 X s 847 422 m 5 X s 843 407 m 6 Y s 856 407 m 6 Y s 850 410
 m20 863 389 m 10 Y s 863 410 m 7 Y s 856 404 m 2 X s 869 404 m 1 X s 861 389 m 5 X s 861 417 m 5 X s 856 402 m 5 Y s 870 402 m 5 Y s 863 404 m20 877 351 m 16 Y s 877 378 m 10 Y s 870 373 m 1 X s 883 373 m 1 X s 874 351 m 6 X s 874 388 m 6 X s 870
 370 m 5 Y s 884 370 m 5 Y s 877 373 m20 891 377 m 12 Y s 891 400 m 8 Y s 884 394 m 1 X s 897 394 m 1 X s 888 377 m 6 X s 888 408 m 6 X s 884 391 m 6 Y s 898 391 m 6 Y s 891 394 m20 905 392 m 10 Y s 905 413 m 7 Y s 898 407 m 1 X s 910 407 m 2 X s 902
 392 m 6 X s 902 420 m 6 X s 898 405 m 5 Y s 912 405 m 5 Y s 905 407 m20 919 385 m 11 Y s 919 407 m 7 Y s 912 401 m 1 X s 924 401 m 1 X s 916 385 m 5 X s 916 414 m 5 X s 912 398 m 6 Y s 925 398 m 6 Y s 919 401 m20 932 345 m 17 Y s 932 373 m 11 Y s
 925 367 m 2 X s 938 367 m 1 X s 929 345 m 6 X s 929 384 m 6 X s 925 364 m 6 Y s 939 364 m 6 Y s 932 367 m20 946 368 m 13 Y s 946 392 m 9 Y s 939 386 m 1 X s 952 386 m 1 X s 943 368 m 6 X s 943 401 m 6 X s 939 384 m 5 Y s 953 384 m 5 Y s 946 386 m20
 960 351 m 16 Y s 960 378 m 10 Y s 953 373 m 1 X s 966 373 m 1 X s 957 351 m 6 X s 957 388 m 6 X s 953 370 m 5 Y s 967 370 m 5 Y s 960 373 m20 974 320 m 22 Y s 974 353 m 13 Y s 967 347 m 1 X s 979 347 m 2 X s 971 320 m 6 X s 971 366 m 6 X s 967 345 m
 5 Y s 981 345 m 5 Y s 974 347 m20 1 1 1 c black 174 310 m 23 Y s 174 345 m 14 Y s 167 339 m 1 X s 180 339 m 1 X s 171 310 m 6 X s 171 359 m 6 X s 167 336 m 6 Y s 181 336 m 6 Y s 174 339 m24 188 281 m 32 Y s 188 324 m 17 Y s 181 318 m 1 X s 193 318 m
 2 X s 185 281 m 6 X s 185 341 m 6 X s 181 315 m 6 Y s 195 315 m 6 Y s 188 318 m24 202 185 m 71 Y s 202 267 m 28 Y s 195 261 m 1 X s 207 261 m 1 X s 199 185 m 5 X s 199 295 m 5 X s 195 258 m 6 Y s 208 258 m 6 Y s 202 261 m24 215 261 m 38 Y s 215 310
 m 20 Y s 208 304 m 2 X s 221 304 m 1 X s 213 261 m 5 X s 213 330 m 5 X s 208 302 m 5 Y s 222 302 m 5 Y s 215 304 m24 229 233 m 48 Y s 229 292 m 23 Y s 222 286 m 1 X s 235 286 m 1 X s 226 233 m 6 X s 226 315 m 6 X s 222 284 m 5 Y s 236 284 m 5 Y s
 229 286 m24 243 261 m 38 Y s 243 310 m 20 Y s 236 304 m 1 X s 249 304 m 1 X s 240 261 m 6 X s 240 330 m 6 X s 236 302 m 5 Y s 250 302 m 5 Y s 243 304 m24 257 297 m 27 Y s 257 335 m 16 Y s 250 330 m 1 X s 262 330 m 2 X s 254 297 m 6 X s 254 351 m 6 X
 s 250 327 m 5 Y s 264 327 m 5 Y s 257 330 m24 270 261 m 38 Y s 270 310 m 20 Y s 264 304 m 1 X s 276 304 m 1 X s 268 261 m 5 X s 268 330 m 5 X s 264 302 m 5 Y s 277 302 m 5 Y s 270 304 m24 284 281 m 32 Y s 284 324 m 17 Y s 277 318 m 2 X s 290 318 m 1
 X s 281 281 m 6 X s 281 341 m 6 X s 277 315 m 6 Y s 291 315 m 6 Y s 284 318 m24 298 118 m 95 Y s 298 224 m 37 Y s 291 218 m 1 X s 304 218 m 1 X s 295 118 m 6 X s 295 261 m 6 X s 291 215 m 6 Y s 305 215 m 6 Y s 298 218 m24 312 233 m 48 Y s 312 292 m
 23 Y s 305 286 m 1 X s 318 286 m 1 X s 309 233 m 6 X s 309 315 m 6 X s 305 284 m 5 Y s 319 284 m 5 Y s 312 286 m24 326 281 m 32 Y s 326 324 m 17 Y s 319 318 m 1 X s 331 318 m 2 X s 323 281 m 5 X s 323 341 m 5 X s 319 315 m 6 Y s 333 315 m 6 Y s 326
 318 m24 339 320 m 22 Y s 339 353 m 13 Y s 333 347 m 1 X s 345 347 m 1 X s 337 320 m 5 X s 337 366 m 5 X s 333 345 m 5 Y s 346 345 m 5 Y s 339 347 m24 353 330 m 19 Y s 353 360 m 13 Y s 346 355 m 2 X s 359 355 m 1 X s 350 330 m 6 X s 350 373 m 6 X s
 346 352 m 6 Y s 360 352 m 6 Y s 353 355 m24 367 185 m 71 Y s 367 267 m 28 Y s 360 261 m 1 X s 373 261 m 1 X s 364 185 m 6 X s 364 295 m 6 X s 360 258 m 6 Y s 374 258 m 6 Y s 367 261 m24 381 118 m 95 Y s 381 224 m 37 Y s 374 218 m 1 X s 386 218 m 2 X
 s 378 118 m 6 X s 378 261 m 6 X s 374 215 m 6 Y s 388 215 m 6 Y s 381 218 m24 395 281 m 32 Y s 395 324 m 17 Y s 388 318 m 1 X s 400 318 m 1 X s 392 281 m 5 X s 392 341 m 5 X s 388 315 m 6 Y s 401 315 m 6 Y s 395 318 m24 408 185 m 71 Y s 408 267 m 28
 Y s 401 261 m 2 X s 414 261 m 1 X s 406 185 m 5 X s 406 295 m 5 X s 401 258 m 6 Y s 415 258 m 6 Y s 408 261 m24 422 185 m 71 Y s 422 267 m 28 Y s 415 261 m 1 X s 428 261 m 1 X s 419 185 m 6 X s 419 295 m 6 X s 415 258 m 6 Y s 429 258 m 6 Y s 422 261
 m24 436 233 m 48 Y s 436 292 m 23 Y s 429 286 m 1 X s 442 286 m 1 X s 433 233 m 6 X s 433 315 m 6 X s 429 284 m 5 Y s 443 284 m 5 Y s 436 286 m24 450 233 m 48 Y s 450 292 m 23 Y s 443 286 m 1 X s 455 286 m 2 X s 447 233 m 6 X s 447 315 m 6 X s 443
 284 m 5 Y s 457 284 m 5 Y s 450 286 m24 464 233 m 48 Y s 464 292 m 23 Y s 457 286 m 1 X s 469 286 m 1 X s 461 233 m 5 X s 461 315 m 5 X s 457 284 m 5 Y s 470 284 m 5 Y s 464 286 m24 477 281 m 32 Y s 477 324 m 17 Y s 470 318 m 2 X s 483 318 m 1 X s
 474 281 m 6 X s 474 341 m 6 X s 470 315 m 6 Y s 484 315 m 6 Y s 477 318 m24 491 185 m 71 Y s 491 267 m 28 Y s 484 261 m 1 X s 497 261 m 1 X s 488 185 m 6 X s 488 295 m 6 X s 484 258 m 6 Y s 498 258 m 6 Y s 491 261 m24 505 118 m 95 Y s 505 224 m 37 Y
 s 498 218 m 1 X s 511 218 m 1 X s 502 118 m 6 X s 502 261 m 6 X s 498 215 m 6 Y s 512 215 m 6 Y s 505 218 m24 519 233 m 48 Y s 519 292 m 23 Y s 512 286 m 1 X s 524 286 m 2 X s 516 233 m 6 X s 516 315 m 6 X s 512 284 m 5 Y s 526 284 m 5 Y s 519 286
 m24 532 118 m 95 Y s 532 224 m 37 Y s 526 218 m 1 X s 538 218 m 1 X s 530 118 m 5 X s 530 261 m 5 X s 526 215 m 6 Y s 539 215 m 6 Y s 532 218 m24 546 281 m 32 Y s 546 324 m 17 Y s 539 318 m 2 X s 552 318 m 1 X s 543 281 m 6 X s 543 341 m 6 X s 539
 315 m 6 Y s 553 315 m 6 Y s 546 318 m24 560 233 m 48 Y s 560 292 m 23 Y s 553 286 m 1 X s 566 286 m 1 X s 557 233 m 6 X s 557 315 m 6 X s 553 284 m 5 Y s 567 284 m 5 Y s 560 286 m24 574 185 m 71 Y s 574 267 m 28 Y s 567 261 m 1 X s 579 261 m 2 X s
 571 185 m 6 X s 571 295 m 6 X s 567 258 m 6 Y s 581 258 m 6 Y s 574 261 m24 588 233 m 48 Y s 588 292 m 23 Y s 581 286 m 1 X s 593 286 m 2 X s 585 233 m 5 X s 585 315 m 5 X s 581 284 m 5 Y s 595 284 m 5 Y s 588 286 m24 601 281 m 32 Y s 601 324 m 17 Y
 s 595 318 m 1 X s 607 318 m 1 X s 599 281 m 5 X s 599 341 m 5 X s 595 315 m 6 Y s 608 315 m 6 Y s 601 318 m24 615 118 m 95 Y s 615 224 m 37 Y s 608 218 m 2 X s 621 218 m 1 X s 612 118 m 6 X s 612 261 m 6 X s 608 215 m 6 Y s 622 215 m 6 Y s 615 218
 m24 629 297 m 27 Y s 629 335 m 16 Y s 622 330 m 1 X s 635 330 m 1 X s 626 297 m 6 X s 626 351 m 6 X s 622 327 m 5 Y s 636 327 m 5 Y s 629 330 m24 657 118 m 95 Y s 657 224 m 37 Y s 650 218 m 1 X s 662 218 m 1 X s 654 118 m 5 X s 654 261 m 5 X s 650
 215 m 6 Y s 663 215 m 6 Y s 657 218 m24 684 185 m 71 Y s 684 267 m 28 Y s 677 261 m 1 X s 690 261 m 1 X s 681 185 m 6 X s 681 295 m 6 X s 677 258 m 6 Y s 691 258 m 6 Y s 684 261 m24 698 233 m 48 Y s 698 292 m 23 Y s 691 286 m 1 X s 704 286 m 1 X s
 695 233 m 6 X s 695 315 m 6 X s 691 284 m 5 Y s 705 284 m 5 Y s 698 286 m24 712 118 m 95 Y s 712 224 m 37 Y s 705 218 m 1 X s 717 218 m 2 X s 709 118 m 6 X s 709 261 m 6 X s 705 215 m 6 Y s 719 215 m 6 Y s 712 218 m24 725 261 m 38 Y s 725 310 m 20 Y
 s 719 304 m 1 X s 731 304 m 1 X s 723 261 m 5 X s 723 330 m 5 X s 719 302 m 5 Y s 732 302 m 5 Y s 725 304 m24 753 185 m 71 Y s 753 267 m 28 Y s 746 261 m 1 X s 759 261 m 1 X s 750 185 m 6 X s 750 295 m 6 X s 746 258 m 6 Y s 760 258 m 6 Y s 753 261
 m24 767 185 m 71 Y s 767 267 m 28 Y s 760 261 m 1 X s 773 261 m 1 X s 764 185 m 6 X s 764 295 m 6 X s 760 258 m 6 Y s 774 258 m 6 Y s 767 261 m24 781 185 m 71 Y s 781 267 m 28 Y s 774 261 m 1 X s 786 261 m 2 X s 778 185 m 5 X s 778 295 m 5 X s 774
 258 m 6 Y s 788 258 m 6 Y s 781 261 m24 808 118 m 95 Y s 808 224 m 37 Y s 801 218 m 2 X s 814 218 m 1 X s 805 118 m 6 X s 805 261 m 6 X s 801 215 m 6 Y s 815 215 m 6 Y s 808 218 m24 822 185 m 71 Y s 822 267 m 28 Y s 815 261 m 1 X s 828 261 m 1 X s
 819 185 m 6 X s 819 295 m 6 X s 815 258 m 6 Y s 829 258 m 6 Y s 822 261 m24 836 118 m 95 Y s 836 224 m 37 Y s 829 218 m 1 X s 841 218 m 2 X s 833 118 m 6 X s 833 261 m 6 X s 829 215 m 6 Y s 843 215 m 6 Y s 836 218 m24 850 185 m 71 Y s 850 267 m 28 Y
 s 843 261 m 1 X s 855 261 m 1 X s 847 185 m 5 X s 847 295 m 5 X s 843 258 m 6 Y s 856 258 m 6 Y s 850 261 m24 863 185 m 71 Y s 863 267 m 28 Y s 856 261 m 2 X s 869 261 m 1 X s 861 185 m 5 X s 861 295 m 5 X s 856 258 m 6 Y s 870 258 m 6 Y s 863 261
 m24 877 233 m 48 Y s 877 292 m 23 Y s 870 286 m 1 X s 883 286 m 1 X s 874 233 m 6 X s 874 315 m 6 X s 870 284 m 5 Y s 884 284 m 5 Y s 877 286 m24 891 118 m 95 Y s 891 224 m 37 Y s 884 218 m 1 X s 897 218 m 1 X s 888 118 m 6 X s 888 261 m 6 X s 884
 215 m 6 Y s 898 215 m 6 Y s 891 218 m24 905 185 m 71 Y s 905 267 m 28 Y s 898 261 m 1 X s 910 261 m 2 X s 902 185 m 6 X s 902 295 m 6 X s 898 258 m 6 Y s 912 258 m 6 Y s 905 261 m24 919 185 m 71 Y s 919 267 m 28 Y s 912 261 m 1 X s 924 261 m 1 X s
 916 185 m 5 X s 916 295 m 5 X s 912 258 m 6 Y s 925 258 m 6 Y s 919 261 m24 946 233 m 48 Y s 946 292 m 23 Y s 939 286 m 1 X s 952 286 m 1 X s 943 233 m 6 X s 943 315 m 6 X s 939 284 m 5 Y s 953 284 m 5 Y s 946 286 m24 960 118 m 95 Y s 960 224 m 37 Y
 s 953 218 m 1 X s 966 218 m 1 X s 957 118 m 6 X s 957 261 m 6 X s 953 215 m 6 Y s 967 215 m 6 Y s 960 218 m24 0 0 1 c[ 12 12] 0 sd 6 lw 443 118 m 529 Y s 719 118 m 529 Y s black[  ] 0 sd 3 lw 1 1 1 c 272 268 186 654 bf black
 gsave  1088 1072 23 11 C 252.599 874.164 t 0 r /Helvetica findfont 39.7652 sf 0 0 m (OC data: 15143) show NC gr  220 889 m20
 gsave  1088 1072 23 11 C 252.599 807.466 t 0 r /Helvetica findfont 39.7652 sf 0 0 m (SC data: 162) show NC gr  220 822 m24
 gsave  1088 1072 23 11 C 252.599 740.768 t 0 r /Helvetica findfont 39.7652 sf 0 0 m (OC MC: 32469) show NC gr  1 0 0 c 220 755 m20 black
 gsave  1088 1072 23 11 C 252.599 674.071 t 0 r /Helvetica findfont 39.7652 sf 0 0 m (SC MC: 51) show NC gr  1 0 0 c 220 688 m24 black
 gsave  1088 1072 23 11 C 566.22 901.126 t 0 r /Helvetica-Bold findfont 59.6478 sf 0 0 m (pp collisions) show NC gr  1 1 1 c 1088 1072 1157 11 bf black 1 1 1 c 827 858 1287 118 bf black 827 858 1287 118 bl 1 1 1 c 827 858 1287 118 bf black 827 858
 1287 118 bl 1 0 0 c 1 1 1 c 1 0 0 c 1308 388 m 5 Y s 1308 404 m 4 Y s 1301 398 m 1 X s 1314 398 m 1 X s 1305 388 m 6 X s 1305 408 m 6 X s 1301 396 m 5 Y s 1315 396 m 5 Y s 1308 398 m20 1322 382 m 6 Y s 1322 399 m 4 Y s 1315 393 m 1 X s 1327 393 m 2
 X s 1319 382 m 5 X s 1319 403 m 5 X s 1315 391 m 5 Y s 1329 391 m 5 Y s 1322 393 m20 1335 406 m 3 Y s 1335 421 m 2 Y s 1329 415 m 1 X s 1341 415 m 1 X s 1333 406 m 5 X s 1333 423 m 5 X s 1329 412 m 6 Y s 1342 412 m 6 Y s 1335 415 m20 1349 391 m 5 Y
 s 1349 407 m 4 Y s 1342 402 m 2 X s 1355 402 m 1 X s 1346 391 m 6 X s 1346 411 m 6 X s 1342 399 m 5 Y s 1356 399 m 5 Y s 1349 402 m20 1363 407 m 4 Y s 1363 422 m 2 Y s 1356 416 m 1 X s 1369 416 m 1 X s 1360 407 m 6 X s 1360 424 m 6 X s 1356 414 m 5
 Y s 1370 414 m 5 Y s 1363 416 m20 1377 420 m 3 Y s 1377 434 m 2 Y s 1370 428 m 1 X s 1382 428 m 2 X s 1374 420 m 6 X s 1374 436 m 6 X s 1370 425 m 6 Y s 1384 425 m 6 Y s 1377 428 m20 1391 428 m 2 Y s 1391 441 m 2 Y s 1384 436 m 1 X s 1396 436 m 1 X
 s 1388 428 m 5 X s 1388 443 m 5 X s 1384 433 m 6 Y s 1397 433 m 6 Y s 1391 436 m20 1404 412 m 3 Y s 1404 427 m 2 Y s 1397 421 m 2 X s 1410 421 m 1 X s 1402 412 m 5 X s 1402 429 m 5 X s 1397 418 m 6 Y s 1411 418 m 6 Y s 1404 421 m20 1418 414 m 3 Y s
 1418 429 m 2 Y s 1411 423 m 1 X s 1424 423 m 1 X s 1415 414 m 6 X s 1415 431 m 6 X s 1411 420 m 6 Y s 1425 420 m 6 Y s 1418 423 m20 1432 426 m 2 Y s 1432 440 m 1 Y s 1425 434 m 1 X s 1438 434 m 1 X s 1429 426 m 6 X s 1429 441 m 6 X s 1425 431 m 6 Y
 s 1439 431 m 6 Y s 1432 434 m20 1446 437 m 1 Y s 1446 450 m s 1439 444 m 1 X s 1451 444 m 2 X s 1443 437 m 6 X s 1443 450 m 6 X s 1439 441 m 6 Y s 1453 441 m 6 Y s 1446 444 m20 1460 441 m 1 Y s 1460 453 m 1 Y s 1453 448 m 1 X s 1465 448 m 1 X s 1457
 441 m 5 X s 1457 454 m 5 X s 1453 445 m 5 Y s 1466 445 m 5 Y s 1460 448 m20 1473 440 m 1 Y s 1473 453 m s 1466 447 m 2 X s 1479 447 m 1 X s 1470 440 m 6 X s 1470 453 m 6 X s 1466 444 m 6 Y s 1480 444 m 6 Y s 1473 447 m20 1487 448 m 1 Y s 1487 461 m
 s 1480 455 m 1 X s 1493 455 m 1 X s 1484 448 m 6 X s 1484 461 m 6 X s 1480 452 m 6 Y s 1494 452 m 6 Y s 1487 455 m20 1501 455 m 1 Y s 1501 467 m s 1494 461 m 1 X s 1507 461 m 1 X s 1498 455 m 6 X s 1498 467 m 6 X s 1494 458 m 6 Y s 1508 458 m 6 Y s
 1501 461 m20 1515 458 m 1 Y s 1508 465 m 1 X s 1520 465 m 2 X s 1512 458 m 5 X s 1508 462 m 5 Y s 1522 462 m 5 Y s 1515 465 m20 1522 477 m 1 X s 1534 477 m 1 X s 1522 475 m 5 Y s 1535 475 m 5 Y s 1528 477 m20 1535 495 m 2 X s 1548 495 m 1 X s 1535
 492 m 6 Y s 1549 492 m 6 Y s 1542 495 m20 1549 497 m 1 X s 1562 497 m 1 X s 1549 494 m 6 Y s 1563 494 m 6 Y s 1556 497 m20 1563 505 m 1 X s 1575 505 m 2 X s 1563 502 m 6 Y s 1577 502 m 6 Y s 1570 505 m20 1577 526 m 1 X s 1589 526 m 1 X s 1577 523 m
 6 Y s 1590 523 m 6 Y s 1584 526 m20 1590 537 m 2 X s 1603 537 m 1 X s 1590 535 m 5 Y s 1604 535 m 5 Y s 1597 537 m20 1604 550 m 1 X s 1617 550 m 1 X s 1604 547 m 6 Y s 1618 547 m 6 Y s 1611 550 m20 1618 563 m 1 X s 1631 563 m 1 X s 1618 560 m 5 Y s
 1632 560 m 5 Y s 1625 563 m20 1632 589 m 1 X s 1644 589 m 2 X s 1632 586 m 5 Y s 1646 586 m 5 Y s 1639 589 m20 1646 616 m 1 X s 1658 616 m 1 X s 1646 613 m 6 Y s 1659 613 m 6 Y s 1653 616 m20 1659 636 m 2 X s 1672 636 m 1 X s 1659 634 m 5 Y s 1673
 634 m 5 Y s 1666 636 m20 1673 660 m 1 X s 1686 660 m 1 X s 1673 657 m 6 Y s 1687 657 m 6 Y s 1680 660 m20 1687 679 m 1 X s 1700 679 m 1 X s 1687 676 m 6 Y s 1701 676 m 6 Y s 1694 679 m20 1701 690 m 1 X s 1713 690 m 2 X s 1701 687 m 6 Y s 1715 687 m
 6 Y s 1708 690 m20 1715 686 m 1 X s 1727 686 m 1 X s 1715 684 m 5 Y s 1728 684 m 5 Y s 1721 686 m20 1728 674 m 2 X s 1741 674 m 1 X s 1728 671 m 6 Y s 1742 671 m 6 Y s 1735 674 m20 1742 653 m 1 X s 1755 653 m 1 X s 1742 651 m 5 Y s 1756 651 m 5 Y s
 1749 653 m20 1756 624 m 1 X s 1769 624 m 1 X s 1756 622 m 5 Y s 1770 622 m 5 Y s 1763 624 m20 1770 594 m 1 X s 1782 594 m 2 X s 1770 591 m 6 Y s 1784 591 m 6 Y s 1777 594 m20 1784 564 m 1 X s 1796 564 m 1 X s 1784 562 m 5 Y s 1797 562 m 5 Y s 1790
 564 m20 1797 539 m 2 X s 1810 539 m 1 X s 1797 537 m 5 Y s 1811 537 m 5 Y s 1804 539 m20 1811 529 m 1 X s 1824 529 m 1 X s 1811 527 m 5 Y s 1825 527 m 5 Y s 1818 529 m20 1825 508 m 1 X s 1837 508 m 2 X s 1825 505 m 6 Y s 1839 505 m 6 Y s 1832 508
 m20 1839 491 m 1 X s 1851 491 m 1 X s 1839 488 m 6 Y s 1852 488 m 6 Y s 1846 491 m20 1859 464 m s 1852 470 m 2 X s 1865 470 m 1 X s 1857 464 m 5 X s 1852 467 m 6 Y s 1866 467 m 6 Y s 1859 470 m20 1873 440 m 1 Y s 1873 453 m s 1866 447 m 1 X s 1879
 447 m 1 X s 1870 440 m 6 X s 1870 453 m 6 X s 1866 444 m 6 Y s 1880 444 m 6 Y s 1873 447 m20 1887 449 m 1 Y s 1887 461 m 1 Y s 1880 456 m 1 X s 1893 456 m 1 X s 1884 449 m 6 X s 1884 462 m 6 X s 1880 453 m 6 Y s 1894 453 m 6 Y s 1887 456 m20 1901
 426 m 2 Y s 1901 440 m 1 Y s 1894 434 m 1 X s 1906 434 m 2 X s 1898 426 m 6 X s 1898 441 m 6 X s 1894 431 m 6 Y s 1908 431 m 6 Y s 1901 434 m20 1914 427 m 2 Y s 1914 440 m 2 Y s 1908 435 m 1 X s 1920 435 m 1 X s 1912 427 m 5 X s 1912 442 m 5 X s
 1908 432 m 6 Y s 1921 432 m 6 Y s 1914 435 m20 1928 430 m 2 Y s 1928 443 m 1 Y s 1921 437 m 2 X s 1934 437 m 1 X s 1925 430 m 6 X s 1925 444 m 6 X s 1921 435 m 5 Y s 1935 435 m 5 Y s 1928 437 m20 1942 400 m 4 Y s 1942 416 m 3 Y s 1935 410 m 1 X s
 1948 410 m 1 X s 1939 400 m 6 X s 1939 419 m 6 X s 1935 407 m 6 Y s 1949 407 m 6 Y s 1942 410 m20 1956 413 m 3 Y s 1956 428 m 2 Y s 1949 422 m 1 X s 1962 422 m 1 X s 1953 413 m 6 X s 1953 430 m 6 X s 1949 419 m 6 Y s 1963 419 m 6 Y s 1956 422 m20
 1970 389 m 5 Y s 1970 406 m 3 Y s 1963 400 m 1 X s 1975 400 m 2 X s 1967 389 m 5 X s 1967 409 m 5 X s 1963 397 m 6 Y s 1977 397 m 6 Y s 1970 400 m20 1983 389 m 5 Y s 1983 406 m 3 Y s 1977 400 m 1 X s 1989 400 m 1 X s 1981 389 m 5 X s 1981 409 m 5 X
 s 1977 397 m 6 Y s 1990 397 m 6 Y s 1983 400 m20 1997 391 m 5 Y s 1997 407 m 4 Y s 1990 402 m 2 X s 2003 402 m 1 X s 1994 391 m 6 X s 1994 411 m 6 X s 1990 399 m 5 Y s 2004 399 m 5 Y s 1997 402 m20 2011 372 m 7 Y s 2011 390 m 4 Y s 2004 384 m 1 X s
 2017 384 m 1 X s 2008 372 m 6 X s 2008 394 m 6 X s 2004 381 m 6 Y s 2018 381 m 6 Y s 2011 384 m20 2025 380 m 6 Y s 2025 397 m 4 Y s 2018 392 m 1 X s 2030 392 m 2 X s 2022 380 m 6 X s 2022 401 m 6 X s 2018 389 m 6 Y s 2032 389 m 6 Y s 2025 392 m20
 2039 341 m 10 Y s 2039 363 m 7 Y s 2032 357 m 1 X s 2044 357 m 1 X s 2036 341 m 5 X s 2036 370 m 5 X s 2032 354 m 6 Y s 2045 354 m 6 Y s 2039 357 m20 2052 351 m 9 Y s 2052 371 m 6 Y s 2045 366 m 2 X s 2058 366 m 1 X s 2050 351 m 5 X s 2050 377 m 5 X
 s 2045 363 m 5 Y s 2059 363 m 5 Y s 2052 366 m20 2066 374 m 6 Y s 2066 392 m 4 Y s 2059 386 m 1 X s 2072 386 m 1 X s 2063 374 m 6 X s 2063 396 m 6 X s 2059 383 m 6 Y s 2073 383 m 6 Y s 2066 386 m20 2080 348 m 9 Y s 2080 369 m 6 Y s 2073 363 m 1 X s
 2086 363 m 1 X s 2077 348 m 6 X s 2077 375 m 6 X s 2073 360 m 6 Y s 2087 360 m 6 Y s 2080 363 m20 2094 334 m 11 Y s 2094 356 m 8 Y s 2087 350 m 1 X s 2099 350 m 2 X s 2091 334 m 6 X s 2091 364 m 6 X s 2087 348 m 5 Y s 2101 348 m 5 Y s 2094 350 m20
 2108 345 m 9 Y s 2108 366 m 6 Y s 2101 360 m 1 X s 2113 360 m 1 X s 2105 345 m 5 X s 2105 372 m 5 X s 2101 357 m 6 Y s 2114 357 m 6 Y s 2108 360 m20 black 1287 118 m 827 X s 1287 143 m -25 Y s 1315 130 m -12 Y s 1342 130 m -12 Y s 1370 130 m -12 Y s
 1397 130 m -12 Y s 1425 143 m -25 Y s 1453 130 m -12 Y s 1480 130 m -12 Y s 1508 130 m -12 Y s 1535 130 m -12 Y s 1563 143 m -25 Y s 1590 130 m -12 Y s 1618 130 m -12 Y s 1646 130 m -12 Y s 1673 130 m -12 Y s 1701 143 m -25 Y s 1728 130 m -12 Y s
 1756 130 m -12 Y s 1784 130 m -12 Y s 1811 130 m -12 Y s 1839 143 m -25 Y s 1866 130 m -12 Y s 1894 130 m -12 Y s 1921 130 m -12 Y s 1949 130 m -12 Y s 1977 143 m -25 Y s 2004 130 m -12 Y s 2032 130 m -12 Y s 2059 130 m -12 Y s 2087 130 m -12 Y s
 2114 143 m -25 Y s
 gsave  1088 1072 1157 11 C 1267.25 83.7267 t 0 r /Helvetica findfont 35.5047 sf 0 0 m (60) show NC gr 
 gsave  1088 1072 1157 11 C 1404.91 83.7267 t 0 r /Helvetica findfont 35.5047 sf 0 0 m (70) show NC gr 
 gsave  1088 1072 1157 11 C 1542.56 83.7267 t 0 r /Helvetica findfont 35.5047 sf 0 0 m (80) show NC gr 
 gsave  1088 1072 1157 11 C 1680.21 83.7267 t 0 r /Helvetica findfont 35.5047 sf 0 0 m (90) show NC gr 
 gsave  1088 1072 1157 11 C 1807.93 83.7267 t 0 r /Helvetica findfont 35.5047 sf 0 0 m (100) show NC gr 
 gsave  1088 1072 1157 11 C 1945.58 83.7267 t 0 r /Helvetica findfont 35.5047 sf 0 0 m (110) show NC gr 
 gsave  1088 1072 1157 11 C 2083.23 83.7267 t 0 r /Helvetica findfont 35.5047 sf 0 0 m (120) show NC gr 
 gsave  1088 1072 1157 11 C 1986.74 32.6392 t 0 r /Helvetica findfont 45.446 sf 0 0 m ( [GeV]) show NC gr 
 gsave  1088 1072 1157 11 C 1969.71 24.1246 t 0 r /Symbol findfont 29.8239 sf 0 0 m (m) show NC gr 
 gsave  1088 1072 1157 11 C 1952.68 24.1246 t 0 r /Symbol findfont 29.8239 sf 0 0 m (m) show NC gr 
 gsave  1088 1072 1157 11 C 1917.2 32.6392 t 0 r /Helvetica findfont 45.446 sf 0 0 m (M) show NC gr  1287 118 m 858 Y s 1300 118 m -13 X s 1300 143 m -13 X s 1300 161 m -13 X s 1300 175 m -13 X s 1300 186 m -13 X s 1300 196 m -13 X s 1300 204 m -13 X
 s 1300 212 m -13 X s 1313 218 m -26 X s
 gsave  1088 1072 1157 11 C 1265.83 205.769 t 0 r /Helvetica findfont 32.6643 sf 0 0 m (1) show NC gr  1300 261 m -13 X s 1300 286 m -13 X s 1300 304 m -13 X s 1300 318 m -13 X s 1300 330 m -13 X s 1300 339 m -13 X s 1300 347 m -13 X s 1300 355 m -13
 X s 1313 361 m -26 X s
 gsave  1088 1072 1157 11 C 1243.13 349.098 t 0 r /Helvetica findfont 32.6643 sf 0 0 m (10) show NC gr  1300 404 m -13 X s 1300 430 m -13 X s 1300 447 m -13 X s 1300 461 m -13 X s 1300 473 m -13 X s 1300 482 m -13 X s 1300 491 m -13 X s 1300 498 m
 -13 X s 1313 504 m -26 X s
 gsave  1088 1072 1157 11 C 1265.83 503.779 t 0 r /Helvetica findfont 22.723 sf 0 0 m (2) show NC gr 
 gsave  1088 1072 1157 11 C 1230.36 489.588 t 0 r /Helvetica findfont 32.6643 sf 0 0 m (10) show NC gr  1300 547 m -13 X s 1300 573 m -13 X s 1300 591 m -13 X s 1300 604 m -13 X s 1300 616 m -13 X s 1300 625 m -13 X s 1300 634 m -13 X s 1300 641 m
 -13 X s 1313 648 m -26 X s
 gsave  1088 1072 1157 11 C 1265.83 648.527 t 0 r /Helvetica findfont 22.723 sf 0 0 m (3) show NC gr 
 gsave  1088 1072 1157 11 C 1230.36 632.917 t 0 r /Helvetica findfont 32.6643 sf 0 0 m (10) show NC gr  1300 691 m -13 X s 1300 716 m -13 X s 1300 734 m -13 X s 1300 748 m -13 X s 1300 759 m -13 X s 1300 768 m -13 X s 1300 777 m -13 X s 1300 784 m
 -13 X s 1313 791 m -26 X s
 gsave  1088 1072 1157 11 C 1265.83 790.437 t 0 r /Helvetica findfont 22.723 sf 0 0 m (4) show NC gr 
 gsave  1088 1072 1157 11 C 1230.36 776.246 t 0 r /Helvetica findfont 32.6643 sf 0 0 m (10) show NC gr  1300 834 m -13 X s 1300 859 m -13 X s 1300 877 m -13 X s 1300 891 m -13 X s 1300 902 m -13 X s 1300 912 m -13 X s 1300 920 m -13 X s 1300 927 m
 -13 X s 1313 934 m -26 X s
 gsave  1088 1072 1157 11 C 1265.83 933.766 t 0 r /Helvetica findfont 22.723 sf 0 0 m (5) show NC gr 
 gsave  1088 1072 1157 11 C 1230.36 918.156 t 0 r /Helvetica findfont 32.6643 sf 0 0 m (10) show NC gr 
 gsave  1088 1072 1157 11 C 1203.39 557.705 t 90 r /Helvetica findfont 45.446 sf 0 0 m (Entries / NormFactor) show NC gr  1 0 0 c 1 1 1 c 1 0 0 c 1308 256 m 71 Y s 1308 338 m 28 Y s 1301 333 m 1 X s 1314 333 m 1 X s 1305 256 m 6 X s 1305 366 m 6 X s
 1301 330 m 6 Y s 1315 330 m 6 Y s 1308 333 m24 1322 304 m 48 Y s 1322 364 m 22 Y s 1315 358 m 1 X s 1327 358 m 2 X s 1319 304 m 5 X s 1319 386 m 5 X s 1315 355 m 6 Y s 1329 355 m 6 Y s 1322 358 m24 1335 304 m 48 Y s 1335 364 m 22 Y s 1329 358 m 1 X
 s 1341 358 m 1 X s 1333 304 m 5 X s 1333 386 m 5 X s 1329 355 m 6 Y s 1342 355 m 6 Y s 1335 358 m24 1349 256 m 71 Y s 1349 338 m 28 Y s 1342 333 m 2 X s 1355 333 m 1 X s 1346 256 m 6 X s 1346 366 m 6 X s 1342 330 m 6 Y s 1356 330 m 6 Y s 1349 333
 m24 1363 118 m 166 Y s 1363 295 m 38 Y s 1356 290 m 1 X s 1369 290 m 1 X s 1360 118 m 6 X s 1360 333 m 6 X s 1356 287 m 5 Y s 1370 287 m 5 Y s 1363 290 m24 1377 333 m 37 Y s 1377 381 m 20 Y s 1370 376 m 1 X s 1382 376 m 2 X s 1374 333 m 6 X s 1374
 401 m 6 X s 1370 373 m 6 Y s 1384 373 m 6 Y s 1377 376 m24 1391 118 m 166 Y s 1391 295 m 38 Y s 1384 290 m 1 X s 1396 290 m 1 X s 1388 118 m 5 X s 1388 333 m 5 X s 1384 287 m 5 Y s 1397 287 m 5 Y s 1391 290 m24 1404 118 m 166 Y s 1404 295 m 38 Y s
 1397 290 m 2 X s 1410 290 m 1 X s 1402 118 m 5 X s 1402 333 m 5 X s 1397 287 m 5 Y s 1411 287 m 5 Y s 1404 290 m24 1418 256 m 71 Y s 1418 338 m 28 Y s 1411 333 m 1 X s 1424 333 m 1 X s 1415 256 m 6 X s 1415 366 m 6 X s 1411 330 m 6 Y s 1425 330 m 6
 Y s 1418 333 m24 1432 118 m 166 Y s 1432 295 m 38 Y s 1425 290 m 1 X s 1438 290 m 1 X s 1429 118 m 6 X s 1429 333 m 6 X s 1425 287 m 5 Y s 1439 287 m 5 Y s 1432 290 m24 1446 118 m 166 Y s 1446 295 m 38 Y s 1439 290 m 1 X s 1451 290 m 2 X s 1443 118
 m 6 X s 1443 333 m 6 X s 1439 287 m 5 Y s 1453 287 m 5 Y s 1446 290 m24 1460 118 m 166 Y s 1460 295 m 38 Y s 1453 290 m 1 X s 1465 290 m 1 X s 1457 118 m 5 X s 1457 333 m 5 X s 1453 287 m 5 Y s 1466 287 m 5 Y s 1460 290 m24 1473 118 m 166 Y s 1473
 295 m 38 Y s 1466 290 m 2 X s 1479 290 m 1 X s 1470 118 m 6 X s 1470 333 m 6 X s 1466 287 m 5 Y s 1480 287 m 5 Y s 1473 290 m24 1487 118 m 166 Y s 1487 295 m 38 Y s 1480 290 m 1 X s 1493 290 m 1 X s 1484 118 m 6 X s 1484 333 m 6 X s 1480 287 m 5 Y s
 1494 287 m 5 Y s 1487 290 m24 1501 118 m 166 Y s 1501 295 m 38 Y s 1494 290 m 1 X s 1507 290 m 1 X s 1498 118 m 6 X s 1498 333 m 6 X s 1494 287 m 5 Y s 1508 287 m 5 Y s 1501 290 m24 1515 118 m 166 Y s 1515 295 m 38 Y s 1508 290 m 1 X s 1520 290 m 2
 X s 1512 118 m 5 X s 1512 333 m 5 X s 1508 287 m 5 Y s 1522 287 m 5 Y s 1515 290 m24 1528 118 m 166 Y s 1528 295 m 38 Y s 1522 290 m 1 X s 1534 290 m 1 X s 1526 118 m 5 X s 1526 333 m 5 X s 1522 287 m 5 Y s 1535 287 m 5 Y s 1528 290 m24 1570 118 m
 166 Y s 1570 295 m 38 Y s 1563 290 m 1 X s 1575 290 m 2 X s 1567 118 m 6 X s 1567 333 m 6 X s 1563 287 m 5 Y s 1577 287 m 5 Y s 1570 290 m24 1597 118 m 166 Y s 1597 295 m 38 Y s 1590 290 m 2 X s 1603 290 m 1 X s 1595 118 m 5 X s 1595 333 m 5 X s
 1590 287 m 5 Y s 1604 287 m 5 Y s 1597 290 m24 1625 256 m 71 Y s 1625 338 m 28 Y s 1618 333 m 1 X s 1631 333 m 1 X s 1622 256 m 6 X s 1622 366 m 6 X s 1618 330 m 6 Y s 1632 330 m 6 Y s 1625 333 m24 1653 118 m 166 Y s 1653 295 m 38 Y s 1646 290 m 1 X
 s 1658 290 m 1 X s 1650 118 m 5 X s 1650 333 m 5 X s 1646 287 m 5 Y s 1659 287 m 5 Y s 1653 290 m24 1680 256 m 71 Y s 1680 338 m 28 Y s 1673 333 m 1 X s 1686 333 m 1 X s 1677 256 m 6 X s 1677 366 m 6 X s 1673 330 m 6 Y s 1687 330 m 6 Y s 1680 333
 m24 1694 304 m 48 Y s 1694 364 m 22 Y s 1687 358 m 1 X s 1700 358 m 1 X s 1691 304 m 6 X s 1691 386 m 6 X s 1687 355 m 6 Y s 1701 355 m 6 Y s 1694 358 m24 1721 118 m 166 Y s 1721 295 m 38 Y s 1715 290 m 1 X s 1727 290 m 1 X s 1719 118 m 5 X s 1719
 333 m 5 X s 1715 287 m 5 Y s 1728 287 m 5 Y s 1721 290 m24 1749 256 m 71 Y s 1749 338 m 28 Y s 1742 333 m 1 X s 1755 333 m 1 X s 1746 256 m 6 X s 1746 366 m 6 X s 1742 330 m 6 Y s 1756 330 m 6 Y s 1749 333 m24 1763 118 m 166 Y s 1763 295 m 38 Y s
 1756 290 m 1 X s 1769 290 m 1 X s 1760 118 m 6 X s 1760 333 m 6 X s 1756 287 m 5 Y s 1770 287 m 5 Y s 1763 290 m24 1777 256 m 71 Y s 1777 338 m 28 Y s 1770 333 m 1 X s 1782 333 m 2 X s 1774 256 m 5 X s 1774 366 m 5 X s 1770 330 m 6 Y s 1784 330 m 6
 Y s 1777 333 m24 1818 118 m 166 Y s 1818 295 m 38 Y s 1811 290 m 1 X s 1824 290 m 1 X s 1815 118 m 6 X s 1815 333 m 6 X s 1811 287 m 5 Y s 1825 287 m 5 Y s 1818 290 m24 1846 118 m 166 Y s 1846 295 m 38 Y s 1839 290 m 1 X s 1851 290 m 1 X s 1843 118
 m 5 X s 1843 333 m 5 X s 1839 287 m 5 Y s 1852 287 m 5 Y s 1846 290 m24 1887 118 m 166 Y s 1887 295 m 38 Y s 1880 290 m 1 X s 1893 290 m 1 X s 1884 118 m 6 X s 1884 333 m 6 X s 1880 287 m 5 Y s 1894 287 m 5 Y s 1887 290 m24 1914 118 m 166 Y s 1914
 295 m 38 Y s 1908 290 m 1 X s 1920 290 m 1 X s 1912 118 m 5 X s 1912 333 m 5 X s 1908 287 m 5 Y s 1921 287 m 5 Y s 1914 290 m24 1942 118 m 166 Y s 1942 295 m 38 Y s 1935 290 m 1 X s 1948 290 m 1 X s 1939 118 m 6 X s 1939 333 m 6 X s 1935 287 m 5 Y s
 1949 287 m 5 Y s 1942 290 m24 1956 118 m 166 Y s 1956 295 m 38 Y s 1949 290 m 1 X s 1962 290 m 1 X s 1953 118 m 6 X s 1953 333 m 6 X s 1949 287 m 5 Y s 1963 287 m 5 Y s 1956 290 m24 1983 118 m 166 Y s 1983 295 m 38 Y s 1977 290 m 1 X s 1989 290 m 1
 X s 1981 118 m 5 X s 1981 333 m 5 X s 1977 287 m 5 Y s 1990 287 m 5 Y s 1983 290 m24 2039 118 m 166 Y s 2039 295 m 38 Y s 2032 290 m 1 X s 2044 290 m 1 X s 2036 118 m 5 X s 2036 333 m 5 X s 2032 287 m 5 Y s 2045 287 m 5 Y s 2039 290 m24 black 1 1 1
 c black 1308 373 m 12 Y s 1308 396 m 8 Y s 1301 391 m 1 X s 1314 391 m 1 X s 1305 373 m 6 X s 1305 404 m 6 X s 1301 388 m 5 Y s 1315 388 m 5 Y s 1308 391 m20 1322 407 m 8 Y s 1322 426 m 6 Y s 1315 421 m 1 X s 1327 421 m 2 X s 1319 407 m 5 X s 1319
 432 m 5 X s 1315 418 m 6 Y s 1329 418 m 6 Y s 1322 421 m20 1335 412 m 8 Y s 1335 431 m 5 Y s 1329 425 m 1 X s 1341 425 m 1 X s 1333 412 m 5 X s 1333 436 m 5 X s 1329 422 m 6 Y s 1342 422 m 6 Y s 1335 425 m20 1349 417 m 7 Y s 1349 435 m 5 Y s 1342
 430 m 2 X s 1355 430 m 1 X s 1346 417 m 6 X s 1346 440 m 6 X s 1342 427 m 5 Y s 1356 427 m 5 Y s 1349 430 m20 1363 412 m 8 Y s 1363 431 m 5 Y s 1356 425 m 1 X s 1369 425 m 1 X s 1360 412 m 6 X s 1360 436 m 6 X s 1356 422 m 6 Y s 1370 422 m 6 Y s
 1363 425 m20 1377 415 m 7 Y s 1377 433 m 5 Y s 1370 427 m 1 X s 1382 427 m 2 X s 1374 415 m 6 X s 1374 438 m 6 X s 1370 425 m 5 Y s 1384 425 m 5 Y s 1377 427 m20 1391 440 m 5 Y s 1391 456 m 3 Y s 1384 450 m 1 X s 1396 450 m 1 X s 1388 440 m 5 X s
 1388 459 m 5 X s 1384 448 m 5 Y s 1397 448 m 5 Y s 1391 450 m20 1404 438 m 5 Y s 1404 455 m 3 Y s 1397 449 m 2 X s 1410 449 m 1 X s 1402 438 m 5 X s 1402 458 m 5 X s 1397 446 m 6 Y s 1411 446 m 6 Y s 1404 449 m20 1418 433 m 6 Y s 1418 450 m 4 Y s
 1411 444 m 1 X s 1424 444 m 1 X s 1415 433 m 6 X s 1415 454 m 6 X s 1411 441 m 6 Y s 1425 441 m 6 Y s 1418 444 m20 1432 399 m 8 Y s 1432 419 m 6 Y s 1425 413 m 1 X s 1438 413 m 1 X s 1429 399 m 6 X s 1429 425 m 6 X s 1425 410 m 6 Y s 1439 410 m 6 Y
 s 1432 413 m20 1446 452 m 4 Y s 1446 467 m 3 Y s 1439 461 m 1 X s 1451 461 m 2 X s 1443 452 m 6 X s 1443 470 m 6 X s 1439 458 m 6 Y s 1453 458 m 6 Y s 1446 461 m20 1460 450 m 4 Y s 1460 466 m 2 Y s 1453 460 m 1 X s 1465 460 m 1 X s 1457 450 m 5 X s
 1457 468 m 5 X s 1453 457 m 6 Y s 1466 457 m 6 Y s 1460 460 m20 1473 464 m 3 Y s 1473 478 m 2 Y s 1466 473 m 2 X s 1479 473 m 1 X s 1470 464 m 6 X s 1470 480 m 6 X s 1466 470 m 5 Y s 1480 470 m 5 Y s 1473 473 m20 1487 457 m 3 Y s 1487 472 m 2 Y s
 1480 466 m 1 X s 1493 466 m 1 X s 1484 457 m 6 X s 1484 474 m 6 X s 1480 463 m 6 Y s 1494 463 m 6 Y s 1487 466 m20 1501 452 m 4 Y s 1501 467 m 3 Y s 1494 461 m 1 X s 1507 461 m 1 X s 1498 452 m 6 X s 1498 470 m 6 X s 1494 458 m 6 Y s 1508 458 m 6 Y
 s 1501 461 m20 1515 464 m 3 Y s 1515 478 m 2 Y s 1508 473 m 1 X s 1520 473 m 2 X s 1512 464 m 5 X s 1512 480 m 5 X s 1508 470 m 5 Y s 1522 470 m 5 Y s 1515 473 m20 1528 489 m 2 Y s 1528 502 m 1 Y s 1522 496 m 1 X s 1534 496 m 1 X s 1526 489 m 5 X s
 1526 503 m 5 X s 1522 494 m 5 Y s 1535 494 m 5 Y s 1528 496 m20 1542 494 m 1 Y s 1542 506 m 1 Y s 1535 501 m 2 X s 1548 501 m 1 X s 1539 494 m 6 X s 1539 507 m 6 X s 1535 498 m 5 Y s 1549 498 m 5 Y s 1542 501 m20 1556 491 m 1 Y s 1556 504 m s 1549
 498 m 1 X s 1562 498 m 1 X s 1553 491 m 6 X s 1553 504 m 6 X s 1549 495 m 6 Y s 1563 495 m 6 Y s 1556 498 m20 1570 497 m 1 Y s 1570 509 m 1 Y s 1563 504 m 1 X s 1575 504 m 2 X s 1567 497 m 6 X s 1567 510 m 6 X s 1563 501 m 6 Y s 1577 501 m 6 Y s
 1570 504 m20 1577 522 m 1 X s 1589 522 m 1 X s 1577 519 m 6 Y s 1590 519 m 6 Y s 1584 522 m20 1590 529 m 2 X s 1603 529 m 1 X s 1590 526 m 6 Y s 1604 526 m 6 Y s 1597 529 m20 1604 564 m 1 X s 1617 564 m 1 X s 1604 561 m 6 Y s 1618 561 m 6 Y s 1611
 564 m20 1618 564 m 1 X s 1631 564 m 1 X s 1618 561 m 6 Y s 1632 561 m 6 Y s 1625 564 m20 1632 594 m 1 X s 1644 594 m 2 X s 1632 591 m 6 Y s 1646 591 m 6 Y s 1639 594 m20 1646 610 m 1 X s 1658 610 m 1 X s 1646 607 m 6 Y s 1659 607 m 6 Y s 1653 610
 m20 1659 639 m 2 X s 1672 639 m 1 X s 1659 636 m 6 Y s 1673 636 m 6 Y s 1666 639 m20 1673 656 m 1 X s 1686 656 m 1 X s 1673 654 m 5 Y s 1687 654 m 5 Y s 1680 656 m20 1687 678 m 1 X s 1700 678 m 1 X s 1687 675 m 6 Y s 1701 675 m 6 Y s 1694 678 m20
 1701 687 m 1 X s 1713 687 m 2 X s 1701 684 m 6 Y s 1715 684 m 6 Y s 1708 687 m20 1715 689 m 1 X s 1727 689 m 1 X s 1715 686 m 5 Y s 1728 686 m 5 Y s 1721 689 m20 1728 671 m 2 X s 1741 671 m 1 X s 1728 668 m 6 Y s 1742 668 m 6 Y s 1735 671 m20 1742
 648 m 1 X s 1755 648 m 1 X s 1742 645 m 6 Y s 1756 645 m 6 Y s 1749 648 m20 1756 624 m 1 X s 1769 624 m 1 X s 1756 621 m 6 Y s 1770 621 m 6 Y s 1763 624 m20 1770 593 m 1 X s 1782 593 m 2 X s 1770 590 m 6 Y s 1784 590 m 6 Y s 1777 593 m20 1784 565 m
 1 X s 1796 565 m 1 X s 1784 562 m 6 Y s 1797 562 m 6 Y s 1790 565 m20 1797 549 m 2 X s 1810 549 m 1 X s 1797 546 m 6 Y s 1811 546 m 6 Y s 1804 549 m20 1811 529 m 1 X s 1824 529 m 1 X s 1811 526 m 6 Y s 1825 526 m 6 Y s 1818 529 m20 1832 505 m 1 Y s
 1825 511 m 1 X s 1837 511 m 2 X s 1829 505 m 6 X s 1825 509 m 5 Y s 1839 509 m 5 Y s 1832 511 m20 1846 481 m 2 Y s 1846 495 m 1 Y s 1839 489 m 1 X s 1851 489 m 1 X s 1843 481 m 5 X s 1843 496 m 5 X s 1839 486 m 6 Y s 1852 486 m 6 Y s 1846 489 m20
 1859 471 m 3 Y s 1859 485 m 2 Y s 1852 480 m 2 X s 1865 480 m 1 X s 1857 471 m 5 X s 1857 487 m 5 X s 1852 477 m 5 Y s 1866 477 m 5 Y s 1859 480 m20 1873 459 m 4 Y s 1873 474 m 2 Y s 1866 468 m 1 X s 1879 468 m 1 X s 1870 459 m 6 X s 1870 476 m 6 X
 s 1866 466 m 5 Y s 1880 466 m 5 Y s 1873 468 m20 1887 461 m 3 Y s 1887 475 m 2 Y s 1880 469 m 1 X s 1893 469 m 1 X s 1884 461 m 6 X s 1884 477 m 6 X s 1880 467 m 5 Y s 1894 467 m 5 Y s 1887 469 m20 1901 450 m 4 Y s 1901 466 m 2 Y s 1894 460 m 1 X s
 1906 460 m 2 X s 1898 450 m 6 X s 1898 468 m 6 X s 1894 457 m 6 Y s 1908 457 m 6 Y s 1901 460 m20 1914 445 m 4 Y s 1914 460 m 3 Y s 1908 455 m 1 X s 1920 455 m 1 X s 1912 445 m 5 X s 1912 463 m 5 X s 1908 452 m 6 Y s 1921 452 m 6 Y s 1914 455 m20
 1928 415 m 7 Y s 1928 433 m 5 Y s 1921 427 m 2 X s 1934 427 m 1 X s 1925 415 m 6 X s 1925 438 m 6 X s 1921 425 m 5 Y s 1935 425 m 5 Y s 1928 427 m20 1942 363 m 14 Y s 1942 388 m 9 Y s 1935 382 m 1 X s 1948 382 m 1 X s 1939 363 m 6 X s 1939 397 m 6 X
 s 1935 379 m 6 Y s 1949 379 m 6 Y s 1942 382 m20 1956 415 m 7 Y s 1956 433 m 5 Y s 1949 427 m 1 X s 1962 427 m 1 X s 1953 415 m 6 X s 1953 438 m 6 X s 1949 425 m 5 Y s 1963 425 m 5 Y s 1956 427 m20 1970 345 m 17 Y s 1970 373 m 11 Y s 1963 367 m 1 X
 s 1975 367 m 2 X s 1967 345 m 5 X s 1967 384 m 5 X s 1963 364 m 6 Y s 1977 364 m 6 Y s 1970 367 m20 1983 395 m 10 Y s 1983 416 m 6 Y s 1977 410 m 1 X s 1989 410 m 1 X s 1981 395 m 5 X s 1981 422 m 5 X s 1977 407 m 6 Y s 1990 407 m 6 Y s 1983 410 m20
 1997 389 m 10 Y s 1997 410 m 7 Y s 1990 404 m 2 X s 2003 404 m 1 X s 1994 389 m 6 X s 1994 417 m 6 X s 1990 402 m 5 Y s 2004 402 m 5 Y s 1997 404 m20 2011 351 m 16 Y s 2011 378 m 10 Y s 2004 373 m 1 X s 2017 373 m 1 X s 2008 351 m 6 X s 2008 388 m 6
 X s 2004 370 m 5 Y s 2018 370 m 5 Y s 2011 373 m20 2025 377 m 12 Y s 2025 400 m 8 Y s 2018 394 m 1 X s 2030 394 m 2 X s 2022 377 m 6 X s 2022 408 m 6 X s 2018 391 m 6 Y s 2032 391 m 6 Y s 2025 394 m20 2039 392 m 10 Y s 2039 413 m 7 Y s 2032 407 m 1
 X s 2044 407 m 1 X s 2036 392 m 5 X s 2036 420 m 5 X s 2032 405 m 5 Y s 2045 405 m 5 Y s 2039 407 m20 2052 385 m 11 Y s 2052 407 m 7 Y s 2045 401 m 2 X s 2058 401 m 1 X s 2050 385 m 5 X s 2050 414 m 5 X s 2045 398 m 6 Y s 2059 398 m 6 Y s 2052 401
 m20 2066 345 m 17 Y s 2066 373 m 11 Y s 2059 367 m 1 X s 2072 367 m 1 X s 2063 345 m 6 X s 2063 384 m 6 X s 2059 364 m 6 Y s 2073 364 m 6 Y s 2066 367 m20 2080 368 m 13 Y s 2080 392 m 9 Y s 2073 386 m 1 X s 2086 386 m 1 X s 2077 368 m 6 X s 2077 401
 m 6 X s 2073 384 m 5 Y s 2087 384 m 5 Y s 2080 386 m20 2094 351 m 16 Y s 2094 378 m 10 Y s 2087 373 m 1 X s 2099 373 m 2 X s 2091 351 m 6 X s 2091 388 m 6 X s 2087 370 m 5 Y s 2101 370 m 5 Y s 2094 373 m20 2108 320 m 22 Y s 2108 353 m 13 Y s 2101
 347 m 1 X s 2113 347 m 1 X s 2105 320 m 5 X s 2105 366 m 5 X s 2101 345 m 5 Y s 2114 345 m 5 Y s 2108 347 m20 1 1 1 c black 1308 310 m 23 Y s 1308 345 m 14 Y s 1301 339 m 1 X s 1314 339 m 1 X s 1305 310 m 6 X s 1305 359 m 6 X s 1301 336 m 6 Y s 1315
 336 m 6 Y s 1308 339 m24 1322 281 m 32 Y s 1322 324 m 17 Y s 1315 318 m 1 X s 1327 318 m 2 X s 1319 281 m 5 X s 1319 341 m 5 X s 1315 315 m 6 Y s 1329 315 m 6 Y s 1322 318 m24 1335 185 m 71 Y s 1335 267 m 28 Y s 1329 261 m 1 X s 1341 261 m 1 X s
 1333 185 m 5 X s 1333 295 m 5 X s 1329 258 m 6 Y s 1342 258 m 6 Y s 1335 261 m24 1349 261 m 38 Y s 1349 310 m 20 Y s 1342 304 m 2 X s 1355 304 m 1 X s 1346 261 m 6 X s 1346 330 m 6 X s 1342 302 m 5 Y s 1356 302 m 5 Y s 1349 304 m24 1363 233 m 48 Y s
 1363 292 m 23 Y s 1356 286 m 1 X s 1369 286 m 1 X s 1360 233 m 6 X s 1360 315 m 6 X s 1356 284 m 5 Y s 1370 284 m 5 Y s 1363 286 m24 1377 261 m 38 Y s 1377 310 m 20 Y s 1370 304 m 1 X s 1382 304 m 2 X s 1374 261 m 6 X s 1374 330 m 6 X s 1370 302 m 5
 Y s 1384 302 m 5 Y s 1377 304 m24 1391 297 m 27 Y s 1391 335 m 16 Y s 1384 330 m 1 X s 1396 330 m 1 X s 1388 297 m 5 X s 1388 351 m 5 X s 1384 327 m 5 Y s 1397 327 m 5 Y s 1391 330 m24 1404 261 m 38 Y s 1404 310 m 20 Y s 1397 304 m 2 X s 1410 304 m
 1 X s 1402 261 m 5 X s 1402 330 m 5 X s 1397 302 m 5 Y s 1411 302 m 5 Y s 1404 304 m24 1418 281 m 32 Y s 1418 324 m 17 Y s 1411 318 m 1 X s 1424 318 m 1 X s 1415 281 m 6 X s 1415 341 m 6 X s 1411 315 m 6 Y s 1425 315 m 6 Y s 1418 318 m24 1432 118 m
 95 Y s 1432 224 m 37 Y s 1425 218 m 1 X s 1438 218 m 1 X s 1429 118 m 6 X s 1429 261 m 6 X s 1425 215 m 6 Y s 1439 215 m 6 Y s 1432 218 m24 1446 233 m 48 Y s 1446 292 m 23 Y s 1439 286 m 1 X s 1451 286 m 2 X s 1443 233 m 6 X s 1443 315 m 6 X s 1439
 284 m 5 Y s 1453 284 m 5 Y s 1446 286 m24 1460 281 m 32 Y s 1460 324 m 17 Y s 1453 318 m 1 X s 1465 318 m 1 X s 1457 281 m 5 X s 1457 341 m 5 X s 1453 315 m 6 Y s 1466 315 m 6 Y s 1460 318 m24 1473 320 m 22 Y s 1473 353 m 13 Y s 1466 347 m 2 X s
 1479 347 m 1 X s 1470 320 m 6 X s 1470 366 m 6 X s 1466 345 m 5 Y s 1480 345 m 5 Y s 1473 347 m24 1487 330 m 19 Y s 1487 360 m 13 Y s 1480 355 m 1 X s 1493 355 m 1 X s 1484 330 m 6 X s 1484 373 m 6 X s 1480 352 m 6 Y s 1494 352 m 6 Y s 1487 355 m24
 1501 185 m 71 Y s 1501 267 m 28 Y s 1494 261 m 1 X s 1507 261 m 1 X s 1498 185 m 6 X s 1498 295 m 6 X s 1494 258 m 6 Y s 1508 258 m 6 Y s 1501 261 m24 1515 118 m 95 Y s 1515 224 m 37 Y s 1508 218 m 1 X s 1520 218 m 2 X s 1512 118 m 5 X s 1512 261 m
 5 X s 1508 215 m 6 Y s 1522 215 m 6 Y s 1515 218 m24 1528 281 m 32 Y s 1528 324 m 17 Y s 1522 318 m 1 X s 1534 318 m 1 X s 1526 281 m 5 X s 1526 341 m 5 X s 1522 315 m 6 Y s 1535 315 m 6 Y s 1528 318 m24 1542 185 m 71 Y s 1542 267 m 28 Y s 1535 261
 m 2 X s 1548 261 m 1 X s 1539 185 m 6 X s 1539 295 m 6 X s 1535 258 m 6 Y s 1549 258 m 6 Y s 1542 261 m24 1556 185 m 71 Y s 1556 267 m 28 Y s 1549 261 m 1 X s 1562 261 m 1 X s 1553 185 m 6 X s 1553 295 m 6 X s 1549 258 m 6 Y s 1563 258 m 6 Y s 1556
 261 m24 1570 233 m 48 Y s 1570 292 m 23 Y s 1563 286 m 1 X s 1575 286 m 2 X s 1567 233 m 6 X s 1567 315 m 6 X s 1563 284 m 5 Y s 1577 284 m 5 Y s 1570 286 m24 1584 233 m 48 Y s 1584 292 m 23 Y s 1577 286 m 1 X s 1589 286 m 1 X s 1581 233 m 5 X s
 1581 315 m 5 X s 1577 284 m 5 Y s 1590 284 m 5 Y s 1584 286 m24 1597 233 m 48 Y s 1597 292 m 23 Y s 1590 286 m 2 X s 1603 286 m 1 X s 1595 233 m 5 X s 1595 315 m 5 X s 1590 284 m 5 Y s 1604 284 m 5 Y s 1597 286 m24 1611 281 m 32 Y s 1611 324 m 17 Y
 s 1604 318 m 1 X s 1617 318 m 1 X s 1608 281 m 6 X s 1608 341 m 6 X s 1604 315 m 6 Y s 1618 315 m 6 Y s 1611 318 m24 1625 185 m 71 Y s 1625 267 m 28 Y s 1618 261 m 1 X s 1631 261 m 1 X s 1622 185 m 6 X s 1622 295 m 6 X s 1618 258 m 6 Y s 1632 258 m
 6 Y s 1625 261 m24 1639 118 m 95 Y s 1639 224 m 37 Y s 1632 218 m 1 X s 1644 218 m 2 X s 1636 118 m 6 X s 1636 261 m 6 X s 1632 215 m 6 Y s 1646 215 m 6 Y s 1639 218 m24 1653 233 m 48 Y s 1653 292 m 23 Y s 1646 286 m 1 X s 1658 286 m 1 X s 1650 233
 m 5 X s 1650 315 m 5 X s 1646 284 m 5 Y s 1659 284 m 5 Y s 1653 286 m24 1666 118 m 95 Y s 1666 224 m 37 Y s 1659 218 m 2 X s 1672 218 m 1 X s 1663 118 m 6 X s 1663 261 m 6 X s 1659 215 m 6 Y s 1673 215 m 6 Y s 1666 218 m24 1680 281 m 32 Y s 1680 324
 m 17 Y s 1673 318 m 1 X s 1686 318 m 1 X s 1677 281 m 6 X s 1677 341 m 6 X s 1673 315 m 6 Y s 1687 315 m 6 Y s 1680 318 m24 1694 233 m 48 Y s 1694 292 m 23 Y s 1687 286 m 1 X s 1700 286 m 1 X s 1691 233 m 6 X s 1691 315 m 6 X s 1687 284 m 5 Y s 1701
 284 m 5 Y s 1694 286 m24 1708 185 m 71 Y s 1708 267 m 28 Y s 1701 261 m 1 X s 1713 261 m 2 X s 1705 185 m 6 X s 1705 295 m 6 X s 1701 258 m 6 Y s 1715 258 m 6 Y s 1708 261 m24 1721 233 m 48 Y s 1721 292 m 23 Y s 1715 286 m 1 X s 1727 286 m 1 X s
 1719 233 m 5 X s 1719 315 m 5 X s 1715 284 m 5 Y s 1728 284 m 5 Y s 1721 286 m24 1735 281 m 32 Y s 1735 324 m 17 Y s 1728 318 m 2 X s 1741 318 m 1 X s 1732 281 m 6 X s 1732 341 m 6 X s 1728 315 m 6 Y s 1742 315 m 6 Y s 1735 318 m24 1749 118 m 95 Y s
 1749 224 m 37 Y s 1742 218 m 1 X s 1755 218 m 1 X s 1746 118 m 6 X s 1746 261 m 6 X s 1742 215 m 6 Y s 1756 215 m 6 Y s 1749 218 m24 1763 297 m 27 Y s 1763 335 m 16 Y s 1756 330 m 1 X s 1769 330 m 1 X s 1760 297 m 6 X s 1760 351 m 6 X s 1756 327 m 5
 Y s 1770 327 m 5 Y s 1763 330 m24 1790 118 m 95 Y s 1790 224 m 37 Y s 1784 218 m 1 X s 1796 218 m 1 X s 1788 118 m 5 X s 1788 261 m 5 X s 1784 215 m 6 Y s 1797 215 m 6 Y s 1790 218 m24 1818 185 m 71 Y s 1818 267 m 28 Y s 1811 261 m 1 X s 1824 261 m
 1 X s 1815 185 m 6 X s 1815 295 m 6 X s 1811 258 m 6 Y s 1825 258 m 6 Y s 1818 261 m24 1832 233 m 48 Y s 1832 292 m 23 Y s 1825 286 m 1 X s 1837 286 m 2 X s 1829 233 m 6 X s 1829 315 m 6 X s 1825 284 m 5 Y s 1839 284 m 5 Y s 1832 286 m24 1846 118 m
 95 Y s 1846 224 m 37 Y s 1839 218 m 1 X s 1851 218 m 1 X s 1843 118 m 5 X s 1843 261 m 5 X s 1839 215 m 6 Y s 1852 215 m 6 Y s 1846 218 m24 1859 261 m 38 Y s 1859 310 m 20 Y s 1852 304 m 2 X s 1865 304 m 1 X s 1857 261 m 5 X s 1857 330 m 5 X s 1852
 302 m 5 Y s 1866 302 m 5 Y s 1859 304 m24 1887 185 m 71 Y s 1887 267 m 28 Y s 1880 261 m 1 X s 1893 261 m 1 X s 1884 185 m 6 X s 1884 295 m 6 X s 1880 258 m 6 Y s 1894 258 m 6 Y s 1887 261 m24 1901 185 m 71 Y s 1901 267 m 28 Y s 1894 261 m 1 X s
 1906 261 m 2 X s 1898 185 m 6 X s 1898 295 m 6 X s 1894 258 m 6 Y s 1908 258 m 6 Y s 1901 261 m24 1914 185 m 71 Y s 1914 267 m 28 Y s 1908 261 m 1 X s 1920 261 m 1 X s 1912 185 m 5 X s 1912 295 m 5 X s 1908 258 m 6 Y s 1921 258 m 6 Y s 1914 261 m24
 1942 118 m 95 Y s 1942 224 m 37 Y s 1935 218 m 1 X s 1948 218 m 1 X s 1939 118 m 6 X s 1939 261 m 6 X s 1935 215 m 6 Y s 1949 215 m 6 Y s 1942 218 m24 1956 185 m 71 Y s 1956 267 m 28 Y s 1949 261 m 1 X s 1962 261 m 1 X s 1953 185 m 6 X s 1953 295 m
 6 X s 1949 258 m 6 Y s 1963 258 m 6 Y s 1956 261 m24 1970 118 m 95 Y s 1970 224 m 37 Y s 1963 218 m 1 X s 1975 218 m 2 X s 1967 118 m 5 X s 1967 261 m 5 X s 1963 215 m 6 Y s 1977 215 m 6 Y s 1970 218 m24 1983 185 m 71 Y s 1983 267 m 28 Y s 1977 261
 m 1 X s 1989 261 m 1 X s 1981 185 m 5 X s 1981 295 m 5 X s 1977 258 m 6 Y s 1990 258 m 6 Y s 1983 261 m24 1997 185 m 71 Y s 1997 267 m 28 Y s 1990 261 m 2 X s 2003 261 m 1 X s 1994 185 m 6 X s 1994 295 m 6 X s 1990 258 m 6 Y s 2004 258 m 6 Y s 1997
 261 m24 2011 233 m 48 Y s 2011 292 m 23 Y s 2004 286 m 1 X s 2017 286 m 1 X s 2008 233 m 6 X s 2008 315 m 6 X s 2004 284 m 5 Y s 2018 284 m 5 Y s 2011 286 m24 2025 118 m 95 Y s 2025 224 m 37 Y s 2018 218 m 1 X s 2030 218 m 2 X s 2022 118 m 6 X s
 2022 261 m 6 X s 2018 215 m 6 Y s 2032 215 m 6 Y s 2025 218 m24 2039 185 m 71 Y s 2039 267 m 28 Y s 2032 261 m 1 X s 2044 261 m 1 X s 2036 185 m 5 X s 2036 295 m 5 X s 2032 258 m 6 Y s 2045 258 m 6 Y s 2039 261 m24 2052 185 m 71 Y s 2052 267 m 28 Y
 s 2045 261 m 2 X s 2058 261 m 1 X s 2050 185 m 5 X s 2050 295 m 5 X s 2045 258 m 6 Y s 2059 258 m 6 Y s 2052 261 m24 2080 233 m 48 Y s 2080 292 m 23 Y s 2073 286 m 1 X s 2086 286 m 1 X s 2077 233 m 6 X s 2077 315 m 6 X s 2073 284 m 5 Y s 2087 284 m
 5 Y s 2080 286 m24 2094 118 m 95 Y s 2094 224 m 37 Y s 2087 218 m 1 X s 2099 218 m 2 X s 2091 118 m 6 X s 2091 261 m 6 X s 2087 215 m 6 Y s 2101 215 m 6 Y s 2094 218 m24 0 0 1 c[ 12 12] 0 sd 6 lw 1577 118 m 529 Y s 1852 118 m 529 Y s black[  ] 0 sd
 3 lw 1 1 1 c 272 268 1320 654 bf black
 gsave  1088 1072 1157 11 C 1386.46 874.164 t 0 r /Helvetica findfont 39.7652 sf 0 0 m (OC data: 15143) show NC gr  1354 889 m20
 gsave  1088 1072 1157 11 C 1386.46 807.466 t 0 r /Helvetica findfont 39.7652 sf 0 0 m (SC data: 162) show NC gr  1354 822 m24
 gsave  1088 1072 1157 11 C 1386.46 740.768 t 0 r /Helvetica findfont 39.7652 sf 0 0 m (OC MC: 32469) show NC gr  1 0 0 c 1354 755 m20 black
 gsave  1088 1072 1157 11 C 1386.46 674.071 t 0 r /Helvetica findfont 39.7652 sf 0 0 m (SC MC: 51) show NC gr  1 0 0 c 1354 688 m24 black
 gsave  1088 1072 1157 11 C 1700.08 901.126 t 0 r /Helvetica-Bold findfont 59.6478 sf 0 0 m (pp collisions) show NC gr 
 gr  gr showpage
end
%%EOF
