%!PS-Adobe-2.0 EPSF-2.0
%%BoundingBox:  0 0 567 274
%%Title: /home/petr/Analysis_iwona/SFAnalysis/eps/Zmass_mumu_Calocuts_CaloTree.eps: Results
%%Creator: ROOT Version 6.16/00
%%CreationDate: Tue Apr 23 09:36:11 2019
%%DocumentNeededResources: ProcSet (FontSetInit)
%%EndComments
%%BeginProlog
80 dict begin
/s {stroke} def /l {lineto} def /m {moveto} def /t {translate} def
/r {rotate} def /rl {roll}  def /R {repeat} def
/d {rlineto} def /rm {rmoveto} def /gr {grestore} def /f {eofill} def
/c {setrgbcolor} def /black {0 setgray} def /sd {setdash} def
/cl {closepath} def /sf {scalefont setfont} def /lw {setlinewidth} def
/box {m dup 0 exch d exch 0 d 0 exch neg d cl} def
/NC{systemdict begin initclip end}def/C{NC box clip newpath}def
/bl {box s} def /bf {gsave box gsave f grestore 1 lw [] 0 sd s grestore} def /Y { 0 exch d} def /X { 0 d} def 
/K {{pop pop 0 moveto} exch kshow} bind def
/ita {/ang 15 def gsave [1 0 ang dup sin exch cos div 1 0 0] concat} def 
/mp {newpath /y exch def /x exch def} def
/side {[w .77 mul w .23 mul] .385 w mul sd w 0 l currentpoint t -144 r} def
/mr {mp x y w2 0 360 arc} def /m24 {mr s} def /m20 {mr f} def
/mb {mp x y w2 add m w2 neg 0 d 0 w neg d w 0 d 0 w d cl} def
/mt {mp x y w2 add m w2 neg w neg d w 0 d cl} def
/w4 {w 4 div} def
/w6 {w 6 div} def
/w8 {w 8 div} def
/m21 {mb f} def /m25 {mb s} def /m22 {mt f} def /m26{mt s} def
/m23 {mp x y w2 sub m w2 w d w neg 0 d cl f} def
/m27 {mp x y w2 add m w3 neg w2 neg d w3 w2 neg d w3 w2 d cl s} def
/m28 {mp x w2 sub y w2 sub w3 add m w3 0 d  0 w3 neg d w3 0 d 0 w3 d w3 0 d  0 w3 d w3 neg 0 d 0 w3 d w3 neg 0 d 0 w3 neg d w3 neg 0 d cl s } def
/m29 {mp gsave x w2 sub y w2 add w3 sub m currentpoint t 4 {side} repeat cl fill gr} def
/m30 {mp gsave x w2 sub y w2 add w3 sub m currentpoint t 4 {side} repeat cl s gr} def
/m31 {mp x y w2 sub m 0 w d x w2 sub y m w 0 d x w2 sub y w2 add m w w neg d x w2 sub y w2 sub m w w d s} def
/m32 {mp x y w2 sub m w2 w d w neg 0 d cl s} def
/m33 {mp x y w2 add m w3 neg w2 neg d w3 w2 neg d w3 w2 d cl f} def
/m34 {mp x w2 sub y w2 sub w3 add m w3 0 d  0 w3 neg d w3 0 d 0 w3 d w3 0 d  0 w3 d w3 neg 0 d 0 w3 d w3 neg 0 d 0 w3 neg d w3 neg 0 d cl f } def
/m35 {mp x y w2 add m w2 neg w2 neg d w2 w2 neg d w2 w2 d w2 neg w2 d x y w2 sub m 0 w d x w2 sub y m w 0 d s} def
/m36 {mb x w2 sub y w2 add m w w neg d x w2 sub y w2 sub m w w d s} def
/m37 {mp x y m w4 neg w2 d w4 neg w2 neg d w2 0 d  w4 neg w2 neg d w2 0 d w4 neg w2 d w2 0 d w4 neg w2 d w4 neg w2 neg d cl s} def
/m38 {mp x w4 sub y w2 add m w4 neg w4 neg d 0 w2 neg d w4 w4 neg d w2 0 d w4 w4 d 0 w2 d w4 neg w4 d w2 neg 0 d x y w2 sub m 0 w d x w2 sub y m w 0 d cl s} def
/m39 {mp x y m w4 neg w2 d w4 neg w2 neg d w2 0 d  w4 neg w2 neg d w2 0 d w4 neg w2 d w2 0 d w4 neg w2 d w4 neg w2 neg d cl f} def
/m40 {mp x y m w4 w2 d w4 w4 neg d w2 neg w4 neg d w2 w4 neg d w4 neg w4 neg d w4 neg w2 d w4 neg w2 neg d w4 neg w4 d w2 w4 d w2 neg w4 d w4 w4 d w4 w2 neg d cl s} def
/m41 {mp x y m w4 w2 d w4 w4 neg d w2 neg w4 neg d w2 w4 neg d w4 neg w4 neg d w4 neg w2 d w4 neg w2 neg d w4 neg w4 d w2 w4 d w2 neg w4 d w4 w4 d w4 w2 neg d cl f} def
/m42 {mp x y w2 add m w8 neg w2 -3 4 div mul d w2 -3 4 div mul w8 neg d w2 3 4 div mul w8 neg d w8 w2 -3 4 div mul d w8 w2 3 4 div mul d w2 3 4 div mul w8 d w2 -3 4 div mul w8 d w8 neg w2 3 4 div mul d cl s} def
/m43 {mp x y w2 add m w8 neg w2 -3 4 div mul d w2 -3 4 div mul w8 neg d w2 3 4 div mul w8 neg d w8 w2 -3 4 div mul d w8 w2 3 4 div mul d w2 3 4 div mul w8 d w2 -3 4 div mul w8 d w8 neg w2 3 4 div mul d cl f} def
/m44 {mp x y m w6 neg w2 d w2 2 3 div mul 0 d w6 neg w2 neg d w2 w6 d 0 w2 -2 3 div mul d w2 neg w6 d w6 w2 neg d w2 -2 3 div mul 0 d w6 w2 d w2 neg w6 neg d 0 w2 2 3 div mul d w2 w6 neg d cl s} def
/m45 {mp x y m w6 neg w2 d w2 2 3 div mul 0 d w6 neg w2 neg d w2 w6 d 0 w2 -2 3 div mul d w2 neg w6 d w6 w2 neg d w2 -2 3 div mul 0 d w6 w2 d w2 neg w6 neg d 0 w2 2 3 div mul d w2 w6 neg d cl f} def
/m46 {mp x y w4 add m w4 neg w4 d w4 neg w4 neg d  w4 w4 neg d w4 neg w4 neg d w4 w4 neg d w4 w4 d w4 w4 neg d w4 w4 d w4 neg w4 d w4 w4 d w4 neg w4 d w4 neg w4 neg d cl s} def
/m47 {mp x y w4 add m w4 neg w4 d w4 neg w4 neg d w4 w4 neg d w4 neg w4 neg d  w4 w4 neg d w4 w4 d w4 w4 neg d w4 w4 d w4 neg w4 d w4 w4 d w4 neg w4 d w4 neg w4 neg d cl f} def
/m48 {mp x y w4 add m w4 neg w4 d w4 neg w4 neg d w4 w4 neg d  w4 neg w4 neg d w4 w4 neg d w4 w4 d w4 w4 neg d w4 w4 d w4 neg w4 d w4 w4 d w4 neg w4 d w4 neg w4 neg d  w4 w4 neg d w4 neg w4 neg d w4 neg w4 d w4 w4 d cl f} def
/m49 {mp x w2 sub w3 add y w2 sub w3 add m  0 w3 neg d w3 0 d 0 w3 d w3 0 d 0 w3 d w3 neg 0 d 0 w3 d w3 neg 0 d 0 w3 neg d w3 neg 0 d 0 w3 neg d w3 0 d 0 w3 d w3 0 d 0 w3 neg d w3 neg 0 d cl f } def
/m2 {mp x y w2 sub m 0 w d x w2 sub y m w 0 d s} def
/m5 {mp x w2 sub y w2 sub m w w d x w2 sub y w2 add m w w neg d s} def
%%IncludeResource: ProcSet (FontSetInit)
%%IncludeResource: font Times-Roman
%%IncludeResource: font Times-Italic
%%IncludeResource: font Times-Bold
%%IncludeResource: font Times-BoldItalic
%%IncludeResource: font Helvetica
%%IncludeResource: font Helvetica-Oblique
%%IncludeResource: font Helvetica-Bold
%%IncludeResource: font Helvetica-BoldOblique
%%IncludeResource: font Courier
%%IncludeResource: font Courier-Oblique
%%IncludeResource: font Courier-Bold
%%IncludeResource: font Courier-BoldOblique
%%IncludeResource: font Symbol
%%IncludeResource: font ZapfDingbats
/reEncode {exch findfont dup length dict begin {1 index /FID eq  {pop pop} {def} ifelse } forall /Encoding exch def currentdict end dup /FontName get exch definefont pop } def [/Times-Bold /Times-Italic /Times-BoldItalic /Helvetica /Helvetica-Oblique
 /Helvetica-Bold /Helvetica-BoldOblique /Courier /Courier-Oblique /Courier-Bold /Courier-BoldOblique /Times-Roman /AvantGarde-Book /AvantGarde-BookOblique /AvantGarde-Demi /AvantGarde-DemiOblique /Bookman-Demi /Bookman-DemiItalic /Bookman-Light
 /Bookman-LightItalic /Helvetica-Narrow /Helvetica-Narrow-Bold /Helvetica-Narrow-BoldOblique /Helvetica-Narrow-Oblique /NewCenturySchlbk-Roman /NewCenturySchlbk-Bold /NewCenturySchlbk-BoldItalic /NewCenturySchlbk-Italic /Palatino-Bold
 /Palatino-BoldItalic /Palatino-Italic /Palatino-Roman ] {ISOLatin1Encoding reEncode } forall
%%EndProlog
%%BeginSetup
%%EndSetup
newpath  gsave  .25 .25 scale  gsave  0 0 t black[  ] 0 sd 3 lw 1 1 1 c 2268 1094 0 0 bf black 1 1 1 c 1088 1072 23 11 bf black 1 1 1 c 828 858 153 118 bf black 828 858 153 118 bl 1 1 1 c 828 858 153 118 bf black 828 858 153 118 bl 1 0 0 c 1 1 1 c 1
 0 0 c 443 520 m 1 X s 455 520 m 2 X s 443 517 m 6 Y s 457 517 m 6 Y s /w 12 def /w2 {w 2 div} def /w3 {w 3 div} def 450 520 m20 457 535 m 1 X s 469 535 m 1 X s 457 532 m 6 Y s 470 532 m 6 Y s 464 535 m20 470 545 m 2 X s 483 545 m 1 X s 470 542 m 6 Y
 s 484 542 m 6 Y s 477 545 m20 484 560 m 1 X s 497 560 m 1 X s 484 557 m 6 Y s 498 557 m 6 Y s 491 560 m20 498 585 m 1 X s 511 585 m 1 X s 498 582 m 6 Y s 512 582 m 6 Y s 505 585 m20 512 613 m 1 X s 524 613 m 2 X s 512 610 m 6 Y s 526 610 m 6 Y s 519
 613 m20 526 634 m 1 X s 538 634 m 1 X s 526 631 m 6 Y s 539 631 m 6 Y s 532 634 m20 539 658 m 2 X s 552 658 m 1 X s 539 655 m 6 Y s 553 655 m 6 Y s 546 658 m20 553 677 m 1 X s 566 677 m 1 X s 553 675 m 5 Y s 567 675 m 5 Y s 560 677 m20 567 688 m 1 X
 s 579 688 m 2 X s 567 685 m 6 Y s 581 685 m 6 Y s 574 688 m20 581 685 m 1 X s 593 685 m 2 X s 581 682 m 5 Y s 595 682 m 5 Y s 588 685 m20 595 672 m 1 X s 607 672 m 1 X s 595 669 m 5 Y s 608 669 m 5 Y s 601 672 m20 608 652 m 2 X s 621 652 m 1 X s 608
 649 m 5 Y s 622 649 m 5 Y s 615 652 m20 622 622 m 1 X s 635 622 m 1 X s 622 619 m 5 Y s 636 619 m 5 Y s 629 622 m20 636 591 m 1 X s 648 591 m 2 X s 636 589 m 5 Y s 650 589 m 5 Y s 643 591 m20 650 560 m 1 X s 662 560 m 1 X s 650 558 m 5 Y s 663 558 m
 5 Y s 657 560 m20 663 537 m 2 X s 676 537 m 1 X s 663 534 m 6 Y s 677 534 m 6 Y s 670 537 m20 677 525 m 1 X s 690 525 m 1 X s 677 522 m 6 Y s 691 522 m 6 Y s 684 525 m20 691 506 m 1 X s 704 506 m 1 X s 691 503 m 5 Y s 705 503 m 5 Y s 698 506 m20 705
 489 m 1 X s 717 489 m 2 X s 705 486 m 6 Y s 719 486 m 6 Y s 712 489 m20 black 153 118 m 828 X s 153 143 m -25 Y s 181 130 m -12 Y s 208 130 m -12 Y s 236 130 m -12 Y s 264 130 m -12 Y s 291 143 m -25 Y s 319 130 m -12 Y s 346 130 m -12 Y s 374 130 m
 -12 Y s 401 130 m -12 Y s 429 143 m -25 Y s 457 130 m -12 Y s 484 130 m -12 Y s 512 130 m -12 Y s 539 130 m -12 Y s 567 143 m -25 Y s 595 130 m -12 Y s 622 130 m -12 Y s 650 130 m -12 Y s 677 130 m -12 Y s 705 143 m -25 Y s 732 130 m -12 Y s 760 130
 m -12 Y s 788 130 m -12 Y s 815 130 m -12 Y s 843 143 m -25 Y s 870 130 m -12 Y s 898 130 m -12 Y s 925 130 m -12 Y s 953 130 m -12 Y s 981 143 m -25 Y s
 gsave  1088 1072 23 11 C 133.395 83.7267 t 0 r /Helvetica findfont 35.5047 sf 0 0 m (60) show NC gr 
 gsave  1088 1072 23 11 C 271.047 83.7267 t 0 r /Helvetica findfont 35.5047 sf 0 0 m (70) show NC gr 
 gsave  1088 1072 23 11 C 408.7 83.7267 t 0 r /Helvetica findfont 35.5047 sf 0 0 m (80) show NC gr 
 gsave  1088 1072 23 11 C 546.352 83.7267 t 0 r /Helvetica findfont 35.5047 sf 0 0 m (90) show NC gr 
 gsave  1088 1072 23 11 C 674.071 83.7267 t 0 r /Helvetica findfont 35.5047 sf 0 0 m (100) show NC gr 
 gsave  1088 1072 23 11 C 811.723 83.7267 t 0 r /Helvetica findfont 35.5047 sf 0 0 m (110) show NC gr 
 gsave  1088 1072 23 11 C 949.376 83.7267 t 0 r /Helvetica findfont 35.5047 sf 0 0 m (120) show NC gr 
 gsave  1088 1072 23 11 C 852.877 32.6392 t 0 r /Helvetica findfont 45.446 sf 0 0 m ( [GeV]) show NC gr 
 gsave  1088 1072 23 11 C 835.848 24.1246 t 0 r /Symbol findfont 29.8239 sf 0 0 m (m) show NC gr 
 gsave  1088 1072 23 11 C 818.819 24.1246 t 0 r /Symbol findfont 29.8239 sf 0 0 m (m) show NC gr 
 gsave  1088 1072 23 11 C 783.341 32.6392 t 0 r /Helvetica findfont 45.446 sf 0 0 m (M) show NC gr  153 118 m 858 Y s 166 118 m -13 X s 166 144 m -13 X s 166 162 m -13 X s 166 175 m -13 X s 166 187 m -13 X s 166 197 m -13 X s 166 205 m -13 X s 166
 212 m -13 X s 179 219 m -26 X s
 gsave  1088 1072 23 11 C 131.976 207.188 t 0 r /Helvetica findfont 32.6643 sf 0 0 m (1) show NC gr  166 262 m -13 X s 166 288 m -13 X s 166 306 m -13 X s 166 320 m -13 X s 166 331 m -13 X s 166 341 m -13 X s 166 349 m -13 X s 166 356 m -13 X s 179
 363 m -26 X s
 gsave  1088 1072 23 11 C 109.27 350.517 t 0 r /Helvetica findfont 32.6643 sf 0 0 m (10) show NC gr  166 406 m -13 X s 166 432 m -13 X s 166 450 m -13 X s 166 464 m -13 X s 166 475 m -13 X s 166 485 m -13 X s 166 493 m -13 X s 166 500 m -13 X s 179
 507 m -26 X s
 gsave  1088 1072 23 11 C 131.976 506.618 t 0 r /Helvetica findfont 22.723 sf 0 0 m (2) show NC gr 
 gsave  1088 1072 23 11 C 96.4986 492.427 t 0 r /Helvetica findfont 32.6643 sf 0 0 m (10) show NC gr  166 550 m -13 X s 166 576 m -13 X s 166 594 m -13 X s 166 608 m -13 X s 166 619 m -13 X s 166 629 m -13 X s 166 637 m -13 X s 166 644 m -13 X s 179
 651 m -26 X s
 gsave  1088 1072 23 11 C 131.976 651.365 t 0 r /Helvetica findfont 22.723 sf 0 0 m (3) show NC gr 
 gsave  1088 1072 23 11 C 96.4986 635.755 t 0 r /Helvetica findfont 32.6643 sf 0 0 m (10) show NC gr  166 694 m -13 X s 166 720 m -13 X s 166 738 m -13 X s 166 752 m -13 X s 166 763 m -13 X s 166 773 m -13 X s 166 781 m -13 X s 166 788 m -13 X s 179
 795 m -26 X s
 gsave  1088 1072 23 11 C 131.976 794.694 t 0 r /Helvetica findfont 22.723 sf 0 0 m (4) show NC gr 
 gsave  1088 1072 23 11 C 96.4986 780.503 t 0 r /Helvetica findfont 32.6643 sf 0 0 m (10) show NC gr  166 838 m -13 X s 166 864 m -13 X s 166 882 m -13 X s 166 896 m -13 X s 166 907 m -13 X s 166 917 m -13 X s 166 925 m -13 X s 166 932 m -13 X s 179
 939 m -26 X s
 gsave  1088 1072 23 11 C 131.976 939.442 t 0 r /Helvetica findfont 22.723 sf 0 0 m (5) show NC gr 
 gsave  1088 1072 23 11 C 96.4986 923.832 t 0 r /Helvetica findfont 32.6643 sf 0 0 m (10) show NC gr 
 gsave  1088 1072 23 11 C 69.5357 557.705 t 90 r /Helvetica findfont 45.446 sf 0 0 m (Entries / NormFactor) show NC gr  1 0 0 c 1 1 1 c 1 0 0 c black 1 1 1 c black 450 514 m s 443 520 m 1 X s 455 520 m 2 X s 447 514 m 6 X s 443 517 m 6 Y s 457 517 m
 6 Y s 450 520 m20 457 527 m 1 X s 469 527 m 1 X s 457 524 m 5 Y s 470 524 m 5 Y s 464 527 m20 470 560 m 2 X s 483 560 m 1 X s 470 558 m 5 Y s 484 558 m 5 Y s 477 560 m20 484 563 m 1 X s 497 563 m 1 X s 484 560 m 6 Y s 498 560 m 6 Y s 491 563 m20 498
 592 m 1 X s 511 592 m 1 X s 498 590 m 5 Y s 512 590 m 5 Y s 505 592 m20 512 608 m 1 X s 524 608 m 2 X s 512 605 m 6 Y s 526 605 m 6 Y s 519 608 m20 526 638 m 1 X s 538 638 m 1 X s 526 635 m 6 Y s 539 635 m 6 Y s 532 638 m20 539 655 m 2 X s 552 655 m
 1 X s 539 652 m 6 Y s 553 652 m 6 Y s 546 655 m20 553 677 m 1 X s 566 677 m 1 X s 553 674 m 5 Y s 567 674 m 5 Y s 560 677 m20 567 686 m 1 X s 579 686 m 2 X s 567 683 m 6 Y s 581 683 m 6 Y s 574 686 m20 581 688 m 1 X s 593 688 m 2 X s 581 685 m 6 Y s
 595 685 m 6 Y s 588 688 m20 595 671 m 1 X s 607 671 m 1 X s 595 668 m 6 Y s 608 668 m 6 Y s 601 671 m20 608 647 m 2 X s 621 647 m 1 X s 608 645 m 5 Y s 622 645 m 5 Y s 615 647 m20 622 623 m 1 X s 635 623 m 1 X s 622 620 m 6 Y s 636 620 m 6 Y s 629
 623 m20 636 590 m 1 X s 648 590 m 2 X s 636 587 m 6 Y s 650 587 m 6 Y s 643 590 m20 650 562 m 1 X s 662 562 m 1 X s 650 559 m 6 Y s 663 559 m 6 Y s 657 562 m20 663 545 m 2 X s 676 545 m 1 X s 663 543 m 5 Y s 677 543 m 5 Y s 670 545 m20 684 518 m s
 677 524 m 1 X s 690 524 m 1 X s 681 518 m 6 X s 677 521 m 6 Y s 691 521 m 6 Y s 684 524 m20 698 498 m 1 Y s 698 511 m s 691 505 m 1 X s 704 505 m 1 X s 695 498 m 6 X s 695 511 m 6 X s 691 502 m 6 Y s 705 502 m 6 Y s 698 505 m20 712 479 m 2 Y s 712
 492 m 1 Y s 705 486 m 1 X s 717 486 m 2 X s 709 479 m 6 X s 709 493 m 6 X s 705 484 m 5 Y s 719 484 m 5 Y s 712 486 m20 1 1 1 c black 560 185 m 72 Y s 560 268 m 28 Y s 553 262 m 1 X s 566 262 m 1 X s 557 185 m 6 X s 557 296 m 6 X s 553 259 m 6 Y s
 567 259 m 6 Y s 560 262 m24 0 0 1 c[ 12 12] 0 sd 6 lw 443 118 m 527 Y s 719 118 m 527 Y s black[  ] 0 sd 3 lw 1 1 1 c 272 268 186 654 bf black
 gsave  1088 1072 23 11 C 252.599 874.164 t 0 r /Helvetica findfont 39.7652 sf 0 0 m (OC data: 12630) show NC gr  220 889 m20
 gsave  1088 1072 23 11 C 252.599 807.466 t 0 r /Helvetica findfont 39.7652 sf 0 0 m (SC data: 2) show NC gr  220 822 m24
 gsave  1088 1072 23 11 C 252.599 740.768 t 0 r /Helvetica findfont 39.7652 sf 0 0 m (OC MC: 27223) show NC gr  1 0 0 c 220 755 m20 black
 gsave  1088 1072 23 11 C 252.599 674.071 t 0 r /Helvetica findfont 39.7652 sf 0 0 m (SC MC: 0) show NC gr  1 0 0 c 220 688 m24 black
 gsave  1088 1072 23 11 C 566.22 901.126 t 0 r /Helvetica-Bold findfont 59.6478 sf 0 0 m (pp collisions) show NC gr  1 1 1 c 1088 1072 1157 11 bf black 1 1 1 c 827 858 1287 118 bf black 827 858 1287 118 bl 1 1 1 c 827 858 1287 118 bf black 827 858
 1287 118 bl 1 0 0 c 1 1 1 c 1 0 0 c 1577 520 m 1 X s 1589 520 m 1 X s 1577 517 m 6 Y s 1590 517 m 6 Y s 1584 520 m20 1590 535 m 2 X s 1603 535 m 1 X s 1590 532 m 6 Y s 1604 532 m 6 Y s 1597 535 m20 1604 545 m 1 X s 1617 545 m 1 X s 1604 542 m 6 Y s
 1618 542 m 6 Y s 1611 545 m20 1618 560 m 1 X s 1631 560 m 1 X s 1618 557 m 6 Y s 1632 557 m 6 Y s 1625 560 m20 1632 585 m 1 X s 1644 585 m 2 X s 1632 582 m 6 Y s 1646 582 m 6 Y s 1639 585 m20 1646 613 m 1 X s 1658 613 m 1 X s 1646 610 m 6 Y s 1659
 610 m 6 Y s 1653 613 m20 1659 634 m 2 X s 1672 634 m 1 X s 1659 631 m 6 Y s 1673 631 m 6 Y s 1666 634 m20 1673 658 m 1 X s 1686 658 m 1 X s 1673 655 m 6 Y s 1687 655 m 6 Y s 1680 658 m20 1687 677 m 1 X s 1700 677 m 1 X s 1687 675 m 5 Y s 1701 675 m
 5 Y s 1694 677 m20 1701 688 m 1 X s 1713 688 m 2 X s 1701 685 m 6 Y s 1715 685 m 6 Y s 1708 688 m20 1715 685 m 1 X s 1727 685 m 1 X s 1715 682 m 5 Y s 1728 682 m 5 Y s 1721 685 m20 1728 672 m 2 X s 1741 672 m 1 X s 1728 669 m 5 Y s 1742 669 m 5 Y s
 1735 672 m20 1742 652 m 1 X s 1755 652 m 1 X s 1742 649 m 5 Y s 1756 649 m 5 Y s 1749 652 m20 1756 622 m 1 X s 1769 622 m 1 X s 1756 619 m 5 Y s 1770 619 m 5 Y s 1763 622 m20 1770 591 m 1 X s 1782 591 m 2 X s 1770 589 m 5 Y s 1784 589 m 5 Y s 1777
 591 m20 1784 560 m 1 X s 1796 560 m 1 X s 1784 558 m 5 Y s 1797 558 m 5 Y s 1790 560 m20 1797 537 m 2 X s 1810 537 m 1 X s 1797 534 m 6 Y s 1811 534 m 6 Y s 1804 537 m20 1811 525 m 1 X s 1824 525 m 1 X s 1811 522 m 6 Y s 1825 522 m 6 Y s 1818 525
 m20 1825 506 m 1 X s 1837 506 m 2 X s 1825 503 m 5 Y s 1839 503 m 5 Y s 1832 506 m20 1839 489 m 1 X s 1851 489 m 1 X s 1839 486 m 6 Y s 1852 486 m 6 Y s 1846 489 m20 black 1287 118 m 827 X s 1287 143 m -25 Y s 1315 130 m -12 Y s 1342 130 m -12 Y s
 1370 130 m -12 Y s 1397 130 m -12 Y s 1425 143 m -25 Y s 1453 130 m -12 Y s 1480 130 m -12 Y s 1508 130 m -12 Y s 1535 130 m -12 Y s 1563 143 m -25 Y s 1590 130 m -12 Y s 1618 130 m -12 Y s 1646 130 m -12 Y s 1673 130 m -12 Y s 1701 143 m -25 Y s
 1728 130 m -12 Y s 1756 130 m -12 Y s 1784 130 m -12 Y s 1811 130 m -12 Y s 1839 143 m -25 Y s 1866 130 m -12 Y s 1894 130 m -12 Y s 1921 130 m -12 Y s 1949 130 m -12 Y s 1977 143 m -25 Y s 2004 130 m -12 Y s 2032 130 m -12 Y s 2059 130 m -12 Y s
 2087 130 m -12 Y s 2114 143 m -25 Y s
 gsave  1088 1072 1157 11 C 1267.25 83.7267 t 0 r /Helvetica findfont 35.5047 sf 0 0 m (60) show NC gr 
 gsave  1088 1072 1157 11 C 1404.91 83.7267 t 0 r /Helvetica findfont 35.5047 sf 0 0 m (70) show NC gr 
 gsave  1088 1072 1157 11 C 1542.56 83.7267 t 0 r /Helvetica findfont 35.5047 sf 0 0 m (80) show NC gr 
 gsave  1088 1072 1157 11 C 1680.21 83.7267 t 0 r /Helvetica findfont 35.5047 sf 0 0 m (90) show NC gr 
 gsave  1088 1072 1157 11 C 1807.93 83.7267 t 0 r /Helvetica findfont 35.5047 sf 0 0 m (100) show NC gr 
 gsave  1088 1072 1157 11 C 1945.58 83.7267 t 0 r /Helvetica findfont 35.5047 sf 0 0 m (110) show NC gr 
 gsave  1088 1072 1157 11 C 2083.23 83.7267 t 0 r /Helvetica findfont 35.5047 sf 0 0 m (120) show NC gr 
 gsave  1088 1072 1157 11 C 1986.74 32.6392 t 0 r /Helvetica findfont 45.446 sf 0 0 m ( [GeV]) show NC gr 
 gsave  1088 1072 1157 11 C 1969.71 24.1246 t 0 r /Symbol findfont 29.8239 sf 0 0 m (m) show NC gr 
 gsave  1088 1072 1157 11 C 1952.68 24.1246 t 0 r /Symbol findfont 29.8239 sf 0 0 m (m) show NC gr 
 gsave  1088 1072 1157 11 C 1917.2 32.6392 t 0 r /Helvetica findfont 45.446 sf 0 0 m (M) show NC gr  1287 118 m 858 Y s 1300 118 m -13 X s 1300 144 m -13 X s 1300 162 m -13 X s 1300 175 m -13 X s 1300 187 m -13 X s 1300 197 m -13 X s 1300 205 m -13 X
 s 1300 212 m -13 X s 1313 219 m -26 X s
 gsave  1088 1072 1157 11 C 1265.83 207.188 t 0 r /Helvetica findfont 32.6643 sf 0 0 m (1) show NC gr  1300 262 m -13 X s 1300 288 m -13 X s 1300 306 m -13 X s 1300 320 m -13 X s 1300 331 m -13 X s 1300 341 m -13 X s 1300 349 m -13 X s 1300 356 m -13
 X s 1313 363 m -26 X s
 gsave  1088 1072 1157 11 C 1243.13 350.517 t 0 r /Helvetica findfont 32.6643 sf 0 0 m (10) show NC gr  1300 406 m -13 X s 1300 432 m -13 X s 1300 450 m -13 X s 1300 464 m -13 X s 1300 475 m -13 X s 1300 485 m -13 X s 1300 493 m -13 X s 1300 500 m
 -13 X s 1313 507 m -26 X s
 gsave  1088 1072 1157 11 C 1265.83 506.618 t 0 r /Helvetica findfont 22.723 sf 0 0 m (2) show NC gr 
 gsave  1088 1072 1157 11 C 1230.36 492.427 t 0 r /Helvetica findfont 32.6643 sf 0 0 m (10) show NC gr  1300 550 m -13 X s 1300 576 m -13 X s 1300 594 m -13 X s 1300 608 m -13 X s 1300 619 m -13 X s 1300 629 m -13 X s 1300 637 m -13 X s 1300 644 m
 -13 X s 1313 651 m -26 X s
 gsave  1088 1072 1157 11 C 1265.83 651.365 t 0 r /Helvetica findfont 22.723 sf 0 0 m (3) show NC gr 
 gsave  1088 1072 1157 11 C 1230.36 635.755 t 0 r /Helvetica findfont 32.6643 sf 0 0 m (10) show NC gr  1300 694 m -13 X s 1300 720 m -13 X s 1300 738 m -13 X s 1300 752 m -13 X s 1300 763 m -13 X s 1300 773 m -13 X s 1300 781 m -13 X s 1300 788 m
 -13 X s 1313 795 m -26 X s
 gsave  1088 1072 1157 11 C 1265.83 794.694 t 0 r /Helvetica findfont 22.723 sf 0 0 m (4) show NC gr 
 gsave  1088 1072 1157 11 C 1230.36 780.503 t 0 r /Helvetica findfont 32.6643 sf 0 0 m (10) show NC gr  1300 838 m -13 X s 1300 864 m -13 X s 1300 882 m -13 X s 1300 896 m -13 X s 1300 907 m -13 X s 1300 917 m -13 X s 1300 925 m -13 X s 1300 932 m
 -13 X s 1313 939 m -26 X s
 gsave  1088 1072 1157 11 C 1265.83 939.442 t 0 r /Helvetica findfont 22.723 sf 0 0 m (5) show NC gr 
 gsave  1088 1072 1157 11 C 1230.36 923.832 t 0 r /Helvetica findfont 32.6643 sf 0 0 m (10) show NC gr 
 gsave  1088 1072 1157 11 C 1203.39 557.705 t 90 r /Helvetica findfont 45.446 sf 0 0 m (Entries / NormFactor) show NC gr  1 0 0 c 1 1 1 c 1 0 0 c black 1 1 1 c black 1584 514 m s 1577 520 m 1 X s 1589 520 m 1 X s 1581 514 m 5 X s 1577 517 m 6 Y s
 1590 517 m 6 Y s 1584 520 m20 1590 527 m 2 X s 1603 527 m 1 X s 1590 524 m 5 Y s 1604 524 m 5 Y s 1597 527 m20 1604 560 m 1 X s 1617 560 m 1 X s 1604 558 m 5 Y s 1618 558 m 5 Y s 1611 560 m20 1618 563 m 1 X s 1631 563 m 1 X s 1618 560 m 6 Y s 1632
 560 m 6 Y s 1625 563 m20 1632 592 m 1 X s 1644 592 m 2 X s 1632 590 m 5 Y s 1646 590 m 5 Y s 1639 592 m20 1646 608 m 1 X s 1658 608 m 1 X s 1646 605 m 6 Y s 1659 605 m 6 Y s 1653 608 m20 1659 638 m 2 X s 1672 638 m 1 X s 1659 635 m 6 Y s 1673 635 m
 6 Y s 1666 638 m20 1673 655 m 1 X s 1686 655 m 1 X s 1673 652 m 6 Y s 1687 652 m 6 Y s 1680 655 m20 1687 677 m 1 X s 1700 677 m 1 X s 1687 674 m 5 Y s 1701 674 m 5 Y s 1694 677 m20 1701 686 m 1 X s 1713 686 m 2 X s 1701 683 m 6 Y s 1715 683 m 6 Y s
 1708 686 m20 1715 688 m 1 X s 1727 688 m 1 X s 1715 685 m 6 Y s 1728 685 m 6 Y s 1721 688 m20 1728 671 m 2 X s 1741 671 m 1 X s 1728 668 m 6 Y s 1742 668 m 6 Y s 1735 671 m20 1742 647 m 1 X s 1755 647 m 1 X s 1742 645 m 5 Y s 1756 645 m 5 Y s 1749
 647 m20 1756 623 m 1 X s 1769 623 m 1 X s 1756 620 m 6 Y s 1770 620 m 6 Y s 1763 623 m20 1770 590 m 1 X s 1782 590 m 2 X s 1770 587 m 6 Y s 1784 587 m 6 Y s 1777 590 m20 1784 562 m 1 X s 1796 562 m 1 X s 1784 559 m 6 Y s 1797 559 m 6 Y s 1790 562
 m20 1797 545 m 2 X s 1810 545 m 1 X s 1797 543 m 5 Y s 1811 543 m 5 Y s 1804 545 m20 1818 518 m s 1811 524 m 1 X s 1824 524 m 1 X s 1815 518 m 6 X s 1811 521 m 6 Y s 1825 521 m 6 Y s 1818 524 m20 1832 498 m 1 Y s 1832 511 m s 1825 505 m 1 X s 1837
 505 m 2 X s 1829 498 m 6 X s 1829 511 m 6 X s 1825 502 m 6 Y s 1839 502 m 6 Y s 1832 505 m20 1846 479 m 2 Y s 1846 492 m 1 Y s 1839 486 m 1 X s 1851 486 m 1 X s 1843 479 m 5 X s 1843 493 m 5 X s 1839 484 m 5 Y s 1852 484 m 5 Y s 1846 486 m20 1 1 1 c
 black 1694 185 m 72 Y s 1694 268 m 28 Y s 1687 262 m 1 X s 1700 262 m 1 X s 1691 185 m 6 X s 1691 296 m 6 X s 1687 259 m 6 Y s 1701 259 m 6 Y s 1694 262 m24 0 0 1 c[ 12 12] 0 sd 6 lw 1577 118 m 527 Y s 1852 118 m 527 Y s black[  ] 0 sd 3 lw 1 1 1 c
 272 268 1320 654 bf black
 gsave  1088 1072 1157 11 C 1386.46 874.164 t 0 r /Helvetica findfont 39.7652 sf 0 0 m (OC data: 12630) show NC gr  1354 889 m20
 gsave  1088 1072 1157 11 C 1386.46 807.466 t 0 r /Helvetica findfont 39.7652 sf 0 0 m (SC data: 2) show NC gr  1354 822 m24
 gsave  1088 1072 1157 11 C 1386.46 740.768 t 0 r /Helvetica findfont 39.7652 sf 0 0 m (OC MC: 27223) show NC gr  1 0 0 c 1354 755 m20 black
 gsave  1088 1072 1157 11 C 1386.46 674.071 t 0 r /Helvetica findfont 39.7652 sf 0 0 m (SC MC: 0) show NC gr  1 0 0 c 1354 688 m24 black
 gsave  1088 1072 1157 11 C 1700.08 901.126 t 0 r /Helvetica-Bold findfont 59.6478 sf 0 0 m (pp collisions) show NC gr 
 gr  gr showpage
end
%%EOF
