%!PS-Adobe-2.0 EPSF-2.0
%%BoundingBox:  0 0 567 274
%%Title: /home/petr/Analysis_iwona/SFAnalysis/eps/Zmass_mumu__MS_can.eps: Results
%%Creator: ROOT Version 6.16/00
%%CreationDate: Thu Apr  4 10:36:54 2019
%%DocumentNeededResources: ProcSet (FontSetInit)
%%EndComments
%%BeginProlog
80 dict begin
/s {stroke} def /l {lineto} def /m {moveto} def /t {translate} def
/r {rotate} def /rl {roll}  def /R {repeat} def
/d {rlineto} def /rm {rmoveto} def /gr {grestore} def /f {eofill} def
/c {setrgbcolor} def /black {0 setgray} def /sd {setdash} def
/cl {closepath} def /sf {scalefont setfont} def /lw {setlinewidth} def
/box {m dup 0 exch d exch 0 d 0 exch neg d cl} def
/NC{systemdict begin initclip end}def/C{NC box clip newpath}def
/bl {box s} def /bf {gsave box gsave f grestore 1 lw [] 0 sd s grestore} def /Y { 0 exch d} def /X { 0 d} def 
/K {{pop pop 0 moveto} exch kshow} bind def
/ita {/ang 15 def gsave [1 0 ang dup sin exch cos div 1 0 0] concat} def 
/mp {newpath /y exch def /x exch def} def
/side {[w .77 mul w .23 mul] .385 w mul sd w 0 l currentpoint t -144 r} def
/mr {mp x y w2 0 360 arc} def /m24 {mr s} def /m20 {mr f} def
/mb {mp x y w2 add m w2 neg 0 d 0 w neg d w 0 d 0 w d cl} def
/mt {mp x y w2 add m w2 neg w neg d w 0 d cl} def
/w4 {w 4 div} def
/w6 {w 6 div} def
/w8 {w 8 div} def
/m21 {mb f} def /m25 {mb s} def /m22 {mt f} def /m26{mt s} def
/m23 {mp x y w2 sub m w2 w d w neg 0 d cl f} def
/m27 {mp x y w2 add m w3 neg w2 neg d w3 w2 neg d w3 w2 d cl s} def
/m28 {mp x w2 sub y w2 sub w3 add m w3 0 d  0 w3 neg d w3 0 d 0 w3 d w3 0 d  0 w3 d w3 neg 0 d 0 w3 d w3 neg 0 d 0 w3 neg d w3 neg 0 d cl s } def
/m29 {mp gsave x w2 sub y w2 add w3 sub m currentpoint t 4 {side} repeat cl fill gr} def
/m30 {mp gsave x w2 sub y w2 add w3 sub m currentpoint t 4 {side} repeat cl s gr} def
/m31 {mp x y w2 sub m 0 w d x w2 sub y m w 0 d x w2 sub y w2 add m w w neg d x w2 sub y w2 sub m w w d s} def
/m32 {mp x y w2 sub m w2 w d w neg 0 d cl s} def
/m33 {mp x y w2 add m w3 neg w2 neg d w3 w2 neg d w3 w2 d cl f} def
/m34 {mp x w2 sub y w2 sub w3 add m w3 0 d  0 w3 neg d w3 0 d 0 w3 d w3 0 d  0 w3 d w3 neg 0 d 0 w3 d w3 neg 0 d 0 w3 neg d w3 neg 0 d cl f } def
/m35 {mp x y w2 add m w2 neg w2 neg d w2 w2 neg d w2 w2 d w2 neg w2 d x y w2 sub m 0 w d x w2 sub y m w 0 d s} def
/m36 {mb x w2 sub y w2 add m w w neg d x w2 sub y w2 sub m w w d s} def
/m37 {mp x y m w4 neg w2 d w4 neg w2 neg d w2 0 d  w4 neg w2 neg d w2 0 d w4 neg w2 d w2 0 d w4 neg w2 d w4 neg w2 neg d cl s} def
/m38 {mp x w4 sub y w2 add m w4 neg w4 neg d 0 w2 neg d w4 w4 neg d w2 0 d w4 w4 d 0 w2 d w4 neg w4 d w2 neg 0 d x y w2 sub m 0 w d x w2 sub y m w 0 d cl s} def
/m39 {mp x y m w4 neg w2 d w4 neg w2 neg d w2 0 d  w4 neg w2 neg d w2 0 d w4 neg w2 d w2 0 d w4 neg w2 d w4 neg w2 neg d cl f} def
/m40 {mp x y m w4 w2 d w4 w4 neg d w2 neg w4 neg d w2 w4 neg d w4 neg w4 neg d w4 neg w2 d w4 neg w2 neg d w4 neg w4 d w2 w4 d w2 neg w4 d w4 w4 d w4 w2 neg d cl s} def
/m41 {mp x y m w4 w2 d w4 w4 neg d w2 neg w4 neg d w2 w4 neg d w4 neg w4 neg d w4 neg w2 d w4 neg w2 neg d w4 neg w4 d w2 w4 d w2 neg w4 d w4 w4 d w4 w2 neg d cl f} def
/m42 {mp x y w2 add m w8 neg w2 -3 4 div mul d w2 -3 4 div mul w8 neg d w2 3 4 div mul w8 neg d w8 w2 -3 4 div mul d w8 w2 3 4 div mul d w2 3 4 div mul w8 d w2 -3 4 div mul w8 d w8 neg w2 3 4 div mul d cl s} def
/m43 {mp x y w2 add m w8 neg w2 -3 4 div mul d w2 -3 4 div mul w8 neg d w2 3 4 div mul w8 neg d w8 w2 -3 4 div mul d w8 w2 3 4 div mul d w2 3 4 div mul w8 d w2 -3 4 div mul w8 d w8 neg w2 3 4 div mul d cl f} def
/m44 {mp x y m w6 neg w2 d w2 2 3 div mul 0 d w6 neg w2 neg d w2 w6 d 0 w2 -2 3 div mul d w2 neg w6 d w6 w2 neg d w2 -2 3 div mul 0 d w6 w2 d w2 neg w6 neg d 0 w2 2 3 div mul d w2 w6 neg d cl s} def
/m45 {mp x y m w6 neg w2 d w2 2 3 div mul 0 d w6 neg w2 neg d w2 w6 d 0 w2 -2 3 div mul d w2 neg w6 d w6 w2 neg d w2 -2 3 div mul 0 d w6 w2 d w2 neg w6 neg d 0 w2 2 3 div mul d w2 w6 neg d cl f} def
/m46 {mp x y w4 add m w4 neg w4 d w4 neg w4 neg d  w4 w4 neg d w4 neg w4 neg d w4 w4 neg d w4 w4 d w4 w4 neg d w4 w4 d w4 neg w4 d w4 w4 d w4 neg w4 d w4 neg w4 neg d cl s} def
/m47 {mp x y w4 add m w4 neg w4 d w4 neg w4 neg d w4 w4 neg d w4 neg w4 neg d  w4 w4 neg d w4 w4 d w4 w4 neg d w4 w4 d w4 neg w4 d w4 w4 d w4 neg w4 d w4 neg w4 neg d cl f} def
/m48 {mp x y w4 add m w4 neg w4 d w4 neg w4 neg d w4 w4 neg d  w4 neg w4 neg d w4 w4 neg d w4 w4 d w4 w4 neg d w4 w4 d w4 neg w4 d w4 w4 d w4 neg w4 d w4 neg w4 neg d  w4 w4 neg d w4 neg w4 neg d w4 neg w4 d w4 w4 d cl f} def
/m49 {mp x w2 sub w3 add y w2 sub w3 add m  0 w3 neg d w3 0 d 0 w3 d w3 0 d 0 w3 d w3 neg 0 d 0 w3 d w3 neg 0 d 0 w3 neg d w3 neg 0 d 0 w3 neg d w3 0 d 0 w3 d w3 0 d 0 w3 neg d w3 neg 0 d cl f } def
/m2 {mp x y w2 sub m 0 w d x w2 sub y m w 0 d s} def
/m5 {mp x w2 sub y w2 sub m w w d x w2 sub y w2 add m w w neg d s} def
%%IncludeResource: ProcSet (FontSetInit)
%%IncludeResource: font Times-Roman
%%IncludeResource: font Times-Italic
%%IncludeResource: font Times-Bold
%%IncludeResource: font Times-BoldItalic
%%IncludeResource: font Helvetica
%%IncludeResource: font Helvetica-Oblique
%%IncludeResource: font Helvetica-Bold
%%IncludeResource: font Helvetica-BoldOblique
%%IncludeResource: font Courier
%%IncludeResource: font Courier-Oblique
%%IncludeResource: font Courier-Bold
%%IncludeResource: font Courier-BoldOblique
%%IncludeResource: font Symbol
%%IncludeResource: font ZapfDingbats
/reEncode {exch findfont dup length dict begin {1 index /FID eq  {pop pop} {def} ifelse } forall /Encoding exch def currentdict end dup /FontName get exch definefont pop } def [/Times-Bold /Times-Italic /Times-BoldItalic /Helvetica /Helvetica-Oblique
 /Helvetica-Bold /Helvetica-BoldOblique /Courier /Courier-Oblique /Courier-Bold /Courier-BoldOblique /Times-Roman /AvantGarde-Book /AvantGarde-BookOblique /AvantGarde-Demi /AvantGarde-DemiOblique /Bookman-Demi /Bookman-DemiItalic /Bookman-Light
 /Bookman-LightItalic /Helvetica-Narrow /Helvetica-Narrow-Bold /Helvetica-Narrow-BoldOblique /Helvetica-Narrow-Oblique /NewCenturySchlbk-Roman /NewCenturySchlbk-Bold /NewCenturySchlbk-BoldItalic /NewCenturySchlbk-Italic /Palatino-Bold
 /Palatino-BoldItalic /Palatino-Italic /Palatino-Roman ] {ISOLatin1Encoding reEncode } forall
%%EndProlog
%%BeginSetup
%%EndSetup
newpath  gsave  .25 .25 scale  gsave  0 0 t black[  ] 0 sd 3 lw 1 1 1 c 2268 1094 0 0 bf black 1 1 1 c 1088 1072 23 11 bf black 1 1 1 c 828 858 153 118 bf black 828 858 153 118 bl 1 1 1 c 828 858 153 118 bf black 828 858 153 118 bl 1 0 0 c 1 1 1 c 1
 0 0 c 174 268 m 5 Y s 174 284 m 4 Y s 167 278 m 1 X s 180 278 m 1 X s /w 12 def /w2 {w 2 div} def /w3 {w 3 div} def 174 278 m20 188 286 m 4 Y s 188 301 m 3 Y s 181 295 m 1 X s 193 295 m 2 X s 188 295 m20 202 284 m 4 Y s 202 299 m 3 Y s 195 293 m 1 X
 s 207 293 m 1 X s 202 293 m20 215 289 m 4 Y s 215 304 m 3 Y s 208 298 m 2 X s 221 298 m 1 X s 215 298 m20 229 284 m 4 Y s 229 299 m 3 Y s 222 293 m 1 X s 235 293 m 1 X s 229 293 m20 243 303 m 2 Y s 243 317 m 2 Y s 236 311 m 1 X s 249 311 m 1 X s 243
 311 m20 257 312 m 2 Y s 257 325 m 2 Y s 250 320 m 1 X s 262 320 m 2 X s 257 320 m20 270 289 m 4 Y s 270 304 m 3 Y s 264 298 m 1 X s 276 298 m 1 X s 270 298 m20 284 307 m 2 Y s 284 321 m 2 Y s 277 315 m 2 X s 290 315 m 1 X s 284 315 m20 298 308 m 2 Y
 s 298 322 m 1 Y s 291 316 m 1 X s 304 316 m 1 X s 298 316 m20 312 318 m 2 Y s 312 331 m 2 Y s 305 325 m 1 X s 318 325 m 1 X s 312 325 m20 326 327 m 2 Y s 326 340 m 1 Y s 319 335 m 1 X s 331 335 m 2 X s 326 335 m20 339 325 m 1 Y s 339 338 m 1 Y s 333
 332 m 1 X s 345 332 m 1 X s 339 332 m20 353 331 m 1 Y s 353 343 m 1 Y s 346 338 m 2 X s 359 338 m 1 X s 353 338 m20 367 342 m 1 Y s 367 354 m 1 Y s 360 349 m 1 X s 373 349 m 1 X s 367 349 m20 381 342 m 1 Y s 381 354 m 1 Y s 374 349 m 1 X s 386 349 m
 2 X s 381 349 m20 395 364 m s 388 369 m 1 X s 400 369 m 1 X s 395 369 m20 401 387 m 2 X s 414 387 m 1 X s 408 387 m20 415 389 m 1 X s 428 389 m 1 X s 422 389 m20 429 399 m 1 X s 442 399 m 1 X s 436 399 m20 443 422 m 1 X s 455 422 m 2 X s 450 422 m20
 457 439 m 1 X s 469 439 m 1 X s 464 439 m20 470 452 m 2 X s 483 452 m 1 X s 477 452 m20 484 468 m 1 X s 497 468 m 1 X s 491 468 m20 498 499 m 1 X s 511 499 m 1 X s 505 499 m20 512 529 m 1 X s 524 529 m 2 X s 519 529 m20 526 555 m 1 X s 538 555 m 1 X
 s 532 555 m20 539 584 m 2 X s 552 584 m 1 X s 546 584 m20 553 607 m 1 X s 566 607 m 1 X s 560 607 m20 567 618 m 1 X s 579 618 m 2 X s 574 618 m20 581 614 m 1 X s 593 614 m 2 X s 588 614 m20 595 598 m 1 X s 607 598 m 1 X s 601 598 m20 608 573 m 2 X s
 621 573 m 1 X s 615 573 m20 622 538 m 1 X s 635 538 m 1 X s 629 538 m20 636 501 m 1 X s 648 501 m 2 X s 643 501 m20 650 464 m 1 X s 662 464 m 1 X s 657 464 m20 663 432 m 2 X s 676 432 m 1 X s 670 432 m20 677 418 m 1 X s 690 418 m 1 X s 684 418 m20
 691 395 m 1 X s 704 395 m 1 X s 698 395 m20 705 375 m 1 X s 717 375 m 2 X s 712 375 m20 725 345 m 1 Y s 725 357 m s 719 351 m 1 X s 731 351 m 1 X s 725 351 m20 739 306 m 3 Y s 739 320 m 2 Y s 732 314 m 2 X s 745 314 m 1 X s 739 314 m20 753 326 m 2 Y
 s 753 339 m 1 Y s 746 333 m 1 X s 759 333 m 1 X s 753 333 m20 767 295 m 3 Y s 767 310 m 2 Y s 760 304 m 1 X s 773 304 m 1 X s 767 304 m20 781 290 m 4 Y s 781 305 m 3 Y s 774 299 m 1 X s 786 299 m 2 X s 781 299 m20 794 297 m 3 Y s 794 312 m 2 Y s 788
 306 m 1 X s 800 306 m 1 X s 794 306 m20 808 269 m 5 Y s 808 285 m 4 Y s 801 280 m 2 X s 814 280 m 1 X s 808 280 m20 822 286 m 4 Y s 822 301 m 3 Y s 815 295 m 1 X s 828 295 m 1 X s 822 295 m20 836 257 m 6 Y s 836 275 m 4 Y s 829 269 m 1 X s 841 269 m
 2 X s 836 269 m20 850 246 m 6 Y s 850 264 m 5 Y s 843 258 m 1 X s 855 258 m 1 X s 850 258 m20 863 248 m 6 Y s 863 265 m 5 Y s 856 260 m 2 X s 869 260 m 1 X s 863 260 m20 877 232 m 8 Y s 877 251 m 6 Y s 870 246 m 1 X s 883 246 m 1 X s 877 246 m20 891
 230 m 8 Y s 891 249 m 6 Y s 884 244 m 1 X s 897 244 m 1 X s 891 244 m20 905 213 m 10 Y s 905 234 m 7 Y s 898 228 m 1 X s 910 228 m 2 X s 905 228 m20 919 205 m 10 Y s 919 226 m 8 Y s 912 221 m 1 X s 924 221 m 1 X s 919 221 m20 932 236 m 8 Y s 932 255
 m 5 Y s 925 249 m 2 X s 938 249 m 1 X s 932 249 m20 946 216 m 9 Y s 946 236 m 7 Y s 939 231 m 1 X s 952 231 m 1 X s 946 231 m20 960 172 m 14 Y s 960 197 m 10 Y s 953 192 m 1 X s 966 192 m 1 X s 960 192 m20 974 202 m 10 Y s 974 223 m 8 Y s 967 218 m
 1 X s 979 218 m 2 X s 974 218 m20 black 153 118 m 828 X s 153 143 m -25 Y s 181 130 m -12 Y s 208 130 m -12 Y s 236 130 m -12 Y s 264 130 m -12 Y s 291 143 m -25 Y s 319 130 m -12 Y s 346 130 m -12 Y s 374 130 m -12 Y s 401 130 m -12 Y s 429 143 m
 -25 Y s 457 130 m -12 Y s 484 130 m -12 Y s 512 130 m -12 Y s 539 130 m -12 Y s 567 143 m -25 Y s 595 130 m -12 Y s 622 130 m -12 Y s 650 130 m -12 Y s 677 130 m -12 Y s 705 143 m -25 Y s 732 130 m -12 Y s 760 130 m -12 Y s 788 130 m -12 Y s 815 130
 m -12 Y s 843 143 m -25 Y s 870 130 m -12 Y s 898 130 m -12 Y s 925 130 m -12 Y s 953 130 m -12 Y s 981 143 m -25 Y s
 gsave  1088 1072 23 11 C 133.395 83.7267 t 0 r /Helvetica findfont 35.5047 sf 0 0 m (60) show NC gr 
 gsave  1088 1072 23 11 C 271.047 83.7267 t 0 r /Helvetica findfont 35.5047 sf 0 0 m (70) show NC gr 
 gsave  1088 1072 23 11 C 408.7 83.7267 t 0 r /Helvetica findfont 35.5047 sf 0 0 m (80) show NC gr 
 gsave  1088 1072 23 11 C 546.352 83.7267 t 0 r /Helvetica findfont 35.5047 sf 0 0 m (90) show NC gr 
 gsave  1088 1072 23 11 C 674.071 83.7267 t 0 r /Helvetica findfont 35.5047 sf 0 0 m (100) show NC gr 
 gsave  1088 1072 23 11 C 811.723 83.7267 t 0 r /Helvetica findfont 35.5047 sf 0 0 m (110) show NC gr 
 gsave  1088 1072 23 11 C 949.376 83.7267 t 0 r /Helvetica findfont 35.5047 sf 0 0 m (120) show NC gr 
 gsave  1088 1072 23 11 C 852.877 32.6392 t 0 r /Helvetica findfont 45.446 sf 0 0 m ( [GeV]) show NC gr 
 gsave  1088 1072 23 11 C 835.848 24.1246 t 0 r /Symbol findfont 29.8239 sf 0 0 m (m) show NC gr 
 gsave  1088 1072 23 11 C 818.819 24.1246 t 0 r /Symbol findfont 29.8239 sf 0 0 m (m) show NC gr 
 gsave  1088 1072 23 11 C 783.341 32.6392 t 0 r /Helvetica findfont 45.446 sf 0 0 m (M) show NC gr  153 118 m 858 Y s 166 149 m -13 X s 166 172 m -13 X s 166 189 m -13 X s 166 203 m -13 X s 166 215 m -13 X s 166 226 m -13 X s 166 235 m -13 X s 179
 243 m -26 X s
 gsave  1088 1072 23 11 C 131.976 244.085 t 0 r /Helvetica findfont 22.723 sf 0 0 m (3) show NC gr 
 gsave  1088 1072 23 11 C 119.204 244.085 t 0 r /Symbol findfont 22.723 sf 0 0 m (-) show NC gr 
 gsave  1088 1072 23 11 C 83.7267 228.475 t 0 r /Helvetica findfont 32.6643 sf 0 0 m (10) show NC gr  166 297 m -13 X s 166 328 m -13 X s 166 351 m -13 X s 166 368 m -13 X s 166 382 m -13 X s 166 394 m -13 X s 166 404 m -13 X s 166 414 m -13 X s 179
 422 m -26 X s
 gsave  1088 1072 23 11 C 131.976 421.472 t 0 r /Helvetica findfont 22.723 sf 0 0 m (2) show NC gr 
 gsave  1088 1072 23 11 C 119.204 421.472 t 0 r /Symbol findfont 22.723 sf 0 0 m (-) show NC gr 
 gsave  1088 1072 23 11 C 83.7267 407.281 t 0 r /Helvetica findfont 32.6643 sf 0 0 m (10) show NC gr  166 476 m -13 X s 166 507 m -13 X s 166 529 m -13 X s 166 547 m -13 X s 166 561 m -13 X s 166 573 m -13 X s 166 583 m -13 X s 166 592 m -13 X s 179
 601 m -26 X s
 gsave  1088 1072 23 11 C 136.233 600.278 t 0 r /Helvetica findfont 22.723 sf 0 0 m (1) show NC gr 
 gsave  1088 1072 23 11 C 123.461 600.278 t 0 r /Symbol findfont 22.723 sf 0 0 m (-) show NC gr 
 gsave  1088 1072 23 11 C 87.984 586.087 t 0 r /Helvetica findfont 32.6643 sf 0 0 m (10) show NC gr  166 655 m -13 X s 166 686 m -13 X s 166 708 m -13 X s 166 726 m -13 X s 166 740 m -13 X s 166 752 m -13 X s 166 762 m -13 X s 166 771 m -13 X s 179
 780 m -26 X s
 gsave  1088 1072 23 11 C 131.976 767.731 t 0 r /Helvetica findfont 32.6643 sf 0 0 m (1) show NC gr  166 833 m -13 X s 166 865 m -13 X s 166 887 m -13 X s 166 905 m -13 X s 166 919 m -13 X s 166 931 m -13 X s 166 941 m -13 X s 166 950 m -13 X s 179
 958 m -26 X s
 gsave  1088 1072 23 11 C 109.27 946.537 t 0 r /Helvetica findfont 32.6643 sf 0 0 m (10) show NC gr 
 gsave  1088 1072 23 11 C 65.2785 648.527 t 90 r /Helvetica findfont 45.446 sf 0 0 m (Entries / Integral) show NC gr  1 0 0 c 1 1 1 c 1 0 0 c 174 489 m 22 Y s 174 522 m 15 Y s 167 517 m 1 X s 180 517 m 1 X s 174 517 m24 188 445 m 31 Y s 188 487 m 20
 Y s 181 482 m 1 X s 193 482 m 2 X s 188 482 m24 202 497 m 21 Y s 202 529 m 14 Y s 195 524 m 1 X s 207 524 m 1 X s 202 524 m24 215 489 m 22 Y s 215 522 m 15 Y s 208 517 m 2 X s 221 517 m 1 X s 215 517 m24 229 429 m 35 Y s 229 475 m 21 Y s 222 470 m 1
 X s 235 470 m 1 X s 229 470 m24 243 489 m 22 Y s 243 522 m 15 Y s 236 517 m 1 X s 249 517 m 1 X s 243 517 m24 257 524 m 16 Y s 257 552 m 11 Y s 250 546 m 1 X s 262 546 m 2 X s 257 546 m24 270 445 m 31 Y s 270 487 m 20 Y s 264 482 m 1 X s 276 482 m 1
 X s 270 482 m24 284 497 m 21 Y s 284 529 m 14 Y s 277 524 m 2 X s 290 524 m 1 X s 284 524 m24 298 489 m 22 Y s 298 522 m 15 Y s 291 517 m 1 X s 304 517 m 1 X s 298 517 m24 312 480 m 24 Y s 312 515 m 16 Y s 305 509 m 1 X s 318 509 m 1 X s 312 509 m24
 326 384 m 48 Y s 326 444 m 26 Y s 319 438 m 1 X s 331 438 m 2 X s 326 438 m24 339 429 m 35 Y s 339 475 m 21 Y s 333 470 m 1 X s 345 470 m 1 X s 339 470 m24 353 497 m 21 Y s 353 529 m 14 Y s 346 524 m 2 X s 359 524 m 1 X s 353 524 m24 367 470 m 25 Y
 s 367 507 m 17 Y s 360 501 m 1 X s 373 501 m 1 X s 367 501 m24 381 470 m 25 Y s 381 507 m 17 Y s 374 501 m 1 X s 386 501 m 2 X s 381 501 m24 395 384 m 48 Y s 395 444 m 26 Y s 388 438 m 1 X s 400 438 m 1 X s 395 438 m24 408 458 m 28 Y s 408 498 m 18
 Y s 401 492 m 2 X s 414 492 m 1 X s 408 492 m24 422 409 m 41 Y s 422 461 m 23 Y s 415 455 m 1 X s 428 455 m 1 X s 422 455 m24 436 289 m 90 Y s 436 390 m 36 Y s 429 384 m 1 X s 442 384 m 1 X s 436 384 m24 450 480 m 24 Y s 450 515 m 16 Y s 443 509 m 1
 X s 455 509 m 2 X s 450 509 m24 464 349 m 61 Y s 464 421 m 30 Y s 457 416 m 1 X s 469 416 m 1 X s 464 416 m24 477 458 m 28 Y s 477 498 m 18 Y s 470 492 m 2 X s 483 492 m 1 X s 477 492 m24 491 445 m 31 Y s 491 487 m 20 Y s 484 482 m 1 X s 497 482 m 1
 X s 491 482 m24 505 480 m 24 Y s 505 515 m 16 Y s 498 509 m 1 X s 511 509 m 1 X s 505 509 m24 532 384 m 48 Y s 532 444 m 26 Y s 526 438 m 1 X s 538 438 m 1 X s 532 438 m24 546 289 m 90 Y s 546 390 m 36 Y s 539 384 m 2 X s 552 384 m 1 X s 546 384 m24
 560 429 m 35 Y s 560 475 m 21 Y s 553 470 m 1 X s 566 470 m 1 X s 560 470 m24 574 289 m 90 Y s 574 390 m 36 Y s 567 384 m 1 X s 579 384 m 2 X s 574 384 m24 588 409 m 41 Y s 588 461 m 23 Y s 581 455 m 1 X s 593 455 m 2 X s 588 455 m24 601 384 m 48 Y
 s 601 444 m 26 Y s 595 438 m 1 X s 607 438 m 1 X s 601 438 m24 615 384 m 48 Y s 615 444 m 26 Y s 608 438 m 2 X s 621 438 m 1 X s 615 438 m24 629 409 m 41 Y s 629 461 m 23 Y s 622 455 m 1 X s 635 455 m 1 X s 629 455 m24 643 409 m 41 Y s 643 461 m 23
 Y s 636 455 m 1 X s 648 455 m 2 X s 643 455 m24 657 384 m 48 Y s 657 444 m 26 Y s 650 438 m 1 X s 662 438 m 1 X s 657 438 m24 670 349 m 61 Y s 670 421 m 30 Y s 663 416 m 2 X s 676 416 m 1 X s 670 416 m24 684 349 m 61 Y s 684 421 m 30 Y s 677 416 m 1
 X s 690 416 m 1 X s 684 416 m24 698 289 m 90 Y s 698 390 m 36 Y s 691 384 m 1 X s 704 384 m 1 X s 698 384 m24 712 384 m 48 Y s 712 444 m 26 Y s 705 438 m 1 X s 717 438 m 2 X s 712 438 m24 725 384 m 48 Y s 725 444 m 26 Y s 719 438 m 1 X s 731 438 m 1
 X s 725 438 m24 739 289 m 90 Y s 739 390 m 36 Y s 732 384 m 2 X s 745 384 m 1 X s 739 384 m24 753 118 m 207 Y s 753 336 m 48 Y s 746 330 m 1 X s 759 330 m 1 X s 753 330 m24 767 429 m 35 Y s 767 475 m 21 Y s 760 470 m 1 X s 773 470 m 1 X s 767 470
 m24 781 384 m 48 Y s 781 444 m 26 Y s 774 438 m 1 X s 786 438 m 2 X s 781 438 m24 794 118 m 207 Y s 794 336 m 48 Y s 788 330 m 1 X s 800 330 m 1 X s 794 330 m24 808 429 m 35 Y s 808 475 m 21 Y s 801 470 m 2 X s 814 470 m 1 X s 808 470 m24 822 289 m
 90 Y s 822 390 m 36 Y s 815 384 m 1 X s 828 384 m 1 X s 822 384 m24 836 289 m 90 Y s 836 390 m 36 Y s 829 384 m 1 X s 841 384 m 2 X s 836 384 m24 850 349 m 61 Y s 850 421 m 30 Y s 843 416 m 1 X s 855 416 m 1 X s 850 416 m24 863 384 m 48 Y s 863 444
 m 26 Y s 856 438 m 2 X s 869 438 m 1 X s 863 438 m24 877 349 m 61 Y s 877 421 m 30 Y s 870 416 m 1 X s 883 416 m 1 X s 877 416 m24 905 384 m 48 Y s 905 444 m 26 Y s 898 438 m 1 X s 910 438 m 2 X s 905 438 m24 919 349 m 61 Y s 919 421 m 30 Y s 912
 416 m 1 X s 924 416 m 1 X s 919 416 m24 932 409 m 41 Y s 932 461 m 23 Y s 925 455 m 2 X s 938 455 m 1 X s 932 455 m24 946 289 m 90 Y s 946 390 m 36 Y s 939 384 m 1 X s 952 384 m 1 X s 946 384 m24 960 289 m 90 Y s 960 390 m 36 Y s 953 384 m 1 X s 966
 384 m 1 X s 960 384 m24 974 429 m 35 Y s 974 475 m 21 Y s 967 470 m 1 X s 979 470 m 2 X s 974 470 m24 black 1 1 1 c black 174 197 m 89 Y s 174 298 m 36 Y s 167 292 m 1 X s 180 292 m 1 X s 174 292 m20 188 118 m 115 Y s 188 244 m 48 Y s 181 238 m 1 X
 s 193 238 m 2 X s 188 238 m20 202 337 m 35 Y s 202 383 m 21 Y s 195 378 m 1 X s 207 378 m 1 X s 202 378 m20 215 118 m 115 Y s 215 244 m 48 Y s 208 238 m 2 X s 221 238 m 1 X s 215 238 m20 229 257 m 61 Y s 229 329 m 30 Y s 222 324 m 1 X s 235 324 m 1
 X s 229 324 m20 243 257 m 61 Y s 243 329 m 30 Y s 236 324 m 1 X s 249 324 m 1 X s 243 324 m20 257 337 m 35 Y s 257 383 m 21 Y s 250 378 m 1 X s 262 378 m 2 X s 257 378 m20 270 197 m 89 Y s 270 298 m 36 Y s 264 292 m 1 X s 276 292 m 1 X s 270 292 m20
 284 257 m 61 Y s 284 329 m 30 Y s 277 324 m 2 X s 290 324 m 1 X s 284 324 m20 298 337 m 35 Y s 298 383 m 21 Y s 291 378 m 1 X s 304 378 m 1 X s 298 378 m20 312 337 m 35 Y s 312 383 m 21 Y s 305 378 m 1 X s 318 378 m 1 X s 312 378 m20 326 337 m 35 Y
 s 326 383 m 21 Y s 319 378 m 1 X s 331 378 m 2 X s 326 378 m20 339 353 m 31 Y s 339 395 m 19 Y s 333 389 m 1 X s 345 389 m 1 X s 339 389 m20 353 197 m 89 Y s 353 298 m 36 Y s 346 292 m 2 X s 359 292 m 1 X s 353 292 m20 367 317 m 41 Y s 367 369 m 23
 Y s 360 363 m 1 X s 373 363 m 1 X s 367 363 m20 381 257 m 61 Y s 381 329 m 30 Y s 374 324 m 1 X s 386 324 m 2 X s 381 324 m20 395 353 m 31 Y s 395 395 m 19 Y s 388 389 m 1 X s 400 389 m 1 X s 395 389 m20 408 257 m 61 Y s 408 329 m 30 Y s 401 324 m 2
 X s 414 324 m 1 X s 408 324 m20 422 397 m 22 Y s 422 430 m 15 Y s 415 425 m 1 X s 428 425 m 1 X s 422 425 m20 436 366 m 28 Y s 436 406 m 17 Y s 429 400 m 1 X s 442 400 m 1 X s 436 400 m20 450 405 m 21 Y s 450 437 m 14 Y s 443 431 m 1 X s 455 431 m 2
 X s 450 431 m20 464 366 m 28 Y s 464 406 m 17 Y s 457 400 m 1 X s 469 400 m 1 X s 464 400 m20 477 460 m 13 Y s 477 484 m 9 Y s 470 478 m 2 X s 483 478 m 1 X s 477 478 m20 491 425 m 18 Y s 491 454 m 13 Y s 484 449 m 1 X s 497 449 m 1 X s 491 449 m20
 505 474 m 12 Y s 505 497 m 8 Y s 498 491 m 1 X s 511 491 m 1 X s 505 491 m20 519 507 m 8 Y s 519 527 m 6 Y s 512 521 m 1 X s 524 521 m 2 X s 519 521 m20 532 518 m 7 Y s 532 536 m 6 Y s 526 531 m 1 X s 538 531 m 1 X s 532 531 m20 546 589 m 2 Y s 546
 603 m 1 Y s 539 597 m 2 X s 552 597 m 1 X s 546 597 m20 560 588 m 2 Y s 560 602 m 1 Y s 553 596 m 1 X s 566 596 m 1 X s 560 596 m20 574 617 m 1 Y s 574 630 m s 567 624 m 1 X s 579 624 m 2 X s 574 624 m20 588 611 m 1 Y s 588 623 m 1 Y s 581 618 m 1 X
 s 593 618 m 2 X s 588 618 m20 601 591 m 2 Y s 601 605 m 1 Y s 595 599 m 1 X s 607 599 m 1 X s 601 599 m20 615 573 m 3 Y s 615 587 m 3 Y s 608 582 m 2 X s 621 582 m 1 X s 615 582 m20 629 492 m 10 Y s 629 513 m 7 Y s 622 508 m 1 X s 635 508 m 1 X s
 629 508 m20 643 471 m 12 Y s 643 494 m 9 Y s 636 488 m 1 X s 648 488 m 2 X s 643 488 m20 657 431 m 17 Y s 657 459 m 12 Y s 650 454 m 1 X s 662 454 m 1 X s 657 454 m20 670 388 m 24 Y s 670 423 m 16 Y s 663 417 m 2 X s 676 417 m 1 X s 670 417 m20 684
 317 m 41 Y s 684 369 m 23 Y s 677 363 m 1 X s 690 363 m 1 X s 684 363 m20 698 405 m 21 Y s 698 437 m 14 Y s 691 431 m 1 X s 704 431 m 1 X s 698 431 m20 712 197 m 89 Y s 712 298 m 36 Y s 705 292 m 1 X s 717 292 m 2 X s 712 292 m20 725 353 m 31 Y s
 725 395 m 19 Y s 719 389 m 1 X s 731 389 m 1 X s 725 389 m20 739 197 m 89 Y s 739 298 m 36 Y s 732 292 m 2 X s 745 292 m 1 X s 739 292 m20 753 257 m 61 Y s 753 329 m 30 Y s 746 324 m 1 X s 759 324 m 1 X s 753 324 m20 767 292 m 48 Y s 767 352 m 26 Y
 s 760 346 m 1 X s 773 346 m 1 X s 767 346 m20 781 292 m 48 Y s 781 352 m 26 Y s 774 346 m 1 X s 786 346 m 2 X s 781 346 m20 822 197 m 89 Y s 822 298 m 36 Y s 815 292 m 1 X s 828 292 m 1 X s 822 292 m20 836 197 m 89 Y s 836 298 m 36 Y s 829 292 m 1 X
 s 841 292 m 2 X s 836 292 m20 850 118 m 115 Y s 850 244 m 48 Y s 843 238 m 1 X s 855 238 m 1 X s 850 238 m20 891 197 m 89 Y s 891 298 m 36 Y s 884 292 m 1 X s 897 292 m 1 X s 891 292 m20 905 257 m 61 Y s 905 329 m 30 Y s 898 324 m 1 X s 910 324 m 2
 X s 905 324 m20 919 197 m 89 Y s 919 298 m 36 Y s 912 292 m 1 X s 924 292 m 1 X s 919 292 m20 932 118 m 115 Y s 932 244 m 48 Y s 925 238 m 2 X s 938 238 m 1 X s 932 238 m20 946 118 m 115 Y s 946 244 m 48 Y s 939 238 m 1 X s 952 238 m 1 X s 946 238
 m20 960 292 m 48 Y s 960 352 m 26 Y s 953 346 m 1 X s 966 346 m 1 X s 960 346 m20 974 257 m 61 Y s 974 329 m 30 Y s 967 324 m 1 X s 979 324 m 2 X s 974 324 m20 1 1 1 c black 174 118 m 375 Y s 174 505 m 48 Y s 167 499 m 1 X s 180 499 m 1 X s 174 499
 m24 215 118 m 375 Y s 215 505 m 48 Y s 208 499 m 2 X s 221 499 m 1 X s 215 499 m24 243 118 m 375 Y s 243 505 m 48 Y s 236 499 m 1 X s 249 499 m 1 X s 243 499 m24 270 457 m 90 Y s 270 559 m 35 Y s 264 553 m 1 X s 276 553 m 1 X s 270 553 m24 284 457 m
 90 Y s 284 559 m 35 Y s 277 553 m 2 X s 290 553 m 1 X s 284 553 m24 312 118 m 375 Y s 312 505 m 48 Y s 305 499 m 1 X s 318 499 m 1 X s 312 499 m24 339 118 m 375 Y s 339 505 m 48 Y s 333 499 m 1 X s 345 499 m 1 X s 339 499 m24 353 457 m 90 Y s 353
 559 m 35 Y s 346 553 m 2 X s 359 553 m 1 X s 353 553 m24 367 457 m 90 Y s 367 559 m 35 Y s 360 553 m 1 X s 373 553 m 1 X s 367 553 m24 381 118 m 375 Y s 381 505 m 48 Y s 374 499 m 1 X s 386 499 m 2 X s 381 499 m24 408 118 m 375 Y s 408 505 m 48 Y s
 401 499 m 2 X s 414 499 m 1 X s 408 499 m24 422 118 m 375 Y s 422 505 m 48 Y s 415 499 m 1 X s 428 499 m 1 X s 422 499 m24 436 517 m 62 Y s 436 590 m 30 Y s 429 584 m 1 X s 442 584 m 1 X s 436 584 m24 464 457 m 90 Y s 464 559 m 35 Y s 457 553 m 1 X
 s 469 553 m 1 X s 464 553 m24 477 118 m 375 Y s 477 505 m 48 Y s 470 499 m 2 X s 483 499 m 1 X s 477 499 m24 519 457 m 90 Y s 519 559 m 35 Y s 512 553 m 1 X s 524 553 m 2 X s 519 553 m24 532 118 m 375 Y s 532 505 m 48 Y s 526 499 m 1 X s 538 499 m 1
 X s 532 499 m24 560 118 m 375 Y s 560 505 m 48 Y s 553 499 m 1 X s 566 499 m 1 X s 560 499 m24 615 118 m 375 Y s 615 505 m 48 Y s 608 499 m 2 X s 621 499 m 1 X s 615 499 m24 629 457 m 90 Y s 629 559 m 35 Y s 622 553 m 1 X s 635 553 m 1 X s 629 553
 m24 670 457 m 90 Y s 670 559 m 35 Y s 663 553 m 2 X s 676 553 m 1 X s 670 553 m24 753 457 m 90 Y s 753 559 m 35 Y s 746 553 m 1 X s 759 553 m 1 X s 753 553 m24 767 118 m 375 Y s 767 505 m 48 Y s 760 499 m 1 X s 773 499 m 1 X s 767 499 m24 781 118 m
 375 Y s 781 505 m 48 Y s 774 499 m 1 X s 786 499 m 2 X s 781 499 m24 794 118 m 375 Y s 794 505 m 48 Y s 788 499 m 1 X s 800 499 m 1 X s 794 499 m24 822 118 m 375 Y s 822 505 m 48 Y s 815 499 m 1 X s 828 499 m 1 X s 822 499 m24 0 0 1 c[ 12 12] 0 sd 6
 lw 443 118 m 483 Y s 719 118 m 483 Y s black[  ] 0 sd 3 lw 1 1 1 c 272 268 186 654 bf black
 gsave  1088 1072 23 11 C 252.599 874.164 t 0 r /Helvetica findfont 39.7652 sf 0 0 m (OC data: 1061) show NC gr  220 889 m20
 gsave  1088 1072 23 11 C 252.599 807.466 t 0 r /Helvetica findfont 39.7652 sf 0 0 m (SC data: 39) show NC gr  220 822 m24
 gsave  1088 1072 23 11 C 252.599 740.768 t 0 r /Helvetica findfont 39.7652 sf 0 0 m (OC MC: 38701) show NC gr  1 0 0 c 220 755 m20 black
 gsave  1088 1072 23 11 C 252.599 674.071 t 0 r /Helvetica findfont 39.7652 sf 0 0 m (SC MC: 327) show NC gr  1 0 0 c 220 688 m24 black
 gsave  1088 1072 23 11 C 566.22 901.126 t 0 r /Helvetica-Bold findfont 59.6478 sf 0 0 m (pp collisions) show NC gr  1 1 1 c 1088 1072 1157 11 bf black 1 1 1 c 827 858 1287 118 bf black 827 858 1287 118 bl 1 1 1 c 827 858 1287 118 bf black 827 858
 1287 118 bl 1 0 0 c 1 1 1 c 1 0 0 c 1308 268 m 5 Y s 1308 284 m 4 Y s 1301 278 m 1 X s 1314 278 m 1 X s 1308 278 m20 1322 286 m 4 Y s 1322 301 m 3 Y s 1315 295 m 1 X s 1327 295 m 2 X s 1322 295 m20 1335 284 m 4 Y s 1335 299 m 3 Y s 1329 293 m 1 X s
 1341 293 m 1 X s 1335 293 m20 1349 289 m 4 Y s 1349 304 m 3 Y s 1342 298 m 2 X s 1355 298 m 1 X s 1349 298 m20 1363 284 m 4 Y s 1363 299 m 3 Y s 1356 293 m 1 X s 1369 293 m 1 X s 1363 293 m20 1377 303 m 2 Y s 1377 317 m 2 Y s 1370 311 m 1 X s 1382
 311 m 2 X s 1377 311 m20 1391 312 m 2 Y s 1391 325 m 2 Y s 1384 320 m 1 X s 1396 320 m 1 X s 1391 320 m20 1404 289 m 4 Y s 1404 304 m 3 Y s 1397 298 m 2 X s 1410 298 m 1 X s 1404 298 m20 1418 307 m 2 Y s 1418 321 m 2 Y s 1411 315 m 1 X s 1424 315 m
 1 X s 1418 315 m20 1432 308 m 2 Y s 1432 322 m 1 Y s 1425 316 m 1 X s 1438 316 m 1 X s 1432 316 m20 1446 318 m 2 Y s 1446 331 m 2 Y s 1439 325 m 1 X s 1451 325 m 2 X s 1446 325 m20 1460 327 m 2 Y s 1460 340 m 1 Y s 1453 335 m 1 X s 1465 335 m 1 X s
 1460 335 m20 1473 325 m 1 Y s 1473 338 m 1 Y s 1466 332 m 2 X s 1479 332 m 1 X s 1473 332 m20 1487 331 m 1 Y s 1487 343 m 1 Y s 1480 338 m 1 X s 1493 338 m 1 X s 1487 338 m20 1501 342 m 1 Y s 1501 354 m 1 Y s 1494 349 m 1 X s 1507 349 m 1 X s 1501
 349 m20 1515 342 m 1 Y s 1515 354 m 1 Y s 1508 349 m 1 X s 1520 349 m 2 X s 1515 349 m20 1528 364 m s 1522 369 m 1 X s 1534 369 m 1 X s 1528 369 m20 1535 387 m 2 X s 1548 387 m 1 X s 1542 387 m20 1549 389 m 1 X s 1562 389 m 1 X s 1556 389 m20 1563
 399 m 1 X s 1575 399 m 2 X s 1570 399 m20 1577 422 m 1 X s 1589 422 m 1 X s 1584 422 m20 1590 439 m 2 X s 1603 439 m 1 X s 1597 439 m20 1604 452 m 1 X s 1617 452 m 1 X s 1611 452 m20 1618 468 m 1 X s 1631 468 m 1 X s 1625 468 m20 1632 499 m 1 X s
 1644 499 m 2 X s 1639 499 m20 1646 529 m 1 X s 1658 529 m 1 X s 1653 529 m20 1659 555 m 2 X s 1672 555 m 1 X s 1666 555 m20 1673 584 m 1 X s 1686 584 m 1 X s 1680 584 m20 1687 607 m 1 X s 1700 607 m 1 X s 1694 607 m20 1701 618 m 1 X s 1713 618 m 2 X
 s 1708 618 m20 1715 614 m 1 X s 1727 614 m 1 X s 1721 614 m20 1728 598 m 2 X s 1741 598 m 1 X s 1735 598 m20 1742 573 m 1 X s 1755 573 m 1 X s 1749 573 m20 1756 538 m 1 X s 1769 538 m 1 X s 1763 538 m20 1770 501 m 1 X s 1782 501 m 2 X s 1777 501 m20
 1784 464 m 1 X s 1796 464 m 1 X s 1790 464 m20 1797 432 m 2 X s 1810 432 m 1 X s 1804 432 m20 1811 418 m 1 X s 1824 418 m 1 X s 1818 418 m20 1825 395 m 1 X s 1837 395 m 2 X s 1832 395 m20 1839 375 m 1 X s 1851 375 m 1 X s 1846 375 m20 1859 345 m 1 Y
 s 1859 357 m s 1852 351 m 2 X s 1865 351 m 1 X s 1859 351 m20 1873 306 m 3 Y s 1873 320 m 2 Y s 1866 314 m 1 X s 1879 314 m 1 X s 1873 314 m20 1887 326 m 2 Y s 1887 339 m 1 Y s 1880 333 m 1 X s 1893 333 m 1 X s 1887 333 m20 1901 295 m 3 Y s 1901 310
 m 2 Y s 1894 304 m 1 X s 1906 304 m 2 X s 1901 304 m20 1914 290 m 4 Y s 1914 305 m 3 Y s 1908 299 m 1 X s 1920 299 m 1 X s 1914 299 m20 1928 297 m 3 Y s 1928 312 m 2 Y s 1921 306 m 2 X s 1934 306 m 1 X s 1928 306 m20 1942 269 m 5 Y s 1942 285 m 4 Y
 s 1935 280 m 1 X s 1948 280 m 1 X s 1942 280 m20 1956 286 m 4 Y s 1956 301 m 3 Y s 1949 295 m 1 X s 1962 295 m 1 X s 1956 295 m20 1970 257 m 6 Y s 1970 275 m 4 Y s 1963 269 m 1 X s 1975 269 m 2 X s 1970 269 m20 1983 246 m 6 Y s 1983 264 m 5 Y s 1977
 258 m 1 X s 1989 258 m 1 X s 1983 258 m20 1997 248 m 6 Y s 1997 265 m 5 Y s 1990 260 m 2 X s 2003 260 m 1 X s 1997 260 m20 2011 232 m 8 Y s 2011 251 m 6 Y s 2004 246 m 1 X s 2017 246 m 1 X s 2011 246 m20 2025 230 m 8 Y s 2025 249 m 6 Y s 2018 244 m
 1 X s 2030 244 m 2 X s 2025 244 m20 2039 213 m 10 Y s 2039 234 m 7 Y s 2032 228 m 1 X s 2044 228 m 1 X s 2039 228 m20 2052 205 m 10 Y s 2052 226 m 8 Y s 2045 221 m 2 X s 2058 221 m 1 X s 2052 221 m20 2066 236 m 8 Y s 2066 255 m 5 Y s 2059 249 m 1 X
 s 2072 249 m 1 X s 2066 249 m20 2080 216 m 9 Y s 2080 236 m 7 Y s 2073 231 m 1 X s 2086 231 m 1 X s 2080 231 m20 2094 172 m 14 Y s 2094 197 m 10 Y s 2087 192 m 1 X s 2099 192 m 2 X s 2094 192 m20 2108 202 m 10 Y s 2108 223 m 8 Y s 2101 218 m 1 X s
 2113 218 m 1 X s 2108 218 m20 black 1287 118 m 827 X s 1287 143 m -25 Y s 1315 130 m -12 Y s 1342 130 m -12 Y s 1370 130 m -12 Y s 1397 130 m -12 Y s 1425 143 m -25 Y s 1453 130 m -12 Y s 1480 130 m -12 Y s 1508 130 m -12 Y s 1535 130 m -12 Y s 1563
 143 m -25 Y s 1590 130 m -12 Y s 1618 130 m -12 Y s 1646 130 m -12 Y s 1673 130 m -12 Y s 1701 143 m -25 Y s 1728 130 m -12 Y s 1756 130 m -12 Y s 1784 130 m -12 Y s 1811 130 m -12 Y s 1839 143 m -25 Y s 1866 130 m -12 Y s 1894 130 m -12 Y s 1921
 130 m -12 Y s 1949 130 m -12 Y s 1977 143 m -25 Y s 2004 130 m -12 Y s 2032 130 m -12 Y s 2059 130 m -12 Y s 2087 130 m -12 Y s 2114 143 m -25 Y s
 gsave  1088 1072 1157 11 C 1267.25 83.7267 t 0 r /Helvetica findfont 35.5047 sf 0 0 m (60) show NC gr 
 gsave  1088 1072 1157 11 C 1404.91 83.7267 t 0 r /Helvetica findfont 35.5047 sf 0 0 m (70) show NC gr 
 gsave  1088 1072 1157 11 C 1542.56 83.7267 t 0 r /Helvetica findfont 35.5047 sf 0 0 m (80) show NC gr 
 gsave  1088 1072 1157 11 C 1680.21 83.7267 t 0 r /Helvetica findfont 35.5047 sf 0 0 m (90) show NC gr 
 gsave  1088 1072 1157 11 C 1807.93 83.7267 t 0 r /Helvetica findfont 35.5047 sf 0 0 m (100) show NC gr 
 gsave  1088 1072 1157 11 C 1945.58 83.7267 t 0 r /Helvetica findfont 35.5047 sf 0 0 m (110) show NC gr 
 gsave  1088 1072 1157 11 C 2083.23 83.7267 t 0 r /Helvetica findfont 35.5047 sf 0 0 m (120) show NC gr 
 gsave  1088 1072 1157 11 C 1986.74 32.6392 t 0 r /Helvetica findfont 45.446 sf 0 0 m ( [GeV]) show NC gr 
 gsave  1088 1072 1157 11 C 1969.71 24.1246 t 0 r /Symbol findfont 29.8239 sf 0 0 m (m) show NC gr 
 gsave  1088 1072 1157 11 C 1952.68 24.1246 t 0 r /Symbol findfont 29.8239 sf 0 0 m (m) show NC gr 
 gsave  1088 1072 1157 11 C 1917.2 32.6392 t 0 r /Helvetica findfont 45.446 sf 0 0 m (M) show NC gr  1287 118 m 858 Y s 1300 149 m -13 X s 1300 172 m -13 X s 1300 189 m -13 X s 1300 203 m -13 X s 1300 215 m -13 X s 1300 226 m -13 X s 1300 235 m -13 X
 s 1313 243 m -26 X s
 gsave  1088 1072 1157 11 C 1265.83 244.085 t 0 r /Helvetica findfont 22.723 sf 0 0 m (3) show NC gr 
 gsave  1088 1072 1157 11 C 1253.06 244.085 t 0 r /Symbol findfont 22.723 sf 0 0 m (-) show NC gr 
 gsave  1088 1072 1157 11 C 1217.58 228.475 t 0 r /Helvetica findfont 32.6643 sf 0 0 m (10) show NC gr  1300 297 m -13 X s 1300 328 m -13 X s 1300 351 m -13 X s 1300 368 m -13 X s 1300 382 m -13 X s 1300 394 m -13 X s 1300 404 m -13 X s 1300 414 m
 -13 X s 1313 422 m -26 X s
 gsave  1088 1072 1157 11 C 1265.83 421.472 t 0 r /Helvetica findfont 22.723 sf 0 0 m (2) show NC gr 
 gsave  1088 1072 1157 11 C 1253.06 421.472 t 0 r /Symbol findfont 22.723 sf 0 0 m (-) show NC gr 
 gsave  1088 1072 1157 11 C 1217.58 407.281 t 0 r /Helvetica findfont 32.6643 sf 0 0 m (10) show NC gr  1300 476 m -13 X s 1300 507 m -13 X s 1300 529 m -13 X s 1300 547 m -13 X s 1300 561 m -13 X s 1300 573 m -13 X s 1300 583 m -13 X s 1300 592 m
 -13 X s 1313 601 m -26 X s
 gsave  1088 1072 1157 11 C 1270.09 600.278 t 0 r /Helvetica findfont 22.723 sf 0 0 m (1) show NC gr 
 gsave  1088 1072 1157 11 C 1257.32 600.278 t 0 r /Symbol findfont 22.723 sf 0 0 m (-) show NC gr 
 gsave  1088 1072 1157 11 C 1221.84 586.087 t 0 r /Helvetica findfont 32.6643 sf 0 0 m (10) show NC gr  1300 655 m -13 X s 1300 686 m -13 X s 1300 708 m -13 X s 1300 726 m -13 X s 1300 740 m -13 X s 1300 752 m -13 X s 1300 762 m -13 X s 1300 771 m
 -13 X s 1313 780 m -26 X s
 gsave  1088 1072 1157 11 C 1265.83 767.731 t 0 r /Helvetica findfont 32.6643 sf 0 0 m (1) show NC gr  1300 833 m -13 X s 1300 865 m -13 X s 1300 887 m -13 X s 1300 905 m -13 X s 1300 919 m -13 X s 1300 931 m -13 X s 1300 941 m -13 X s 1300 950 m -13
 X s 1313 958 m -26 X s
 gsave  1088 1072 1157 11 C 1243.13 946.537 t 0 r /Helvetica findfont 32.6643 sf 0 0 m (10) show NC gr 
 gsave  1088 1072 1157 11 C 1199.14 648.527 t 90 r /Helvetica findfont 45.446 sf 0 0 m (Entries / Integral) show NC gr  1 0 0 c 1 1 1 c 1 0 0 c 1308 489 m 22 Y s 1308 522 m 15 Y s 1301 517 m 1 X s 1314 517 m 1 X s 1308 517 m24 1322 445 m 31 Y s 1322
 487 m 20 Y s 1315 482 m 1 X s 1327 482 m 2 X s 1322 482 m24 1335 497 m 21 Y s 1335 529 m 14 Y s 1329 524 m 1 X s 1341 524 m 1 X s 1335 524 m24 1349 489 m 22 Y s 1349 522 m 15 Y s 1342 517 m 2 X s 1355 517 m 1 X s 1349 517 m24 1363 429 m 35 Y s 1363
 475 m 21 Y s 1356 470 m 1 X s 1369 470 m 1 X s 1363 470 m24 1377 489 m 22 Y s 1377 522 m 15 Y s 1370 517 m 1 X s 1382 517 m 2 X s 1377 517 m24 1391 524 m 16 Y s 1391 552 m 11 Y s 1384 546 m 1 X s 1396 546 m 1 X s 1391 546 m24 1404 445 m 31 Y s 1404
 487 m 20 Y s 1397 482 m 2 X s 1410 482 m 1 X s 1404 482 m24 1418 497 m 21 Y s 1418 529 m 14 Y s 1411 524 m 1 X s 1424 524 m 1 X s 1418 524 m24 1432 489 m 22 Y s 1432 522 m 15 Y s 1425 517 m 1 X s 1438 517 m 1 X s 1432 517 m24 1446 480 m 24 Y s 1446
 515 m 16 Y s 1439 509 m 1 X s 1451 509 m 2 X s 1446 509 m24 1460 384 m 48 Y s 1460 444 m 26 Y s 1453 438 m 1 X s 1465 438 m 1 X s 1460 438 m24 1473 429 m 35 Y s 1473 475 m 21 Y s 1466 470 m 2 X s 1479 470 m 1 X s 1473 470 m24 1487 497 m 21 Y s 1487
 529 m 14 Y s 1480 524 m 1 X s 1493 524 m 1 X s 1487 524 m24 1501 470 m 25 Y s 1501 507 m 17 Y s 1494 501 m 1 X s 1507 501 m 1 X s 1501 501 m24 1515 470 m 25 Y s 1515 507 m 17 Y s 1508 501 m 1 X s 1520 501 m 2 X s 1515 501 m24 1528 384 m 48 Y s 1528
 444 m 26 Y s 1522 438 m 1 X s 1534 438 m 1 X s 1528 438 m24 1542 458 m 28 Y s 1542 498 m 18 Y s 1535 492 m 2 X s 1548 492 m 1 X s 1542 492 m24 1556 409 m 41 Y s 1556 461 m 23 Y s 1549 455 m 1 X s 1562 455 m 1 X s 1556 455 m24 1570 289 m 90 Y s 1570
 390 m 36 Y s 1563 384 m 1 X s 1575 384 m 2 X s 1570 384 m24 1584 480 m 24 Y s 1584 515 m 16 Y s 1577 509 m 1 X s 1589 509 m 1 X s 1584 509 m24 1597 349 m 61 Y s 1597 421 m 30 Y s 1590 416 m 2 X s 1603 416 m 1 X s 1597 416 m24 1611 458 m 28 Y s 1611
 498 m 18 Y s 1604 492 m 1 X s 1617 492 m 1 X s 1611 492 m24 1625 445 m 31 Y s 1625 487 m 20 Y s 1618 482 m 1 X s 1631 482 m 1 X s 1625 482 m24 1639 480 m 24 Y s 1639 515 m 16 Y s 1632 509 m 1 X s 1644 509 m 2 X s 1639 509 m24 1666 384 m 48 Y s 1666
 444 m 26 Y s 1659 438 m 2 X s 1672 438 m 1 X s 1666 438 m24 1680 289 m 90 Y s 1680 390 m 36 Y s 1673 384 m 1 X s 1686 384 m 1 X s 1680 384 m24 1694 429 m 35 Y s 1694 475 m 21 Y s 1687 470 m 1 X s 1700 470 m 1 X s 1694 470 m24 1708 289 m 90 Y s 1708
 390 m 36 Y s 1701 384 m 1 X s 1713 384 m 2 X s 1708 384 m24 1721 409 m 41 Y s 1721 461 m 23 Y s 1715 455 m 1 X s 1727 455 m 1 X s 1721 455 m24 1735 384 m 48 Y s 1735 444 m 26 Y s 1728 438 m 2 X s 1741 438 m 1 X s 1735 438 m24 1749 384 m 48 Y s 1749
 444 m 26 Y s 1742 438 m 1 X s 1755 438 m 1 X s 1749 438 m24 1763 409 m 41 Y s 1763 461 m 23 Y s 1756 455 m 1 X s 1769 455 m 1 X s 1763 455 m24 1777 409 m 41 Y s 1777 461 m 23 Y s 1770 455 m 1 X s 1782 455 m 2 X s 1777 455 m24 1790 384 m 48 Y s 1790
 444 m 26 Y s 1784 438 m 1 X s 1796 438 m 1 X s 1790 438 m24 1804 349 m 61 Y s 1804 421 m 30 Y s 1797 416 m 2 X s 1810 416 m 1 X s 1804 416 m24 1818 349 m 61 Y s 1818 421 m 30 Y s 1811 416 m 1 X s 1824 416 m 1 X s 1818 416 m24 1832 289 m 90 Y s 1832
 390 m 36 Y s 1825 384 m 1 X s 1837 384 m 2 X s 1832 384 m24 1846 384 m 48 Y s 1846 444 m 26 Y s 1839 438 m 1 X s 1851 438 m 1 X s 1846 438 m24 1859 384 m 48 Y s 1859 444 m 26 Y s 1852 438 m 2 X s 1865 438 m 1 X s 1859 438 m24 1873 289 m 90 Y s 1873
 390 m 36 Y s 1866 384 m 1 X s 1879 384 m 1 X s 1873 384 m24 1887 118 m 207 Y s 1887 336 m 48 Y s 1880 330 m 1 X s 1893 330 m 1 X s 1887 330 m24 1901 429 m 35 Y s 1901 475 m 21 Y s 1894 470 m 1 X s 1906 470 m 2 X s 1901 470 m24 1914 384 m 48 Y s 1914
 444 m 26 Y s 1908 438 m 1 X s 1920 438 m 1 X s 1914 438 m24 1928 118 m 207 Y s 1928 336 m 48 Y s 1921 330 m 2 X s 1934 330 m 1 X s 1928 330 m24 1942 429 m 35 Y s 1942 475 m 21 Y s 1935 470 m 1 X s 1948 470 m 1 X s 1942 470 m24 1956 289 m 90 Y s 1956
 390 m 36 Y s 1949 384 m 1 X s 1962 384 m 1 X s 1956 384 m24 1970 289 m 90 Y s 1970 390 m 36 Y s 1963 384 m 1 X s 1975 384 m 2 X s 1970 384 m24 1983 349 m 61 Y s 1983 421 m 30 Y s 1977 416 m 1 X s 1989 416 m 1 X s 1983 416 m24 1997 384 m 48 Y s 1997
 444 m 26 Y s 1990 438 m 2 X s 2003 438 m 1 X s 1997 438 m24 2011 349 m 61 Y s 2011 421 m 30 Y s 2004 416 m 1 X s 2017 416 m 1 X s 2011 416 m24 2039 384 m 48 Y s 2039 444 m 26 Y s 2032 438 m 1 X s 2044 438 m 1 X s 2039 438 m24 2052 349 m 61 Y s 2052
 421 m 30 Y s 2045 416 m 2 X s 2058 416 m 1 X s 2052 416 m24 2066 409 m 41 Y s 2066 461 m 23 Y s 2059 455 m 1 X s 2072 455 m 1 X s 2066 455 m24 2080 289 m 90 Y s 2080 390 m 36 Y s 2073 384 m 1 X s 2086 384 m 1 X s 2080 384 m24 2094 289 m 90 Y s 2094
 390 m 36 Y s 2087 384 m 1 X s 2099 384 m 2 X s 2094 384 m24 2108 429 m 35 Y s 2108 475 m 21 Y s 2101 470 m 1 X s 2113 470 m 1 X s 2108 470 m24 black 1 1 1 c black 1308 197 m 89 Y s 1308 298 m 36 Y s 1301 292 m 1 X s 1314 292 m 1 X s 1308 292 m20
 1322 118 m 115 Y s 1322 244 m 48 Y s 1315 238 m 1 X s 1327 238 m 2 X s 1322 238 m20 1335 337 m 35 Y s 1335 383 m 21 Y s 1329 378 m 1 X s 1341 378 m 1 X s 1335 378 m20 1349 118 m 115 Y s 1349 244 m 48 Y s 1342 238 m 2 X s 1355 238 m 1 X s 1349 238
 m20 1363 257 m 61 Y s 1363 329 m 30 Y s 1356 324 m 1 X s 1369 324 m 1 X s 1363 324 m20 1377 257 m 61 Y s 1377 329 m 30 Y s 1370 324 m 1 X s 1382 324 m 2 X s 1377 324 m20 1391 337 m 35 Y s 1391 383 m 21 Y s 1384 378 m 1 X s 1396 378 m 1 X s 1391 378
 m20 1404 197 m 89 Y s 1404 298 m 36 Y s 1397 292 m 2 X s 1410 292 m 1 X s 1404 292 m20 1418 257 m 61 Y s 1418 329 m 30 Y s 1411 324 m 1 X s 1424 324 m 1 X s 1418 324 m20 1432 337 m 35 Y s 1432 383 m 21 Y s 1425 378 m 1 X s 1438 378 m 1 X s 1432 378
 m20 1446 337 m 35 Y s 1446 383 m 21 Y s 1439 378 m 1 X s 1451 378 m 2 X s 1446 378 m20 1460 337 m 35 Y s 1460 383 m 21 Y s 1453 378 m 1 X s 1465 378 m 1 X s 1460 378 m20 1473 353 m 31 Y s 1473 395 m 19 Y s 1466 389 m 2 X s 1479 389 m 1 X s 1473 389
 m20 1487 197 m 89 Y s 1487 298 m 36 Y s 1480 292 m 1 X s 1493 292 m 1 X s 1487 292 m20 1501 317 m 41 Y s 1501 369 m 23 Y s 1494 363 m 1 X s 1507 363 m 1 X s 1501 363 m20 1515 257 m 61 Y s 1515 329 m 30 Y s 1508 324 m 1 X s 1520 324 m 2 X s 1515 324
 m20 1528 353 m 31 Y s 1528 395 m 19 Y s 1522 389 m 1 X s 1534 389 m 1 X s 1528 389 m20 1542 257 m 61 Y s 1542 329 m 30 Y s 1535 324 m 2 X s 1548 324 m 1 X s 1542 324 m20 1556 397 m 22 Y s 1556 430 m 15 Y s 1549 425 m 1 X s 1562 425 m 1 X s 1556 425
 m20 1570 366 m 28 Y s 1570 406 m 17 Y s 1563 400 m 1 X s 1575 400 m 2 X s 1570 400 m20 1584 405 m 21 Y s 1584 437 m 14 Y s 1577 431 m 1 X s 1589 431 m 1 X s 1584 431 m20 1597 366 m 28 Y s 1597 406 m 17 Y s 1590 400 m 2 X s 1603 400 m 1 X s 1597 400
 m20 1611 460 m 13 Y s 1611 484 m 9 Y s 1604 478 m 1 X s 1617 478 m 1 X s 1611 478 m20 1625 425 m 18 Y s 1625 454 m 13 Y s 1618 449 m 1 X s 1631 449 m 1 X s 1625 449 m20 1639 474 m 12 Y s 1639 497 m 8 Y s 1632 491 m 1 X s 1644 491 m 2 X s 1639 491
 m20 1653 507 m 8 Y s 1653 527 m 6 Y s 1646 521 m 1 X s 1658 521 m 1 X s 1653 521 m20 1666 518 m 7 Y s 1666 536 m 6 Y s 1659 531 m 2 X s 1672 531 m 1 X s 1666 531 m20 1680 589 m 2 Y s 1680 603 m 1 Y s 1673 597 m 1 X s 1686 597 m 1 X s 1680 597 m20
 1694 588 m 2 Y s 1694 602 m 1 Y s 1687 596 m 1 X s 1700 596 m 1 X s 1694 596 m20 1708 617 m 1 Y s 1708 630 m s 1701 624 m 1 X s 1713 624 m 2 X s 1708 624 m20 1721 611 m 1 Y s 1721 623 m 1 Y s 1715 618 m 1 X s 1727 618 m 1 X s 1721 618 m20 1735 591 m
 2 Y s 1735 605 m 1 Y s 1728 599 m 2 X s 1741 599 m 1 X s 1735 599 m20 1749 573 m 3 Y s 1749 587 m 3 Y s 1742 582 m 1 X s 1755 582 m 1 X s 1749 582 m20 1763 492 m 10 Y s 1763 513 m 7 Y s 1756 508 m 1 X s 1769 508 m 1 X s 1763 508 m20 1777 471 m 12 Y
 s 1777 494 m 9 Y s 1770 488 m 1 X s 1782 488 m 2 X s 1777 488 m20 1790 431 m 17 Y s 1790 459 m 12 Y s 1784 454 m 1 X s 1796 454 m 1 X s 1790 454 m20 1804 388 m 24 Y s 1804 423 m 16 Y s 1797 417 m 2 X s 1810 417 m 1 X s 1804 417 m20 1818 317 m 41 Y s
 1818 369 m 23 Y s 1811 363 m 1 X s 1824 363 m 1 X s 1818 363 m20 1832 405 m 21 Y s 1832 437 m 14 Y s 1825 431 m 1 X s 1837 431 m 2 X s 1832 431 m20 1846 197 m 89 Y s 1846 298 m 36 Y s 1839 292 m 1 X s 1851 292 m 1 X s 1846 292 m20 1859 353 m 31 Y s
 1859 395 m 19 Y s 1852 389 m 2 X s 1865 389 m 1 X s 1859 389 m20 1873 197 m 89 Y s 1873 298 m 36 Y s 1866 292 m 1 X s 1879 292 m 1 X s 1873 292 m20 1887 257 m 61 Y s 1887 329 m 30 Y s 1880 324 m 1 X s 1893 324 m 1 X s 1887 324 m20 1901 292 m 48 Y s
 1901 352 m 26 Y s 1894 346 m 1 X s 1906 346 m 2 X s 1901 346 m20 1914 292 m 48 Y s 1914 352 m 26 Y s 1908 346 m 1 X s 1920 346 m 1 X s 1914 346 m20 1956 197 m 89 Y s 1956 298 m 36 Y s 1949 292 m 1 X s 1962 292 m 1 X s 1956 292 m20 1970 197 m 89 Y s
 1970 298 m 36 Y s 1963 292 m 1 X s 1975 292 m 2 X s 1970 292 m20 1983 118 m 115 Y s 1983 244 m 48 Y s 1977 238 m 1 X s 1989 238 m 1 X s 1983 238 m20 2025 197 m 89 Y s 2025 298 m 36 Y s 2018 292 m 1 X s 2030 292 m 2 X s 2025 292 m20 2039 257 m 61 Y s
 2039 329 m 30 Y s 2032 324 m 1 X s 2044 324 m 1 X s 2039 324 m20 2052 197 m 89 Y s 2052 298 m 36 Y s 2045 292 m 2 X s 2058 292 m 1 X s 2052 292 m20 2066 118 m 115 Y s 2066 244 m 48 Y s 2059 238 m 1 X s 2072 238 m 1 X s 2066 238 m20 2080 118 m 115 Y
 s 2080 244 m 48 Y s 2073 238 m 1 X s 2086 238 m 1 X s 2080 238 m20 2094 292 m 48 Y s 2094 352 m 26 Y s 2087 346 m 1 X s 2099 346 m 2 X s 2094 346 m20 2108 257 m 61 Y s 2108 329 m 30 Y s 2101 324 m 1 X s 2113 324 m 1 X s 2108 324 m20 1 1 1 c black
 1308 118 m 375 Y s 1308 505 m 48 Y s 1301 499 m 1 X s 1314 499 m 1 X s 1308 499 m24 1349 118 m 375 Y s 1349 505 m 48 Y s 1342 499 m 2 X s 1355 499 m 1 X s 1349 499 m24 1377 118 m 375 Y s 1377 505 m 48 Y s 1370 499 m 1 X s 1382 499 m 2 X s 1377 499
 m24 1404 457 m 90 Y s 1404 559 m 35 Y s 1397 553 m 2 X s 1410 553 m 1 X s 1404 553 m24 1418 457 m 90 Y s 1418 559 m 35 Y s 1411 553 m 1 X s 1424 553 m 1 X s 1418 553 m24 1446 118 m 375 Y s 1446 505 m 48 Y s 1439 499 m 1 X s 1451 499 m 2 X s 1446 499
 m24 1473 118 m 375 Y s 1473 505 m 48 Y s 1466 499 m 2 X s 1479 499 m 1 X s 1473 499 m24 1487 457 m 90 Y s 1487 559 m 35 Y s 1480 553 m 1 X s 1493 553 m 1 X s 1487 553 m24 1501 457 m 90 Y s 1501 559 m 35 Y s 1494 553 m 1 X s 1507 553 m 1 X s 1501 553
 m24 1515 118 m 375 Y s 1515 505 m 48 Y s 1508 499 m 1 X s 1520 499 m 2 X s 1515 499 m24 1542 118 m 375 Y s 1542 505 m 48 Y s 1535 499 m 2 X s 1548 499 m 1 X s 1542 499 m24 1556 118 m 375 Y s 1556 505 m 48 Y s 1549 499 m 1 X s 1562 499 m 1 X s 1556
 499 m24 1570 517 m 62 Y s 1570 590 m 30 Y s 1563 584 m 1 X s 1575 584 m 2 X s 1570 584 m24 1597 457 m 90 Y s 1597 559 m 35 Y s 1590 553 m 2 X s 1603 553 m 1 X s 1597 553 m24 1611 118 m 375 Y s 1611 505 m 48 Y s 1604 499 m 1 X s 1617 499 m 1 X s 1611
 499 m24 1653 457 m 90 Y s 1653 559 m 35 Y s 1646 553 m 1 X s 1658 553 m 1 X s 1653 553 m24 1666 118 m 375 Y s 1666 505 m 48 Y s 1659 499 m 2 X s 1672 499 m 1 X s 1666 499 m24 1694 118 m 375 Y s 1694 505 m 48 Y s 1687 499 m 1 X s 1700 499 m 1 X s
 1694 499 m24 1749 118 m 375 Y s 1749 505 m 48 Y s 1742 499 m 1 X s 1755 499 m 1 X s 1749 499 m24 1763 457 m 90 Y s 1763 559 m 35 Y s 1756 553 m 1 X s 1769 553 m 1 X s 1763 553 m24 1804 457 m 90 Y s 1804 559 m 35 Y s 1797 553 m 2 X s 1810 553 m 1 X s
 1804 553 m24 1887 457 m 90 Y s 1887 559 m 35 Y s 1880 553 m 1 X s 1893 553 m 1 X s 1887 553 m24 1901 118 m 375 Y s 1901 505 m 48 Y s 1894 499 m 1 X s 1906 499 m 2 X s 1901 499 m24 1914 118 m 375 Y s 1914 505 m 48 Y s 1908 499 m 1 X s 1920 499 m 1 X
 s 1914 499 m24 1928 118 m 375 Y s 1928 505 m 48 Y s 1921 499 m 2 X s 1934 499 m 1 X s 1928 499 m24 1956 118 m 375 Y s 1956 505 m 48 Y s 1949 499 m 1 X s 1962 499 m 1 X s 1956 499 m24 0 0 1 c[ 12 12] 0 sd 6 lw 1577 118 m 483 Y s 1852 118 m 483 Y s
 black[  ] 0 sd 3 lw 1 1 1 c 272 268 1320 654 bf black
 gsave  1088 1072 1157 11 C 1386.46 874.164 t 0 r /Helvetica findfont 39.7652 sf 0 0 m (OC data: 1061) show NC gr  1354 889 m20
 gsave  1088 1072 1157 11 C 1386.46 807.466 t 0 r /Helvetica findfont 39.7652 sf 0 0 m (SC data: 39) show NC gr  1354 822 m24
 gsave  1088 1072 1157 11 C 1386.46 740.768 t 0 r /Helvetica findfont 39.7652 sf 0 0 m (OC MC: 38701) show NC gr  1 0 0 c 1354 755 m20 black
 gsave  1088 1072 1157 11 C 1386.46 674.071 t 0 r /Helvetica findfont 39.7652 sf 0 0 m (SC MC: 327) show NC gr  1 0 0 c 1354 688 m24 black
 gsave  1088 1072 1157 11 C 1700.08 901.126 t 0 r /Helvetica-Bold findfont 59.6478 sf 0 0 m (pp collisions) show NC gr 
 gr  gr showpage
end
%%EOF
