%!PS-Adobe-2.0 EPSF-2.0
%%BoundingBox:  0 0 567 274
%%Title: /home/petr/Analysis_iwona/SFAnalysis/eps/Zmass_mumu_MEcuts_MSTree.eps: Results
%%Creator: ROOT Version 6.16/00
%%CreationDate: Tue Apr 23 09:36:24 2019
%%DocumentNeededResources: ProcSet (FontSetInit)
%%EndComments
%%BeginProlog
80 dict begin
/s {stroke} def /l {lineto} def /m {moveto} def /t {translate} def
/r {rotate} def /rl {roll}  def /R {repeat} def
/d {rlineto} def /rm {rmoveto} def /gr {grestore} def /f {eofill} def
/c {setrgbcolor} def /black {0 setgray} def /sd {setdash} def
/cl {closepath} def /sf {scalefont setfont} def /lw {setlinewidth} def
/box {m dup 0 exch d exch 0 d 0 exch neg d cl} def
/NC{systemdict begin initclip end}def/C{NC box clip newpath}def
/bl {box s} def /bf {gsave box gsave f grestore 1 lw [] 0 sd s grestore} def /Y { 0 exch d} def /X { 0 d} def 
/K {{pop pop 0 moveto} exch kshow} bind def
/ita {/ang 15 def gsave [1 0 ang dup sin exch cos div 1 0 0] concat} def 
/mp {newpath /y exch def /x exch def} def
/side {[w .77 mul w .23 mul] .385 w mul sd w 0 l currentpoint t -144 r} def
/mr {mp x y w2 0 360 arc} def /m24 {mr s} def /m20 {mr f} def
/mb {mp x y w2 add m w2 neg 0 d 0 w neg d w 0 d 0 w d cl} def
/mt {mp x y w2 add m w2 neg w neg d w 0 d cl} def
/w4 {w 4 div} def
/w6 {w 6 div} def
/w8 {w 8 div} def
/m21 {mb f} def /m25 {mb s} def /m22 {mt f} def /m26{mt s} def
/m23 {mp x y w2 sub m w2 w d w neg 0 d cl f} def
/m27 {mp x y w2 add m w3 neg w2 neg d w3 w2 neg d w3 w2 d cl s} def
/m28 {mp x w2 sub y w2 sub w3 add m w3 0 d  0 w3 neg d w3 0 d 0 w3 d w3 0 d  0 w3 d w3 neg 0 d 0 w3 d w3 neg 0 d 0 w3 neg d w3 neg 0 d cl s } def
/m29 {mp gsave x w2 sub y w2 add w3 sub m currentpoint t 4 {side} repeat cl fill gr} def
/m30 {mp gsave x w2 sub y w2 add w3 sub m currentpoint t 4 {side} repeat cl s gr} def
/m31 {mp x y w2 sub m 0 w d x w2 sub y m w 0 d x w2 sub y w2 add m w w neg d x w2 sub y w2 sub m w w d s} def
/m32 {mp x y w2 sub m w2 w d w neg 0 d cl s} def
/m33 {mp x y w2 add m w3 neg w2 neg d w3 w2 neg d w3 w2 d cl f} def
/m34 {mp x w2 sub y w2 sub w3 add m w3 0 d  0 w3 neg d w3 0 d 0 w3 d w3 0 d  0 w3 d w3 neg 0 d 0 w3 d w3 neg 0 d 0 w3 neg d w3 neg 0 d cl f } def
/m35 {mp x y w2 add m w2 neg w2 neg d w2 w2 neg d w2 w2 d w2 neg w2 d x y w2 sub m 0 w d x w2 sub y m w 0 d s} def
/m36 {mb x w2 sub y w2 add m w w neg d x w2 sub y w2 sub m w w d s} def
/m37 {mp x y m w4 neg w2 d w4 neg w2 neg d w2 0 d  w4 neg w2 neg d w2 0 d w4 neg w2 d w2 0 d w4 neg w2 d w4 neg w2 neg d cl s} def
/m38 {mp x w4 sub y w2 add m w4 neg w4 neg d 0 w2 neg d w4 w4 neg d w2 0 d w4 w4 d 0 w2 d w4 neg w4 d w2 neg 0 d x y w2 sub m 0 w d x w2 sub y m w 0 d cl s} def
/m39 {mp x y m w4 neg w2 d w4 neg w2 neg d w2 0 d  w4 neg w2 neg d w2 0 d w4 neg w2 d w2 0 d w4 neg w2 d w4 neg w2 neg d cl f} def
/m40 {mp x y m w4 w2 d w4 w4 neg d w2 neg w4 neg d w2 w4 neg d w4 neg w4 neg d w4 neg w2 d w4 neg w2 neg d w4 neg w4 d w2 w4 d w2 neg w4 d w4 w4 d w4 w2 neg d cl s} def
/m41 {mp x y m w4 w2 d w4 w4 neg d w2 neg w4 neg d w2 w4 neg d w4 neg w4 neg d w4 neg w2 d w4 neg w2 neg d w4 neg w4 d w2 w4 d w2 neg w4 d w4 w4 d w4 w2 neg d cl f} def
/m42 {mp x y w2 add m w8 neg w2 -3 4 div mul d w2 -3 4 div mul w8 neg d w2 3 4 div mul w8 neg d w8 w2 -3 4 div mul d w8 w2 3 4 div mul d w2 3 4 div mul w8 d w2 -3 4 div mul w8 d w8 neg w2 3 4 div mul d cl s} def
/m43 {mp x y w2 add m w8 neg w2 -3 4 div mul d w2 -3 4 div mul w8 neg d w2 3 4 div mul w8 neg d w8 w2 -3 4 div mul d w8 w2 3 4 div mul d w2 3 4 div mul w8 d w2 -3 4 div mul w8 d w8 neg w2 3 4 div mul d cl f} def
/m44 {mp x y m w6 neg w2 d w2 2 3 div mul 0 d w6 neg w2 neg d w2 w6 d 0 w2 -2 3 div mul d w2 neg w6 d w6 w2 neg d w2 -2 3 div mul 0 d w6 w2 d w2 neg w6 neg d 0 w2 2 3 div mul d w2 w6 neg d cl s} def
/m45 {mp x y m w6 neg w2 d w2 2 3 div mul 0 d w6 neg w2 neg d w2 w6 d 0 w2 -2 3 div mul d w2 neg w6 d w6 w2 neg d w2 -2 3 div mul 0 d w6 w2 d w2 neg w6 neg d 0 w2 2 3 div mul d w2 w6 neg d cl f} def
/m46 {mp x y w4 add m w4 neg w4 d w4 neg w4 neg d  w4 w4 neg d w4 neg w4 neg d w4 w4 neg d w4 w4 d w4 w4 neg d w4 w4 d w4 neg w4 d w4 w4 d w4 neg w4 d w4 neg w4 neg d cl s} def
/m47 {mp x y w4 add m w4 neg w4 d w4 neg w4 neg d w4 w4 neg d w4 neg w4 neg d  w4 w4 neg d w4 w4 d w4 w4 neg d w4 w4 d w4 neg w4 d w4 w4 d w4 neg w4 d w4 neg w4 neg d cl f} def
/m48 {mp x y w4 add m w4 neg w4 d w4 neg w4 neg d w4 w4 neg d  w4 neg w4 neg d w4 w4 neg d w4 w4 d w4 w4 neg d w4 w4 d w4 neg w4 d w4 w4 d w4 neg w4 d w4 neg w4 neg d  w4 w4 neg d w4 neg w4 neg d w4 neg w4 d w4 w4 d cl f} def
/m49 {mp x w2 sub w3 add y w2 sub w3 add m  0 w3 neg d w3 0 d 0 w3 d w3 0 d 0 w3 d w3 neg 0 d 0 w3 d w3 neg 0 d 0 w3 neg d w3 neg 0 d 0 w3 neg d w3 0 d 0 w3 d w3 0 d 0 w3 neg d w3 neg 0 d cl f } def
/m2 {mp x y w2 sub m 0 w d x w2 sub y m w 0 d s} def
/m5 {mp x w2 sub y w2 sub m w w d x w2 sub y w2 add m w w neg d s} def
%%IncludeResource: ProcSet (FontSetInit)
%%IncludeResource: font Times-Roman
%%IncludeResource: font Times-Italic
%%IncludeResource: font Times-Bold
%%IncludeResource: font Times-BoldItalic
%%IncludeResource: font Helvetica
%%IncludeResource: font Helvetica-Oblique
%%IncludeResource: font Helvetica-Bold
%%IncludeResource: font Helvetica-BoldOblique
%%IncludeResource: font Courier
%%IncludeResource: font Courier-Oblique
%%IncludeResource: font Courier-Bold
%%IncludeResource: font Courier-BoldOblique
%%IncludeResource: font Symbol
%%IncludeResource: font ZapfDingbats
/reEncode {exch findfont dup length dict begin {1 index /FID eq  {pop pop} {def} ifelse } forall /Encoding exch def currentdict end dup /FontName get exch definefont pop } def [/Times-Bold /Times-Italic /Times-BoldItalic /Helvetica /Helvetica-Oblique
 /Helvetica-Bold /Helvetica-BoldOblique /Courier /Courier-Oblique /Courier-Bold /Courier-BoldOblique /Times-Roman /AvantGarde-Book /AvantGarde-BookOblique /AvantGarde-Demi /AvantGarde-DemiOblique /Bookman-Demi /Bookman-DemiItalic /Bookman-Light
 /Bookman-LightItalic /Helvetica-Narrow /Helvetica-Narrow-Bold /Helvetica-Narrow-BoldOblique /Helvetica-Narrow-Oblique /NewCenturySchlbk-Roman /NewCenturySchlbk-Bold /NewCenturySchlbk-BoldItalic /NewCenturySchlbk-Italic /Palatino-Bold
 /Palatino-BoldItalic /Palatino-Italic /Palatino-Roman ] {ISOLatin1Encoding reEncode } forall
%%EndProlog
%%BeginSetup
%%EndSetup
newpath  gsave  .25 .25 scale  gsave  0 0 t black[  ] 0 sd 3 lw 1 1 1 c 2268 1094 0 0 bf black 1 1 1 c 1088 1072 23 11 bf black 1 1 1 c 828 858 153 118 bf black 828 858 153 118 bl 1 1 1 c 828 858 153 118 bf black 828 858 153 118 bl 1 0 0 c 1 1 1 c 1
 0 0 c 443 528 m 1 X s 455 528 m 2 X s 443 526 m 5 Y s 457 526 m 5 Y s /w 12 def /w2 {w 2 div} def /w3 {w 3 div} def 450 528 m20 457 544 m 1 X s 469 544 m 1 X s 457 541 m 5 Y s 470 541 m 5 Y s 464 544 m20 470 553 m 2 X s 483 553 m 1 X s 470 551 m 5 Y
 s 484 551 m 5 Y s 477 553 m20 484 566 m 1 X s 497 566 m 1 X s 484 563 m 6 Y s 498 563 m 6 Y s 491 566 m20 498 592 m 1 X s 511 592 m 1 X s 498 589 m 6 Y s 512 589 m 6 Y s 505 592 m20 512 618 m 1 X s 524 618 m 2 X s 512 615 m 6 Y s 526 615 m 6 Y s 519
 618 m20 526 639 m 1 X s 538 639 m 1 X s 526 636 m 6 Y s 539 636 m 6 Y s 532 639 m20 539 662 m 2 X s 552 662 m 1 X s 539 659 m 5 Y s 553 659 m 5 Y s 546 662 m20 553 681 m 1 X s 566 681 m 1 X s 553 678 m 6 Y s 567 678 m 6 Y s 560 681 m20 567 690 m 1 X
 s 579 690 m 2 X s 567 687 m 6 Y s 581 687 m 6 Y s 574 690 m20 581 687 m 1 X s 593 687 m 2 X s 581 684 m 6 Y s 595 684 m 6 Y s 588 687 m20 595 674 m 1 X s 607 674 m 1 X s 595 671 m 6 Y s 608 671 m 6 Y s 601 674 m20 608 654 m 2 X s 621 654 m 1 X s 608
 651 m 6 Y s 622 651 m 6 Y s 615 654 m20 622 625 m 1 X s 635 625 m 1 X s 622 622 m 6 Y s 636 622 m 6 Y s 629 625 m20 636 595 m 1 X s 648 595 m 2 X s 636 592 m 6 Y s 650 592 m 6 Y s 643 595 m20 650 563 m 1 X s 662 563 m 1 X s 650 560 m 6 Y s 663 560 m
 6 Y s 657 563 m20 663 540 m 2 X s 676 540 m 1 X s 663 538 m 5 Y s 677 538 m 5 Y s 670 540 m20 677 528 m 1 X s 690 528 m 1 X s 677 525 m 6 Y s 691 525 m 6 Y s 684 528 m20 691 510 m 1 X s 704 510 m 1 X s 691 507 m 6 Y s 705 507 m 6 Y s 698 510 m20 705
 493 m 1 X s 717 493 m 2 X s 705 490 m 6 Y s 719 490 m 6 Y s 712 493 m20 black 153 118 m 828 X s 153 143 m -25 Y s 181 130 m -12 Y s 208 130 m -12 Y s 236 130 m -12 Y s 264 130 m -12 Y s 291 143 m -25 Y s 319 130 m -12 Y s 346 130 m -12 Y s 374 130 m
 -12 Y s 401 130 m -12 Y s 429 143 m -25 Y s 457 130 m -12 Y s 484 130 m -12 Y s 512 130 m -12 Y s 539 130 m -12 Y s 567 143 m -25 Y s 595 130 m -12 Y s 622 130 m -12 Y s 650 130 m -12 Y s 677 130 m -12 Y s 705 143 m -25 Y s 732 130 m -12 Y s 760 130
 m -12 Y s 788 130 m -12 Y s 815 130 m -12 Y s 843 143 m -25 Y s 870 130 m -12 Y s 898 130 m -12 Y s 925 130 m -12 Y s 953 130 m -12 Y s 981 143 m -25 Y s
 gsave  1088 1072 23 11 C 133.395 83.7267 t 0 r /Helvetica findfont 35.5047 sf 0 0 m (60) show NC gr 
 gsave  1088 1072 23 11 C 271.047 83.7267 t 0 r /Helvetica findfont 35.5047 sf 0 0 m (70) show NC gr 
 gsave  1088 1072 23 11 C 408.7 83.7267 t 0 r /Helvetica findfont 35.5047 sf 0 0 m (80) show NC gr 
 gsave  1088 1072 23 11 C 546.352 83.7267 t 0 r /Helvetica findfont 35.5047 sf 0 0 m (90) show NC gr 
 gsave  1088 1072 23 11 C 674.071 83.7267 t 0 r /Helvetica findfont 35.5047 sf 0 0 m (100) show NC gr 
 gsave  1088 1072 23 11 C 811.723 83.7267 t 0 r /Helvetica findfont 35.5047 sf 0 0 m (110) show NC gr 
 gsave  1088 1072 23 11 C 949.376 83.7267 t 0 r /Helvetica findfont 35.5047 sf 0 0 m (120) show NC gr 
 gsave  1088 1072 23 11 C 852.877 32.6392 t 0 r /Helvetica findfont 45.446 sf 0 0 m ( [GeV]) show NC gr 
 gsave  1088 1072 23 11 C 835.848 24.1246 t 0 r /Symbol findfont 29.8239 sf 0 0 m (m) show NC gr 
 gsave  1088 1072 23 11 C 818.819 24.1246 t 0 r /Symbol findfont 29.8239 sf 0 0 m (m) show NC gr 
 gsave  1088 1072 23 11 C 783.341 32.6392 t 0 r /Helvetica findfont 45.446 sf 0 0 m (M) show NC gr  153 118 m 858 Y s 166 118 m -13 X s 166 143 m -13 X s 166 161 m -13 X s 166 175 m -13 X s 166 186 m -13 X s 166 196 m -13 X s 166 204 m -13 X s 166
 212 m -13 X s 179 218 m -26 X s
 gsave  1088 1072 23 11 C 131.976 205.769 t 0 r /Helvetica findfont 32.6643 sf 0 0 m (1) show NC gr  166 261 m -13 X s 166 286 m -13 X s 166 304 m -13 X s 166 318 m -13 X s 166 329 m -13 X s 166 339 m -13 X s 166 347 m -13 X s 166 355 m -13 X s 179
 361 m -26 X s
 gsave  1088 1072 23 11 C 109.27 349.098 t 0 r /Helvetica findfont 32.6643 sf 0 0 m (10) show NC gr  166 404 m -13 X s 166 429 m -13 X s 166 447 m -13 X s 166 461 m -13 X s 166 472 m -13 X s 166 482 m -13 X s 166 490 m -13 X s 166 498 m -13 X s 179
 504 m -26 X s
 gsave  1088 1072 23 11 C 131.976 503.779 t 0 r /Helvetica findfont 22.723 sf 0 0 m (2) show NC gr 
 gsave  1088 1072 23 11 C 96.4986 489.588 t 0 r /Helvetica findfont 32.6643 sf 0 0 m (10) show NC gr  166 547 m -13 X s 166 572 m -13 X s 166 590 m -13 X s 166 604 m -13 X s 166 615 m -13 X s 166 625 m -13 X s 166 633 m -13 X s 166 641 m -13 X s 179
 647 m -26 X s
 gsave  1088 1072 23 11 C 131.976 648.527 t 0 r /Helvetica findfont 22.723 sf 0 0 m (3) show NC gr 
 gsave  1088 1072 23 11 C 96.4986 632.917 t 0 r /Helvetica findfont 32.6643 sf 0 0 m (10) show NC gr  166 690 m -13 X s 166 715 m -13 X s 166 733 m -13 X s 166 747 m -13 X s 166 758 m -13 X s 166 768 m -13 X s 166 776 m -13 X s 166 784 m -13 X s 179
 790 m -26 X s
 gsave  1088 1072 23 11 C 131.976 789.018 t 0 r /Helvetica findfont 22.723 sf 0 0 m (4) show NC gr 
 gsave  1088 1072 23 11 C 96.4986 774.827 t 0 r /Helvetica findfont 32.6643 sf 0 0 m (10) show NC gr  166 833 m -13 X s 166 858 m -13 X s 166 876 m -13 X s 166 890 m -13 X s 166 902 m -13 X s 166 911 m -13 X s 166 919 m -13 X s 166 927 m -13 X s 179
 933 m -26 X s
 gsave  1088 1072 23 11 C 131.976 933.766 t 0 r /Helvetica findfont 22.723 sf 0 0 m (5) show NC gr 
 gsave  1088 1072 23 11 C 96.4986 918.156 t 0 r /Helvetica findfont 32.6643 sf 0 0 m (10) show NC gr 
 gsave  1088 1072 23 11 C 69.5357 557.705 t 90 r /Helvetica findfont 45.446 sf 0 0 m (Entries / NormFactor) show NC gr  1 0 0 c 1 1 1 c 1 0 0 c 450 234 m 70 Y s 450 315 m 28 Y s 443 310 m 1 X s 455 310 m 2 X s 447 234 m 6 X s 447 343 m 6 X s 443 307
 m 6 Y s 457 307 m 6 Y s 450 310 m24 477 118 m 143 Y s 477 272 m 38 Y s 470 267 m 2 X s 483 267 m 1 X s 474 118 m 6 X s 474 310 m 6 X s 470 264 m 6 Y s 484 264 m 6 Y s 477 267 m24 491 234 m 70 Y s 491 315 m 28 Y s 484 310 m 1 X s 497 310 m 1 X s 488
 234 m 6 X s 488 343 m 6 X s 484 307 m 6 Y s 498 307 m 6 Y s 491 310 m24 505 281 m 48 Y s 505 341 m 22 Y s 498 335 m 1 X s 511 335 m 1 X s 502 281 m 6 X s 502 363 m 6 X s 498 332 m 6 Y s 512 332 m 6 Y s 505 335 m24 532 118 m 143 Y s 532 272 m 38 Y s
 526 267 m 1 X s 538 267 m 1 X s 530 118 m 5 X s 530 310 m 5 X s 526 264 m 6 Y s 539 264 m 6 Y s 532 267 m24 560 234 m 70 Y s 560 315 m 28 Y s 553 310 m 1 X s 566 310 m 1 X s 557 234 m 6 X s 557 343 m 6 X s 553 307 m 6 Y s 567 307 m 6 Y s 560 310 m24
 588 118 m 143 Y s 588 272 m 38 Y s 581 267 m 1 X s 593 267 m 2 X s 585 118 m 5 X s 585 310 m 5 X s 581 264 m 6 Y s 595 264 m 6 Y s 588 267 m24 601 118 m 143 Y s 601 272 m 38 Y s 595 267 m 1 X s 607 267 m 1 X s 599 118 m 5 X s 599 310 m 5 X s 595 264
 m 6 Y s 608 264 m 6 Y s 601 267 m24 615 118 m 143 Y s 615 272 m 38 Y s 608 267 m 2 X s 621 267 m 1 X s 612 118 m 6 X s 612 310 m 6 X s 608 264 m 6 Y s 622 264 m 6 Y s 615 267 m24 657 118 m 143 Y s 657 272 m 38 Y s 650 267 m 1 X s 662 267 m 1 X s 654
 118 m 5 X s 654 310 m 5 X s 650 264 m 6 Y s 663 264 m 6 Y s 657 267 m24 698 118 m 143 Y s 698 272 m 38 Y s 691 267 m 1 X s 704 267 m 1 X s 695 118 m 6 X s 695 310 m 6 X s 691 264 m 6 Y s 705 264 m 6 Y s 698 267 m24 black 1 1 1 c black 443 528 m 1 X
 s 455 528 m 2 X s 443 525 m 6 Y s 457 525 m 6 Y s 450 528 m20 457 535 m 1 X s 469 535 m 1 X s 457 532 m 6 Y s 470 532 m 6 Y s 464 535 m20 470 564 m 2 X s 483 564 m 1 X s 470 561 m 5 Y s 484 561 m 5 Y s 477 564 m20 484 571 m 1 X s 497 571 m 1 X s 484
 569 m 5 Y s 498 569 m 5 Y s 491 571 m20 498 599 m 1 X s 511 599 m 1 X s 498 596 m 6 Y s 512 596 m 6 Y s 505 599 m20 512 614 m 1 X s 524 614 m 2 X s 512 611 m 5 Y s 526 611 m 5 Y s 519 614 m20 526 642 m 1 X s 538 642 m 1 X s 526 639 m 6 Y s 539 639 m
 6 Y s 532 642 m20 539 659 m 2 X s 552 659 m 1 X s 539 656 m 6 Y s 553 656 m 6 Y s 546 659 m20 553 679 m 1 X s 566 679 m 1 X s 553 676 m 6 Y s 567 676 m 6 Y s 560 679 m20 567 689 m 1 X s 579 689 m 2 X s 567 686 m 5 Y s 581 686 m 5 Y s 574 689 m20 581
 690 m 1 X s 593 690 m 2 X s 581 688 m 5 Y s 595 688 m 5 Y s 588 690 m20 595 673 m 1 X s 607 673 m 1 X s 595 670 m 6 Y s 608 670 m 6 Y s 601 673 m20 608 649 m 2 X s 621 649 m 1 X s 608 646 m 6 Y s 622 646 m 6 Y s 615 649 m20 622 627 m 1 X s 635 627 m
 1 X s 622 624 m 6 Y s 636 624 m 6 Y s 629 627 m20 636 593 m 1 X s 648 593 m 2 X s 636 590 m 5 Y s 650 590 m 5 Y s 643 593 m20 650 564 m 1 X s 662 564 m 1 X s 650 561 m 6 Y s 663 561 m 6 Y s 657 564 m20 663 548 m 2 X s 676 548 m 1 X s 663 546 m 5 Y s
 677 546 m 5 Y s 670 548 m20 677 529 m 1 X s 690 529 m 1 X s 677 526 m 6 Y s 691 526 m 6 Y s 684 529 m20 698 505 m 1 Y s 691 511 m 1 X s 704 511 m 1 X s 695 505 m 6 X s 691 508 m 6 Y s 705 508 m 6 Y s 698 511 m20 712 486 m 2 Y s 712 499 m 1 Y s 705
 493 m 1 X s 717 493 m 2 X s 709 486 m 6 X s 709 500 m 6 X s 705 491 m 5 Y s 719 491 m 5 Y s 712 493 m20 1 1 1 c black 450 118 m 94 Y s 450 224 m 37 Y s 443 218 m 1 X s 455 218 m 2 X s 447 118 m 6 X s 447 261 m 6 X s 443 215 m 6 Y s 457 215 m 6 Y s
 450 218 m24 464 233 m 48 Y s 464 292 m 23 Y s 457 286 m 1 X s 469 286 m 1 X s 461 233 m 5 X s 461 315 m 5 X s 457 284 m 5 Y s 470 284 m 5 Y s 464 286 m24 477 233 m 48 Y s 477 292 m 23 Y s 470 286 m 2 X s 483 286 m 1 X s 474 233 m 6 X s 474 315 m 6 X
 s 470 284 m 5 Y s 484 284 m 5 Y s 477 286 m24 491 233 m 48 Y s 491 292 m 23 Y s 484 286 m 1 X s 497 286 m 1 X s 488 233 m 6 X s 488 315 m 6 X s 484 284 m 5 Y s 498 284 m 5 Y s 491 286 m24 505 233 m 48 Y s 505 292 m 23 Y s 498 286 m 1 X s 511 286 m 1
 X s 502 233 m 6 X s 502 315 m 6 X s 498 284 m 5 Y s 512 284 m 5 Y s 505 286 m24 519 185 m 71 Y s 519 267 m 27 Y s 512 261 m 1 X s 524 261 m 2 X s 516 185 m 6 X s 516 294 m 6 X s 512 258 m 6 Y s 526 258 m 6 Y s 519 261 m24 532 118 m 94 Y s 532 224 m
 37 Y s 526 218 m 1 X s 538 218 m 1 X s 530 118 m 5 X s 530 261 m 5 X s 526 215 m 6 Y s 539 215 m 6 Y s 532 218 m24 546 118 m 94 Y s 546 224 m 37 Y s 539 218 m 2 X s 552 218 m 1 X s 543 118 m 6 X s 543 261 m 6 X s 539 215 m 6 Y s 553 215 m 6 Y s 546
 218 m24 560 233 m 48 Y s 560 292 m 23 Y s 553 286 m 1 X s 566 286 m 1 X s 557 233 m 6 X s 557 315 m 6 X s 553 284 m 5 Y s 567 284 m 5 Y s 560 286 m24 574 233 m 48 Y s 574 292 m 23 Y s 567 286 m 1 X s 579 286 m 2 X s 571 233 m 6 X s 571 315 m 6 X s
 567 284 m 5 Y s 581 284 m 5 Y s 574 286 m24 601 185 m 71 Y s 601 267 m 27 Y s 595 261 m 1 X s 607 261 m 1 X s 599 185 m 5 X s 599 294 m 5 X s 595 258 m 6 Y s 608 258 m 6 Y s 601 261 m24 615 118 m 94 Y s 615 224 m 37 Y s 608 218 m 2 X s 621 218 m 1 X
 s 612 118 m 6 X s 612 261 m 6 X s 608 215 m 6 Y s 622 215 m 6 Y s 615 218 m24 629 118 m 94 Y s 629 224 m 37 Y s 622 218 m 1 X s 635 218 m 1 X s 626 118 m 6 X s 626 261 m 6 X s 622 215 m 6 Y s 636 215 m 6 Y s 629 218 m24 643 185 m 71 Y s 643 267 m 27
 Y s 636 261 m 1 X s 648 261 m 2 X s 640 185 m 6 X s 640 294 m 6 X s 636 258 m 6 Y s 650 258 m 6 Y s 643 261 m24 670 233 m 48 Y s 670 292 m 23 Y s 663 286 m 2 X s 676 286 m 1 X s 667 233 m 6 X s 667 315 m 6 X s 663 284 m 5 Y s 677 284 m 5 Y s 670 286
 m24 684 118 m 94 Y s 684 224 m 37 Y s 677 218 m 1 X s 690 218 m 1 X s 681 118 m 6 X s 681 261 m 6 X s 677 215 m 6 Y s 691 215 m 6 Y s 684 218 m24 698 118 m 94 Y s 698 224 m 37 Y s 691 218 m 1 X s 704 218 m 1 X s 695 118 m 6 X s 695 261 m 6 X s 691
 215 m 6 Y s 705 215 m 6 Y s 698 218 m24 712 118 m 94 Y s 712 224 m 37 Y s 705 218 m 1 X s 717 218 m 2 X s 709 118 m 6 X s 709 261 m 6 X s 705 215 m 6 Y s 719 215 m 6 Y s 712 218 m24 0 0 1 c[ 12 12] 0 sd 6 lw 443 118 m 529 Y s 719 118 m 529 Y s
 black[  ] 0 sd 3 lw 1 1 1 c 272 268 186 654 bf black
 gsave  1088 1072 23 11 C 252.599 874.164 t 0 r /Helvetica findfont 39.7652 sf 0 0 m (OC data: 14153) show NC gr  220 889 m20
 gsave  1088 1072 23 11 C 252.599 807.466 t 0 r /Helvetica findfont 39.7652 sf 0 0 m (SC data: 35) show NC gr  220 822 m24
 gsave  1088 1072 23 11 C 252.599 740.768 t 0 r /Helvetica findfont 39.7652 sf 0 0 m (OC MC: 30581) show NC gr  1 0 0 c 220 755 m20 black
 gsave  1088 1072 23 11 C 252.599 674.071 t 0 r /Helvetica findfont 39.7652 sf 0 0 m (SC MC: 16) show NC gr  1 0 0 c 220 688 m24 black
 gsave  1088 1072 23 11 C 566.22 901.126 t 0 r /Helvetica-Bold findfont 59.6478 sf 0 0 m (pp collisions) show NC gr  1 1 1 c 1088 1072 1157 11 bf black 1 1 1 c 827 858 1287 118 bf black 827 858 1287 118 bl 1 1 1 c 827 858 1287 118 bf black 827 858
 1287 118 bl 1 0 0 c 1 1 1 c 1 0 0 c 1577 528 m 1 X s 1589 528 m 1 X s 1577 526 m 5 Y s 1590 526 m 5 Y s 1584 528 m20 1590 544 m 2 X s 1603 544 m 1 X s 1590 541 m 5 Y s 1604 541 m 5 Y s 1597 544 m20 1604 553 m 1 X s 1617 553 m 1 X s 1604 551 m 5 Y s
 1618 551 m 5 Y s 1611 553 m20 1618 566 m 1 X s 1631 566 m 1 X s 1618 563 m 6 Y s 1632 563 m 6 Y s 1625 566 m20 1632 592 m 1 X s 1644 592 m 2 X s 1632 589 m 6 Y s 1646 589 m 6 Y s 1639 592 m20 1646 618 m 1 X s 1658 618 m 1 X s 1646 615 m 6 Y s 1659
 615 m 6 Y s 1653 618 m20 1659 639 m 2 X s 1672 639 m 1 X s 1659 636 m 6 Y s 1673 636 m 6 Y s 1666 639 m20 1673 662 m 1 X s 1686 662 m 1 X s 1673 659 m 5 Y s 1687 659 m 5 Y s 1680 662 m20 1687 681 m 1 X s 1700 681 m 1 X s 1687 678 m 6 Y s 1701 678 m
 6 Y s 1694 681 m20 1701 690 m 1 X s 1713 690 m 2 X s 1701 687 m 6 Y s 1715 687 m 6 Y s 1708 690 m20 1715 687 m 1 X s 1727 687 m 1 X s 1715 684 m 6 Y s 1728 684 m 6 Y s 1721 687 m20 1728 674 m 2 X s 1741 674 m 1 X s 1728 671 m 6 Y s 1742 671 m 6 Y s
 1735 674 m20 1742 654 m 1 X s 1755 654 m 1 X s 1742 651 m 6 Y s 1756 651 m 6 Y s 1749 654 m20 1756 625 m 1 X s 1769 625 m 1 X s 1756 622 m 6 Y s 1770 622 m 6 Y s 1763 625 m20 1770 595 m 1 X s 1782 595 m 2 X s 1770 592 m 6 Y s 1784 592 m 6 Y s 1777
 595 m20 1784 563 m 1 X s 1796 563 m 1 X s 1784 560 m 6 Y s 1797 560 m 6 Y s 1790 563 m20 1797 540 m 2 X s 1810 540 m 1 X s 1797 538 m 5 Y s 1811 538 m 5 Y s 1804 540 m20 1811 528 m 1 X s 1824 528 m 1 X s 1811 525 m 6 Y s 1825 525 m 6 Y s 1818 528
 m20 1825 510 m 1 X s 1837 510 m 2 X s 1825 507 m 6 Y s 1839 507 m 6 Y s 1832 510 m20 1839 493 m 1 X s 1851 493 m 1 X s 1839 490 m 6 Y s 1852 490 m 6 Y s 1846 493 m20 black 1287 118 m 827 X s 1287 143 m -25 Y s 1315 130 m -12 Y s 1342 130 m -12 Y s
 1370 130 m -12 Y s 1397 130 m -12 Y s 1425 143 m -25 Y s 1453 130 m -12 Y s 1480 130 m -12 Y s 1508 130 m -12 Y s 1535 130 m -12 Y s 1563 143 m -25 Y s 1590 130 m -12 Y s 1618 130 m -12 Y s 1646 130 m -12 Y s 1673 130 m -12 Y s 1701 143 m -25 Y s
 1728 130 m -12 Y s 1756 130 m -12 Y s 1784 130 m -12 Y s 1811 130 m -12 Y s 1839 143 m -25 Y s 1866 130 m -12 Y s 1894 130 m -12 Y s 1921 130 m -12 Y s 1949 130 m -12 Y s 1977 143 m -25 Y s 2004 130 m -12 Y s 2032 130 m -12 Y s 2059 130 m -12 Y s
 2087 130 m -12 Y s 2114 143 m -25 Y s
 gsave  1088 1072 1157 11 C 1267.25 83.7267 t 0 r /Helvetica findfont 35.5047 sf 0 0 m (60) show NC gr 
 gsave  1088 1072 1157 11 C 1404.91 83.7267 t 0 r /Helvetica findfont 35.5047 sf 0 0 m (70) show NC gr 
 gsave  1088 1072 1157 11 C 1542.56 83.7267 t 0 r /Helvetica findfont 35.5047 sf 0 0 m (80) show NC gr 
 gsave  1088 1072 1157 11 C 1680.21 83.7267 t 0 r /Helvetica findfont 35.5047 sf 0 0 m (90) show NC gr 
 gsave  1088 1072 1157 11 C 1807.93 83.7267 t 0 r /Helvetica findfont 35.5047 sf 0 0 m (100) show NC gr 
 gsave  1088 1072 1157 11 C 1945.58 83.7267 t 0 r /Helvetica findfont 35.5047 sf 0 0 m (110) show NC gr 
 gsave  1088 1072 1157 11 C 2083.23 83.7267 t 0 r /Helvetica findfont 35.5047 sf 0 0 m (120) show NC gr 
 gsave  1088 1072 1157 11 C 1986.74 32.6392 t 0 r /Helvetica findfont 45.446 sf 0 0 m ( [GeV]) show NC gr 
 gsave  1088 1072 1157 11 C 1969.71 24.1246 t 0 r /Symbol findfont 29.8239 sf 0 0 m (m) show NC gr 
 gsave  1088 1072 1157 11 C 1952.68 24.1246 t 0 r /Symbol findfont 29.8239 sf 0 0 m (m) show NC gr 
 gsave  1088 1072 1157 11 C 1917.2 32.6392 t 0 r /Helvetica findfont 45.446 sf 0 0 m (M) show NC gr  1287 118 m 858 Y s 1300 118 m -13 X s 1300 143 m -13 X s 1300 161 m -13 X s 1300 175 m -13 X s 1300 186 m -13 X s 1300 196 m -13 X s 1300 204 m -13 X
 s 1300 212 m -13 X s 1313 218 m -26 X s
 gsave  1088 1072 1157 11 C 1265.83 205.769 t 0 r /Helvetica findfont 32.6643 sf 0 0 m (1) show NC gr  1300 261 m -13 X s 1300 286 m -13 X s 1300 304 m -13 X s 1300 318 m -13 X s 1300 329 m -13 X s 1300 339 m -13 X s 1300 347 m -13 X s 1300 355 m -13
 X s 1313 361 m -26 X s
 gsave  1088 1072 1157 11 C 1243.13 349.098 t 0 r /Helvetica findfont 32.6643 sf 0 0 m (10) show NC gr  1300 404 m -13 X s 1300 429 m -13 X s 1300 447 m -13 X s 1300 461 m -13 X s 1300 472 m -13 X s 1300 482 m -13 X s 1300 490 m -13 X s 1300 498 m
 -13 X s 1313 504 m -26 X s
 gsave  1088 1072 1157 11 C 1265.83 503.779 t 0 r /Helvetica findfont 22.723 sf 0 0 m (2) show NC gr 
 gsave  1088 1072 1157 11 C 1230.36 489.588 t 0 r /Helvetica findfont 32.6643 sf 0 0 m (10) show NC gr  1300 547 m -13 X s 1300 572 m -13 X s 1300 590 m -13 X s 1300 604 m -13 X s 1300 615 m -13 X s 1300 625 m -13 X s 1300 633 m -13 X s 1300 641 m
 -13 X s 1313 647 m -26 X s
 gsave  1088 1072 1157 11 C 1265.83 648.527 t 0 r /Helvetica findfont 22.723 sf 0 0 m (3) show NC gr 
 gsave  1088 1072 1157 11 C 1230.36 632.917 t 0 r /Helvetica findfont 32.6643 sf 0 0 m (10) show NC gr  1300 690 m -13 X s 1300 715 m -13 X s 1300 733 m -13 X s 1300 747 m -13 X s 1300 758 m -13 X s 1300 768 m -13 X s 1300 776 m -13 X s 1300 784 m
 -13 X s 1313 790 m -26 X s
 gsave  1088 1072 1157 11 C 1265.83 789.018 t 0 r /Helvetica findfont 22.723 sf 0 0 m (4) show NC gr 
 gsave  1088 1072 1157 11 C 1230.36 774.827 t 0 r /Helvetica findfont 32.6643 sf 0 0 m (10) show NC gr  1300 833 m -13 X s 1300 858 m -13 X s 1300 876 m -13 X s 1300 890 m -13 X s 1300 902 m -13 X s 1300 911 m -13 X s 1300 919 m -13 X s 1300 927 m
 -13 X s 1313 933 m -26 X s
 gsave  1088 1072 1157 11 C 1265.83 933.766 t 0 r /Helvetica findfont 22.723 sf 0 0 m (5) show NC gr 
 gsave  1088 1072 1157 11 C 1230.36 918.156 t 0 r /Helvetica findfont 32.6643 sf 0 0 m (10) show NC gr 
 gsave  1088 1072 1157 11 C 1203.39 557.705 t 90 r /Helvetica findfont 45.446 sf 0 0 m (Entries / NormFactor) show NC gr  1 0 0 c 1 1 1 c 1 0 0 c 1584 234 m 70 Y s 1584 315 m 28 Y s 1577 310 m 1 X s 1589 310 m 1 X s 1581 234 m 5 X s 1581 343 m 5 X s
 1577 307 m 6 Y s 1590 307 m 6 Y s 1584 310 m24 1611 118 m 143 Y s 1611 272 m 38 Y s 1604 267 m 1 X s 1617 267 m 1 X s 1608 118 m 6 X s 1608 310 m 6 X s 1604 264 m 6 Y s 1618 264 m 6 Y s 1611 267 m24 1625 234 m 70 Y s 1625 315 m 28 Y s 1618 310 m 1 X
 s 1631 310 m 1 X s 1622 234 m 6 X s 1622 343 m 6 X s 1618 307 m 6 Y s 1632 307 m 6 Y s 1625 310 m24 1639 281 m 48 Y s 1639 341 m 22 Y s 1632 335 m 1 X s 1644 335 m 2 X s 1636 281 m 6 X s 1636 363 m 6 X s 1632 332 m 6 Y s 1646 332 m 6 Y s 1639 335
 m24 1666 118 m 143 Y s 1666 272 m 38 Y s 1659 267 m 2 X s 1672 267 m 1 X s 1663 118 m 6 X s 1663 310 m 6 X s 1659 264 m 6 Y s 1673 264 m 6 Y s 1666 267 m24 1694 234 m 70 Y s 1694 315 m 28 Y s 1687 310 m 1 X s 1700 310 m 1 X s 1691 234 m 6 X s 1691
 343 m 6 X s 1687 307 m 6 Y s 1701 307 m 6 Y s 1694 310 m24 1721 118 m 143 Y s 1721 272 m 38 Y s 1715 267 m 1 X s 1727 267 m 1 X s 1719 118 m 5 X s 1719 310 m 5 X s 1715 264 m 6 Y s 1728 264 m 6 Y s 1721 267 m24 1735 118 m 143 Y s 1735 272 m 38 Y s
 1728 267 m 2 X s 1741 267 m 1 X s 1732 118 m 6 X s 1732 310 m 6 X s 1728 264 m 6 Y s 1742 264 m 6 Y s 1735 267 m24 1749 118 m 143 Y s 1749 272 m 38 Y s 1742 267 m 1 X s 1755 267 m 1 X s 1746 118 m 6 X s 1746 310 m 6 X s 1742 264 m 6 Y s 1756 264 m 6
 Y s 1749 267 m24 1790 118 m 143 Y s 1790 272 m 38 Y s 1784 267 m 1 X s 1796 267 m 1 X s 1788 118 m 5 X s 1788 310 m 5 X s 1784 264 m 6 Y s 1797 264 m 6 Y s 1790 267 m24 1832 118 m 143 Y s 1832 272 m 38 Y s 1825 267 m 1 X s 1837 267 m 2 X s 1829 118
 m 6 X s 1829 310 m 6 X s 1825 264 m 6 Y s 1839 264 m 6 Y s 1832 267 m24 black 1 1 1 c black 1577 528 m 1 X s 1589 528 m 1 X s 1577 525 m 6 Y s 1590 525 m 6 Y s 1584 528 m20 1590 535 m 2 X s 1603 535 m 1 X s 1590 532 m 6 Y s 1604 532 m 6 Y s 1597 535
 m20 1604 564 m 1 X s 1617 564 m 1 X s 1604 561 m 5 Y s 1618 561 m 5 Y s 1611 564 m20 1618 571 m 1 X s 1631 571 m 1 X s 1618 569 m 5 Y s 1632 569 m 5 Y s 1625 571 m20 1632 599 m 1 X s 1644 599 m 2 X s 1632 596 m 6 Y s 1646 596 m 6 Y s 1639 599 m20
 1646 614 m 1 X s 1658 614 m 1 X s 1646 611 m 5 Y s 1659 611 m 5 Y s 1653 614 m20 1659 642 m 2 X s 1672 642 m 1 X s 1659 639 m 6 Y s 1673 639 m 6 Y s 1666 642 m20 1673 659 m 1 X s 1686 659 m 1 X s 1673 656 m 6 Y s 1687 656 m 6 Y s 1680 659 m20 1687
 679 m 1 X s 1700 679 m 1 X s 1687 676 m 6 Y s 1701 676 m 6 Y s 1694 679 m20 1701 689 m 1 X s 1713 689 m 2 X s 1701 686 m 5 Y s 1715 686 m 5 Y s 1708 689 m20 1715 690 m 1 X s 1727 690 m 1 X s 1715 688 m 5 Y s 1728 688 m 5 Y s 1721 690 m20 1728 673 m
 2 X s 1741 673 m 1 X s 1728 670 m 6 Y s 1742 670 m 6 Y s 1735 673 m20 1742 649 m 1 X s 1755 649 m 1 X s 1742 646 m 6 Y s 1756 646 m 6 Y s 1749 649 m20 1756 627 m 1 X s 1769 627 m 1 X s 1756 624 m 6 Y s 1770 624 m 6 Y s 1763 627 m20 1770 593 m 1 X s
 1782 593 m 2 X s 1770 590 m 5 Y s 1784 590 m 5 Y s 1777 593 m20 1784 564 m 1 X s 1796 564 m 1 X s 1784 561 m 6 Y s 1797 561 m 6 Y s 1790 564 m20 1797 548 m 2 X s 1810 548 m 1 X s 1797 546 m 5 Y s 1811 546 m 5 Y s 1804 548 m20 1811 529 m 1 X s 1824
 529 m 1 X s 1811 526 m 6 Y s 1825 526 m 6 Y s 1818 529 m20 1832 505 m 1 Y s 1825 511 m 1 X s 1837 511 m 2 X s 1829 505 m 6 X s 1825 508 m 6 Y s 1839 508 m 6 Y s 1832 511 m20 1846 486 m 2 Y s 1846 499 m 1 Y s 1839 493 m 1 X s 1851 493 m 1 X s 1843
 486 m 5 X s 1843 500 m 5 X s 1839 491 m 5 Y s 1852 491 m 5 Y s 1846 493 m20 1 1 1 c black 1584 118 m 94 Y s 1584 224 m 37 Y s 1577 218 m 1 X s 1589 218 m 1 X s 1581 118 m 5 X s 1581 261 m 5 X s 1577 215 m 6 Y s 1590 215 m 6 Y s 1584 218 m24 1597 233
 m 48 Y s 1597 292 m 23 Y s 1590 286 m 2 X s 1603 286 m 1 X s 1595 233 m 5 X s 1595 315 m 5 X s 1590 284 m 5 Y s 1604 284 m 5 Y s 1597 286 m24 1611 233 m 48 Y s 1611 292 m 23 Y s 1604 286 m 1 X s 1617 286 m 1 X s 1608 233 m 6 X s 1608 315 m 6 X s
 1604 284 m 5 Y s 1618 284 m 5 Y s 1611 286 m24 1625 233 m 48 Y s 1625 292 m 23 Y s 1618 286 m 1 X s 1631 286 m 1 X s 1622 233 m 6 X s 1622 315 m 6 X s 1618 284 m 5 Y s 1632 284 m 5 Y s 1625 286 m24 1639 233 m 48 Y s 1639 292 m 23 Y s 1632 286 m 1 X
 s 1644 286 m 2 X s 1636 233 m 6 X s 1636 315 m 6 X s 1632 284 m 5 Y s 1646 284 m 5 Y s 1639 286 m24 1653 185 m 71 Y s 1653 267 m 27 Y s 1646 261 m 1 X s 1658 261 m 1 X s 1650 185 m 5 X s 1650 294 m 5 X s 1646 258 m 6 Y s 1659 258 m 6 Y s 1653 261
 m24 1666 118 m 94 Y s 1666 224 m 37 Y s 1659 218 m 2 X s 1672 218 m 1 X s 1663 118 m 6 X s 1663 261 m 6 X s 1659 215 m 6 Y s 1673 215 m 6 Y s 1666 218 m24 1680 118 m 94 Y s 1680 224 m 37 Y s 1673 218 m 1 X s 1686 218 m 1 X s 1677 118 m 6 X s 1677
 261 m 6 X s 1673 215 m 6 Y s 1687 215 m 6 Y s 1680 218 m24 1694 233 m 48 Y s 1694 292 m 23 Y s 1687 286 m 1 X s 1700 286 m 1 X s 1691 233 m 6 X s 1691 315 m 6 X s 1687 284 m 5 Y s 1701 284 m 5 Y s 1694 286 m24 1708 233 m 48 Y s 1708 292 m 23 Y s
 1701 286 m 1 X s 1713 286 m 2 X s 1705 233 m 6 X s 1705 315 m 6 X s 1701 284 m 5 Y s 1715 284 m 5 Y s 1708 286 m24 1735 185 m 71 Y s 1735 267 m 27 Y s 1728 261 m 2 X s 1741 261 m 1 X s 1732 185 m 6 X s 1732 294 m 6 X s 1728 258 m 6 Y s 1742 258 m 6
 Y s 1735 261 m24 1749 118 m 94 Y s 1749 224 m 37 Y s 1742 218 m 1 X s 1755 218 m 1 X s 1746 118 m 6 X s 1746 261 m 6 X s 1742 215 m 6 Y s 1756 215 m 6 Y s 1749 218 m24 1763 118 m 94 Y s 1763 224 m 37 Y s 1756 218 m 1 X s 1769 218 m 1 X s 1760 118 m
 6 X s 1760 261 m 6 X s 1756 215 m 6 Y s 1770 215 m 6 Y s 1763 218 m24 1777 185 m 71 Y s 1777 267 m 27 Y s 1770 261 m 1 X s 1782 261 m 2 X s 1774 185 m 5 X s 1774 294 m 5 X s 1770 258 m 6 Y s 1784 258 m 6 Y s 1777 261 m24 1804 233 m 48 Y s 1804 292 m
 23 Y s 1797 286 m 2 X s 1810 286 m 1 X s 1801 233 m 6 X s 1801 315 m 6 X s 1797 284 m 5 Y s 1811 284 m 5 Y s 1804 286 m24 1818 118 m 94 Y s 1818 224 m 37 Y s 1811 218 m 1 X s 1824 218 m 1 X s 1815 118 m 6 X s 1815 261 m 6 X s 1811 215 m 6 Y s 1825
 215 m 6 Y s 1818 218 m24 1832 118 m 94 Y s 1832 224 m 37 Y s 1825 218 m 1 X s 1837 218 m 2 X s 1829 118 m 6 X s 1829 261 m 6 X s 1825 215 m 6 Y s 1839 215 m 6 Y s 1832 218 m24 1846 118 m 94 Y s 1846 224 m 37 Y s 1839 218 m 1 X s 1851 218 m 1 X s
 1843 118 m 5 X s 1843 261 m 5 X s 1839 215 m 6 Y s 1852 215 m 6 Y s 1846 218 m24 0 0 1 c[ 12 12] 0 sd 6 lw 1577 118 m 529 Y s 1852 118 m 529 Y s black[  ] 0 sd 3 lw 1 1 1 c 272 268 1320 654 bf black
 gsave  1088 1072 1157 11 C 1386.46 874.164 t 0 r /Helvetica findfont 39.7652 sf 0 0 m (OC data: 14153) show NC gr  1354 889 m20
 gsave  1088 1072 1157 11 C 1386.46 807.466 t 0 r /Helvetica findfont 39.7652 sf 0 0 m (SC data: 35) show NC gr  1354 822 m24
 gsave  1088 1072 1157 11 C 1386.46 740.768 t 0 r /Helvetica findfont 39.7652 sf 0 0 m (OC MC: 30581) show NC gr  1 0 0 c 1354 755 m20 black
 gsave  1088 1072 1157 11 C 1386.46 674.071 t 0 r /Helvetica findfont 39.7652 sf 0 0 m (SC MC: 16) show NC gr  1 0 0 c 1354 688 m24 black
 gsave  1088 1072 1157 11 C 1700.08 901.126 t 0 r /Helvetica-Bold findfont 59.6478 sf 0 0 m (pp collisions) show NC gr 
 gr  gr showpage
end
%%EOF
