%!PS-Adobe-2.0 EPSF-2.0
%%BoundingBox:  0 0 567 274
%%Title: /home/petr/Analysis_iwona/SFAnalysis/eps/Zmass_mumu_Calocuts_can.eps: Results
%%Creator: ROOT Version 6.16/00
%%CreationDate: Wed Apr  3 14:26:41 2019
%%DocumentNeededResources: ProcSet (FontSetInit)
%%EndComments
%%BeginProlog
80 dict begin
/s {stroke} def /l {lineto} def /m {moveto} def /t {translate} def
/r {rotate} def /rl {roll}  def /R {repeat} def
/d {rlineto} def /rm {rmoveto} def /gr {grestore} def /f {eofill} def
/c {setrgbcolor} def /black {0 setgray} def /sd {setdash} def
/cl {closepath} def /sf {scalefont setfont} def /lw {setlinewidth} def
/box {m dup 0 exch d exch 0 d 0 exch neg d cl} def
/NC{systemdict begin initclip end}def/C{NC box clip newpath}def
/bl {box s} def /bf {gsave box gsave f grestore 1 lw [] 0 sd s grestore} def /Y { 0 exch d} def /X { 0 d} def 
/K {{pop pop 0 moveto} exch kshow} bind def
/ita {/ang 15 def gsave [1 0 ang dup sin exch cos div 1 0 0] concat} def 
/mp {newpath /y exch def /x exch def} def
/side {[w .77 mul w .23 mul] .385 w mul sd w 0 l currentpoint t -144 r} def
/mr {mp x y w2 0 360 arc} def /m24 {mr s} def /m20 {mr f} def
/mb {mp x y w2 add m w2 neg 0 d 0 w neg d w 0 d 0 w d cl} def
/mt {mp x y w2 add m w2 neg w neg d w 0 d cl} def
/w4 {w 4 div} def
/w6 {w 6 div} def
/w8 {w 8 div} def
/m21 {mb f} def /m25 {mb s} def /m22 {mt f} def /m26{mt s} def
/m23 {mp x y w2 sub m w2 w d w neg 0 d cl f} def
/m27 {mp x y w2 add m w3 neg w2 neg d w3 w2 neg d w3 w2 d cl s} def
/m28 {mp x w2 sub y w2 sub w3 add m w3 0 d  0 w3 neg d w3 0 d 0 w3 d w3 0 d  0 w3 d w3 neg 0 d 0 w3 d w3 neg 0 d 0 w3 neg d w3 neg 0 d cl s } def
/m29 {mp gsave x w2 sub y w2 add w3 sub m currentpoint t 4 {side} repeat cl fill gr} def
/m30 {mp gsave x w2 sub y w2 add w3 sub m currentpoint t 4 {side} repeat cl s gr} def
/m31 {mp x y w2 sub m 0 w d x w2 sub y m w 0 d x w2 sub y w2 add m w w neg d x w2 sub y w2 sub m w w d s} def
/m32 {mp x y w2 sub m w2 w d w neg 0 d cl s} def
/m33 {mp x y w2 add m w3 neg w2 neg d w3 w2 neg d w3 w2 d cl f} def
/m34 {mp x w2 sub y w2 sub w3 add m w3 0 d  0 w3 neg d w3 0 d 0 w3 d w3 0 d  0 w3 d w3 neg 0 d 0 w3 d w3 neg 0 d 0 w3 neg d w3 neg 0 d cl f } def
/m35 {mp x y w2 add m w2 neg w2 neg d w2 w2 neg d w2 w2 d w2 neg w2 d x y w2 sub m 0 w d x w2 sub y m w 0 d s} def
/m36 {mb x w2 sub y w2 add m w w neg d x w2 sub y w2 sub m w w d s} def
/m37 {mp x y m w4 neg w2 d w4 neg w2 neg d w2 0 d  w4 neg w2 neg d w2 0 d w4 neg w2 d w2 0 d w4 neg w2 d w4 neg w2 neg d cl s} def
/m38 {mp x w4 sub y w2 add m w4 neg w4 neg d 0 w2 neg d w4 w4 neg d w2 0 d w4 w4 d 0 w2 d w4 neg w4 d w2 neg 0 d x y w2 sub m 0 w d x w2 sub y m w 0 d cl s} def
/m39 {mp x y m w4 neg w2 d w4 neg w2 neg d w2 0 d  w4 neg w2 neg d w2 0 d w4 neg w2 d w2 0 d w4 neg w2 d w4 neg w2 neg d cl f} def
/m40 {mp x y m w4 w2 d w4 w4 neg d w2 neg w4 neg d w2 w4 neg d w4 neg w4 neg d w4 neg w2 d w4 neg w2 neg d w4 neg w4 d w2 w4 d w2 neg w4 d w4 w4 d w4 w2 neg d cl s} def
/m41 {mp x y m w4 w2 d w4 w4 neg d w2 neg w4 neg d w2 w4 neg d w4 neg w4 neg d w4 neg w2 d w4 neg w2 neg d w4 neg w4 d w2 w4 d w2 neg w4 d w4 w4 d w4 w2 neg d cl f} def
/m42 {mp x y w2 add m w8 neg w2 -3 4 div mul d w2 -3 4 div mul w8 neg d w2 3 4 div mul w8 neg d w8 w2 -3 4 div mul d w8 w2 3 4 div mul d w2 3 4 div mul w8 d w2 -3 4 div mul w8 d w8 neg w2 3 4 div mul d cl s} def
/m43 {mp x y w2 add m w8 neg w2 -3 4 div mul d w2 -3 4 div mul w8 neg d w2 3 4 div mul w8 neg d w8 w2 -3 4 div mul d w8 w2 3 4 div mul d w2 3 4 div mul w8 d w2 -3 4 div mul w8 d w8 neg w2 3 4 div mul d cl f} def
/m44 {mp x y m w6 neg w2 d w2 2 3 div mul 0 d w6 neg w2 neg d w2 w6 d 0 w2 -2 3 div mul d w2 neg w6 d w6 w2 neg d w2 -2 3 div mul 0 d w6 w2 d w2 neg w6 neg d 0 w2 2 3 div mul d w2 w6 neg d cl s} def
/m45 {mp x y m w6 neg w2 d w2 2 3 div mul 0 d w6 neg w2 neg d w2 w6 d 0 w2 -2 3 div mul d w2 neg w6 d w6 w2 neg d w2 -2 3 div mul 0 d w6 w2 d w2 neg w6 neg d 0 w2 2 3 div mul d w2 w6 neg d cl f} def
/m46 {mp x y w4 add m w4 neg w4 d w4 neg w4 neg d  w4 w4 neg d w4 neg w4 neg d w4 w4 neg d w4 w4 d w4 w4 neg d w4 w4 d w4 neg w4 d w4 w4 d w4 neg w4 d w4 neg w4 neg d cl s} def
/m47 {mp x y w4 add m w4 neg w4 d w4 neg w4 neg d w4 w4 neg d w4 neg w4 neg d  w4 w4 neg d w4 w4 d w4 w4 neg d w4 w4 d w4 neg w4 d w4 w4 d w4 neg w4 d w4 neg w4 neg d cl f} def
/m48 {mp x y w4 add m w4 neg w4 d w4 neg w4 neg d w4 w4 neg d  w4 neg w4 neg d w4 w4 neg d w4 w4 d w4 w4 neg d w4 w4 d w4 neg w4 d w4 w4 d w4 neg w4 d w4 neg w4 neg d  w4 w4 neg d w4 neg w4 neg d w4 neg w4 d w4 w4 d cl f} def
/m49 {mp x w2 sub w3 add y w2 sub w3 add m  0 w3 neg d w3 0 d 0 w3 d w3 0 d 0 w3 d w3 neg 0 d 0 w3 d w3 neg 0 d 0 w3 neg d w3 neg 0 d 0 w3 neg d w3 0 d 0 w3 d w3 0 d 0 w3 neg d w3 neg 0 d cl f } def
/m2 {mp x y w2 sub m 0 w d x w2 sub y m w 0 d s} def
/m5 {mp x w2 sub y w2 sub m w w d x w2 sub y w2 add m w w neg d s} def
%%IncludeResource: ProcSet (FontSetInit)
%%IncludeResource: font Times-Roman
%%IncludeResource: font Times-Italic
%%IncludeResource: font Times-Bold
%%IncludeResource: font Times-BoldItalic
%%IncludeResource: font Helvetica
%%IncludeResource: font Helvetica-Oblique
%%IncludeResource: font Helvetica-Bold
%%IncludeResource: font Helvetica-BoldOblique
%%IncludeResource: font Courier
%%IncludeResource: font Courier-Oblique
%%IncludeResource: font Courier-Bold
%%IncludeResource: font Courier-BoldOblique
%%IncludeResource: font Symbol
%%IncludeResource: font ZapfDingbats
/reEncode {exch findfont dup length dict begin {1 index /FID eq  {pop pop} {def} ifelse } forall /Encoding exch def currentdict end dup /FontName get exch definefont pop } def [/Times-Bold /Times-Italic /Times-BoldItalic /Helvetica /Helvetica-Oblique
 /Helvetica-Bold /Helvetica-BoldOblique /Courier /Courier-Oblique /Courier-Bold /Courier-BoldOblique /Times-Roman /AvantGarde-Book /AvantGarde-BookOblique /AvantGarde-Demi /AvantGarde-DemiOblique /Bookman-Demi /Bookman-DemiItalic /Bookman-Light
 /Bookman-LightItalic /Helvetica-Narrow /Helvetica-Narrow-Bold /Helvetica-Narrow-BoldOblique /Helvetica-Narrow-Oblique /NewCenturySchlbk-Roman /NewCenturySchlbk-Bold /NewCenturySchlbk-BoldItalic /NewCenturySchlbk-Italic /Palatino-Bold
 /Palatino-BoldItalic /Palatino-Italic /Palatino-Roman ] {ISOLatin1Encoding reEncode } forall
%%EndProlog
%%BeginSetup
%%EndSetup
newpath  gsave  .25 .25 scale  gsave  0 0 t black[  ] 0 sd 3 lw 1 1 1 c 2268 1094 0 0 bf black 1 1 1 c 1088 1072 23 11 bf black 1 1 1 c 828 858 153 118 bf black 828 858 153 118 bl 1 1 1 c 828 858 153 118 bf black 828 858 153 118 bl 1 0 0 c 1 1 1 c 1
 0 0 c 450 237 m 1 Y s 450 249 m s 443 243 m 1 X s 455 243 m 2 X s /w 12 def /w2 {w 2 div} def /w3 {w 3 div} def 450 243 m20 457 265 m 1 X s 469 265 m 1 X s 464 265 m20 470 284 m 2 X s 483 284 m 1 X s 477 284 m20 484 306 m 1 X s 497 306 m 1 X s 491
 306 m20 498 348 m 1 X s 511 348 m 1 X s 505 348 m20 512 394 m 1 X s 524 394 m 2 X s 519 394 m20 526 427 m 1 X s 538 427 m 1 X s 532 427 m20 539 465 m 2 X s 552 465 m 1 X s 546 465 m20 553 496 m 1 X s 566 496 m 1 X s 560 496 m20 567 513 m 1 X s 579
 513 m 2 X s 574 513 m20 581 508 m 1 X s 593 508 m 2 X s 588 508 m20 595 487 m 1 X s 607 487 m 1 X s 601 487 m20 608 454 m 2 X s 621 454 m 1 X s 615 454 m20 622 407 m 1 X s 635 407 m 1 X s 629 407 m20 636 358 m 1 X s 648 358 m 2 X s 643 358 m20 650
 310 m 1 X s 662 310 m 1 X s 657 310 m20 663 270 m 2 X s 676 270 m 1 X s 670 270 m20 684 246 m 1 Y s 677 252 m 1 X s 690 252 m 1 X s 684 252 m20 698 211 m 1 Y s 698 224 m 1 Y s 691 218 m 1 X s 704 218 m 1 X s 698 218 m20 712 188 m 2 Y s 712 201 m 2 Y
 s 705 196 m 1 X s 717 196 m 2 X s 712 196 m20 black 153 118 m 828 X s 153 143 m -25 Y s 181 130 m -12 Y s 208 130 m -12 Y s 236 130 m -12 Y s 264 130 m -12 Y s 291 143 m -25 Y s 319 130 m -12 Y s 346 130 m -12 Y s 374 130 m -12 Y s 401 130 m -12 Y s
 429 143 m -25 Y s 457 130 m -12 Y s 484 130 m -12 Y s 512 130 m -12 Y s 539 130 m -12 Y s 567 143 m -25 Y s 595 130 m -12 Y s 622 130 m -12 Y s 650 130 m -12 Y s 677 130 m -12 Y s 705 143 m -25 Y s 732 130 m -12 Y s 760 130 m -12 Y s 788 130 m -12 Y
 s 815 130 m -12 Y s 843 143 m -25 Y s 870 130 m -12 Y s 898 130 m -12 Y s 925 130 m -12 Y s 953 130 m -12 Y s 981 143 m -25 Y s
 gsave  1088 1072 23 11 C 133.395 83.7267 t 0 r /Helvetica findfont 35.5047 sf 0 0 m (60) show NC gr 
 gsave  1088 1072 23 11 C 271.047 83.7267 t 0 r /Helvetica findfont 35.5047 sf 0 0 m (70) show NC gr 
 gsave  1088 1072 23 11 C 408.7 83.7267 t 0 r /Helvetica findfont 35.5047 sf 0 0 m (80) show NC gr 
 gsave  1088 1072 23 11 C 546.352 83.7267 t 0 r /Helvetica findfont 35.5047 sf 0 0 m (90) show NC gr 
 gsave  1088 1072 23 11 C 674.071 83.7267 t 0 r /Helvetica findfont 35.5047 sf 0 0 m (100) show NC gr 
 gsave  1088 1072 23 11 C 811.723 83.7267 t 0 r /Helvetica findfont 35.5047 sf 0 0 m (110) show NC gr 
 gsave  1088 1072 23 11 C 949.376 83.7267 t 0 r /Helvetica findfont 35.5047 sf 0 0 m (120) show NC gr 
 gsave  1088 1072 23 11 C 852.877 32.6392 t 0 r /Helvetica findfont 45.446 sf 0 0 m ( [GeV]) show NC gr 
 gsave  1088 1072 23 11 C 835.848 24.1246 t 0 r /Symbol findfont 29.8239 sf 0 0 m (m) show NC gr 
 gsave  1088 1072 23 11 C 818.819 24.1246 t 0 r /Symbol findfont 29.8239 sf 0 0 m (m) show NC gr 
 gsave  1088 1072 23 11 C 783.341 32.6392 t 0 r /Helvetica findfont 45.446 sf 0 0 m (M) show NC gr  153 118 m 858 Y s 166 125 m -13 X s 166 154 m -13 X s 166 176 m -13 X s 166 195 m -13 X s 166 210 m -13 X s 166 224 m -13 X s 166 235 m -13 X s 179
 246 m -26 X s
 gsave  1088 1072 23 11 C 131.976 245.504 t 0 r /Helvetica findfont 22.723 sf 0 0 m (2) show NC gr 
 gsave  1088 1072 23 11 C 119.204 245.504 t 0 r /Symbol findfont 22.723 sf 0 0 m (-) show NC gr 
 gsave  1088 1072 23 11 C 83.7267 231.313 t 0 r /Helvetica findfont 32.6643 sf 0 0 m (10) show NC gr  166 316 m -13 X s 166 356 m -13 X s 166 385 m -13 X s 166 408 m -13 X s 166 426 m -13 X s 166 441 m -13 X s 166 455 m -13 X s 166 467 m -13 X s 179
 477 m -26 X s
 gsave  1088 1072 23 11 C 136.233 476.816 t 0 r /Helvetica findfont 22.723 sf 0 0 m (1) show NC gr 
 gsave  1088 1072 23 11 C 123.461 476.816 t 0 r /Symbol findfont 22.723 sf 0 0 m (-) show NC gr 
 gsave  1088 1072 23 11 C 87.984 462.626 t 0 r /Helvetica findfont 32.6643 sf 0 0 m (10) show NC gr  166 547 m -13 X s 166 588 m -13 X s 166 617 m -13 X s 166 639 m -13 X s 166 657 m -13 X s 166 673 m -13 X s 166 686 m -13 X s 166 698 m -13 X s 179
 709 m -26 X s
 gsave  1088 1072 23 11 C 131.976 696.776 t 0 r /Helvetica findfont 32.6643 sf 0 0 m (1) show NC gr  166 778 m -13 X s 166 819 m -13 X s 166 848 m -13 X s 166 870 m -13 X s 166 889 m -13 X s 166 904 m -13 X s 166 917 m -13 X s 166 929 m -13 X s 179
 940 m -26 X s
 gsave  1088 1072 23 11 C 109.27 928.089 t 0 r /Helvetica findfont 32.6643 sf 0 0 m (10) show NC gr 
 gsave  1088 1072 23 11 C 65.2785 648.527 t 90 r /Helvetica findfont 45.446 sf 0 0 m (Entries / Integral) show NC gr  1 0 0 c 1 1 1 c 1 0 0 c black 1 1 1 c black 1 1 1 c black 0 0 1 c[ 12 12] 0 sd 6 lw 443 118 m 359 Y s 719 118 m 359 Y s black[  ] 0
 sd 3 lw 1 1 1 c 272 268 186 654 bf black
 gsave  1088 1072 23 11 C 252.599 874.164 t 0 r /Helvetica findfont 39.7652 sf 0 0 m (OC data: 0) show NC gr  220 889 m20
 gsave  1088 1072 23 11 C 252.599 807.466 t 0 r /Helvetica findfont 39.7652 sf 0 0 m (SC data: 0) show NC gr  220 822 m24
 gsave  1088 1072 23 11 C 252.599 740.768 t 0 r /Helvetica findfont 39.7652 sf 0 0 m (OC MC: 28360) show NC gr  1 0 0 c 220 755 m20 black
 gsave  1088 1072 23 11 C 252.599 674.071 t 0 r /Helvetica findfont 39.7652 sf 0 0 m (SC MC: 0) show NC gr  1 0 0 c 220 688 m24 black
 gsave  1088 1072 23 11 C 566.22 901.126 t 0 r /Helvetica-Bold findfont 59.6478 sf 0 0 m (pp collisions) show NC gr  1 1 1 c 1088 1072 1157 11 bf black 1 1 1 c 827 858 1287 118 bf black 827 858 1287 118 bl 1 1 1 c 827 858 1287 118 bf black 827 858
 1287 118 bl 1 0 0 c 1 1 1 c 1 0 0 c 1584 237 m 1 Y s 1584 249 m s 1577 243 m 1 X s 1589 243 m 1 X s 1584 243 m20 1590 265 m 2 X s 1603 265 m 1 X s 1597 265 m20 1604 284 m 1 X s 1617 284 m 1 X s 1611 284 m20 1618 306 m 1 X s 1631 306 m 1 X s 1625 306
 m20 1632 348 m 1 X s 1644 348 m 2 X s 1639 348 m20 1646 394 m 1 X s 1658 394 m 1 X s 1653 394 m20 1659 427 m 2 X s 1672 427 m 1 X s 1666 427 m20 1673 465 m 1 X s 1686 465 m 1 X s 1680 465 m20 1687 496 m 1 X s 1700 496 m 1 X s 1694 496 m20 1701 513 m
 1 X s 1713 513 m 2 X s 1708 513 m20 1715 508 m 1 X s 1727 508 m 1 X s 1721 508 m20 1728 487 m 2 X s 1741 487 m 1 X s 1735 487 m20 1742 454 m 1 X s 1755 454 m 1 X s 1749 454 m20 1756 407 m 1 X s 1769 407 m 1 X s 1763 407 m20 1770 358 m 1 X s 1782 358
 m 2 X s 1777 358 m20 1784 310 m 1 X s 1796 310 m 1 X s 1790 310 m20 1797 270 m 2 X s 1810 270 m 1 X s 1804 270 m20 1818 246 m 1 Y s 1811 252 m 1 X s 1824 252 m 1 X s 1818 252 m20 1832 211 m 1 Y s 1832 224 m 1 Y s 1825 218 m 1 X s 1837 218 m 2 X s
 1832 218 m20 1846 188 m 2 Y s 1846 201 m 2 Y s 1839 196 m 1 X s 1851 196 m 1 X s 1846 196 m20 black 1287 118 m 827 X s 1287 143 m -25 Y s 1315 130 m -12 Y s 1342 130 m -12 Y s 1370 130 m -12 Y s 1397 130 m -12 Y s 1425 143 m -25 Y s 1453 130 m -12 Y
 s 1480 130 m -12 Y s 1508 130 m -12 Y s 1535 130 m -12 Y s 1563 143 m -25 Y s 1590 130 m -12 Y s 1618 130 m -12 Y s 1646 130 m -12 Y s 1673 130 m -12 Y s 1701 143 m -25 Y s 1728 130 m -12 Y s 1756 130 m -12 Y s 1784 130 m -12 Y s 1811 130 m -12 Y s
 1839 143 m -25 Y s 1866 130 m -12 Y s 1894 130 m -12 Y s 1921 130 m -12 Y s 1949 130 m -12 Y s 1977 143 m -25 Y s 2004 130 m -12 Y s 2032 130 m -12 Y s 2059 130 m -12 Y s 2087 130 m -12 Y s 2114 143 m -25 Y s
 gsave  1088 1072 1157 11 C 1267.25 83.7267 t 0 r /Helvetica findfont 35.5047 sf 0 0 m (60) show NC gr 
 gsave  1088 1072 1157 11 C 1404.91 83.7267 t 0 r /Helvetica findfont 35.5047 sf 0 0 m (70) show NC gr 
 gsave  1088 1072 1157 11 C 1542.56 83.7267 t 0 r /Helvetica findfont 35.5047 sf 0 0 m (80) show NC gr 
 gsave  1088 1072 1157 11 C 1680.21 83.7267 t 0 r /Helvetica findfont 35.5047 sf 0 0 m (90) show NC gr 
 gsave  1088 1072 1157 11 C 1807.93 83.7267 t 0 r /Helvetica findfont 35.5047 sf 0 0 m (100) show NC gr 
 gsave  1088 1072 1157 11 C 1945.58 83.7267 t 0 r /Helvetica findfont 35.5047 sf 0 0 m (110) show NC gr 
 gsave  1088 1072 1157 11 C 2083.23 83.7267 t 0 r /Helvetica findfont 35.5047 sf 0 0 m (120) show NC gr 
 gsave  1088 1072 1157 11 C 1986.74 32.6392 t 0 r /Helvetica findfont 45.446 sf 0 0 m ( [GeV]) show NC gr 
 gsave  1088 1072 1157 11 C 1969.71 24.1246 t 0 r /Symbol findfont 29.8239 sf 0 0 m (m) show NC gr 
 gsave  1088 1072 1157 11 C 1952.68 24.1246 t 0 r /Symbol findfont 29.8239 sf 0 0 m (m) show NC gr 
 gsave  1088 1072 1157 11 C 1917.2 32.6392 t 0 r /Helvetica findfont 45.446 sf 0 0 m (M) show NC gr  1287 118 m 858 Y s 1300 125 m -13 X s 1300 154 m -13 X s 1300 176 m -13 X s 1300 195 m -13 X s 1300 210 m -13 X s 1300 224 m -13 X s 1300 235 m -13 X
 s 1313 246 m -26 X s
 gsave  1088 1072 1157 11 C 1265.83 245.504 t 0 r /Helvetica findfont 22.723 sf 0 0 m (2) show NC gr 
 gsave  1088 1072 1157 11 C 1253.06 245.504 t 0 r /Symbol findfont 22.723 sf 0 0 m (-) show NC gr 
 gsave  1088 1072 1157 11 C 1217.58 231.313 t 0 r /Helvetica findfont 32.6643 sf 0 0 m (10) show NC gr  1300 316 m -13 X s 1300 356 m -13 X s 1300 385 m -13 X s 1300 408 m -13 X s 1300 426 m -13 X s 1300 441 m -13 X s 1300 455 m -13 X s 1300 467 m
 -13 X s 1313 477 m -26 X s
 gsave  1088 1072 1157 11 C 1270.09 476.816 t 0 r /Helvetica findfont 22.723 sf 0 0 m (1) show NC gr 
 gsave  1088 1072 1157 11 C 1257.32 476.816 t 0 r /Symbol findfont 22.723 sf 0 0 m (-) show NC gr 
 gsave  1088 1072 1157 11 C 1221.84 462.626 t 0 r /Helvetica findfont 32.6643 sf 0 0 m (10) show NC gr  1300 547 m -13 X s 1300 588 m -13 X s 1300 617 m -13 X s 1300 639 m -13 X s 1300 657 m -13 X s 1300 673 m -13 X s 1300 686 m -13 X s 1300 698 m
 -13 X s 1313 709 m -26 X s
 gsave  1088 1072 1157 11 C 1265.83 696.776 t 0 r /Helvetica findfont 32.6643 sf 0 0 m (1) show NC gr  1300 778 m -13 X s 1300 819 m -13 X s 1300 848 m -13 X s 1300 870 m -13 X s 1300 889 m -13 X s 1300 904 m -13 X s 1300 917 m -13 X s 1300 929 m -13
 X s 1313 940 m -26 X s
 gsave  1088 1072 1157 11 C 1243.13 928.089 t 0 r /Helvetica findfont 32.6643 sf 0 0 m (10) show NC gr 
 gsave  1088 1072 1157 11 C 1199.14 648.527 t 90 r /Helvetica findfont 45.446 sf 0 0 m (Entries / Integral) show NC gr  1 0 0 c 1 1 1 c 1 0 0 c black 1 1 1 c black 1 1 1 c black 0 0 1 c[ 12 12] 0 sd 6 lw 1577 118 m 359 Y s 1852 118 m 359 Y s black[ 
 ] 0 sd 3 lw 1 1 1 c 272 268 1320 654 bf black
 gsave  1088 1072 1157 11 C 1386.46 874.164 t 0 r /Helvetica findfont 39.7652 sf 0 0 m (OC data: 0) show NC gr  1354 889 m20
 gsave  1088 1072 1157 11 C 1386.46 807.466 t 0 r /Helvetica findfont 39.7652 sf 0 0 m (SC data: 0) show NC gr  1354 822 m24
 gsave  1088 1072 1157 11 C 1386.46 740.768 t 0 r /Helvetica findfont 39.7652 sf 0 0 m (OC MC: 28360) show NC gr  1 0 0 c 1354 755 m20 black
 gsave  1088 1072 1157 11 C 1386.46 674.071 t 0 r /Helvetica findfont 39.7652 sf 0 0 m (SC MC: 0) show NC gr  1 0 0 c 1354 688 m24 black
 gsave  1088 1072 1157 11 C 1700.08 901.126 t 0 r /Helvetica-Bold findfont 59.6478 sf 0 0 m (pp collisions) show NC gr 
 gr  gr showpage
end
%%EOF
