%!PS-Adobe-2.0 EPSF-2.0
%%BoundingBox:  0 0 567 274
%%Title: /home/petr/Analysis_iwona/SFAnalysis/eps/Zmass_mumu_Calocuts_denom_CaloTree.eps: Results
%%Creator: ROOT Version 6.16/00
%%CreationDate: Tue Apr 23 09:57:53 2019
%%DocumentNeededResources: ProcSet (FontSetInit)
%%EndComments
%%BeginProlog
80 dict begin
/s {stroke} def /l {lineto} def /m {moveto} def /t {translate} def
/r {rotate} def /rl {roll}  def /R {repeat} def
/d {rlineto} def /rm {rmoveto} def /gr {grestore} def /f {eofill} def
/c {setrgbcolor} def /black {0 setgray} def /sd {setdash} def
/cl {closepath} def /sf {scalefont setfont} def /lw {setlinewidth} def
/box {m dup 0 exch d exch 0 d 0 exch neg d cl} def
/NC{systemdict begin initclip end}def/C{NC box clip newpath}def
/bl {box s} def /bf {gsave box gsave f grestore 1 lw [] 0 sd s grestore} def /Y { 0 exch d} def /X { 0 d} def 
/K {{pop pop 0 moveto} exch kshow} bind def
/ita {/ang 15 def gsave [1 0 ang dup sin exch cos div 1 0 0] concat} def 
/mp {newpath /y exch def /x exch def} def
/side {[w .77 mul w .23 mul] .385 w mul sd w 0 l currentpoint t -144 r} def
/mr {mp x y w2 0 360 arc} def /m24 {mr s} def /m20 {mr f} def
/mb {mp x y w2 add m w2 neg 0 d 0 w neg d w 0 d 0 w d cl} def
/mt {mp x y w2 add m w2 neg w neg d w 0 d cl} def
/w4 {w 4 div} def
/w6 {w 6 div} def
/w8 {w 8 div} def
/m21 {mb f} def /m25 {mb s} def /m22 {mt f} def /m26{mt s} def
/m23 {mp x y w2 sub m w2 w d w neg 0 d cl f} def
/m27 {mp x y w2 add m w3 neg w2 neg d w3 w2 neg d w3 w2 d cl s} def
/m28 {mp x w2 sub y w2 sub w3 add m w3 0 d  0 w3 neg d w3 0 d 0 w3 d w3 0 d  0 w3 d w3 neg 0 d 0 w3 d w3 neg 0 d 0 w3 neg d w3 neg 0 d cl s } def
/m29 {mp gsave x w2 sub y w2 add w3 sub m currentpoint t 4 {side} repeat cl fill gr} def
/m30 {mp gsave x w2 sub y w2 add w3 sub m currentpoint t 4 {side} repeat cl s gr} def
/m31 {mp x y w2 sub m 0 w d x w2 sub y m w 0 d x w2 sub y w2 add m w w neg d x w2 sub y w2 sub m w w d s} def
/m32 {mp x y w2 sub m w2 w d w neg 0 d cl s} def
/m33 {mp x y w2 add m w3 neg w2 neg d w3 w2 neg d w3 w2 d cl f} def
/m34 {mp x w2 sub y w2 sub w3 add m w3 0 d  0 w3 neg d w3 0 d 0 w3 d w3 0 d  0 w3 d w3 neg 0 d 0 w3 d w3 neg 0 d 0 w3 neg d w3 neg 0 d cl f } def
/m35 {mp x y w2 add m w2 neg w2 neg d w2 w2 neg d w2 w2 d w2 neg w2 d x y w2 sub m 0 w d x w2 sub y m w 0 d s} def
/m36 {mb x w2 sub y w2 add m w w neg d x w2 sub y w2 sub m w w d s} def
/m37 {mp x y m w4 neg w2 d w4 neg w2 neg d w2 0 d  w4 neg w2 neg d w2 0 d w4 neg w2 d w2 0 d w4 neg w2 d w4 neg w2 neg d cl s} def
/m38 {mp x w4 sub y w2 add m w4 neg w4 neg d 0 w2 neg d w4 w4 neg d w2 0 d w4 w4 d 0 w2 d w4 neg w4 d w2 neg 0 d x y w2 sub m 0 w d x w2 sub y m w 0 d cl s} def
/m39 {mp x y m w4 neg w2 d w4 neg w2 neg d w2 0 d  w4 neg w2 neg d w2 0 d w4 neg w2 d w2 0 d w4 neg w2 d w4 neg w2 neg d cl f} def
/m40 {mp x y m w4 w2 d w4 w4 neg d w2 neg w4 neg d w2 w4 neg d w4 neg w4 neg d w4 neg w2 d w4 neg w2 neg d w4 neg w4 d w2 w4 d w2 neg w4 d w4 w4 d w4 w2 neg d cl s} def
/m41 {mp x y m w4 w2 d w4 w4 neg d w2 neg w4 neg d w2 w4 neg d w4 neg w4 neg d w4 neg w2 d w4 neg w2 neg d w4 neg w4 d w2 w4 d w2 neg w4 d w4 w4 d w4 w2 neg d cl f} def
/m42 {mp x y w2 add m w8 neg w2 -3 4 div mul d w2 -3 4 div mul w8 neg d w2 3 4 div mul w8 neg d w8 w2 -3 4 div mul d w8 w2 3 4 div mul d w2 3 4 div mul w8 d w2 -3 4 div mul w8 d w8 neg w2 3 4 div mul d cl s} def
/m43 {mp x y w2 add m w8 neg w2 -3 4 div mul d w2 -3 4 div mul w8 neg d w2 3 4 div mul w8 neg d w8 w2 -3 4 div mul d w8 w2 3 4 div mul d w2 3 4 div mul w8 d w2 -3 4 div mul w8 d w8 neg w2 3 4 div mul d cl f} def
/m44 {mp x y m w6 neg w2 d w2 2 3 div mul 0 d w6 neg w2 neg d w2 w6 d 0 w2 -2 3 div mul d w2 neg w6 d w6 w2 neg d w2 -2 3 div mul 0 d w6 w2 d w2 neg w6 neg d 0 w2 2 3 div mul d w2 w6 neg d cl s} def
/m45 {mp x y m w6 neg w2 d w2 2 3 div mul 0 d w6 neg w2 neg d w2 w6 d 0 w2 -2 3 div mul d w2 neg w6 d w6 w2 neg d w2 -2 3 div mul 0 d w6 w2 d w2 neg w6 neg d 0 w2 2 3 div mul d w2 w6 neg d cl f} def
/m46 {mp x y w4 add m w4 neg w4 d w4 neg w4 neg d  w4 w4 neg d w4 neg w4 neg d w4 w4 neg d w4 w4 d w4 w4 neg d w4 w4 d w4 neg w4 d w4 w4 d w4 neg w4 d w4 neg w4 neg d cl s} def
/m47 {mp x y w4 add m w4 neg w4 d w4 neg w4 neg d w4 w4 neg d w4 neg w4 neg d  w4 w4 neg d w4 w4 d w4 w4 neg d w4 w4 d w4 neg w4 d w4 w4 d w4 neg w4 d w4 neg w4 neg d cl f} def
/m48 {mp x y w4 add m w4 neg w4 d w4 neg w4 neg d w4 w4 neg d  w4 neg w4 neg d w4 w4 neg d w4 w4 d w4 w4 neg d w4 w4 d w4 neg w4 d w4 w4 d w4 neg w4 d w4 neg w4 neg d  w4 w4 neg d w4 neg w4 neg d w4 neg w4 d w4 w4 d cl f} def
/m49 {mp x w2 sub w3 add y w2 sub w3 add m  0 w3 neg d w3 0 d 0 w3 d w3 0 d 0 w3 d w3 neg 0 d 0 w3 d w3 neg 0 d 0 w3 neg d w3 neg 0 d 0 w3 neg d w3 0 d 0 w3 d w3 0 d 0 w3 neg d w3 neg 0 d cl f } def
/m2 {mp x y w2 sub m 0 w d x w2 sub y m w 0 d s} def
/m5 {mp x w2 sub y w2 sub m w w d x w2 sub y w2 add m w w neg d s} def
%%IncludeResource: ProcSet (FontSetInit)
%%IncludeResource: font Times-Roman
%%IncludeResource: font Times-Italic
%%IncludeResource: font Times-Bold
%%IncludeResource: font Times-BoldItalic
%%IncludeResource: font Helvetica
%%IncludeResource: font Helvetica-Oblique
%%IncludeResource: font Helvetica-Bold
%%IncludeResource: font Helvetica-BoldOblique
%%IncludeResource: font Courier
%%IncludeResource: font Courier-Oblique
%%IncludeResource: font Courier-Bold
%%IncludeResource: font Courier-BoldOblique
%%IncludeResource: font Symbol
%%IncludeResource: font ZapfDingbats
/reEncode {exch findfont dup length dict begin {1 index /FID eq  {pop pop} {def} ifelse } forall /Encoding exch def currentdict end dup /FontName get exch definefont pop } def [/Times-Bold /Times-Italic /Times-BoldItalic /Helvetica /Helvetica-Oblique
 /Helvetica-Bold /Helvetica-BoldOblique /Courier /Courier-Oblique /Courier-Bold /Courier-BoldOblique /Times-Roman /AvantGarde-Book /AvantGarde-BookOblique /AvantGarde-Demi /AvantGarde-DemiOblique /Bookman-Demi /Bookman-DemiItalic /Bookman-Light
 /Bookman-LightItalic /Helvetica-Narrow /Helvetica-Narrow-Bold /Helvetica-Narrow-BoldOblique /Helvetica-Narrow-Oblique /NewCenturySchlbk-Roman /NewCenturySchlbk-Bold /NewCenturySchlbk-BoldItalic /NewCenturySchlbk-Italic /Palatino-Bold
 /Palatino-BoldItalic /Palatino-Italic /Palatino-Roman ] {ISOLatin1Encoding reEncode } forall
%%EndProlog
%%BeginSetup
%%EndSetup
newpath  gsave  .25 .25 scale  gsave  0 0 t black[  ] 0 sd 3 lw 1 1 1 c 2268 1094 0 0 bf black 1 1 1 c 1088 1072 23 11 bf black 1 1 1 c 828 858 153 118 bf black 828 858 153 118 bl 1 1 1 c 828 858 153 118 bf black 828 858 153 118 bl 1 0 0 c 1 1 1 c 1
 0 0 c 174 360 m 8 Y s 174 380 m 5 Y s 167 374 m 1 X s 180 374 m 1 X s 171 360 m 6 X s 171 385 m 6 X s 167 371 m 6 Y s 181 371 m 6 Y s /w 12 def /w2 {w 2 div} def /w3 {w 3 div} def 174 374 m20 188 370 m 8 Y s 188 389 m 5 Y s 181 383 m 1 X s 193 383 m
 2 X s 185 370 m 6 X s 185 394 m 6 X s 181 380 m 6 Y s 195 380 m 6 Y s 188 383 m20 202 379 m 7 Y s 202 397 m 4 Y s 195 391 m 1 X s 207 391 m 1 X s 199 379 m 5 X s 199 401 m 5 X s 195 388 m 6 Y s 208 388 m 6 Y s 202 391 m20 215 377 m 7 Y s 215 395 m 5
 Y s 208 389 m 2 X s 221 389 m 1 X s 213 377 m 5 X s 213 400 m 5 X s 208 387 m 5 Y s 222 387 m 5 Y s 215 389 m20 229 387 m 6 Y s 229 404 m 4 Y s 222 399 m 1 X s 235 399 m 1 X s 226 387 m 6 X s 226 408 m 6 X s 222 396 m 5 Y s 236 396 m 5 Y s 229 399
 m20 243 393 m 5 Y s 243 409 m 4 Y s 236 403 m 1 X s 249 403 m 1 X s 240 393 m 6 X s 240 413 m 6 X s 236 401 m 5 Y s 250 401 m 5 Y s 243 403 m20 257 409 m 4 Y s 257 424 m 3 Y s 250 419 m 1 X s 262 419 m 2 X s 254 409 m 6 X s 254 427 m 6 X s 250 416 m
 6 Y s 264 416 m 6 Y s 257 419 m20 270 391 m 5 Y s 270 408 m 3 Y s 264 402 m 1 X s 276 402 m 1 X s 268 391 m 5 X s 268 411 m 5 X s 264 399 m 6 Y s 277 399 m 6 Y s 270 402 m20 284 396 m 5 Y s 284 412 m 4 Y s 277 406 m 2 X s 290 406 m 1 X s 281 396 m 6
 X s 281 416 m 6 X s 277 404 m 5 Y s 291 404 m 5 Y s 284 406 m20 298 417 m 3 Y s 298 431 m 3 Y s 291 426 m 1 X s 304 426 m 1 X s 295 417 m 6 X s 295 434 m 6 X s 291 423 m 6 Y s 305 423 m 6 Y s 298 426 m20 312 420 m 3 Y s 312 435 m 2 Y s 305 429 m 1 X
 s 318 429 m 1 X s 309 420 m 6 X s 309 437 m 6 X s 305 426 m 6 Y s 319 426 m 6 Y s 312 429 m20 326 426 m 2 Y s 326 440 m 1 Y s 319 434 m 1 X s 331 434 m 2 X s 323 426 m 5 X s 323 441 m 5 X s 319 431 m 6 Y s 333 431 m 6 Y s 326 434 m20 339 422 m 3 Y s
 339 437 m 2 Y s 333 431 m 1 X s 345 431 m 1 X s 337 422 m 5 X s 337 439 m 5 X s 333 428 m 6 Y s 346 428 m 6 Y s 339 431 m20 353 437 m 2 Y s 353 450 m 1 Y s 346 445 m 2 X s 359 445 m 1 X s 350 437 m 6 X s 350 451 m 6 X s 346 442 m 5 Y s 360 442 m 5 Y
 s 353 445 m20 367 445 m 2 Y s 367 458 m 1 Y s 360 452 m 1 X s 373 452 m 1 X s 364 445 m 6 X s 364 459 m 6 X s 360 449 m 6 Y s 374 449 m 6 Y s 367 452 m20 381 451 m 1 Y s 381 464 m s 374 458 m 1 X s 386 458 m 2 X s 378 451 m 6 X s 378 464 m 6 X s 374
 455 m 6 Y s 388 455 m 6 Y s 381 458 m20 395 464 m s 388 470 m 1 X s 400 470 m 1 X s 392 464 m 5 X s 388 467 m 6 Y s 401 467 m 6 Y s 395 470 m20 401 489 m 2 X s 414 489 m 1 X s 401 487 m 5 Y s 415 487 m 5 Y s 408 489 m20 415 491 m 1 X s 428 491 m 1 X
 s 415 488 m 6 Y s 429 488 m 6 Y s 422 491 m20 429 498 m 1 X s 442 498 m 1 X s 429 495 m 6 Y s 443 495 m 6 Y s 436 498 m20 443 520 m 1 X s 455 520 m 2 X s 443 517 m 6 Y s 457 517 m 6 Y s 450 520 m20 457 532 m 1 X s 469 532 m 1 X s 457 529 m 6 Y s 470
 529 m 6 Y s 464 532 m20 470 543 m 2 X s 483 543 m 1 X s 470 540 m 6 Y s 484 540 m 6 Y s 477 543 m20 484 557 m 1 X s 497 557 m 1 X s 484 554 m 6 Y s 498 554 m 6 Y s 491 557 m20 498 583 m 1 X s 511 583 m 1 X s 498 581 m 5 Y s 512 581 m 5 Y s 505 583
 m20 512 612 m 1 X s 524 612 m 2 X s 512 609 m 6 Y s 526 609 m 6 Y s 519 612 m20 526 633 m 1 X s 538 633 m 1 X s 526 630 m 5 Y s 539 630 m 5 Y s 532 633 m20 539 656 m 2 X s 552 656 m 1 X s 539 653 m 6 Y s 553 653 m 6 Y s 546 656 m20 553 676 m 1 X s
 566 676 m 1 X s 553 673 m 6 Y s 567 673 m 6 Y s 560 676 m20 567 686 m 1 X s 579 686 m 2 X s 567 683 m 6 Y s 581 683 m 6 Y s 574 686 m20 581 683 m 1 X s 593 683 m 2 X s 581 680 m 6 Y s 595 680 m 6 Y s 588 683 m20 595 670 m 1 X s 607 670 m 1 X s 595
 667 m 6 Y s 608 667 m 6 Y s 601 670 m20 608 651 m 2 X s 621 651 m 1 X s 608 648 m 5 Y s 622 648 m 5 Y s 615 651 m20 622 620 m 1 X s 635 620 m 1 X s 622 617 m 6 Y s 636 617 m 6 Y s 629 620 m20 636 590 m 1 X s 648 590 m 2 X s 636 587 m 6 Y s 650 587 m
 6 Y s 643 590 m20 650 559 m 1 X s 662 559 m 1 X s 650 556 m 6 Y s 663 556 m 6 Y s 657 559 m20 663 534 m 2 X s 676 534 m 1 X s 663 531 m 6 Y s 677 531 m 6 Y s 670 534 m20 677 523 m 1 X s 690 523 m 1 X s 677 520 m 6 Y s 691 520 m 6 Y s 684 523 m20 691
 500 m 1 X s 704 500 m 1 X s 691 498 m 5 Y s 705 498 m 5 Y s 698 500 m20 705 485 m 1 X s 717 485 m 2 X s 705 482 m 6 Y s 719 482 m 6 Y s 712 485 m20 725 456 m 1 Y s 725 469 m s 719 463 m 1 X s 731 463 m 1 X s 723 456 m 5 X s 723 469 m 5 X s 719 460 m
 6 Y s 732 460 m 6 Y s 725 463 m20 739 431 m 2 Y s 739 444 m 2 Y s 732 439 m 2 X s 745 439 m 1 X s 736 431 m 6 X s 736 446 m 6 X s 732 436 m 5 Y s 746 436 m 5 Y s 739 439 m20 753 444 m 1 Y s 753 457 m s 746 451 m 1 X s 759 451 m 1 X s 750 444 m 6 X s
 750 457 m 6 X s 746 448 m 6 Y s 760 448 m 6 Y s 753 451 m20 767 419 m 3 Y s 767 434 m 2 Y s 760 428 m 1 X s 773 428 m 1 X s 764 419 m 6 X s 764 436 m 6 X s 760 425 m 6 Y s 774 425 m 6 Y s 767 428 m20 781 417 m 3 Y s 781 431 m 3 Y s 774 426 m 1 X s
 786 426 m 2 X s 778 417 m 5 X s 778 434 m 5 X s 774 423 m 6 Y s 788 423 m 6 Y s 781 426 m20 794 421 m 3 Y s 794 436 m 2 Y s 788 430 m 1 X s 800 430 m 1 X s 792 421 m 5 X s 792 438 m 5 X s 788 427 m 6 Y s 801 427 m 6 Y s 794 430 m20 808 375 m 7 Y s
 808 393 m 5 Y s 801 387 m 2 X s 814 387 m 1 X s 805 375 m 6 X s 805 398 m 6 X s 801 385 m 5 Y s 815 385 m 5 Y s 808 387 m20 822 402 m 5 Y s 822 418 m 3 Y s 815 412 m 1 X s 828 412 m 1 X s 819 402 m 6 X s 819 421 m 6 X s 815 409 m 6 Y s 829 409 m 6 Y
 s 822 412 m20 836 383 m 6 Y s 836 401 m 4 Y s 829 395 m 1 X s 841 395 m 2 X s 833 383 m 6 X s 833 405 m 6 X s 829 392 m 6 Y s 843 392 m 6 Y s 836 395 m20 850 379 m 7 Y s 850 397 m 4 Y s 843 391 m 1 X s 855 391 m 1 X s 847 379 m 5 X s 847 401 m 5 X s
 843 388 m 6 Y s 856 388 m 6 Y s 850 391 m20 863 383 m 6 Y s 863 401 m 4 Y s 856 395 m 2 X s 869 395 m 1 X s 861 383 m 5 X s 861 405 m 5 X s 856 392 m 6 Y s 870 392 m 6 Y s 863 395 m20 877 370 m 8 Y s 877 389 m 5 Y s 870 383 m 1 X s 883 383 m 1 X s
 874 370 m 6 X s 874 394 m 6 X s 870 380 m 6 Y s 884 380 m 6 Y s 877 383 m20 891 373 m 7 Y s 891 391 m 5 Y s 884 385 m 1 X s 897 385 m 1 X s 888 373 m 6 X s 888 396 m 6 X s 884 382 m 6 Y s 898 382 m 6 Y s 891 385 m20 905 332 m 12 Y s 905 355 m 8 Y s
 898 350 m 1 X s 910 350 m 2 X s 902 332 m 6 X s 902 363 m 6 X s 898 347 m 5 Y s 912 347 m 5 Y s 905 350 m20 919 340 m 11 Y s 919 362 m 8 Y s 912 357 m 1 X s 924 357 m 1 X s 916 340 m 5 X s 916 370 m 5 X s 912 354 m 5 Y s 925 354 m 5 Y s 919 357 m20
 932 363 m 8 Y s 932 382 m 6 Y s 925 376 m 2 X s 938 376 m 1 X s 929 363 m 6 X s 929 388 m 6 X s 925 373 m 6 Y s 939 373 m 6 Y s 932 376 m20 946 344 m 10 Y s 946 365 m 8 Y s 939 360 m 1 X s 952 360 m 1 X s 943 344 m 6 X s 943 373 m 6 X s 939 357 m 6
 Y s 953 357 m 6 Y s 946 360 m20 960 323 m 13 Y s 960 347 m 9 Y s 953 342 m 1 X s 966 342 m 1 X s 957 323 m 6 X s 957 356 m 6 X s 953 339 m 6 Y s 967 339 m 6 Y s 960 342 m20 974 344 m 10 Y s 974 365 m 8 Y s 967 360 m 1 X s 979 360 m 2 X s 971 344 m 6
 X s 971 373 m 6 X s 967 357 m 6 Y s 981 357 m 6 Y s 974 360 m20 black 153 118 m 828 X s 153 143 m -25 Y s 181 130 m -12 Y s 208 130 m -12 Y s 236 130 m -12 Y s 264 130 m -12 Y s 291 143 m -25 Y s 319 130 m -12 Y s 346 130 m -12 Y s 374 130 m -12 Y s
 401 130 m -12 Y s 429 143 m -25 Y s 457 130 m -12 Y s 484 130 m -12 Y s 512 130 m -12 Y s 539 130 m -12 Y s 567 143 m -25 Y s 595 130 m -12 Y s 622 130 m -12 Y s 650 130 m -12 Y s 677 130 m -12 Y s 705 143 m -25 Y s 732 130 m -12 Y s 760 130 m -12 Y
 s 788 130 m -12 Y s 815 130 m -12 Y s 843 143 m -25 Y s 870 130 m -12 Y s 898 130 m -12 Y s 925 130 m -12 Y s 953 130 m -12 Y s 981 143 m -25 Y s
 gsave  1088 1072 23 11 C 133.395 83.7267 t 0 r /Helvetica findfont 35.5047 sf 0 0 m (60) show NC gr 
 gsave  1088 1072 23 11 C 271.047 83.7267 t 0 r /Helvetica findfont 35.5047 sf 0 0 m (70) show NC gr 
 gsave  1088 1072 23 11 C 408.7 83.7267 t 0 r /Helvetica findfont 35.5047 sf 0 0 m (80) show NC gr 
 gsave  1088 1072 23 11 C 546.352 83.7267 t 0 r /Helvetica findfont 35.5047 sf 0 0 m (90) show NC gr 
 gsave  1088 1072 23 11 C 674.071 83.7267 t 0 r /Helvetica findfont 35.5047 sf 0 0 m (100) show NC gr 
 gsave  1088 1072 23 11 C 811.723 83.7267 t 0 r /Helvetica findfont 35.5047 sf 0 0 m (110) show NC gr 
 gsave  1088 1072 23 11 C 949.376 83.7267 t 0 r /Helvetica findfont 35.5047 sf 0 0 m (120) show NC gr 
 gsave  1088 1072 23 11 C 852.877 32.6392 t 0 r /Helvetica findfont 45.446 sf 0 0 m ( [GeV]) show NC gr 
 gsave  1088 1072 23 11 C 835.848 24.1246 t 0 r /Symbol findfont 29.8239 sf 0 0 m (m) show NC gr 
 gsave  1088 1072 23 11 C 818.819 24.1246 t 0 r /Symbol findfont 29.8239 sf 0 0 m (m) show NC gr 
 gsave  1088 1072 23 11 C 783.341 32.6392 t 0 r /Helvetica findfont 45.446 sf 0 0 m (M) show NC gr  153 118 m 858 Y s 166 118 m -13 X s 166 144 m -13 X s 166 162 m -13 X s 166 176 m -13 X s 166 187 m -13 X s 166 197 m -13 X s 166 205 m -13 X s 166
 213 m -13 X s 179 219 m -26 X s
 gsave  1088 1072 23 11 C 131.976 207.188 t 0 r /Helvetica findfont 32.6643 sf 0 0 m (1) show NC gr  166 263 m -13 X s 166 289 m -13 X s 166 307 m -13 X s 166 321 m -13 X s 166 332 m -13 X s 166 342 m -13 X s 166 350 m -13 X s 166 358 m -13 X s 179
 364 m -26 X s
 gsave  1088 1072 23 11 C 109.27 351.936 t 0 r /Helvetica findfont 32.6643 sf 0 0 m (10) show NC gr  166 408 m -13 X s 166 433 m -13 X s 166 451 m -13 X s 166 466 m -13 X s 166 477 m -13 X s 166 487 m -13 X s 166 495 m -13 X s 166 502 m -13 X s 179
 509 m -26 X s
 gsave  1088 1072 23 11 C 131.976 508.037 t 0 r /Helvetica findfont 22.723 sf 0 0 m (2) show NC gr 
 gsave  1088 1072 23 11 C 96.4986 493.846 t 0 r /Helvetica findfont 32.6643 sf 0 0 m (10) show NC gr  166 553 m -13 X s 166 578 m -13 X s 166 596 m -13 X s 166 610 m -13 X s 166 622 m -13 X s 166 632 m -13 X s 166 640 m -13 X s 166 647 m -13 X s 179
 654 m -26 X s
 gsave  1088 1072 23 11 C 131.976 654.204 t 0 r /Helvetica findfont 22.723 sf 0 0 m (3) show NC gr 
 gsave  1088 1072 23 11 C 96.4986 638.594 t 0 r /Helvetica findfont 32.6643 sf 0 0 m (10) show NC gr  166 698 m -13 X s 166 723 m -13 X s 166 741 m -13 X s 166 755 m -13 X s 166 767 m -13 X s 166 776 m -13 X s 166 785 m -13 X s 166 792 m -13 X s 179
 799 m -26 X s
 gsave  1088 1072 23 11 C 131.976 797.532 t 0 r /Helvetica findfont 22.723 sf 0 0 m (4) show NC gr 
 gsave  1088 1072 23 11 C 96.4986 783.341 t 0 r /Helvetica findfont 32.6643 sf 0 0 m (10) show NC gr  166 842 m -13 X s 166 868 m -13 X s 166 886 m -13 X s 166 900 m -13 X s 166 912 m -13 X s 166 921 m -13 X s 166 930 m -13 X s 166 937 m -13 X s 179
 944 m -26 X s
 gsave  1088 1072 23 11 C 131.976 943.699 t 0 r /Helvetica findfont 22.723 sf 0 0 m (5) show NC gr 
 gsave  1088 1072 23 11 C 96.4986 928.089 t 0 r /Helvetica findfont 32.6643 sf 0 0 m (10) show NC gr 
 gsave  1088 1072 23 11 C 69.5357 557.705 t 90 r /Helvetica findfont 45.446 sf 0 0 m (Entries / NormFactor) show NC gr  1 0 0 c 1 1 1 c 1 0 0 c 284 118 m 139 Y s 284 269 m 38 Y s 277 263 m 2 X s 290 263 m 1 X s 281 118 m 6 X s 281 307 m 6 X s 277 260
 m 6 Y s 291 260 m 6 Y s 284 263 m24 black 1 1 1 c black 174 332 m 20 Y s 174 363 m 13 Y s 167 358 m 1 X s 180 358 m 1 X s 171 332 m 6 X s 171 376 m 6 X s 167 355 m 5 Y s 181 355 m 5 Y s 174 358 m20 188 384 m 12 Y s 188 407 m 8 Y s 181 401 m 1 X s
 193 401 m 2 X s 185 384 m 6 X s 185 415 m 6 X s 181 398 m 6 Y s 195 398 m 6 Y s 188 401 m20 202 360 m 15 Y s 202 386 m 10 Y s 195 381 m 1 X s 207 381 m 1 X s 199 360 m 5 X s 199 396 m 5 X s 195 378 m 6 Y s 208 378 m 6 Y s 202 381 m20 215 371 m 13 Y
 s 215 395 m 9 Y s 208 390 m 2 X s 221 390 m 1 X s 213 371 m 5 X s 213 404 m 5 X s 208 387 m 6 Y s 222 387 m 6 Y s 215 390 m20 229 384 m 12 Y s 229 407 m 8 Y s 222 401 m 1 X s 235 401 m 1 X s 226 384 m 6 X s 226 415 m 6 X s 222 398 m 6 Y s 236 398 m
 6 Y s 229 401 m20 243 380 m 12 Y s 243 403 m 8 Y s 236 398 m 1 X s 249 398 m 1 X s 240 380 m 6 X s 240 411 m 6 X s 236 395 m 5 Y s 250 395 m 5 Y s 243 398 m20 257 411 m 8 Y s 257 430 m 6 Y s 250 424 m 1 X s 262 424 m 2 X s 254 411 m 6 X s 254 436 m
 6 X s 250 422 m 5 Y s 264 422 m 5 Y s 257 424 m20 270 416 m 7 Y s 270 435 m 5 Y s 264 429 m 1 X s 276 429 m 1 X s 268 416 m 5 X s 268 440 m 5 X s 264 426 m 6 Y s 277 426 m 6 Y s 270 429 m20 284 413 m 8 Y s 284 432 m 6 Y s 277 427 m 2 X s 290 427 m 1
 X s 281 413 m 6 X s 281 438 m 6 X s 277 424 m 6 Y s 291 424 m 6 Y s 284 427 m20 298 380 m 12 Y s 298 403 m 8 Y s 291 398 m 1 X s 304 398 m 1 X s 295 380 m 6 X s 295 411 m 6 X s 291 395 m 5 Y s 305 395 m 5 Y s 298 398 m20 312 431 m 6 Y s 312 449 m 4
 Y s 305 443 m 1 X s 318 443 m 1 X s 309 431 m 6 X s 309 453 m 6 X s 305 440 m 6 Y s 319 440 m 6 Y s 312 443 m20 326 427 m 7 Y s 326 445 m 4 Y s 319 439 m 1 X s 331 439 m 2 X s 323 427 m 5 X s 323 449 m 5 X s 319 437 m 5 Y s 333 437 m 5 Y s 326 439
 m20 339 442 m 5 Y s 339 459 m 3 Y s 333 453 m 1 X s 345 453 m 1 X s 337 442 m 5 X s 337 462 m 5 X s 333 450 m 6 Y s 346 450 m 6 Y s 339 453 m20 353 437 m 6 Y s 353 454 m 4 Y s 346 448 m 2 X s 359 448 m 1 X s 350 437 m 6 X s 350 458 m 6 X s 346 445 m
 6 Y s 360 445 m 6 Y s 353 448 m20 367 416 m 7 Y s 367 435 m 5 Y s 360 429 m 1 X s 373 429 m 1 X s 364 416 m 6 X s 364 440 m 6 X s 360 426 m 6 Y s 374 426 m 6 Y s 367 429 m20 381 442 m 5 Y s 381 459 m 3 Y s 374 453 m 1 X s 386 453 m 2 X s 378 442 m 6
 X s 378 462 m 6 X s 374 450 m 6 Y s 388 450 m 6 Y s 381 453 m20 395 482 m 2 Y s 395 496 m 1 Y s 388 490 m 1 X s 400 490 m 1 X s 392 482 m 5 X s 392 497 m 5 X s 388 487 m 6 Y s 401 487 m 6 Y s 395 490 m20 408 478 m 2 Y s 408 491 m 2 Y s 401 486 m 2 X
 s 414 486 m 1 X s 406 478 m 5 X s 406 493 m 5 X s 401 483 m 6 Y s 415 483 m 6 Y s 408 486 m20 422 481 m 3 Y s 422 495 m 1 Y s 415 489 m 1 X s 428 489 m 1 X s 419 481 m 6 X s 419 496 m 6 X s 415 486 m 6 Y s 429 486 m 6 Y s 422 489 m20 436 492 m 1 Y s
 436 505 m s 429 499 m 1 X s 442 499 m 1 X s 433 492 m 6 X s 433 505 m 6 X s 429 496 m 6 Y s 443 496 m 6 Y s 436 499 m20 450 508 m 1 Y s 450 520 m s 443 515 m 1 X s 455 515 m 2 X s 447 508 m 6 X s 447 520 m 6 X s 443 512 m 5 Y s 457 512 m 5 Y s 450
 515 m20 464 518 m s 457 524 m 1 X s 469 524 m 1 X s 461 518 m 5 X s 457 521 m 5 Y s 470 521 m 5 Y s 464 524 m20 470 557 m 2 X s 483 557 m 1 X s 470 554 m 6 Y s 484 554 m 6 Y s 477 557 m20 484 560 m 1 X s 497 560 m 1 X s 484 557 m 5 Y s 498 557 m 5 Y
 s 491 560 m20 498 591 m 1 X s 511 591 m 1 X s 498 588 m 6 Y s 512 588 m 6 Y s 505 591 m20 512 605 m 1 X s 524 605 m 2 X s 512 602 m 5 Y s 526 602 m 5 Y s 519 605 m20 526 637 m 1 X s 538 637 m 1 X s 526 634 m 6 Y s 539 634 m 6 Y s 532 637 m20 539 653
 m 2 X s 552 653 m 1 X s 539 650 m 6 Y s 553 650 m 6 Y s 546 653 m20 553 675 m 1 X s 566 675 m 1 X s 553 672 m 6 Y s 567 672 m 6 Y s 560 675 m20 567 684 m 1 X s 579 684 m 2 X s 567 681 m 6 Y s 581 681 m 6 Y s 574 684 m20 581 686 m 1 X s 593 686 m 2 X
 s 581 684 m 5 Y s 595 684 m 5 Y s 588 686 m20 595 669 m 1 X s 607 669 m 1 X s 595 666 m 6 Y s 608 666 m 6 Y s 601 669 m20 608 645 m 2 X s 621 645 m 1 X s 608 642 m 6 Y s 622 642 m 6 Y s 615 645 m20 622 619 m 1 X s 635 619 m 1 X s 622 616 m 6 Y s 636
 616 m 6 Y s 629 619 m20 636 588 m 1 X s 648 588 m 2 X s 636 585 m 6 Y s 650 585 m 6 Y s 643 588 m20 650 560 m 1 X s 662 560 m 1 X s 650 557 m 5 Y s 663 557 m 5 Y s 657 560 m20 663 544 m 2 X s 676 544 m 1 X s 663 541 m 6 Y s 677 541 m 6 Y s 670 544
 m20 684 515 m s 677 521 m 1 X s 690 521 m 1 X s 681 515 m 6 X s 677 518 m 6 Y s 691 518 m 6 Y s 684 521 m20 698 495 m 2 Y s 698 508 m 1 Y s 691 502 m 1 X s 704 502 m 1 X s 695 495 m 6 X s 695 509 m 6 X s 691 500 m 5 Y s 705 500 m 5 Y s 698 502 m20
 712 476 m 2 Y s 712 490 m 1 Y s 705 484 m 1 X s 717 484 m 2 X s 709 476 m 6 X s 709 491 m 6 X s 705 481 m 6 Y s 719 481 m 6 Y s 712 484 m20 725 466 m 3 Y s 725 481 m 2 Y s 719 475 m 1 X s 731 475 m 1 X s 723 466 m 5 X s 723 483 m 5 X s 719 472 m 6 Y
 s 732 472 m 6 Y s 725 475 m20 739 452 m 4 Y s 739 467 m 3 Y s 732 462 m 2 X s 745 462 m 1 X s 736 452 m 6 X s 736 470 m 6 X s 732 459 m 5 Y s 746 459 m 5 Y s 739 462 m20 753 447 m 5 Y s 753 463 m 3 Y s 746 457 m 1 X s 759 457 m 1 X s 750 447 m 6 X s
 750 466 m 6 X s 746 455 m 5 Y s 760 455 m 5 Y s 753 457 m20 767 433 m 6 Y s 767 451 m 4 Y s 760 445 m 1 X s 773 445 m 1 X s 764 433 m 6 X s 764 455 m 6 X s 760 442 m 6 Y s 774 442 m 6 Y s 767 445 m20 781 423 m 7 Y s 781 441 m 5 Y s 774 435 m 1 X s
 786 435 m 2 X s 778 423 m 5 X s 778 446 m 5 X s 774 433 m 5 Y s 788 433 m 5 Y s 781 435 m20 794 402 m 9 Y s 794 422 m 7 Y s 788 417 m 1 X s 800 417 m 1 X s 792 402 m 5 X s 792 429 m 5 X s 788 414 m 5 Y s 801 414 m 5 Y s 794 417 m20 808 340 m 19 Y s
 808 370 m 12 Y s 801 364 m 2 X s 814 364 m 1 X s 805 340 m 6 X s 805 382 m 6 X s 801 361 m 6 Y s 815 361 m 6 Y s 808 364 m20 822 399 m 9 Y s 822 420 m 6 Y s 815 414 m 1 X s 828 414 m 1 X s 819 399 m 6 X s 819 426 m 6 X s 815 411 m 6 Y s 829 411 m 6
 Y s 822 414 m20 836 332 m 20 Y s 836 363 m 13 Y s 829 358 m 1 X s 841 358 m 2 X s 833 332 m 6 X s 833 376 m 6 X s 829 355 m 5 Y s 843 355 m 5 Y s 836 358 m20 850 395 m 10 Y s 850 417 m 6 Y s 843 411 m 1 X s 855 411 m 1 X s 847 395 m 5 X s 847 423 m
 5 X s 843 408 m 6 Y s 856 408 m 6 Y s 850 411 m20 863 366 m 14 Y s 863 391 m 9 Y s 856 385 m 2 X s 869 385 m 1 X s 861 366 m 5 X s 861 400 m 5 X s 856 383 m 5 Y s 870 383 m 5 Y s 863 385 m20 877 340 m 19 Y s 877 370 m 12 Y s 870 364 m 1 X s 883 364
 m 1 X s 874 340 m 6 X s 874 382 m 6 X s 870 361 m 6 Y s 884 361 m 6 Y s 877 364 m20 891 366 m 14 Y s 891 391 m 9 Y s 884 385 m 1 X s 897 385 m 1 X s 888 366 m 6 X s 888 400 m 6 X s 884 383 m 5 Y s 898 383 m 5 Y s 891 385 m20 905 380 m 12 Y s 905 403
 m 8 Y s 898 398 m 1 X s 910 398 m 2 X s 902 380 m 6 X s 902 411 m 6 X s 898 395 m 5 Y s 912 395 m 5 Y s 905 398 m20 919 371 m 13 Y s 919 395 m 9 Y s 912 390 m 1 X s 924 390 m 1 X s 916 371 m 5 X s 916 404 m 5 X s 912 387 m 6 Y s 925 387 m 6 Y s 919
 390 m20 932 332 m 20 Y s 932 363 m 13 Y s 925 358 m 2 X s 938 358 m 1 X s 929 332 m 6 X s 929 376 m 6 X s 925 355 m 5 Y s 939 355 m 5 Y s 932 358 m20 946 354 m 16 Y s 946 381 m 11 Y s 939 376 m 1 X s 952 376 m 1 X s 943 354 m 6 X s 943 392 m 6 X s
 939 373 m 6 Y s 953 373 m 6 Y s 946 376 m20 960 340 m 19 Y s 960 370 m 12 Y s 953 364 m 1 X s 966 364 m 1 X s 957 340 m 6 X s 957 382 m 6 X s 953 361 m 6 Y s 967 361 m 6 Y s 960 364 m20 974 312 m 24 Y s 974 348 m 14 Y s 967 342 m 1 X s 979 342 m 2 X
 s 971 312 m 6 X s 971 362 m 6 X s 967 339 m 6 Y s 981 339 m 6 Y s 974 342 m20 1 1 1 c black 422 118 m 96 Y s 422 225 m 38 Y s 415 219 m 1 X s 428 219 m 1 X s 419 118 m 6 X s 419 263 m 6 X s 415 217 m 5 Y s 429 217 m 5 Y s 422 219 m24 560 118 m 96 Y
 s 560 225 m 38 Y s 553 219 m 1 X s 566 219 m 1 X s 557 118 m 6 X s 557 263 m 6 X s 553 217 m 5 Y s 567 217 m 5 Y s 560 219 m24 0 0 1 c[ 12 12] 0 sd 6 lw 443 118 m 525 Y s 719 118 m 525 Y s black[  ] 0 sd 3 lw 1 1 1 c 272 268 186 654 bf black
 gsave  1088 1072 23 11 C 252.599 874.164 t 0 r /Helvetica findfont 39.7652 sf 0 0 m (OC data: 12790) show NC gr  220 889 m20
 gsave  1088 1072 23 11 C 252.599 807.466 t 0 r /Helvetica findfont 39.7652 sf 0 0 m (SC data: 2) show NC gr  220 822 m24
 gsave  1088 1072 23 11 C 252.599 740.768 t 0 r /Helvetica findfont 39.7652 sf 0 0 m (OC MC: 27449) show NC gr  1 0 0 c 220 755 m20 black
 gsave  1088 1072 23 11 C 252.599 674.071 t 0 r /Helvetica findfont 39.7652 sf 0 0 m (SC MC: 1) show NC gr  1 0 0 c 220 688 m24 black
 gsave  1088 1072 23 11 C 566.22 901.126 t 0 r /Helvetica-Bold findfont 59.6478 sf 0 0 m (pp collisions) show NC gr  1 1 1 c 1088 1072 1157 11 bf black 1 1 1 c 827 858 1287 118 bf black 827 858 1287 118 bl 1 1 1 c 827 858 1287 118 bf black 827 858
 1287 118 bl 1 0 0 c 1 1 1 c 1 0 0 c 1308 360 m 8 Y s 1308 380 m 5 Y s 1301 374 m 1 X s 1314 374 m 1 X s 1305 360 m 6 X s 1305 385 m 6 X s 1301 371 m 6 Y s 1315 371 m 6 Y s 1308 374 m20 1322 370 m 8 Y s 1322 389 m 5 Y s 1315 383 m 1 X s 1327 383 m 2
 X s 1319 370 m 5 X s 1319 394 m 5 X s 1315 380 m 6 Y s 1329 380 m 6 Y s 1322 383 m20 1335 379 m 7 Y s 1335 397 m 4 Y s 1329 391 m 1 X s 1341 391 m 1 X s 1333 379 m 5 X s 1333 401 m 5 X s 1329 388 m 6 Y s 1342 388 m 6 Y s 1335 391 m20 1349 377 m 7 Y
 s 1349 395 m 5 Y s 1342 389 m 2 X s 1355 389 m 1 X s 1346 377 m 6 X s 1346 400 m 6 X s 1342 387 m 5 Y s 1356 387 m 5 Y s 1349 389 m20 1363 387 m 6 Y s 1363 404 m 4 Y s 1356 399 m 1 X s 1369 399 m 1 X s 1360 387 m 6 X s 1360 408 m 6 X s 1356 396 m 5
 Y s 1370 396 m 5 Y s 1363 399 m20 1377 393 m 5 Y s 1377 409 m 4 Y s 1370 403 m 1 X s 1382 403 m 2 X s 1374 393 m 6 X s 1374 413 m 6 X s 1370 401 m 5 Y s 1384 401 m 5 Y s 1377 403 m20 1391 409 m 4 Y s 1391 424 m 3 Y s 1384 419 m 1 X s 1396 419 m 1 X
 s 1388 409 m 5 X s 1388 427 m 5 X s 1384 416 m 6 Y s 1397 416 m 6 Y s 1391 419 m20 1404 391 m 5 Y s 1404 408 m 3 Y s 1397 402 m 2 X s 1410 402 m 1 X s 1402 391 m 5 X s 1402 411 m 5 X s 1397 399 m 6 Y s 1411 399 m 6 Y s 1404 402 m20 1418 396 m 5 Y s
 1418 412 m 4 Y s 1411 406 m 1 X s 1424 406 m 1 X s 1415 396 m 6 X s 1415 416 m 6 X s 1411 404 m 5 Y s 1425 404 m 5 Y s 1418 406 m20 1432 417 m 3 Y s 1432 431 m 3 Y s 1425 426 m 1 X s 1438 426 m 1 X s 1429 417 m 6 X s 1429 434 m 6 X s 1425 423 m 6 Y
 s 1439 423 m 6 Y s 1432 426 m20 1446 420 m 3 Y s 1446 435 m 2 Y s 1439 429 m 1 X s 1451 429 m 2 X s 1443 420 m 6 X s 1443 437 m 6 X s 1439 426 m 6 Y s 1453 426 m 6 Y s 1446 429 m20 1460 426 m 2 Y s 1460 440 m 1 Y s 1453 434 m 1 X s 1465 434 m 1 X s
 1457 426 m 5 X s 1457 441 m 5 X s 1453 431 m 6 Y s 1466 431 m 6 Y s 1460 434 m20 1473 422 m 3 Y s 1473 437 m 2 Y s 1466 431 m 2 X s 1479 431 m 1 X s 1470 422 m 6 X s 1470 439 m 6 X s 1466 428 m 6 Y s 1480 428 m 6 Y s 1473 431 m20 1487 437 m 2 Y s
 1487 450 m 1 Y s 1480 445 m 1 X s 1493 445 m 1 X s 1484 437 m 6 X s 1484 451 m 6 X s 1480 442 m 5 Y s 1494 442 m 5 Y s 1487 445 m20 1501 445 m 2 Y s 1501 458 m 1 Y s 1494 452 m 1 X s 1507 452 m 1 X s 1498 445 m 6 X s 1498 459 m 6 X s 1494 449 m 6 Y
 s 1508 449 m 6 Y s 1501 452 m20 1515 451 m 1 Y s 1515 464 m s 1508 458 m 1 X s 1520 458 m 2 X s 1512 451 m 5 X s 1512 464 m 5 X s 1508 455 m 6 Y s 1522 455 m 6 Y s 1515 458 m20 1528 464 m s 1522 470 m 1 X s 1534 470 m 1 X s 1526 464 m 5 X s 1522 467
 m 6 Y s 1535 467 m 6 Y s 1528 470 m20 1535 489 m 2 X s 1548 489 m 1 X s 1535 487 m 5 Y s 1549 487 m 5 Y s 1542 489 m20 1549 491 m 1 X s 1562 491 m 1 X s 1549 488 m 6 Y s 1563 488 m 6 Y s 1556 491 m20 1563 498 m 1 X s 1575 498 m 2 X s 1563 495 m 6 Y
 s 1577 495 m 6 Y s 1570 498 m20 1577 520 m 1 X s 1589 520 m 1 X s 1577 517 m 6 Y s 1590 517 m 6 Y s 1584 520 m20 1590 532 m 2 X s 1603 532 m 1 X s 1590 529 m 6 Y s 1604 529 m 6 Y s 1597 532 m20 1604 543 m 1 X s 1617 543 m 1 X s 1604 540 m 6 Y s 1618
 540 m 6 Y s 1611 543 m20 1618 557 m 1 X s 1631 557 m 1 X s 1618 554 m 6 Y s 1632 554 m 6 Y s 1625 557 m20 1632 583 m 1 X s 1644 583 m 2 X s 1632 581 m 5 Y s 1646 581 m 5 Y s 1639 583 m20 1646 612 m 1 X s 1658 612 m 1 X s 1646 609 m 6 Y s 1659 609 m
 6 Y s 1653 612 m20 1659 633 m 2 X s 1672 633 m 1 X s 1659 630 m 5 Y s 1673 630 m 5 Y s 1666 633 m20 1673 656 m 1 X s 1686 656 m 1 X s 1673 653 m 6 Y s 1687 653 m 6 Y s 1680 656 m20 1687 676 m 1 X s 1700 676 m 1 X s 1687 673 m 6 Y s 1701 673 m 6 Y s
 1694 676 m20 1701 686 m 1 X s 1713 686 m 2 X s 1701 683 m 6 Y s 1715 683 m 6 Y s 1708 686 m20 1715 683 m 1 X s 1727 683 m 1 X s 1715 680 m 6 Y s 1728 680 m 6 Y s 1721 683 m20 1728 670 m 2 X s 1741 670 m 1 X s 1728 667 m 6 Y s 1742 667 m 6 Y s 1735
 670 m20 1742 651 m 1 X s 1755 651 m 1 X s 1742 648 m 5 Y s 1756 648 m 5 Y s 1749 651 m20 1756 620 m 1 X s 1769 620 m 1 X s 1756 617 m 6 Y s 1770 617 m 6 Y s 1763 620 m20 1770 590 m 1 X s 1782 590 m 2 X s 1770 587 m 6 Y s 1784 587 m 6 Y s 1777 590
 m20 1784 559 m 1 X s 1796 559 m 1 X s 1784 556 m 6 Y s 1797 556 m 6 Y s 1790 559 m20 1797 534 m 2 X s 1810 534 m 1 X s 1797 531 m 6 Y s 1811 531 m 6 Y s 1804 534 m20 1811 523 m 1 X s 1824 523 m 1 X s 1811 520 m 6 Y s 1825 520 m 6 Y s 1818 523 m20
 1825 500 m 1 X s 1837 500 m 2 X s 1825 498 m 5 Y s 1839 498 m 5 Y s 1832 500 m20 1839 485 m 1 X s 1851 485 m 1 X s 1839 482 m 6 Y s 1852 482 m 6 Y s 1846 485 m20 1859 456 m 1 Y s 1859 469 m s 1852 463 m 2 X s 1865 463 m 1 X s 1857 456 m 5 X s 1857
 469 m 5 X s 1852 460 m 6 Y s 1866 460 m 6 Y s 1859 463 m20 1873 431 m 2 Y s 1873 444 m 2 Y s 1866 439 m 1 X s 1879 439 m 1 X s 1870 431 m 6 X s 1870 446 m 6 X s 1866 436 m 5 Y s 1880 436 m 5 Y s 1873 439 m20 1887 444 m 1 Y s 1887 457 m s 1880 451 m
 1 X s 1893 451 m 1 X s 1884 444 m 6 X s 1884 457 m 6 X s 1880 448 m 6 Y s 1894 448 m 6 Y s 1887 451 m20 1901 419 m 3 Y s 1901 434 m 2 Y s 1894 428 m 1 X s 1906 428 m 2 X s 1898 419 m 6 X s 1898 436 m 6 X s 1894 425 m 6 Y s 1908 425 m 6 Y s 1901 428
 m20 1914 417 m 3 Y s 1914 431 m 3 Y s 1908 426 m 1 X s 1920 426 m 1 X s 1912 417 m 5 X s 1912 434 m 5 X s 1908 423 m 6 Y s 1921 423 m 6 Y s 1914 426 m20 1928 421 m 3 Y s 1928 436 m 2 Y s 1921 430 m 2 X s 1934 430 m 1 X s 1925 421 m 6 X s 1925 438 m
 6 X s 1921 427 m 6 Y s 1935 427 m 6 Y s 1928 430 m20 1942 375 m 7 Y s 1942 393 m 5 Y s 1935 387 m 1 X s 1948 387 m 1 X s 1939 375 m 6 X s 1939 398 m 6 X s 1935 385 m 5 Y s 1949 385 m 5 Y s 1942 387 m20 1956 402 m 5 Y s 1956 418 m 3 Y s 1949 412 m 1
 X s 1962 412 m 1 X s 1953 402 m 6 X s 1953 421 m 6 X s 1949 409 m 6 Y s 1963 409 m 6 Y s 1956 412 m20 1970 383 m 6 Y s 1970 401 m 4 Y s 1963 395 m 1 X s 1975 395 m 2 X s 1967 383 m 5 X s 1967 405 m 5 X s 1963 392 m 6 Y s 1977 392 m 6 Y s 1970 395
 m20 1983 379 m 7 Y s 1983 397 m 4 Y s 1977 391 m 1 X s 1989 391 m 1 X s 1981 379 m 5 X s 1981 401 m 5 X s 1977 388 m 6 Y s 1990 388 m 6 Y s 1983 391 m20 1997 383 m 6 Y s 1997 401 m 4 Y s 1990 395 m 2 X s 2003 395 m 1 X s 1994 383 m 6 X s 1994 405 m
 6 X s 1990 392 m 6 Y s 2004 392 m 6 Y s 1997 395 m20 2011 370 m 8 Y s 2011 389 m 5 Y s 2004 383 m 1 X s 2017 383 m 1 X s 2008 370 m 6 X s 2008 394 m 6 X s 2004 380 m 6 Y s 2018 380 m 6 Y s 2011 383 m20 2025 373 m 7 Y s 2025 391 m 5 Y s 2018 385 m 1
 X s 2030 385 m 2 X s 2022 373 m 6 X s 2022 396 m 6 X s 2018 382 m 6 Y s 2032 382 m 6 Y s 2025 385 m20 2039 332 m 12 Y s 2039 355 m 8 Y s 2032 350 m 1 X s 2044 350 m 1 X s 2036 332 m 5 X s 2036 363 m 5 X s 2032 347 m 5 Y s 2045 347 m 5 Y s 2039 350
 m20 2052 340 m 11 Y s 2052 362 m 8 Y s 2045 357 m 2 X s 2058 357 m 1 X s 2050 340 m 5 X s 2050 370 m 5 X s 2045 354 m 5 Y s 2059 354 m 5 Y s 2052 357 m20 2066 363 m 8 Y s 2066 382 m 6 Y s 2059 376 m 1 X s 2072 376 m 1 X s 2063 363 m 6 X s 2063 388 m
 6 X s 2059 373 m 6 Y s 2073 373 m 6 Y s 2066 376 m20 2080 344 m 10 Y s 2080 365 m 8 Y s 2073 360 m 1 X s 2086 360 m 1 X s 2077 344 m 6 X s 2077 373 m 6 X s 2073 357 m 6 Y s 2087 357 m 6 Y s 2080 360 m20 2094 323 m 13 Y s 2094 347 m 9 Y s 2087 342 m
 1 X s 2099 342 m 2 X s 2091 323 m 6 X s 2091 356 m 6 X s 2087 339 m 6 Y s 2101 339 m 6 Y s 2094 342 m20 2108 344 m 10 Y s 2108 365 m 8 Y s 2101 360 m 1 X s 2113 360 m 1 X s 2105 344 m 5 X s 2105 373 m 5 X s 2101 357 m 6 Y s 2114 357 m 6 Y s 2108 360
 m20 black 1287 118 m 827 X s 1287 143 m -25 Y s 1315 130 m -12 Y s 1342 130 m -12 Y s 1370 130 m -12 Y s 1397 130 m -12 Y s 1425 143 m -25 Y s 1453 130 m -12 Y s 1480 130 m -12 Y s 1508 130 m -12 Y s 1535 130 m -12 Y s 1563 143 m -25 Y s 1590 130 m
 -12 Y s 1618 130 m -12 Y s 1646 130 m -12 Y s 1673 130 m -12 Y s 1701 143 m -25 Y s 1728 130 m -12 Y s 1756 130 m -12 Y s 1784 130 m -12 Y s 1811 130 m -12 Y s 1839 143 m -25 Y s 1866 130 m -12 Y s 1894 130 m -12 Y s 1921 130 m -12 Y s 1949 130 m
 -12 Y s 1977 143 m -25 Y s 2004 130 m -12 Y s 2032 130 m -12 Y s 2059 130 m -12 Y s 2087 130 m -12 Y s 2114 143 m -25 Y s
 gsave  1088 1072 1157 11 C 1267.25 83.7267 t 0 r /Helvetica findfont 35.5047 sf 0 0 m (60) show NC gr 
 gsave  1088 1072 1157 11 C 1404.91 83.7267 t 0 r /Helvetica findfont 35.5047 sf 0 0 m (70) show NC gr 
 gsave  1088 1072 1157 11 C 1542.56 83.7267 t 0 r /Helvetica findfont 35.5047 sf 0 0 m (80) show NC gr 
 gsave  1088 1072 1157 11 C 1680.21 83.7267 t 0 r /Helvetica findfont 35.5047 sf 0 0 m (90) show NC gr 
 gsave  1088 1072 1157 11 C 1807.93 83.7267 t 0 r /Helvetica findfont 35.5047 sf 0 0 m (100) show NC gr 
 gsave  1088 1072 1157 11 C 1945.58 83.7267 t 0 r /Helvetica findfont 35.5047 sf 0 0 m (110) show NC gr 
 gsave  1088 1072 1157 11 C 2083.23 83.7267 t 0 r /Helvetica findfont 35.5047 sf 0 0 m (120) show NC gr 
 gsave  1088 1072 1157 11 C 1986.74 32.6392 t 0 r /Helvetica findfont 45.446 sf 0 0 m ( [GeV]) show NC gr 
 gsave  1088 1072 1157 11 C 1969.71 24.1246 t 0 r /Symbol findfont 29.8239 sf 0 0 m (m) show NC gr 
 gsave  1088 1072 1157 11 C 1952.68 24.1246 t 0 r /Symbol findfont 29.8239 sf 0 0 m (m) show NC gr 
 gsave  1088 1072 1157 11 C 1917.2 32.6392 t 0 r /Helvetica findfont 45.446 sf 0 0 m (M) show NC gr  1287 118 m 858 Y s 1300 118 m -13 X s 1300 144 m -13 X s 1300 162 m -13 X s 1300 176 m -13 X s 1300 187 m -13 X s 1300 197 m -13 X s 1300 205 m -13 X
 s 1300 213 m -13 X s 1313 219 m -26 X s
 gsave  1088 1072 1157 11 C 1265.83 207.188 t 0 r /Helvetica findfont 32.6643 sf 0 0 m (1) show NC gr  1300 263 m -13 X s 1300 289 m -13 X s 1300 307 m -13 X s 1300 321 m -13 X s 1300 332 m -13 X s 1300 342 m -13 X s 1300 350 m -13 X s 1300 358 m -13
 X s 1313 364 m -26 X s
 gsave  1088 1072 1157 11 C 1243.13 351.936 t 0 r /Helvetica findfont 32.6643 sf 0 0 m (10) show NC gr  1300 408 m -13 X s 1300 433 m -13 X s 1300 451 m -13 X s 1300 466 m -13 X s 1300 477 m -13 X s 1300 487 m -13 X s 1300 495 m -13 X s 1300 502 m
 -13 X s 1313 509 m -26 X s
 gsave  1088 1072 1157 11 C 1265.83 508.037 t 0 r /Helvetica findfont 22.723 sf 0 0 m (2) show NC gr 
 gsave  1088 1072 1157 11 C 1230.36 493.846 t 0 r /Helvetica findfont 32.6643 sf 0 0 m (10) show NC gr  1300 553 m -13 X s 1300 578 m -13 X s 1300 596 m -13 X s 1300 610 m -13 X s 1300 622 m -13 X s 1300 632 m -13 X s 1300 640 m -13 X s 1300 647 m
 -13 X s 1313 654 m -26 X s
 gsave  1088 1072 1157 11 C 1265.83 654.204 t 0 r /Helvetica findfont 22.723 sf 0 0 m (3) show NC gr 
 gsave  1088 1072 1157 11 C 1230.36 638.594 t 0 r /Helvetica findfont 32.6643 sf 0 0 m (10) show NC gr  1300 698 m -13 X s 1300 723 m -13 X s 1300 741 m -13 X s 1300 755 m -13 X s 1300 767 m -13 X s 1300 776 m -13 X s 1300 785 m -13 X s 1300 792 m
 -13 X s 1313 799 m -26 X s
 gsave  1088 1072 1157 11 C 1265.83 797.532 t 0 r /Helvetica findfont 22.723 sf 0 0 m (4) show NC gr 
 gsave  1088 1072 1157 11 C 1230.36 783.341 t 0 r /Helvetica findfont 32.6643 sf 0 0 m (10) show NC gr  1300 842 m -13 X s 1300 868 m -13 X s 1300 886 m -13 X s 1300 900 m -13 X s 1300 912 m -13 X s 1300 921 m -13 X s 1300 930 m -13 X s 1300 937 m
 -13 X s 1313 944 m -26 X s
 gsave  1088 1072 1157 11 C 1265.83 943.699 t 0 r /Helvetica findfont 22.723 sf 0 0 m (5) show NC gr 
 gsave  1088 1072 1157 11 C 1230.36 928.089 t 0 r /Helvetica findfont 32.6643 sf 0 0 m (10) show NC gr 
 gsave  1088 1072 1157 11 C 1203.39 557.705 t 90 r /Helvetica findfont 45.446 sf 0 0 m (Entries / NormFactor) show NC gr  1 0 0 c 1 1 1 c 1 0 0 c 1418 118 m 139 Y s 1418 269 m 38 Y s 1411 263 m 1 X s 1424 263 m 1 X s 1415 118 m 6 X s 1415 307 m 6 X s
 1411 260 m 6 Y s 1425 260 m 6 Y s 1418 263 m24 black 1 1 1 c black 1308 332 m 20 Y s 1308 363 m 13 Y s 1301 358 m 1 X s 1314 358 m 1 X s 1305 332 m 6 X s 1305 376 m 6 X s 1301 355 m 5 Y s 1315 355 m 5 Y s 1308 358 m20 1322 384 m 12 Y s 1322 407 m 8
 Y s 1315 401 m 1 X s 1327 401 m 2 X s 1319 384 m 5 X s 1319 415 m 5 X s 1315 398 m 6 Y s 1329 398 m 6 Y s 1322 401 m20 1335 360 m 15 Y s 1335 386 m 10 Y s 1329 381 m 1 X s 1341 381 m 1 X s 1333 360 m 5 X s 1333 396 m 5 X s 1329 378 m 6 Y s 1342 378
 m 6 Y s 1335 381 m20 1349 371 m 13 Y s 1349 395 m 9 Y s 1342 390 m 2 X s 1355 390 m 1 X s 1346 371 m 6 X s 1346 404 m 6 X s 1342 387 m 6 Y s 1356 387 m 6 Y s 1349 390 m20 1363 384 m 12 Y s 1363 407 m 8 Y s 1356 401 m 1 X s 1369 401 m 1 X s 1360 384
 m 6 X s 1360 415 m 6 X s 1356 398 m 6 Y s 1370 398 m 6 Y s 1363 401 m20 1377 380 m 12 Y s 1377 403 m 8 Y s 1370 398 m 1 X s 1382 398 m 2 X s 1374 380 m 6 X s 1374 411 m 6 X s 1370 395 m 5 Y s 1384 395 m 5 Y s 1377 398 m20 1391 411 m 8 Y s 1391 430 m
 6 Y s 1384 424 m 1 X s 1396 424 m 1 X s 1388 411 m 5 X s 1388 436 m 5 X s 1384 422 m 5 Y s 1397 422 m 5 Y s 1391 424 m20 1404 416 m 7 Y s 1404 435 m 5 Y s 1397 429 m 2 X s 1410 429 m 1 X s 1402 416 m 5 X s 1402 440 m 5 X s 1397 426 m 6 Y s 1411 426
 m 6 Y s 1404 429 m20 1418 413 m 8 Y s 1418 432 m 6 Y s 1411 427 m 1 X s 1424 427 m 1 X s 1415 413 m 6 X s 1415 438 m 6 X s 1411 424 m 6 Y s 1425 424 m 6 Y s 1418 427 m20 1432 380 m 12 Y s 1432 403 m 8 Y s 1425 398 m 1 X s 1438 398 m 1 X s 1429 380 m
 6 X s 1429 411 m 6 X s 1425 395 m 5 Y s 1439 395 m 5 Y s 1432 398 m20 1446 431 m 6 Y s 1446 449 m 4 Y s 1439 443 m 1 X s 1451 443 m 2 X s 1443 431 m 6 X s 1443 453 m 6 X s 1439 440 m 6 Y s 1453 440 m 6 Y s 1446 443 m20 1460 427 m 7 Y s 1460 445 m 4
 Y s 1453 439 m 1 X s 1465 439 m 1 X s 1457 427 m 5 X s 1457 449 m 5 X s 1453 437 m 5 Y s 1466 437 m 5 Y s 1460 439 m20 1473 442 m 5 Y s 1473 459 m 3 Y s 1466 453 m 2 X s 1479 453 m 1 X s 1470 442 m 6 X s 1470 462 m 6 X s 1466 450 m 6 Y s 1480 450 m
 6 Y s 1473 453 m20 1487 437 m 6 Y s 1487 454 m 4 Y s 1480 448 m 1 X s 1493 448 m 1 X s 1484 437 m 6 X s 1484 458 m 6 X s 1480 445 m 6 Y s 1494 445 m 6 Y s 1487 448 m20 1501 416 m 7 Y s 1501 435 m 5 Y s 1494 429 m 1 X s 1507 429 m 1 X s 1498 416 m 6
 X s 1498 440 m 6 X s 1494 426 m 6 Y s 1508 426 m 6 Y s 1501 429 m20 1515 442 m 5 Y s 1515 459 m 3 Y s 1508 453 m 1 X s 1520 453 m 2 X s 1512 442 m 5 X s 1512 462 m 5 X s 1508 450 m 6 Y s 1522 450 m 6 Y s 1515 453 m20 1528 482 m 2 Y s 1528 496 m 1 Y
 s 1522 490 m 1 X s 1534 490 m 1 X s 1526 482 m 5 X s 1526 497 m 5 X s 1522 487 m 6 Y s 1535 487 m 6 Y s 1528 490 m20 1542 478 m 2 Y s 1542 491 m 2 Y s 1535 486 m 2 X s 1548 486 m 1 X s 1539 478 m 6 X s 1539 493 m 6 X s 1535 483 m 6 Y s 1549 483 m 6
 Y s 1542 486 m20 1556 481 m 3 Y s 1556 495 m 1 Y s 1549 489 m 1 X s 1562 489 m 1 X s 1553 481 m 6 X s 1553 496 m 6 X s 1549 486 m 6 Y s 1563 486 m 6 Y s 1556 489 m20 1570 492 m 1 Y s 1570 505 m s 1563 499 m 1 X s 1575 499 m 2 X s 1567 492 m 6 X s
 1567 505 m 6 X s 1563 496 m 6 Y s 1577 496 m 6 Y s 1570 499 m20 1584 508 m 1 Y s 1584 520 m s 1577 515 m 1 X s 1589 515 m 1 X s 1581 508 m 5 X s 1581 520 m 5 X s 1577 512 m 5 Y s 1590 512 m 5 Y s 1584 515 m20 1597 518 m s 1590 524 m 2 X s 1603 524 m
 1 X s 1595 518 m 5 X s 1590 521 m 5 Y s 1604 521 m 5 Y s 1597 524 m20 1604 557 m 1 X s 1617 557 m 1 X s 1604 554 m 6 Y s 1618 554 m 6 Y s 1611 557 m20 1618 560 m 1 X s 1631 560 m 1 X s 1618 557 m 5 Y s 1632 557 m 5 Y s 1625 560 m20 1632 591 m 1 X s
 1644 591 m 2 X s 1632 588 m 6 Y s 1646 588 m 6 Y s 1639 591 m20 1646 605 m 1 X s 1658 605 m 1 X s 1646 602 m 5 Y s 1659 602 m 5 Y s 1653 605 m20 1659 637 m 2 X s 1672 637 m 1 X s 1659 634 m 6 Y s 1673 634 m 6 Y s 1666 637 m20 1673 653 m 1 X s 1686
 653 m 1 X s 1673 650 m 6 Y s 1687 650 m 6 Y s 1680 653 m20 1687 675 m 1 X s 1700 675 m 1 X s 1687 672 m 6 Y s 1701 672 m 6 Y s 1694 675 m20 1701 684 m 1 X s 1713 684 m 2 X s 1701 681 m 6 Y s 1715 681 m 6 Y s 1708 684 m20 1715 686 m 1 X s 1727 686 m
 1 X s 1715 684 m 5 Y s 1728 684 m 5 Y s 1721 686 m20 1728 669 m 2 X s 1741 669 m 1 X s 1728 666 m 6 Y s 1742 666 m 6 Y s 1735 669 m20 1742 645 m 1 X s 1755 645 m 1 X s 1742 642 m 6 Y s 1756 642 m 6 Y s 1749 645 m20 1756 619 m 1 X s 1769 619 m 1 X s
 1756 616 m 6 Y s 1770 616 m 6 Y s 1763 619 m20 1770 588 m 1 X s 1782 588 m 2 X s 1770 585 m 6 Y s 1784 585 m 6 Y s 1777 588 m20 1784 560 m 1 X s 1796 560 m 1 X s 1784 557 m 5 Y s 1797 557 m 5 Y s 1790 560 m20 1797 544 m 2 X s 1810 544 m 1 X s 1797
 541 m 6 Y s 1811 541 m 6 Y s 1804 544 m20 1818 515 m s 1811 521 m 1 X s 1824 521 m 1 X s 1815 515 m 6 X s 1811 518 m 6 Y s 1825 518 m 6 Y s 1818 521 m20 1832 495 m 2 Y s 1832 508 m 1 Y s 1825 502 m 1 X s 1837 502 m 2 X s 1829 495 m 6 X s 1829 509 m
 6 X s 1825 500 m 5 Y s 1839 500 m 5 Y s 1832 502 m20 1846 476 m 2 Y s 1846 490 m 1 Y s 1839 484 m 1 X s 1851 484 m 1 X s 1843 476 m 5 X s 1843 491 m 5 X s 1839 481 m 6 Y s 1852 481 m 6 Y s 1846 484 m20 1859 466 m 3 Y s 1859 481 m 2 Y s 1852 475 m 2
 X s 1865 475 m 1 X s 1857 466 m 5 X s 1857 483 m 5 X s 1852 472 m 6 Y s 1866 472 m 6 Y s 1859 475 m20 1873 452 m 4 Y s 1873 467 m 3 Y s 1866 462 m 1 X s 1879 462 m 1 X s 1870 452 m 6 X s 1870 470 m 6 X s 1866 459 m 5 Y s 1880 459 m 5 Y s 1873 462
 m20 1887 447 m 5 Y s 1887 463 m 3 Y s 1880 457 m 1 X s 1893 457 m 1 X s 1884 447 m 6 X s 1884 466 m 6 X s 1880 455 m 5 Y s 1894 455 m 5 Y s 1887 457 m20 1901 433 m 6 Y s 1901 451 m 4 Y s 1894 445 m 1 X s 1906 445 m 2 X s 1898 433 m 6 X s 1898 455 m
 6 X s 1894 442 m 6 Y s 1908 442 m 6 Y s 1901 445 m20 1914 423 m 7 Y s 1914 441 m 5 Y s 1908 435 m 1 X s 1920 435 m 1 X s 1912 423 m 5 X s 1912 446 m 5 X s 1908 433 m 5 Y s 1921 433 m 5 Y s 1914 435 m20 1928 402 m 9 Y s 1928 422 m 7 Y s 1921 417 m 2
 X s 1934 417 m 1 X s 1925 402 m 6 X s 1925 429 m 6 X s 1921 414 m 5 Y s 1935 414 m 5 Y s 1928 417 m20 1942 340 m 19 Y s 1942 370 m 12 Y s 1935 364 m 1 X s 1948 364 m 1 X s 1939 340 m 6 X s 1939 382 m 6 X s 1935 361 m 6 Y s 1949 361 m 6 Y s 1942 364
 m20 1956 399 m 9 Y s 1956 420 m 6 Y s 1949 414 m 1 X s 1962 414 m 1 X s 1953 399 m 6 X s 1953 426 m 6 X s 1949 411 m 6 Y s 1963 411 m 6 Y s 1956 414 m20 1970 332 m 20 Y s 1970 363 m 13 Y s 1963 358 m 1 X s 1975 358 m 2 X s 1967 332 m 5 X s 1967 376
 m 5 X s 1963 355 m 5 Y s 1977 355 m 5 Y s 1970 358 m20 1983 395 m 10 Y s 1983 417 m 6 Y s 1977 411 m 1 X s 1989 411 m 1 X s 1981 395 m 5 X s 1981 423 m 5 X s 1977 408 m 6 Y s 1990 408 m 6 Y s 1983 411 m20 1997 366 m 14 Y s 1997 391 m 9 Y s 1990 385
 m 2 X s 2003 385 m 1 X s 1994 366 m 6 X s 1994 400 m 6 X s 1990 383 m 5 Y s 2004 383 m 5 Y s 1997 385 m20 2011 340 m 19 Y s 2011 370 m 12 Y s 2004 364 m 1 X s 2017 364 m 1 X s 2008 340 m 6 X s 2008 382 m 6 X s 2004 361 m 6 Y s 2018 361 m 6 Y s 2011
 364 m20 2025 366 m 14 Y s 2025 391 m 9 Y s 2018 385 m 1 X s 2030 385 m 2 X s 2022 366 m 6 X s 2022 400 m 6 X s 2018 383 m 5 Y s 2032 383 m 5 Y s 2025 385 m20 2039 380 m 12 Y s 2039 403 m 8 Y s 2032 398 m 1 X s 2044 398 m 1 X s 2036 380 m 5 X s 2036
 411 m 5 X s 2032 395 m 5 Y s 2045 395 m 5 Y s 2039 398 m20 2052 371 m 13 Y s 2052 395 m 9 Y s 2045 390 m 2 X s 2058 390 m 1 X s 2050 371 m 5 X s 2050 404 m 5 X s 2045 387 m 6 Y s 2059 387 m 6 Y s 2052 390 m20 2066 332 m 20 Y s 2066 363 m 13 Y s 2059
 358 m 1 X s 2072 358 m 1 X s 2063 332 m 6 X s 2063 376 m 6 X s 2059 355 m 5 Y s 2073 355 m 5 Y s 2066 358 m20 2080 354 m 16 Y s 2080 381 m 11 Y s 2073 376 m 1 X s 2086 376 m 1 X s 2077 354 m 6 X s 2077 392 m 6 X s 2073 373 m 6 Y s 2087 373 m 6 Y s
 2080 376 m20 2094 340 m 19 Y s 2094 370 m 12 Y s 2087 364 m 1 X s 2099 364 m 2 X s 2091 340 m 6 X s 2091 382 m 6 X s 2087 361 m 6 Y s 2101 361 m 6 Y s 2094 364 m20 2108 312 m 24 Y s 2108 348 m 14 Y s 2101 342 m 1 X s 2113 342 m 1 X s 2105 312 m 5 X
 s 2105 362 m 5 X s 2101 339 m 6 Y s 2114 339 m 6 Y s 2108 342 m20 1 1 1 c black 1556 118 m 96 Y s 1556 225 m 38 Y s 1549 219 m 1 X s 1562 219 m 1 X s 1553 118 m 6 X s 1553 263 m 6 X s 1549 217 m 5 Y s 1563 217 m 5 Y s 1556 219 m24 1694 118 m 96 Y s
 1694 225 m 38 Y s 1687 219 m 1 X s 1700 219 m 1 X s 1691 118 m 6 X s 1691 263 m 6 X s 1687 217 m 5 Y s 1701 217 m 5 Y s 1694 219 m24 0 0 1 c[ 12 12] 0 sd 6 lw 1577 118 m 525 Y s 1852 118 m 525 Y s black[  ] 0 sd 3 lw 1 1 1 c 272 268 1320 654 bf
 black
 gsave  1088 1072 1157 11 C 1386.46 874.164 t 0 r /Helvetica findfont 39.7652 sf 0 0 m (OC data: 12790) show NC gr  1354 889 m20
 gsave  1088 1072 1157 11 C 1386.46 807.466 t 0 r /Helvetica findfont 39.7652 sf 0 0 m (SC data: 2) show NC gr  1354 822 m24
 gsave  1088 1072 1157 11 C 1386.46 740.768 t 0 r /Helvetica findfont 39.7652 sf 0 0 m (OC MC: 27449) show NC gr  1 0 0 c 1354 755 m20 black
 gsave  1088 1072 1157 11 C 1386.46 674.071 t 0 r /Helvetica findfont 39.7652 sf 0 0 m (SC MC: 1) show NC gr  1 0 0 c 1354 688 m24 black
 gsave  1088 1072 1157 11 C 1700.08 901.126 t 0 r /Helvetica-Bold findfont 59.6478 sf 0 0 m (pp collisions) show NC gr 
 gr  gr showpage
end
%%EOF
