%!PS-Adobe-2.0 EPSF-2.0
%%BoundingBox:  0 0 567 274
%%Title: /home/petr/Analysis_iwona/SFAnalysis/eps/Zmass_mumu_MEcuts__MSTree_can.eps: Results
%%Creator: ROOT Version 6.16/00
%%CreationDate: Thu Apr  4 11:06:43 2019
%%DocumentNeededResources: ProcSet (FontSetInit)
%%EndComments
%%BeginProlog
80 dict begin
/s {stroke} def /l {lineto} def /m {moveto} def /t {translate} def
/r {rotate} def /rl {roll}  def /R {repeat} def
/d {rlineto} def /rm {rmoveto} def /gr {grestore} def /f {eofill} def
/c {setrgbcolor} def /black {0 setgray} def /sd {setdash} def
/cl {closepath} def /sf {scalefont setfont} def /lw {setlinewidth} def
/box {m dup 0 exch d exch 0 d 0 exch neg d cl} def
/NC{systemdict begin initclip end}def/C{NC box clip newpath}def
/bl {box s} def /bf {gsave box gsave f grestore 1 lw [] 0 sd s grestore} def /Y { 0 exch d} def /X { 0 d} def 
/K {{pop pop 0 moveto} exch kshow} bind def
/ita {/ang 15 def gsave [1 0 ang dup sin exch cos div 1 0 0] concat} def 
/mp {newpath /y exch def /x exch def} def
/side {[w .77 mul w .23 mul] .385 w mul sd w 0 l currentpoint t -144 r} def
/mr {mp x y w2 0 360 arc} def /m24 {mr s} def /m20 {mr f} def
/mb {mp x y w2 add m w2 neg 0 d 0 w neg d w 0 d 0 w d cl} def
/mt {mp x y w2 add m w2 neg w neg d w 0 d cl} def
/w4 {w 4 div} def
/w6 {w 6 div} def
/w8 {w 8 div} def
/m21 {mb f} def /m25 {mb s} def /m22 {mt f} def /m26{mt s} def
/m23 {mp x y w2 sub m w2 w d w neg 0 d cl f} def
/m27 {mp x y w2 add m w3 neg w2 neg d w3 w2 neg d w3 w2 d cl s} def
/m28 {mp x w2 sub y w2 sub w3 add m w3 0 d  0 w3 neg d w3 0 d 0 w3 d w3 0 d  0 w3 d w3 neg 0 d 0 w3 d w3 neg 0 d 0 w3 neg d w3 neg 0 d cl s } def
/m29 {mp gsave x w2 sub y w2 add w3 sub m currentpoint t 4 {side} repeat cl fill gr} def
/m30 {mp gsave x w2 sub y w2 add w3 sub m currentpoint t 4 {side} repeat cl s gr} def
/m31 {mp x y w2 sub m 0 w d x w2 sub y m w 0 d x w2 sub y w2 add m w w neg d x w2 sub y w2 sub m w w d s} def
/m32 {mp x y w2 sub m w2 w d w neg 0 d cl s} def
/m33 {mp x y w2 add m w3 neg w2 neg d w3 w2 neg d w3 w2 d cl f} def
/m34 {mp x w2 sub y w2 sub w3 add m w3 0 d  0 w3 neg d w3 0 d 0 w3 d w3 0 d  0 w3 d w3 neg 0 d 0 w3 d w3 neg 0 d 0 w3 neg d w3 neg 0 d cl f } def
/m35 {mp x y w2 add m w2 neg w2 neg d w2 w2 neg d w2 w2 d w2 neg w2 d x y w2 sub m 0 w d x w2 sub y m w 0 d s} def
/m36 {mb x w2 sub y w2 add m w w neg d x w2 sub y w2 sub m w w d s} def
/m37 {mp x y m w4 neg w2 d w4 neg w2 neg d w2 0 d  w4 neg w2 neg d w2 0 d w4 neg w2 d w2 0 d w4 neg w2 d w4 neg w2 neg d cl s} def
/m38 {mp x w4 sub y w2 add m w4 neg w4 neg d 0 w2 neg d w4 w4 neg d w2 0 d w4 w4 d 0 w2 d w4 neg w4 d w2 neg 0 d x y w2 sub m 0 w d x w2 sub y m w 0 d cl s} def
/m39 {mp x y m w4 neg w2 d w4 neg w2 neg d w2 0 d  w4 neg w2 neg d w2 0 d w4 neg w2 d w2 0 d w4 neg w2 d w4 neg w2 neg d cl f} def
/m40 {mp x y m w4 w2 d w4 w4 neg d w2 neg w4 neg d w2 w4 neg d w4 neg w4 neg d w4 neg w2 d w4 neg w2 neg d w4 neg w4 d w2 w4 d w2 neg w4 d w4 w4 d w4 w2 neg d cl s} def
/m41 {mp x y m w4 w2 d w4 w4 neg d w2 neg w4 neg d w2 w4 neg d w4 neg w4 neg d w4 neg w2 d w4 neg w2 neg d w4 neg w4 d w2 w4 d w2 neg w4 d w4 w4 d w4 w2 neg d cl f} def
/m42 {mp x y w2 add m w8 neg w2 -3 4 div mul d w2 -3 4 div mul w8 neg d w2 3 4 div mul w8 neg d w8 w2 -3 4 div mul d w8 w2 3 4 div mul d w2 3 4 div mul w8 d w2 -3 4 div mul w8 d w8 neg w2 3 4 div mul d cl s} def
/m43 {mp x y w2 add m w8 neg w2 -3 4 div mul d w2 -3 4 div mul w8 neg d w2 3 4 div mul w8 neg d w8 w2 -3 4 div mul d w8 w2 3 4 div mul d w2 3 4 div mul w8 d w2 -3 4 div mul w8 d w8 neg w2 3 4 div mul d cl f} def
/m44 {mp x y m w6 neg w2 d w2 2 3 div mul 0 d w6 neg w2 neg d w2 w6 d 0 w2 -2 3 div mul d w2 neg w6 d w6 w2 neg d w2 -2 3 div mul 0 d w6 w2 d w2 neg w6 neg d 0 w2 2 3 div mul d w2 w6 neg d cl s} def
/m45 {mp x y m w6 neg w2 d w2 2 3 div mul 0 d w6 neg w2 neg d w2 w6 d 0 w2 -2 3 div mul d w2 neg w6 d w6 w2 neg d w2 -2 3 div mul 0 d w6 w2 d w2 neg w6 neg d 0 w2 2 3 div mul d w2 w6 neg d cl f} def
/m46 {mp x y w4 add m w4 neg w4 d w4 neg w4 neg d  w4 w4 neg d w4 neg w4 neg d w4 w4 neg d w4 w4 d w4 w4 neg d w4 w4 d w4 neg w4 d w4 w4 d w4 neg w4 d w4 neg w4 neg d cl s} def
/m47 {mp x y w4 add m w4 neg w4 d w4 neg w4 neg d w4 w4 neg d w4 neg w4 neg d  w4 w4 neg d w4 w4 d w4 w4 neg d w4 w4 d w4 neg w4 d w4 w4 d w4 neg w4 d w4 neg w4 neg d cl f} def
/m48 {mp x y w4 add m w4 neg w4 d w4 neg w4 neg d w4 w4 neg d  w4 neg w4 neg d w4 w4 neg d w4 w4 d w4 w4 neg d w4 w4 d w4 neg w4 d w4 w4 d w4 neg w4 d w4 neg w4 neg d  w4 w4 neg d w4 neg w4 neg d w4 neg w4 d w4 w4 d cl f} def
/m49 {mp x w2 sub w3 add y w2 sub w3 add m  0 w3 neg d w3 0 d 0 w3 d w3 0 d 0 w3 d w3 neg 0 d 0 w3 d w3 neg 0 d 0 w3 neg d w3 neg 0 d 0 w3 neg d w3 0 d 0 w3 d w3 0 d 0 w3 neg d w3 neg 0 d cl f } def
/m2 {mp x y w2 sub m 0 w d x w2 sub y m w 0 d s} def
/m5 {mp x w2 sub y w2 sub m w w d x w2 sub y w2 add m w w neg d s} def
%%IncludeResource: ProcSet (FontSetInit)
%%IncludeResource: font Times-Roman
%%IncludeResource: font Times-Italic
%%IncludeResource: font Times-Bold
%%IncludeResource: font Times-BoldItalic
%%IncludeResource: font Helvetica
%%IncludeResource: font Helvetica-Oblique
%%IncludeResource: font Helvetica-Bold
%%IncludeResource: font Helvetica-BoldOblique
%%IncludeResource: font Courier
%%IncludeResource: font Courier-Oblique
%%IncludeResource: font Courier-Bold
%%IncludeResource: font Courier-BoldOblique
%%IncludeResource: font Symbol
%%IncludeResource: font ZapfDingbats
/reEncode {exch findfont dup length dict begin {1 index /FID eq  {pop pop} {def} ifelse } forall /Encoding exch def currentdict end dup /FontName get exch definefont pop } def [/Times-Bold /Times-Italic /Times-BoldItalic /Helvetica /Helvetica-Oblique
 /Helvetica-Bold /Helvetica-BoldOblique /Courier /Courier-Oblique /Courier-Bold /Courier-BoldOblique /Times-Roman /AvantGarde-Book /AvantGarde-BookOblique /AvantGarde-Demi /AvantGarde-DemiOblique /Bookman-Demi /Bookman-DemiItalic /Bookman-Light
 /Bookman-LightItalic /Helvetica-Narrow /Helvetica-Narrow-Bold /Helvetica-Narrow-BoldOblique /Helvetica-Narrow-Oblique /NewCenturySchlbk-Roman /NewCenturySchlbk-Bold /NewCenturySchlbk-BoldItalic /NewCenturySchlbk-Italic /Palatino-Bold
 /Palatino-BoldItalic /Palatino-Italic /Palatino-Roman ] {ISOLatin1Encoding reEncode } forall
%%EndProlog
%%BeginSetup
%%EndSetup
newpath  gsave  .25 .25 scale  gsave  0 0 t black[  ] 0 sd 3 lw 1 1 1 c 2268 1094 0 0 bf black 1 1 1 c 1088 1072 23 11 bf black 1 1 1 c 828 858 153 118 bf black 828 858 153 118 bl 1 1 1 c 828 858 153 118 bf black 828 858 153 118 bl 1 0 0 c 1 1 1 c 1
 0 0 c 443 252 m 1 X s 455 252 m 2 X s /w 12 def /w2 {w 2 div} def /w3 {w 3 div} def 450 252 m20 457 274 m 1 X s 469 274 m 1 X s 464 274 m20 470 292 m 2 X s 483 292 m 1 X s 477 292 m20 484 311 m 1 X s 497 311 m 1 X s 491 311 m20 498 355 m 1 X s 511
 355 m 1 X s 505 355 m20 512 397 m 1 X s 524 397 m 2 X s 519 397 m20 526 431 m 1 X s 538 431 m 1 X s 532 431 m20 539 467 m 2 X s 552 467 m 1 X s 546 467 m20 553 498 m 1 X s 566 498 m 1 X s 560 498 m20 567 513 m 1 X s 579 513 m 2 X s 574 513 m20 581
 507 m 1 X s 593 507 m 2 X s 588 507 m20 595 487 m 1 X s 607 487 m 1 X s 601 487 m20 608 455 m 2 X s 621 455 m 1 X s 615 455 m20 622 408 m 1 X s 635 408 m 1 X s 629 408 m20 636 359 m 1 X s 648 359 m 2 X s 643 359 m20 650 309 m 1 X s 662 309 m 1 X s
 657 309 m20 663 270 m 2 X s 676 270 m 1 X s 670 270 m20 677 251 m 1 X s 690 251 m 1 X s 684 251 m20 698 214 m 1 Y s 698 226 m 1 Y s 691 221 m 1 X s 704 221 m 1 X s 698 221 m20 712 188 m 2 Y s 712 201 m 1 Y s 705 195 m 1 X s 717 195 m 2 X s 712 195
 m20 black 153 118 m 828 X s 153 143 m -25 Y s 181 130 m -12 Y s 208 130 m -12 Y s 236 130 m -12 Y s 264 130 m -12 Y s 291 143 m -25 Y s 319 130 m -12 Y s 346 130 m -12 Y s 374 130 m -12 Y s 401 130 m -12 Y s 429 143 m -25 Y s 457 130 m -12 Y s 484
 130 m -12 Y s 512 130 m -12 Y s 539 130 m -12 Y s 567 143 m -25 Y s 595 130 m -12 Y s 622 130 m -12 Y s 650 130 m -12 Y s 677 130 m -12 Y s 705 143 m -25 Y s 732 130 m -12 Y s 760 130 m -12 Y s 788 130 m -12 Y s 815 130 m -12 Y s 843 143 m -25 Y s
 870 130 m -12 Y s 898 130 m -12 Y s 925 130 m -12 Y s 953 130 m -12 Y s 981 143 m -25 Y s
 gsave  1088 1072 23 11 C 133.395 83.7267 t 0 r /Helvetica findfont 35.5047 sf 0 0 m (60) show NC gr 
 gsave  1088 1072 23 11 C 271.047 83.7267 t 0 r /Helvetica findfont 35.5047 sf 0 0 m (70) show NC gr 
 gsave  1088 1072 23 11 C 408.7 83.7267 t 0 r /Helvetica findfont 35.5047 sf 0 0 m (80) show NC gr 
 gsave  1088 1072 23 11 C 546.352 83.7267 t 0 r /Helvetica findfont 35.5047 sf 0 0 m (90) show NC gr 
 gsave  1088 1072 23 11 C 674.071 83.7267 t 0 r /Helvetica findfont 35.5047 sf 0 0 m (100) show NC gr 
 gsave  1088 1072 23 11 C 811.723 83.7267 t 0 r /Helvetica findfont 35.5047 sf 0 0 m (110) show NC gr 
 gsave  1088 1072 23 11 C 949.376 83.7267 t 0 r /Helvetica findfont 35.5047 sf 0 0 m (120) show NC gr 
 gsave  1088 1072 23 11 C 852.877 32.6392 t 0 r /Helvetica findfont 45.446 sf 0 0 m ( [GeV]) show NC gr 
 gsave  1088 1072 23 11 C 835.848 24.1246 t 0 r /Symbol findfont 29.8239 sf 0 0 m (m) show NC gr 
 gsave  1088 1072 23 11 C 818.819 24.1246 t 0 r /Symbol findfont 29.8239 sf 0 0 m (m) show NC gr 
 gsave  1088 1072 23 11 C 783.341 32.6392 t 0 r /Helvetica findfont 45.446 sf 0 0 m (M) show NC gr  153 118 m 858 Y s 166 126 m -13 X s 166 155 m -13 X s 166 178 m -13 X s 166 196 m -13 X s 166 211 m -13 X s 166 225 m -13 X s 166 237 m -13 X s 179
 247 m -26 X s
 gsave  1088 1072 23 11 C 131.976 246.923 t 0 r /Helvetica findfont 22.723 sf 0 0 m (2) show NC gr 
 gsave  1088 1072 23 11 C 119.204 246.923 t 0 r /Symbol findfont 22.723 sf 0 0 m (-) show NC gr 
 gsave  1088 1072 23 11 C 83.7267 232.732 t 0 r /Helvetica findfont 32.6643 sf 0 0 m (10) show NC gr  166 317 m -13 X s 166 358 m -13 X s 166 387 m -13 X s 166 409 m -13 X s 166 427 m -13 X s 166 443 m -13 X s 166 456 m -13 X s 166 468 m -13 X s 179
 479 m -26 X s
 gsave  1088 1072 23 11 C 136.233 478.236 t 0 r /Helvetica findfont 22.723 sf 0 0 m (1) show NC gr 
 gsave  1088 1072 23 11 C 123.461 478.236 t 0 r /Symbol findfont 22.723 sf 0 0 m (-) show NC gr 
 gsave  1088 1072 23 11 C 87.984 464.045 t 0 r /Helvetica findfont 32.6643 sf 0 0 m (10) show NC gr  166 548 m -13 X s 166 589 m -13 X s 166 618 m -13 X s 166 640 m -13 X s 166 659 m -13 X s 166 674 m -13 X s 166 688 m -13 X s 166 699 m -13 X s 179
 710 m -26 X s
 gsave  1088 1072 23 11 C 131.976 698.196 t 0 r /Helvetica findfont 32.6643 sf 0 0 m (1) show NC gr  166 780 m -13 X s 166 820 m -13 X s 166 849 m -13 X s 166 872 m -13 X s 166 890 m -13 X s 166 906 m -13 X s 166 919 m -13 X s 166 931 m -13 X s 179
 941 m -26 X s
 gsave  1088 1072 23 11 C 109.27 929.508 t 0 r /Helvetica findfont 32.6643 sf 0 0 m (10) show NC gr 
 gsave  1088 1072 23 11 C 65.2785 648.527 t 90 r /Helvetica findfont 45.446 sf 0 0 m (Entries / Integral) show NC gr  1 0 0 c 1 1 1 c 1 0 0 c 450 366 m 118 Y s 450 495 m 48 Y s 443 489 m 1 X s 455 489 m 2 X s 450 489 m24 477 118 m 296 Y s 477 425 m
 64 Y s 470 420 m 2 X s 483 420 m 1 X s 477 420 m24 491 366 m 118 Y s 491 495 m 48 Y s 484 489 m 1 X s 497 489 m 1 X s 491 489 m24 505 489 m 64 Y s 505 565 m 35 Y s 498 559 m 1 X s 511 559 m 1 X s 505 559 m24 532 118 m 296 Y s 532 425 m 64 Y s 526
 420 m 1 X s 538 420 m 1 X s 532 420 m24 560 366 m 118 Y s 560 495 m 48 Y s 553 489 m 1 X s 566 489 m 1 X s 560 489 m24 588 118 m 296 Y s 588 425 m 64 Y s 581 420 m 1 X s 593 420 m 2 X s 588 420 m24 601 118 m 296 Y s 601 425 m 64 Y s 595 420 m 1 X s
 607 420 m 1 X s 601 420 m24 615 118 m 296 Y s 615 425 m 64 Y s 608 420 m 2 X s 621 420 m 1 X s 615 420 m24 657 118 m 296 Y s 657 425 m 64 Y s 650 420 m 1 X s 662 420 m 1 X s 657 420 m24 670 118 m 296 Y s 670 425 m 64 Y s 663 420 m 2 X s 676 420 m 1
 X s 670 420 m24 698 118 m 296 Y s 698 425 m 64 Y s 691 420 m 1 X s 704 420 m 1 X s 698 420 m24 black 1 1 1 c black 1 1 1 c black 0 0 1 c[ 12 12] 0 sd 6 lw 443 118 m 361 Y s 719 118 m 361 Y s black[  ] 0 sd 3 lw 1 1 1 c 272 268 186 654 bf black
 gsave  1088 1072 23 11 C 252.599 874.164 t 0 r /Helvetica findfont 39.7652 sf 0 0 m (OC data: 0) show NC gr  220 889 m20
 gsave  1088 1072 23 11 C 252.599 807.466 t 0 r /Helvetica findfont 39.7652 sf 0 0 m (SC data: 0) show NC gr  220 822 m24
 gsave  1088 1072 23 11 C 252.599 740.768 t 0 r /Helvetica findfont 39.7652 sf 0 0 m (OC MC: 31864) show NC gr  1 0 0 c 220 755 m20 black
 gsave  1088 1072 23 11 C 252.599 674.071 t 0 r /Helvetica findfont 39.7652 sf 0 0 m (SC MC: 18) show NC gr  1 0 0 c 220 688 m24 black
 gsave  1088 1072 23 11 C 566.22 901.126 t 0 r /Helvetica-Bold findfont 59.6478 sf 0 0 m (pp collisions) show NC gr  1 1 1 c 1088 1072 1157 11 bf black 1 1 1 c 827 858 1287 118 bf black 827 858 1287 118 bl 1 1 1 c 827 858 1287 118 bf black 827 858
 1287 118 bl 1 0 0 c 1 1 1 c 1 0 0 c 1577 252 m 1 X s 1589 252 m 1 X s 1584 252 m20 1590 274 m 2 X s 1603 274 m 1 X s 1597 274 m20 1604 292 m 1 X s 1617 292 m 1 X s 1611 292 m20 1618 311 m 1 X s 1631 311 m 1 X s 1625 311 m20 1632 355 m 1 X s 1644 355
 m 2 X s 1639 355 m20 1646 397 m 1 X s 1658 397 m 1 X s 1653 397 m20 1659 431 m 2 X s 1672 431 m 1 X s 1666 431 m20 1673 467 m 1 X s 1686 467 m 1 X s 1680 467 m20 1687 498 m 1 X s 1700 498 m 1 X s 1694 498 m20 1701 513 m 1 X s 1713 513 m 2 X s 1708
 513 m20 1715 507 m 1 X s 1727 507 m 1 X s 1721 507 m20 1728 487 m 2 X s 1741 487 m 1 X s 1735 487 m20 1742 455 m 1 X s 1755 455 m 1 X s 1749 455 m20 1756 408 m 1 X s 1769 408 m 1 X s 1763 408 m20 1770 359 m 1 X s 1782 359 m 2 X s 1777 359 m20 1784
 309 m 1 X s 1796 309 m 1 X s 1790 309 m20 1797 270 m 2 X s 1810 270 m 1 X s 1804 270 m20 1811 251 m 1 X s 1824 251 m 1 X s 1818 251 m20 1832 214 m 1 Y s 1832 226 m 1 Y s 1825 221 m 1 X s 1837 221 m 2 X s 1832 221 m20 1846 188 m 2 Y s 1846 201 m 1 Y
 s 1839 195 m 1 X s 1851 195 m 1 X s 1846 195 m20 black 1287 118 m 827 X s 1287 143 m -25 Y s 1315 130 m -12 Y s 1342 130 m -12 Y s 1370 130 m -12 Y s 1397 130 m -12 Y s 1425 143 m -25 Y s 1453 130 m -12 Y s 1480 130 m -12 Y s 1508 130 m -12 Y s 1535
 130 m -12 Y s 1563 143 m -25 Y s 1590 130 m -12 Y s 1618 130 m -12 Y s 1646 130 m -12 Y s 1673 130 m -12 Y s 1701 143 m -25 Y s 1728 130 m -12 Y s 1756 130 m -12 Y s 1784 130 m -12 Y s 1811 130 m -12 Y s 1839 143 m -25 Y s 1866 130 m -12 Y s 1894
 130 m -12 Y s 1921 130 m -12 Y s 1949 130 m -12 Y s 1977 143 m -25 Y s 2004 130 m -12 Y s 2032 130 m -12 Y s 2059 130 m -12 Y s 2087 130 m -12 Y s 2114 143 m -25 Y s
 gsave  1088 1072 1157 11 C 1267.25 83.7267 t 0 r /Helvetica findfont 35.5047 sf 0 0 m (60) show NC gr 
 gsave  1088 1072 1157 11 C 1404.91 83.7267 t 0 r /Helvetica findfont 35.5047 sf 0 0 m (70) show NC gr 
 gsave  1088 1072 1157 11 C 1542.56 83.7267 t 0 r /Helvetica findfont 35.5047 sf 0 0 m (80) show NC gr 
 gsave  1088 1072 1157 11 C 1680.21 83.7267 t 0 r /Helvetica findfont 35.5047 sf 0 0 m (90) show NC gr 
 gsave  1088 1072 1157 11 C 1807.93 83.7267 t 0 r /Helvetica findfont 35.5047 sf 0 0 m (100) show NC gr 
 gsave  1088 1072 1157 11 C 1945.58 83.7267 t 0 r /Helvetica findfont 35.5047 sf 0 0 m (110) show NC gr 
 gsave  1088 1072 1157 11 C 2083.23 83.7267 t 0 r /Helvetica findfont 35.5047 sf 0 0 m (120) show NC gr 
 gsave  1088 1072 1157 11 C 1986.74 32.6392 t 0 r /Helvetica findfont 45.446 sf 0 0 m ( [GeV]) show NC gr 
 gsave  1088 1072 1157 11 C 1969.71 24.1246 t 0 r /Symbol findfont 29.8239 sf 0 0 m (m) show NC gr 
 gsave  1088 1072 1157 11 C 1952.68 24.1246 t 0 r /Symbol findfont 29.8239 sf 0 0 m (m) show NC gr 
 gsave  1088 1072 1157 11 C 1917.2 32.6392 t 0 r /Helvetica findfont 45.446 sf 0 0 m (M) show NC gr  1287 118 m 858 Y s 1300 126 m -13 X s 1300 155 m -13 X s 1300 178 m -13 X s 1300 196 m -13 X s 1300 211 m -13 X s 1300 225 m -13 X s 1300 237 m -13 X
 s 1313 247 m -26 X s
 gsave  1088 1072 1157 11 C 1265.83 246.923 t 0 r /Helvetica findfont 22.723 sf 0 0 m (2) show NC gr 
 gsave  1088 1072 1157 11 C 1253.06 246.923 t 0 r /Symbol findfont 22.723 sf 0 0 m (-) show NC gr 
 gsave  1088 1072 1157 11 C 1217.58 232.732 t 0 r /Helvetica findfont 32.6643 sf 0 0 m (10) show NC gr  1300 317 m -13 X s 1300 358 m -13 X s 1300 387 m -13 X s 1300 409 m -13 X s 1300 427 m -13 X s 1300 443 m -13 X s 1300 456 m -13 X s 1300 468 m
 -13 X s 1313 479 m -26 X s
 gsave  1088 1072 1157 11 C 1270.09 478.236 t 0 r /Helvetica findfont 22.723 sf 0 0 m (1) show NC gr 
 gsave  1088 1072 1157 11 C 1257.32 478.236 t 0 r /Symbol findfont 22.723 sf 0 0 m (-) show NC gr 
 gsave  1088 1072 1157 11 C 1221.84 464.045 t 0 r /Helvetica findfont 32.6643 sf 0 0 m (10) show NC gr  1300 548 m -13 X s 1300 589 m -13 X s 1300 618 m -13 X s 1300 640 m -13 X s 1300 659 m -13 X s 1300 674 m -13 X s 1300 688 m -13 X s 1300 699 m
 -13 X s 1313 710 m -26 X s
 gsave  1088 1072 1157 11 C 1265.83 698.196 t 0 r /Helvetica findfont 32.6643 sf 0 0 m (1) show NC gr  1300 780 m -13 X s 1300 820 m -13 X s 1300 849 m -13 X s 1300 872 m -13 X s 1300 890 m -13 X s 1300 906 m -13 X s 1300 919 m -13 X s 1300 931 m -13
 X s 1313 941 m -26 X s
 gsave  1088 1072 1157 11 C 1243.13 929.508 t 0 r /Helvetica findfont 32.6643 sf 0 0 m (10) show NC gr 
 gsave  1088 1072 1157 11 C 1199.14 648.527 t 90 r /Helvetica findfont 45.446 sf 0 0 m (Entries / Integral) show NC gr  1 0 0 c 1 1 1 c 1 0 0 c 1584 366 m 118 Y s 1584 495 m 48 Y s 1577 489 m 1 X s 1589 489 m 1 X s 1584 489 m24 1611 118 m 296 Y s
 1611 425 m 64 Y s 1604 420 m 1 X s 1617 420 m 1 X s 1611 420 m24 1625 366 m 118 Y s 1625 495 m 48 Y s 1618 489 m 1 X s 1631 489 m 1 X s 1625 489 m24 1639 489 m 64 Y s 1639 565 m 35 Y s 1632 559 m 1 X s 1644 559 m 2 X s 1639 559 m24 1666 118 m 296 Y
 s 1666 425 m 64 Y s 1659 420 m 2 X s 1672 420 m 1 X s 1666 420 m24 1694 366 m 118 Y s 1694 495 m 48 Y s 1687 489 m 1 X s 1700 489 m 1 X s 1694 489 m24 1721 118 m 296 Y s 1721 425 m 64 Y s 1715 420 m 1 X s 1727 420 m 1 X s 1721 420 m24 1735 118 m 296
 Y s 1735 425 m 64 Y s 1728 420 m 2 X s 1741 420 m 1 X s 1735 420 m24 1749 118 m 296 Y s 1749 425 m 64 Y s 1742 420 m 1 X s 1755 420 m 1 X s 1749 420 m24 1790 118 m 296 Y s 1790 425 m 64 Y s 1784 420 m 1 X s 1796 420 m 1 X s 1790 420 m24 1804 118 m
 296 Y s 1804 425 m 64 Y s 1797 420 m 2 X s 1810 420 m 1 X s 1804 420 m24 1832 118 m 296 Y s 1832 425 m 64 Y s 1825 420 m 1 X s 1837 420 m 2 X s 1832 420 m24 black 1 1 1 c black 1 1 1 c black 0 0 1 c[ 12 12] 0 sd 6 lw 1577 118 m 361 Y s 1852 118 m
 361 Y s black[  ] 0 sd 3 lw 1 1 1 c 272 268 1320 654 bf black
 gsave  1088 1072 1157 11 C 1386.46 874.164 t 0 r /Helvetica findfont 39.7652 sf 0 0 m (OC data: 0) show NC gr  1354 889 m20
 gsave  1088 1072 1157 11 C 1386.46 807.466 t 0 r /Helvetica findfont 39.7652 sf 0 0 m (SC data: 0) show NC gr  1354 822 m24
 gsave  1088 1072 1157 11 C 1386.46 740.768 t 0 r /Helvetica findfont 39.7652 sf 0 0 m (OC MC: 31864) show NC gr  1 0 0 c 1354 755 m20 black
 gsave  1088 1072 1157 11 C 1386.46 674.071 t 0 r /Helvetica findfont 39.7652 sf 0 0 m (SC MC: 18) show NC gr  1 0 0 c 1354 688 m24 black
 gsave  1088 1072 1157 11 C 1700.08 901.126 t 0 r /Helvetica-Bold findfont 59.6478 sf 0 0 m (pp collisions) show NC gr 
 gr  gr showpage
end
%%EOF
